KEY,English,French,German,Italian,Spanish,Portuguese
taptocontinue,Tap to Continue,Taper pour Continuer,Tippe um fortzufahren,premere per continuare,Toca aquí para continuar,Toca para Continuar
selectstory,Select Story,Sélectionner histoire,Wähle eine Geschichte aus,Seleziona storia,Selecciona Historia,Seleciona História
getitnow,Get it now!,Récupérez maintenant !,Hol es dir jetzt!,Ottienilo subito!,¡Obtenlo ahora!,Vê também!
chaptercomplete,Chapter Complete!,Chapitre terminé !,Kapitel abgeschlossen!,Capitolo completato!,¡Capítulo Completo!,Capítulo Completo!
youhaveearned,You've earned,Vous avez gagné,Verdient wurde,hai guadagnato,Has ganado,Ganhaste
collectreward,Collect Reward,Collecte de récompense,Sammeln Sie Belohnung,raccogli ricompensa,Recoger recompensa,Recolher Prémio
likethisgame,Like this game?,Votre,Ihre,Il tuo,Tu,Seu
tellusmore,Tell us more!,Commentaire,Feedback,Feedback,Comentarios,Opinião
please,Please!,S’il vous plait !,Bitte!,Per favore!,¡Por favor!,Por favor!
rateus,Rate Us!,Évaluer-nous !,Bewerte uns!,Valuta la nostra applicazione!,¡Califícanos!,Avalia-nos!
feedback,Feedback,Commentaire,Feedback,feedback,Comentarios,Opinião
pleaseshare,Please share your feedback to make Friends Forever better!,Veuillez partager votre commentaire pour toujours mieux vous faire des amis !,"Bitte teile dein Feedback, um Friends Forever zu verbessern!",Ti preghiamo di condividire il tuo feedback con Friends Forever per aiutarci a migliorarlo!,Por favor comparte tus comentarios para que Friends Forever sea mejor!,Partilha a tua opinião para melhorarmos o Friends Forever!
choose,Choose,Choisir,Wählen,scegli,Elije,Escolher
girl,Girl,Fille,Mädchen,ragazza,Chica,Rapariga
boy,Boy,Garçon,Junge,ragazzo,Chico,Rapaz
below13,Below 13,Moins de 13,Unter 13,sotto i 13 anni,Menor de 13,Menos de 13
above21,Above 21,Plus de 21,Über 21,oltre i 21 anni,Mayor de 21,Mais de 21
submit,Submit,Envoyer,Abschicken,invia,Enviar,Enviar
later,Later,Plus tard,Später,dopo,Más tarde,Mais tarde
settings,Settings,Paramètres,Einstellungen,impostazioni,Configuración,Definições
whatsapptext,"Live a crazy adventure with Friends Forever, where you are the star! Choose your path and build your story. Download Friends Forever from the Play store here.",Vivez une aventure délirante avec les Friends Forever où vous êtes la Star ! Choisissez votre chemin et construisez votre histoire. Téléchargez les Friends Forever à partir de Play Store ici.,"Erlebe verrücktes Abenteuer mit Friends Forever, indem du der Star bist! Wähle deinen Weg und erschaffe deine Geschichte. Lade Friends Forever aus dem Play Store hier herunter.","Vivi un'incredibile avventura con Friends Forever, in cui tu sei la stella! Scegli il tuo percorso e costruisci la tua storia. Scarica Friends Forever dal Play store.","¡Vive una loca aventura con Friends Forever, donde tú eres la estrella! Elige tu camino y construye tu historia. Descarga Friends Forever en Play store aquí.","Vive uma aventura excitante com o Friends Forever, onde tu és a estrela!
Escolhe o teu caminho e cria a tua história. Transfere o Friends Forever desta loja Play."
outoftime,You are out of time!,Vous manquez de temps !,Die Zeit ist abgelaufen!,Tempo scaduto!,¡Se agotó el tiempo!,Já esgotaste o tempo!
getmoretime,Get more time,Obtenez plus de temps,Hol dir mehr Zeit,ottieni più tempo,Conseguir más tiempo,Consegue mais tempo
watch,Watch a,Regardez une,Sehen a,guarda un,Ver un,Vê um
video,video,vidéo,Video,video,vídeo,vídeo
watchvideo,Watch a video,Regardez une vidéo,Sieh das Video an,guarda un video,Ver un vídeo,Vê um vídeo
getmorecoins,Get more coins,Obtenez plus de pièces,Hol dir mehr Münzen,ottieni più monete,Obtener más monedas,Recebe mais moedas
tryagain,Try again,Réessayez,Versuch es noch einmal,riprova,Intentar de nuevo,Tenta novamente
outofmoves,You are out of moves!,Vous manquez de coups !,Du hast keine Züge mehr über!,Mosse terminate!,¡Se agotaron los movimientos!,Já não tens jogadas!
getmoves,Get moves,Obtenez des coups,Hol ir mehr Züge,ottieni mosse,Obtener movimientos,Conseguir jogadas
getmoremoves,Get more moves,Obtenez plus de coups,Erhalte mehr Züge,ottieni più mosse,Obtener más movimientos,Receber mais jogadas
getnextmovein,Get next move in,Obtenez le coup suivant,Du erhälst den nächsten Zug in,ottieni la prossima mossa tra,Obtener siguiente movimiento,Recebe a próxima jogada daqui a
movesawarded,Congrats! You've been awarded 2 moves,Félicitations ! Il vous a été attribué 2 coups,Glückwunsch! Du wurdest mit 2 Zügen belohnt,Congratulazioni! Hai vinto 2 mosse,¡Felicitaciones! Has ganado 2 movimientos,Parabéns! Recebeste 2 jogadas
okay,OK,OK,OK,OK,OK,OK
getcoins,Get Coins,Obtenez des pièces,Hol dir Münzen,ottieni monete,Obtener monedas,Receber moedas
coinsawarded,Congrats! You've been awarded 50 coins.,Félicitations ! Il vous a été attribué 50 coups,Glückwunsch! Sie wurden mit 50 Münzen belohnt.,Congratulazioni! Hai ottenuto 50 monete,¡Felicitaciones! Has ganado 50 monedas.,Parabéns! Recebeste 50 moedas
outofcoins,You are out of coins!,Vous manquez des pièces !,Du hast keine Münzen mehr!,monete terminate!,¡Se agotaron las monedas!,Já não tens moedas!
store,Store,Magasin,Speichern,Negozio,Guardar,Loja
moves,Moves,Coups,Züge,mosse,Movimientos,Jogadas
coins,Coins,Pièces,Münzen,monete terminate!,Monedas,Moedas
back,Back,Retour,Zurück,indietro,Regresar,Voltar
bestdeal,Best Deal,Meilleure affaire,Bestes Angebot,migliore offerta,Mejor oferta,Melhor Oferta
loading1story1,Crazy Teen Life only gets better...hang on!,Crazy Teen Life ne fait que s'améliorer... accrochez-vous !,,Crazy teen life non fa che migliorare...Attendi un attimo!,Aún queda lo mejor de Crazy Teen Life… ¡no te vayas a ningún sitio!,Crazy Teen Life fica cada vez melhor... espere para ver!
loading2story1,"BFFs make it worth the wait, isn't it?","Les meilleurs amis valent le coût d'attendre, n'est-ce pas ?",,I migliori amici fan si che l'attesa ne valga la pena? O no?,"Las amigas hacen que esperar valga la pena, ¿verdad?","As melhores amigas fazem a espera valer a pena, não é?"
loading3story1,The secrets are going to reveal in no time!,Les secrets vont être révélés dans très peu de temps !,,I segreti saranno rivelati a breve!,¡Los secretos se revelarán dentro de muy poco!,Os segredos serão revelados daqui a pouco!
loading4story1,Who will catch your fancy in high school?,Qui va t'intéresser au lycée ?,,Chi ti verrà dietro alle superiori?,¿Quién atrapará tu corazón en el instituto?,Quem vai chamar a sua atenção no Ensino Médio?
loading5story1,"A couple more seconds of wait, and your story will begin... :)","Quelques secondes d'attente de plus, et ton histoire va commencer... :)",,"Un altro paio di secondo d'attesa, e la tua storia avrà inizio... :)",Un par de segundos más de espera y tu historia empezará… :),Mais alguns segundos de espera e a sua história irá começar... :)
loading1story2,A lot is going to unfold in Latte.Love.Life...Hang on!,Beaucoup de choses vont se dérouler dans Latte.Love.Life ... accrochez-vous !,,Molte cose verranno rivelate in Latte.Amore.Vita...Attendi un attimo!,"Van a pasar muchas cosas en Latte, Love, Life… ¡Ya verás!",Muitas coisas vão se desdobrar em Latte.Love.Life... Aguarde!
loading2story2,"Just a couple of seconds, and your story will begin!","Juste quelques secondes de plus, et ton histoire va commencer !",,"Solo un paio di secondi, e la tua storia avrà inizio!",¡Sólo un par de segundos más y tu historia empezará!,Só mais alguns segundos de espera e a sua história irá começar!
loading3story2,Read on to find out the perfect end to your story.,Continuez à lire pour trouver la fin parfaite à votre histoire.,,Continua a leggere per trovare il perfetto finale alla tua storia.,Sigue leyendo para encontrar el final perfecto a tu historia.,Continue lendo para descobrir o final perfeito para a sua história.
loading4story2,Don't miss out on the secrets and interesting tidbits!,Ne manquez pas les secrets et les informations intéressante !,,Non perderti i segreti e gli interessantissimi spettegolezzi!,¡No te pierdas los secretos ni las curiosidades!,Não perca os segredos e curiosidades interessantes!
loading5story2,"Your latte is almost ready, give it a few more seconds!","Votre café est presque prêt, donnez-lui quelques secondes de plus !",,"Il tuo latte è quasi pronto, dagli qualche altro secondo!","Tu latte casi está listo, ¡dales unos segundos más!","Seu latte está quase pronte, espere só mais alguns segundos!"
loading1story3,Are you one of the gifted too? Read and find out!,Êtes-vous talentueux aussi ? Lisez et découvrez-le !,,Anche tu sei dotato? Leggi e scoprilo!,¿Eres uno de los dotados? ¡Léelo y averígualo!,Você também é um dos que têm dons? Leia e descubra!
loading2story3,A few more seconds and we’ll be at Mc Grants!,Quelques secondes de plus et nous serons à Mc Grants !,,Qualche altro secondo e saremo di ritorno al Mc Grants!,¡Unos segundos más y estaremos en Mc Grants!,Mais alguns segundos e você estará no Mc Grants!
loading3story3,Can Mira be trusted? Beware of who you befriend!,Peux-tu avoir confiance en Mira ? Fais attention à avec qui tu deviens ami !,,Ci si può fidare di Mira? Fai attenzione di chi diventi amico!,¿Se puede confiar en Mira? ¡Ten cuidado de con quien haces amistad!,Será que se pode confiar na Mira? Cuidado com quem você faz amizade!
loading4story3,We’re almost there… to uncover Valerie’s secrets!,On est presque bon... pour découvrir les secrets de Valerie !,,Ci siamo quasi...A scoprire i segreti di Valerie!,Ya casi hemos llegado… ¡a la revelación de los secretos de Valerie!,Estamos quase lá... para descobrir os segredos de Valerie!
loading5story3,Hang on! The truth will be unveiled soon.,Accrochez-vous ! La vérité va être dévoilée bientôt.,,Attendi un attimo! la verità verrà svelata preso.,¡Mantente atenta! La verdad se revelará pronto.,Aguente firme! A verdade será revelada em breve.
loading1story4,Liam or Federico? Who is the guy for you?,Liam ou Federico ? Qui est le gars pour toi ?,,Liam o Federico? Chi è il ragazzo per te?,¿Liam o Federico? ¿Quién es el chico perfecto para ti?,Liam ou Frederico? Quem é o cara certo para você?
loading2story4,Hang on… We’re preparing to get back at Lizzie!,Accrochez-vous... On se prépare à revenir à Lizzie !,,Attendi un attimo... Ci stiamo preparando per tornare da Lizzie!,Un momento… ¡Nos estamos preparando para vengarnos de Lizzie!,Espere um pouco... Estamos nos preparando para voltar a Lizzie!
loading3story4,Who do you think deserves a second chance?,Qui mérite une seconde chance selon vous ?,,Chi pensi che meriti una seconda possibilità?,¿Quién crees que merece una segunda oportunidad?,Quem você acha que merece uma segunda chance?
loading4story4,Hold on… We’re loading up on the jello :p,Tenez bon... On achète de la gelée :p,,Rimani lì...Stiamo preparando la gelatina :p,Un momento… Estamos cargando la gelatina :p,Aguarde... Estamos caprichando na gelatina :p
loading5story4,Almost there… for more gossip at Daleside High!,C'est presque bon... pour plus de ragots à Daleside High !,,Ci siamo quasi...Per altro gossip a Daleside High!,Ya casi estamos listos… ¡para más cotilleo en Daleside High!,Quase lá... para mais fofocas na Daleside High!
loading1story5,Do you think you can escape their ever watchful eyes?,Attend… On est en train de charger un peu plus de peurs et de frissons!,,Pensi di poter sfuggire agli occhi sempre vigili?,Espera… ¡Estamos cargando más sorpresas y sustos!,Acha que consegue escapar dos olhos que sempre vigiam?
loading2story5,Hang on... We're loading up on more thrills and scares!,Matty ou Noah? Avec qui vas-tu finir?,,Aspetta... ci stiamo facendo molti film.,¿Matty o Noah? ¿De quién te enamorarás?,Espere... Estamos carregando mais aventuras aterrorizantes!
loading3story5,Matty or Noah? Who will you fall for?,Ils arrivent! Es-tu prêts pour eux?,,Matty o Noah? Di chi sei innamorata?,¡Ya vienen! ¿Estás listo?,Matty ou Noah? Por quem vai se apaixonar?
loading4story5,They're coming! Are you ready for them?,On y est presque… Pour un nouveau cauchemar!,,Stanno arrivando! Sei pronta per loro?,Ya casi estamos… ¡listos para otra pesadilla!,Eles estão vindo! Você está pronto?
loading5story5,Almost there...  For another nightmare!,Tu crois que tu peux esquiver leurs regards attentifs?,,Ci siamo quasi... per un altro incubo!,¿Crees que puedes escapar de sus ojos observadores?,Quase lá... Outro pesadelo!
loading1story6,Every conversation is a trail. Pay attention!,Chaque conversation est une piste. Soyez attentifs !,,Ogni conversazione è una pista. Fai attenzione!,Cada conversación es una pista. ¡Pon atención!,Toda conversa deixa pistas. Prestem atenção!
loading2story6,Whose secrets will be out next?,À qui appartiendra le prochain secret dévoilé ?,,Quale segreto sarà il prossimo ad uscire?,¿De quién serán los siguientes secretos?,De quem será o próximo segredo?
loading3story6,How safe is your cyber space?,Jusqu'où est protégé ton espace virtuel ?,,Quanto è sicuro il tuo cyberspazio?,¿Cómo de seguro es tu ciberespacio?,Será que a internet é segura mesmo?
loading4story6,Loading: Resources from Periwinkle_High.,Chargement : Les ressources du Lycée Periwinkle,,Caricamento: Risorse del Periwinkle_High.,Cargando: Suministros de Periwinkle_High.,Carregando: Dados_da_Periwinkle_High...
loading5story6,You're being watched. Stay safe!,On t'espionne. Reste prudent !,,Ti stanno guardando. Rimani al sicuro!,Te están vigilando. ¡Ten cuidado!,Você está sendo vigiada. Cuidado!
loading6story6,Can you really trust ALL your friends?,Peux-tu vraiment faire confiance à TOUS tes amis ?,,Puoi davvero fidarti di TUTTI i tuoi amici?,¿De verdad puedes confiar en TODOS tus amigos?,Você pode mesmo confiar em TODOS os seus amigos?
loading1story7,Will Rebecca ever follow her heart?,Rebecca suivra-t-elle toujours son coeur ?,,,¿Seguirá Rebecca a su corazón?,Rebecca seguirá seu coração?
loading2story7,Will Jessica learn to believe in herself?,Jessica apprendra-t-elle à croire en elle ?,,,¿Aprenderá Jessica a creer en sí misma?,Jessica vai aprender a acreditar em si mesma?
loading3story7,Hold on! Love is finding its way to you!,Attends ! L'amour est en train de trouver son chemin vers toi !,,,¡No te vayas! ¡El amor está encontrado el camino hasta ti!,Aguarde! O amor fará seu caminho até você!
loading4story7,What joys will the switch bring to the girls’ lives?,Quelles joies cet échange apportera-t-il à la vie des filles ?,,,¿Qué dichas traerá el intercambio a las vidas de estas chicas?,Que alegrias essa troca trará para as meninas?
loading5story7,A few more moments...Love needs time to build.,Encore quelques instants...L'amour a besoin de temps pour se construire.,,,Un momento más… El amor tiene que crecer.,Só mais alguns instantes... O amor precisa de tempo.
selectyouravatar,SELECT YOUR AVATAR,SÉLECTIONNEZ VOTRE AVATAR,,SELEZIONA IL TUO PERSONAGGIO,SELECCIONA TU AVATAR,SELECIONE O SEU AVATAR
enteryourname,ENTER YOUR \nNAME,ENTREZ VOTRE \nNOM,,INSERISCI IL TUO NOME,INTRODUCE TU NOMBRE,INSIRA O SEU \nNOME
entername,Enter name,Entrez un nom,,Inserisci nome,Introducir nombre,Inserir nome
translatequestion,This story was written especially for you in Portuguese. Is the language accurate?,Cette histoire à été écrite spécialement pour vous en Français. La langue est-elle correcte ?,,Questa storia è stata scritta appositamente per te in Italiano. Pensi che sia stata accurata?,Esta historia se ha escrito especialmente para ti en Español. ¿Es correcto el texto?,"Esta história foi escrita especialmente para você, em português. O idioma está certo?"
translatequestion1,Please tell us how we can improve the language!,S'il vous plaît dites-nous comment nous pouvons améliorer la langue !,,Per favore dicci come migliorare la lingua!,"¡Por favor, dinos cómo podemos mejorar el texto!","Por favor, nos diga como podemos melhorar a linguagem!"
ratethisstory,RATE THIS STORY,ÉVALUEZ CETTE HISTOIRE,,VOTA QUESTA STORIA,PUNTÚA ESTA HISTORIA,AVALIE ESTA HISTÓRIA
sharefeedback,Please share your feedback about this story to make freinds forever better!!,S'il vous plaît partagez vos impressions sur l'histoire pour améliorer Friends Forever !!,,Per favore condividi la tua opinione riguardo questa storia per rendere migliore Friends Forever!!,"¡¡Por favor, comparte tu feedback sobre esta historia para mejorar Friends Forever!!","Por favor, compartilhe seu feedback sobre esta história para deixar o Friends Forever ainda melhor!!"
suggeststory,Suggest a Story,Suggérer une histoire,,Suggerisci una storia,Sugiere una historia,Sugira uma história
suggeststoryplaceholder,"BE IT MYSTERY, ROMANCE OR COMEDY - TELL US YOUR PREFERRED GENRE! WE'LL BE MORE THAN HAPPY TO WORK ON YOUR FEEDBACK.","QUE CE SOIT MYSTÈRE, ROMANCE OU COMÉDIE - DITES NOUS VOTRE GENRE PRÉFÉRÉ ! NOUS SERIONS PLUS QUE CONTENT DE TRAVAILLER SUR VOS REMARQUES.",,"RENDILO UN MISTERO, UN ROMANZO O UNA COMMEDIA - DICCI IL TUO GENERE PREFERITO! SAREMO PIÙ CHE FELICI DI LAVORARE SUL TUO FEEDBACK.","YA SEA MISTERIO, ROMANCE O COMEDIA - ¡DINOS CUÁL ES TU TEMÁTICA FAVORITA! ESTAREMOS ENCANTADOS DE TRABAJAR CON TU FEEDBACK.","PODE SER MISTÉRIO, ROMANCE OU COMÉDIA - CONTE QUAL É O SEU GÊNERO FAVORITO! SERÁ UM PRAZER TRABALHARMOS DE ACORDO COM SEU FEEDBACK."
languagechange,GREAT! We need to restart the Chapter so that your language change appears in the game!,GÉNIAL! Nous devons redémarrer le Chapitre afin que votre changement de langue apparaisse dans le jeu!,,GRANDE! Dobbiamo riavviare il capitolo in modo che il tuo cambiamento di lingua appare nel gioco!,¡ESTUPENDO! Necesitamos reiniciar el Capítulo para que su cambio de idioma aparezca en el juego!,ÓTIMO! Precisamos reiniciar o Capítulo para que a sua mudança de idioma apareça no jogo!
