%YAML 1.1
%TAG !u! tag:unity3d.com,2011:
--- !u!74 &7400000
AnimationClip:
  m_ObjectHideFlags: 0
  m_PrefabParentObject: {fileID: 0}
  m_PrefabInternal: {fileID: 0}
  m_Name: MaleConfusion
  serializedVersion: 6
  m_Legacy: 0
  m_Compressed: 0
  m_UseHighQualityCurve: 1
  m_RotationCurves: []
  m_CompressedRotationCurves: []
  m_EulerCurves:
  - curve:
      serializedVersion: 2
      m_Curve:
      - time: 0
        value: {x: 0, y: 0, z: 0}
        inSlope: {x: 0, y: 0, z: 4.706599}
        outSlope: {x: 0, y: 0, z: 4.706599}
        tangentMode: 0
      - time: 0.73333335
        value: {x: 0, y: 0, z: 3.4515061}
        inSlope: {x: 0, y: 0, z: 2.3398147}
        outSlope: {x: 0, y: 0, z: 2.3398147}
        tangentMode: 0
      - time: 0.98333335
        value: {x: 0, y: 0, z: 3.4447637}
        inSlope: {x: 0, y: 0, z: -3.0922487}
        outSlope: {x: 0, y: 0, z: -3.0922487}
        tangentMode: 0
      - time: 1.4833333
        value: {x: 0, y: 0, z: 0.36600003}
        inSlope: {x: 0, y: 0, z: -3.4329574}
        outSlope: {x: 0, y: 0, z: -3.4329574}
        tangentMode: 0
      - time: 2
        value: {x: 0, y: 0, z: 0}
        inSlope: {x: 0, y: 0, z: -0.7083872}
        outSlope: {x: 0, y: 0, z: -0.7083872}
        tangentMode: 0
      m_PreInfinity: 2
      m_PostInfinity: 2
      m_RotationOrder: 4
    path: Body/Torso/TorsoUpper
  - curve:
      serializedVersion: 2
      m_Curve:
      - time: 0
        value: {x: 0, y: 0, z: 0}
        inSlope: {x: 0, y: 0, z: -58.419315}
        outSlope: {x: 0, y: 0, z: -58.419315}
        tangentMode: 0
      - time: 0.96666664
        value: {x: 0, y: 0, z: -56.472004}
        inSlope: {x: 0, y: 0, z: -1.8844929}
        outSlope: {x: 0, y: 0, z: -1.8844929}
        tangentMode: 0
      - time: 2
        value: {x: 0, y: 0, z: 0}
        inSlope: {x: 0, y: 0, z: 54.65033}
        outSlope: {x: 0, y: 0, z: 54.65033}
        tangentMode: 0
      m_PreInfinity: 2
      m_PostInfinity: 2
      m_RotationOrder: 4
    path: Body/Torso/TorsoUpper/LeftArm
  - curve:
      serializedVersion: 2
      m_Curve:
      - time: 0
        value: {x: 0, y: 0, z: 0}
        inSlope: {x: 0, y: 0, z: 29.184477}
        outSlope: {x: 0, y: 0, z: 29.184477}
        tangentMode: 0
      - time: 0.73333335
        value: {x: 0, y: 0, z: 27.037638}
        inSlope: {x: 0, y: 0, z: 22.011778}
        outSlope: {x: 0, y: 0, z: 22.011778}
        tangentMode: 0
      - time: 0.98333335
        value: {x: 0, y: 0, z: 28.698069}
        inSlope: {x: 0, y: 0, z: -11.348235}
        outSlope: {x: 0, y: 0, z: -11.348235}
        tangentMode: 0
      - time: 1.4833333
        value: {x: 0, y: 0, z: 2.757595}
        inSlope: {x: 0, y: 0, z: -28.609114}
        outSlope: {x: 0, y: 0, z: -28.609114}
        tangentMode: 0
      - time: 2
        value: {x: 0, y: 0, z: 0}
        inSlope: {x: 0, y: 0, z: -5.3372808}
        outSlope: {x: 0, y: 0, z: -5.3372808}
        tangentMode: 0
      m_PreInfinity: 2
      m_PostInfinity: 2
      m_RotationOrder: 4
    path: Body/Torso/TorsoUpper/LeftArm/LeftForearm/LeftHand
  - curve:
      serializedVersion: 2
      m_Curve:
      - time: 0
        value: {x: 0, y: 0, z: 0}
        inSlope: {x: 0, y: 0, z: -2.595}
        outSlope: {x: 0, y: 0, z: -2.595}
        tangentMode: 0
      - time: 0.73333335
        value: {x: 0, y: 0, z: -1.9030001}
        inSlope: {x: 0, y: 0, z: 15.498502}
        outSlope: {x: 0, y: 0, z: 15.498502}
        tangentMode: 0
      - time: 0.98333335
        value: {x: 0, y: 0, z: 6.4950004}
        inSlope: {x: 0, y: 0, z: 6.066001}
        outSlope: {x: 0, y: 0, z: 6.066001}
        tangentMode: 0
      - time: 1.2333333
        value: {x: 0, y: 0, z: 1.13}
        inSlope: {x: 0, y: 0, z: -8.526}
        outSlope: {x: 0, y: 0, z: -8.526}
        tangentMode: 0
      - time: 1.4833333
        value: {x: 0, y: 0, z: 2.232}
        inSlope: {x: 0, y: 0, z: 0.04400015}
        outSlope: {x: 0, y: 0, z: 0.04400015}
        tangentMode: 0
      - time: 2
        value: {x: 0, y: 0, z: 0}
        inSlope: {x: 0, y: 0, z: -4.32}
        outSlope: {x: 0, y: 0, z: -4.32}
        tangentMode: 0
      m_PreInfinity: 2
      m_PostInfinity: 2
      m_RotationOrder: 4
    path: Body/Torso/TorsoUpper/RightArm
  - curve:
      serializedVersion: 2
      m_Curve:
      - time: 0
        value: {x: 0, y: 0, z: -1.2980001}
        inSlope: {x: 0, y: 0, z: 0.31233934}
        outSlope: {x: 0, y: 0, z: 0.31233934}
        tangentMode: 0
      - time: 0.73333335
        value: {x: 0, y: 0, z: -1.0689512}
        inSlope: {x: 0, y: 0, z: 1.4635115}
        outSlope: {x: 0, y: 0, z: 1.4635115}
        tangentMode: 0
      - time: 0.98333335
        value: {x: 0, y: 0, z: -0.41528034}
        inSlope: {x: 0, y: 0, z: 1.6066222}
        outSlope: {x: 0, y: 0, z: 1.6066222}
        tangentMode: 0
      - time: 1.4833333
        value: {x: 0, y: 0, z: -0.116000004}
        inSlope: {x: 0, y: 0, z: -0.8445907}
        outSlope: {x: 0, y: 0, z: -0.8445907}
        tangentMode: 0
      - time: 2
        value: {x: 0, y: 0, z: -1.2980001}
        inSlope: {x: 0, y: 0, z: -2.2877421}
        outSlope: {x: 0, y: 0, z: -2.2877421}
        tangentMode: 0
      m_PreInfinity: 2
      m_PostInfinity: 2
      m_RotationOrder: 4
    path: Body/Torso/TorsoUpper/Neck
  - curve:
      serializedVersion: 2
      m_Curve:
      - time: 0
        value: {x: 0, y: 0, z: -0.5814636}
        inSlope: {x: 0, y: 0, z: 2.8322065}
        outSlope: {x: 0, y: 0, z: 2.8322065}
        tangentMode: 0
      - time: 0.73333335
        value: {x: 0, y: 0, z: 1.4954878}
        inSlope: {x: 0, y: 0, z: 0.33763993}
        outSlope: {x: 0, y: 0, z: 0.33763993}
        tangentMode: 0
      - time: 0.98333335
        value: {x: 0, y: 0, z: 0.95625615}
        inSlope: {x: 0, y: 0, z: -2.649183}
        outSlope: {x: 0, y: 0, z: -2.649183}
        tangentMode: 0
      - time: 1.4833333
        value: {x: 0, y: 0, z: -0.61446357}
        inSlope: {x: 0, y: 0, z: -1.5387843}
        outSlope: {x: 0, y: 0, z: -1.5387843}
        tangentMode: 0
      - time: 2
        value: {x: 0, y: 0, z: -0.5814636}
        inSlope: {x: 0, y: 0, z: 0.06387095}
        outSlope: {x: 0, y: 0, z: 0.06387095}
        tangentMode: 0
      m_PreInfinity: 2
      m_PostInfinity: 2
      m_RotationOrder: 4
    path: Body/Torso/TorsoUpper/Neck/Head
  - curve:
      serializedVersion: 2
      m_Curve:
      - time: 0
        value: {x: 0, y: 0, z: 0}
        inSlope: {x: 0, y: 0, z: -26.077372}
        outSlope: {x: 0, y: 0, z: -26.077372}
        tangentMode: 0
      - time: 0.5833333
        value: {x: 0, y: 0, z: -15.2118}
        inSlope: {x: 0, y: 0, z: 0}
        outSlope: {x: 0, y: 0, z: 0}
        tangentMode: 0
      - time: 1.5
        value: {x: 0, y: 0, z: -15.2118}
        inSlope: {x: 0, y: 0, z: 0}
        outSlope: {x: 0, y: 0, z: 0}
        tangentMode: 0
      - time: 2
        value: {x: 0, y: 0, z: 0}
        inSlope: {x: 0, y: 0, z: 30.4236}
        outSlope: {x: 0, y: 0, z: 30.4236}
        tangentMode: 0
      m_PreInfinity: 2
      m_PostInfinity: 2
      m_RotationOrder: 4
    path: Body/Torso/TorsoUpper/Neck/Head/Face/Left/LeftEyebrow
  - curve:
      serializedVersion: 2
      m_Curve:
      - time: 0
        value: {x: 0, y: 0, z: 0}
        inSlope: {x: 0, y: 0, z: 39.041145}
        outSlope: {x: 0, y: 0, z: 39.041145}
        tangentMode: 0
      - time: 0.5833333
        value: {x: 0, y: 0, z: 22.774}
        inSlope: {x: 0, y: 0, z: 0}
        outSlope: {x: 0, y: 0, z: 0}
        tangentMode: 0
      - time: 1.5
        value: {x: 0, y: 0, z: 22.774}
        inSlope: {x: 0, y: 0, z: 0}
        outSlope: {x: 0, y: 0, z: 0}
        tangentMode: 0
      - time: 2
        value: {x: 0, y: 0, z: 0}
        inSlope: {x: 0, y: 0, z: -45.548}
        outSlope: {x: 0, y: 0, z: -45.548}
        tangentMode: 0
      m_PreInfinity: 2
      m_PostInfinity: 2
      m_RotationOrder: 4
    path: Body/Torso/TorsoUpper/Neck/Head/Face/Right/RightEyebrow
  - curve:
      serializedVersion: 2
      m_Curve:
      - time: 0
        value: {x: 0, y: 0, z: -3.782}
        inSlope: {x: 0, y: 0, z: 1.1140908}
        outSlope: {x: 0, y: 0, z: 1.1140908}
        tangentMode: 0
      - time: 0.73333335
        value: {x: 0, y: 0, z: -2.9650002}
        inSlope: {x: 0, y: 0, z: -4.196955}
        outSlope: {x: 0, y: 0, z: -4.196955}
        tangentMode: 0
      - time: 0.98333335
        value: {x: 0, y: 0, z: -5.3420005}
        inSlope: {x: 0, y: 0, z: -3.9640002}
        outSlope: {x: 0, y: 0, z: -3.9640002}
        tangentMode: 0
      - time: 1.4833333
        value: {x: 0, y: 0, z: -4.552}
        inSlope: {x: 0, y: 0, z: 1.5351617}
        outSlope: {x: 0, y: 0, z: 1.5351617}
        tangentMode: 0
      - time: 2
        value: {x: 0, y: 0, z: -3.782}
        inSlope: {x: 0, y: 0, z: 1.4903226}
        outSlope: {x: 0, y: 0, z: 1.4903226}
        tangentMode: 0
      m_PreInfinity: 2
      m_PostInfinity: 2
      m_RotationOrder: 4
    path: Body/Waist
  - curve:
      serializedVersion: 2
      m_Curve:
      - time: 0
        value: {x: 0, y: 0, z: 0}
        inSlope: {x: 0, y: 0, z: -34.382565}
        outSlope: {x: 0, y: 0, z: -34.382565}
        tangentMode: 0
      - time: 0.55
        value: {x: 0, y: 0, z: -18.91041}
        inSlope: {x: 0, y: 0, z: 0}
        outSlope: {x: 0, y: 0, z: 0}
        tangentMode: 0
      - time: 1.3833332
        value: {x: 0, y: 0, z: -18.91041}
        inSlope: {x: 0, y: 0, z: 0}
        outSlope: {x: 0, y: 0, z: 0}
        tangentMode: 0
      - time: 2
        value: {x: 0, y: 0, z: 0}
        inSlope: {x: 0, y: 0, z: 30.665524}
        outSlope: {x: 0, y: 0, z: 30.665524}
        tangentMode: 0
      m_PreInfinity: 2
      m_PostInfinity: 2
      m_RotationOrder: 4
    path: Body/Torso/TorsoUpper/RightArm/RightForearm
  - curve:
      serializedVersion: 2
      m_Curve:
      - time: 0
        value: {x: 0, y: 0, z: 0}
        inSlope: {x: 0, y: 0, z: -180.3228}
        outSlope: {x: 0, y: 0, z: -180.3228}
        tangentMode: 0
      - time: 0.78333336
        value: {x: 0, y: 0, z: -141.25287}
        inSlope: {x: 0, y: 0, z: -5.4871035}
        outSlope: {x: 0, y: 0, z: -5.4871035}
        tangentMode: 0
      - time: 1.65
        value: {x: 0, y: 0, z: -141.25287}
        inSlope: {x: 0, y: 0, z: 15.654751}
        outSlope: {x: 0, y: 0, z: 15.654751}
        tangentMode: 0
      - time: 2
        value: {x: 0, y: 0, z: 0}
        inSlope: {x: 0, y: 0, z: 403.5796}
        outSlope: {x: 0, y: 0, z: 403.5796}
        tangentMode: 0
      m_PreInfinity: 2
      m_PostInfinity: 2
      m_RotationOrder: 4
    path: Body/Torso/TorsoUpper/LeftArm/LeftForearm
  m_PositionCurves:
  - curve:
      serializedVersion: 2
      m_Curve:
      - time: 0
        value: {x: 0.054000854, y: 0.2729988, z: 0}
        inSlope: {x: -0.0054557095, y: -0.099543825, z: 0}
        outSlope: {x: -0.0054557095, y: -0.099543825, z: 0}
        tangentMode: 0
      - time: 0.73333335
        value: {x: 0.05, y: 0.2, z: 0}
        inSlope: {x: -0.0027278548, y: -0.20977193, z: 0}
        outSlope: {x: -0.0027278548, y: -0.20977193, z: 0}
        tangentMode: 0
      - time: 0.98333335
        value: {x: 0.05, y: 0.12, z: 0}
        inSlope: {x: 0.001967633, y: -0.0847547, z: 0}
        outSlope: {x: 0.001967633, y: -0.0847547, z: 0}
        tangentMode: 0
      - time: 2
        value: {x: 0.054000854, y: 0.2729988, z: 0}
        inSlope: {x: 0.003935266, y: 0.15049063, z: 0}
        outSlope: {x: 0.003935266, y: 0.15049063, z: 0}
        tangentMode: 0
      m_PreInfinity: 2
      m_PostInfinity: 2
      m_RotationOrder: 4
    path: Body/Torso/TorsoUpper/Neck/Head
  - curve:
      serializedVersion: 2
      m_Curve:
      - time: 0
        value: {x: 0, y: 11.462, z: 0}
        inSlope: {x: 0, y: -0.09200001, z: 0}
        outSlope: {x: 0, y: -0.09200001, z: 0}
        tangentMode: 0
      - time: 1
        value: {x: 0, y: 11.37, z: 0}
        inSlope: {x: 0, y: 0, z: 0}
        outSlope: {x: 0, y: 0, z: 0}
        tangentMode: 0
      - time: 2
        value: {x: 0, y: 11.462, z: 0}
        inSlope: {x: 0, y: 0.09200001, z: 0}
        outSlope: {x: 0, y: 0.09200001, z: 0}
        tangentMode: 0
      m_PreInfinity: 2
      m_PostInfinity: 2
      m_RotationOrder: 4
    path: Body/Torso
  - curve:
      serializedVersion: 2
      m_Curve:
      - time: 0
        value: {x: -0.071638465, y: 0.21673076, z: 0}
        inSlope: {x: 0.0068573104, y: -0.07371436, z: 0}
        outSlope: {x: 0.0068573104, y: -0.07371436, z: 0}
        tangentMode: 0
      - time: 0.5833333
        value: {x: -0.06763837, y: 0.17373072, z: 0}
        inSlope: {x: 0, y: 0, z: 0}
        outSlope: {x: 0, y: 0, z: 0}
        tangentMode: 0
      - time: 1.5
        value: {x: -0.06763837, y: 0.17373072, z: 0}
        inSlope: {x: 0, y: 0, z: 0}
        outSlope: {x: 0, y: 0, z: 0}
        tangentMode: 0
      - time: 2
        value: {x: -0.071638465, y: 0.21673076, z: 0}
        inSlope: {x: -0.008000195, y: 0.086000085, z: 0}
        outSlope: {x: -0.008000195, y: 0.086000085, z: 0}
        tangentMode: 0
      m_PreInfinity: 2
      m_PostInfinity: 2
      m_RotationOrder: 4
    path: Body/Torso/TorsoUpper/Neck/Head/Face/Right/RightEyebrow
  - curve:
      serializedVersion: 2
      m_Curve:
      - time: 0
        value: {x: 0.073999405, y: 9.837, z: 0}
        inSlope: {x: 0, y: -0.04699993, z: 0}
        outSlope: {x: 0, y: -0.04699993, z: 0}
        tangentMode: 0
      - time: 1
        value: {x: 0.073999405, y: 9.79, z: 0}
        inSlope: {x: 0, y: 0, z: 0}
        outSlope: {x: 0, y: 0, z: 0}
        tangentMode: 0
      - time: 2
        value: {x: 0.073999405, y: 9.837, z: 0}
        inSlope: {x: 0, y: 0.04699993, z: 0}
        outSlope: {x: 0, y: 0.04699993, z: 0}
        tangentMode: 0
      m_PreInfinity: 2
      m_PostInfinity: 2
      m_RotationOrder: 4
    path: Body/Waist
  m_ScaleCurves: []
  m_FloatCurves:
  - curve:
      serializedVersion: 2
      m_Curve:
      - time: 0
        value: 1
        inSlope: Infinity
        outSlope: Infinity
        tangentMode: 31
      - time: 0.56666666
        value: 0
        inSlope: Infinity
        outSlope: Infinity
        tangentMode: 31
      - time: 0.9166667
        value: 1
        inSlope: Infinity
        outSlope: Infinity
        tangentMode: 31
      m_PreInfinity: 2
      m_PostInfinity: 2
      m_RotationOrder: 4
    attribute: m_IsActive
    path: Body/Torso/TorsoUpper/Neck/Head/Face/MouthClosed
    classID: 1
    script: {fileID: 0}
  - curve:
      serializedVersion: 2
      m_Curve:
      - time: 0
        value: 0
        inSlope: Infinity
        outSlope: Infinity
        tangentMode: 31
      - time: 0.56666666
        value: 1
        inSlope: Infinity
        outSlope: Infinity
        tangentMode: 31
      - time: 0.9166667
        value: 0
        inSlope: Infinity
        outSlope: Infinity
        tangentMode: 31
      m_PreInfinity: 2
      m_PostInfinity: 2
      m_RotationOrder: 4
    attribute: m_IsActive
    path: Body/Torso/TorsoUpper/Neck/Head/Face/MouthOpen1
    classID: 1
    script: {fileID: 0}
  m_PPtrCurves: []
  m_SampleRate: 60
  m_WrapMode: 0
  m_Bounds:
    m_Center: {x: 0, y: 0, z: 0}
    m_Extent: {x: 0, y: 0, z: 0}
  m_ClipBindingConstant:
    genericBindings:
    - path: 1997562997
      attribute: 1
      script: {fileID: 0}
      classID: 4
      customType: 0
      isPPtrCurve: 0
    - path: 17307992
      attribute: 1
      script: {fileID: 0}
      classID: 4
      customType: 0
      isPPtrCurve: 0
    - path: 4044341784
      attribute: 1
      script: {fileID: 0}
      classID: 4
      customType: 0
      isPPtrCurve: 0
    - path: 1013027270
      attribute: 1
      script: {fileID: 0}
      classID: 4
      customType: 0
      isPPtrCurve: 0
    - path: 2157539374
      attribute: 4
      script: {fileID: 0}
      classID: 4
      customType: 14
      isPPtrCurve: 0
    - path: 3095407969
      attribute: 4
      script: {fileID: 0}
      classID: 4
      customType: 14
      isPPtrCurve: 0
    - path: 464622508
      attribute: 4
      script: {fileID: 0}
      classID: 4
      customType: 14
      isPPtrCurve: 0
    - path: 928226820
      attribute: 4
      script: {fileID: 0}
      classID: 4
      customType: 14
      isPPtrCurve: 0
    - path: 4166763380
      attribute: 4
      script: {fileID: 0}
      classID: 4
      customType: 14
      isPPtrCurve: 0
    - path: 1997562997
      attribute: 4
      script: {fileID: 0}
      classID: 4
      customType: 14
      isPPtrCurve: 0
    - path: 1701800160
      attribute: 4
      script: {fileID: 0}
      classID: 4
      customType: 14
      isPPtrCurve: 0
    - path: 4044341784
      attribute: 4
      script: {fileID: 0}
      classID: 4
      customType: 14
      isPPtrCurve: 0
    - path: 1013027270
      attribute: 4
      script: {fileID: 0}
      classID: 4
      customType: 14
      isPPtrCurve: 0
    - path: 2224152727
      attribute: 4
      script: {fileID: 0}
      classID: 4
      customType: 14
      isPPtrCurve: 0
    - path: 541443673
      attribute: 4
      script: {fileID: 0}
      classID: 4
      customType: 14
      isPPtrCurve: 0
    - path: 1030089362
      attribute: 2086281974
      script: {fileID: 0}
      classID: 1
      customType: 0
      isPPtrCurve: 0
    - path: 4090973222
      attribute: 2086281974
      script: {fileID: 0}
      classID: 1
      customType: 0
      isPPtrCurve: 0
    pptrCurveMapping: []
  m_AnimationClipSettings:
    serializedVersion: 2
    m_AdditiveReferencePoseClip: {fileID: 0}
    m_AdditiveReferencePoseTime: 0
    m_StartTime: 0
    m_StopTime: 2
    m_OrientationOffsetY: 0
    m_Level: 0
    m_CycleOffset: 0
    m_HasAdditiveReferencePose: 0
    m_LoopTime: 0
    m_LoopBlend: 0
    m_LoopBlendOrientation: 0
    m_LoopBlendPositionY: 0
    m_LoopBlendPositionXZ: 0
    m_KeepOriginalOrientation: 0
    m_KeepOriginalPositionY: 1
    m_KeepOriginalPositionXZ: 0
    m_HeightFromFeet: 0
    m_Mirror: 0
  m_EditorCurves:
  - curve:
      serializedVersion: 2
      m_Curve:
      - time: 0
        value: 0
        inSlope: 0
        outSlope: 0
        tangentMode: 10
      - time: 0.73333335
        value: 0
        inSlope: 0
        outSlope: 0
        tangentMode: 10
      - time: 0.98333335
        value: 0
        inSlope: 0
        outSlope: 0
        tangentMode: 10
      - time: 1.4833333
        value: 0
        inSlope: 0
        outSlope: 0
        tangentMode: 10
      - time: 2
        value: 0
        inSlope: 0
        outSlope: 0
        tangentMode: 10
      m_PreInfinity: 2
      m_PostInfinity: 2
      m_RotationOrder: 4
    attribute: localEulerAnglesRaw.x
    path: Body/Torso/TorsoUpper
    classID: 4
    script: {fileID: 0}
  - curve:
      serializedVersion: 2
      m_Curve:
      - time: 0
        value: 0
        inSlope: 0
        outSlope: 0
        tangentMode: 10
      - time: 0.73333335
        value: 0
        inSlope: 0
        outSlope: 0
        tangentMode: 10
      - time: 0.98333335
        value: 0
        inSlope: 0
        outSlope: 0
        tangentMode: 10
      - time: 1.4833333
        value: 0
        inSlope: 0
        outSlope: 0
        tangentMode: 10
      - time: 2
        value: 0
        inSlope: 0
        outSlope: 0
        tangentMode: 10
      m_PreInfinity: 2
      m_PostInfinity: 2
      m_RotationOrder: 4
    attribute: localEulerAnglesRaw.y
    path: Body/Torso/TorsoUpper
    classID: 4
    script: {fileID: 0}
  - curve:
      serializedVersion: 2
      m_Curve:
      - time: 0
        value: 0
        inSlope: 4.706599
        outSlope: 4.706599
        tangentMode: 10
      - time: 0.73333335
        value: 3.4515061
        inSlope: 2.3398147
        outSlope: 2.3398147
        tangentMode: 10
      - time: 0.98333335
        value: 3.4447637
        inSlope: -3.0922487
        outSlope: -3.0922487
        tangentMode: 10
      - time: 1.4833333
        value: 0.36600003
        inSlope: -3.4329574
        outSlope: -3.4329574
        tangentMode: 10
      - time: 2
        value: 0
        inSlope: -0.7083872
        outSlope: -0.7083872
        tangentMode: 10
      m_PreInfinity: 2
      m_PostInfinity: 2
      m_RotationOrder: 4
    attribute: localEulerAnglesRaw.z
    path: Body/Torso/TorsoUpper
    classID: 4
    script: {fileID: 0}
  - curve:
      serializedVersion: 2
      m_Curve:
      - time: 0
        value: 0
        inSlope: 0
        outSlope: 0
        tangentMode: 10
      - time: 0.96666664
        value: 0
        inSlope: 0
        outSlope: 0
        tangentMode: 10
      - time: 2
        value: 0
        inSlope: 0
        outSlope: 0
        tangentMode: 10
      m_PreInfinity: 2
      m_PostInfinity: 2
      m_RotationOrder: 4
    attribute: localEulerAnglesRaw.x
    path: Body/Torso/TorsoUpper/LeftArm
    classID: 4
    script: {fileID: 0}
  - curve:
      serializedVersion: 2
      m_Curve:
      - time: 0
        value: 0
        inSlope: 0
        outSlope: 0
        tangentMode: 10
      - time: 0.96666664
        value: 0
        inSlope: 0
        outSlope: 0
        tangentMode: 10
      - time: 2
        value: 0
        inSlope: 0
        outSlope: 0
        tangentMode: 10
      m_PreInfinity: 2
      m_PostInfinity: 2
      m_RotationOrder: 4
    attribute: localEulerAnglesRaw.y
    path: Body/Torso/TorsoUpper/LeftArm
    classID: 4
    script: {fileID: 0}
  - curve:
      serializedVersion: 2
      m_Curve:
      - time: 0
        value: 0
        inSlope: -58.419315
        outSlope: -58.419315
        tangentMode: 10
      - time: 0.96666664
        value: -56.472004
        inSlope: -1.8844929
        outSlope: -1.8844929
        tangentMode: 10
      - time: 2
        value: 0
        inSlope: 54.65033
        outSlope: 54.65033
        tangentMode: 10
      m_PreInfinity: 2
      m_PostInfinity: 2
      m_RotationOrder: 4
    attribute: localEulerAnglesRaw.z
    path: Body/Torso/TorsoUpper/LeftArm
    classID: 4
    script: {fileID: 0}
  - curve:
      serializedVersion: 2
      m_Curve:
      - time: 0
        value: 0
        inSlope: 0
        outSlope: 0
        tangentMode: 10
      - time: 0.73333335
        value: 0
        inSlope: 0
        outSlope: 0
        tangentMode: 10
      - time: 0.98333335
        value: 0
        inSlope: 0
        outSlope: 0
        tangentMode: 10
      - time: 1.4833333
        value: 0
        inSlope: 0
        outSlope: 0
        tangentMode: 10
      - time: 2
        value: 0
        inSlope: 0
        outSlope: 0
        tangentMode: 10
      m_PreInfinity: 2
      m_PostInfinity: 2
      m_RotationOrder: 4
    attribute: localEulerAnglesRaw.x
    path: Body/Torso/TorsoUpper/LeftArm/LeftForearm/LeftHand
    classID: 4
    script: {fileID: 0}
  - curve:
      serializedVersion: 2
      m_Curve:
      - time: 0
        value: 0
        inSlope: 0
        outSlope: 0
        tangentMode: 10
      - time: 0.73333335
        value: 0
        inSlope: 0
        outSlope: 0
        tangentMode: 10
      - time: 0.98333335
        value: 0
        inSlope: 0
        outSlope: 0
        tangentMode: 10
      - time: 1.4833333
        value: 0
        inSlope: 0
        outSlope: 0
        tangentMode: 10
      - time: 2
        value: 0
        inSlope: 0
        outSlope: 0
        tangentMode: 10
      m_PreInfinity: 2
      m_PostInfinity: 2
      m_RotationOrder: 4
    attribute: localEulerAnglesRaw.y
    path: Body/Torso/TorsoUpper/LeftArm/LeftForearm/LeftHand
    classID: 4
    script: {fileID: 0}
  - curve:
      serializedVersion: 2
      m_Curve:
      - time: 0
        value: 0
        inSlope: 29.184477
        outSlope: 29.184477
        tangentMode: 10
      - time: 0.98333335
        value: 28.698069
        inSlope: -11.348235
        outSlope: -11.348235
        tangentMode: 10
      - time: 1.4833333
        value: 2.757595
        inSlope: -28.609114
        outSlope: -28.609114
        tangentMode: 10
      - time: 2
        value: 0
        inSlope: -5.3372808
        outSlope: -5.3372808
        tangentMode: 10
      m_PreInfinity: 2
      m_PostInfinity: 2
      m_RotationOrder: 4
    attribute: localEulerAnglesRaw.z
    path: Body/Torso/TorsoUpper/LeftArm/LeftForearm/LeftHand
    classID: 4
    script: {fileID: 0}
  - curve:
      serializedVersion: 2
      m_Curve:
      - time: 0
        value: 0
        inSlope: 0
        outSlope: 0
        tangentMode: 10
      - time: 0.73333335
        value: 0
        inSlope: 0
        outSlope: 0
        tangentMode: 10
      - time: 0.98333335
        value: 0
        inSlope: 0
        outSlope: 0
        tangentMode: 10
      - time: 1.2333333
        value: 0
        inSlope: 0
        outSlope: 0
        tangentMode: 10
      - time: 1.4833333
        value: 0
        inSlope: 0
        outSlope: 0
        tangentMode: 10
      - time: 2
        value: 0
        inSlope: 0
        outSlope: 0
        tangentMode: 10
      m_PreInfinity: 2
      m_PostInfinity: 2
      m_RotationOrder: 4
    attribute: localEulerAnglesRaw.x
    path: Body/Torso/TorsoUpper/RightArm
    classID: 4
    script: {fileID: 0}
  - curve:
      serializedVersion: 2
      m_Curve:
      - time: 0
        value: 0
        inSlope: 0
        outSlope: 0
        tangentMode: 10
      - time: 0.73333335
        value: 0
        inSlope: 0
        outSlope: 0
        tangentMode: 10
      - time: 0.98333335
        value: 0
        inSlope: 0
        outSlope: 0
        tangentMode: 10
      - time: 1.2333333
        value: 0
        inSlope: 0
        outSlope: 0
        tangentMode: 10
      - time: 1.4833333
        value: 0
        inSlope: 0
        outSlope: 0
        tangentMode: 10
      - time: 2
        value: 0
        inSlope: 0
        outSlope: 0
        tangentMode: 10
      m_PreInfinity: 2
      m_PostInfinity: 2
      m_RotationOrder: 4
    attribute: localEulerAnglesRaw.y
    path: Body/Torso/TorsoUpper/RightArm
    classID: 4
    script: {fileID: 0}
  - curve:
      serializedVersion: 2
      m_Curve:
      - time: 0
        value: 0
        inSlope: -2.595
        outSlope: -2.595
        tangentMode: 10
      - time: 0.73333335
        value: -1.9030001
        inSlope: 15.498502
        outSlope: 15.498502
        tangentMode: 10
      - time: 0.98333335
        value: 6.4950004
        inSlope: 6.066001
        outSlope: 6.066001
        tangentMode: 10
      - time: 1.2333333
        value: 1.13
        inSlope: -8.526
        outSlope: -8.526
        tangentMode: 10
      - time: 1.4833333
        value: 2.232
        inSlope: 0.04400015
        outSlope: 0.04400015
        tangentMode: 10
      - time: 2
        value: 0
        inSlope: -4.32
        outSlope: -4.32
        tangentMode: 10
      m_PreInfinity: 2
      m_PostInfinity: 2
      m_RotationOrder: 4
    attribute: localEulerAnglesRaw.z
    path: Body/Torso/TorsoUpper/RightArm
    classID: 4
    script: {fileID: 0}
  - curve:
      serializedVersion: 2
      m_Curve:
      - time: 0
        value: 0
        inSlope: 0
        outSlope: 0
        tangentMode: 10
      - time: 0.73333335
        value: 0
        inSlope: 0
        outSlope: 0
        tangentMode: 10
      - time: 0.98333335
        value: 0
        inSlope: 0
        outSlope: 0
        tangentMode: 10
      - time: 1.4833333
        value: 0
        inSlope: 0
        outSlope: 0
        tangentMode: 10
      - time: 2
        value: 0
        inSlope: 0
        outSlope: 0
        tangentMode: 10
      m_PreInfinity: 2
      m_PostInfinity: 2
      m_RotationOrder: 4
    attribute: localEulerAnglesRaw.x
    path: Body/Torso/TorsoUpper/Neck
    classID: 4
    script: {fileID: 0}
  - curve:
      serializedVersion: 2
      m_Curve:
      - time: 0
        value: 0
        inSlope: 0
        outSlope: 0
        tangentMode: 10
      - time: 0.73333335
        value: 0
        inSlope: 0
        outSlope: 0
        tangentMode: 10
      - time: 0.98333335
        value: 0
        inSlope: 0
        outSlope: 0
        tangentMode: 10
      - time: 1.4833333
        value: 0
        inSlope: 0
        outSlope: 0
        tangentMode: 10
      - time: 2
        value: 0
        inSlope: 0
        outSlope: 0
        tangentMode: 10
      m_PreInfinity: 2
      m_PostInfinity: 2
      m_RotationOrder: 4
    attribute: localEulerAnglesRaw.y
    path: Body/Torso/TorsoUpper/Neck
    classID: 4
    script: {fileID: 0}
  - curve:
      serializedVersion: 2
      m_Curve:
      - time: 0
        value: -1.2980001
        inSlope: 0.31233934
        outSlope: 0.31233934
        tangentMode: 10
      - time: 0.73333335
        value: -1.0689512
        inSlope: 1.4635115
        outSlope: 1.4635115
        tangentMode: 10
      - time: 0.98333335
        value: -0.41528034
        inSlope: 1.6066222
        outSlope: 1.6066222
        tangentMode: 10
      - time: 1.4833333
        value: -0.116000004
        inSlope: -0.8445907
        outSlope: -0.8445907
        tangentMode: 10
      - time: 2
        value: -1.2980001
        inSlope: -2.2877421
        outSlope: -2.2877421
        tangentMode: 10
      m_PreInfinity: 2
      m_PostInfinity: 2
      m_RotationOrder: 4
    attribute: localEulerAnglesRaw.z
    path: Body/Torso/TorsoUpper/Neck
    classID: 4
    script: {fileID: 0}
  - curve:
      serializedVersion: 2
      m_Curve:
      - time: 0
        value: 0
        inSlope: 0
        outSlope: 0
        tangentMode: 10
      - time: 0.73333335
        value: 0
        inSlope: 0
        outSlope: 0
        tangentMode: 10
      - time: 0.98333335
        value: 0
        inSlope: 0
        outSlope: 0
        tangentMode: 10
      - time: 1.4833333
        value: 0
        inSlope: 0
        outSlope: 0
        tangentMode: 10
      - time: 2
        value: 0
        inSlope: 0
        outSlope: 0
        tangentMode: 10
      m_PreInfinity: 2
      m_PostInfinity: 2
      m_RotationOrder: 4
    attribute: localEulerAnglesRaw.x
    path: Body/Torso/TorsoUpper/Neck/Head
    classID: 4
    script: {fileID: 0}
  - curve:
      serializedVersion: 2
      m_Curve:
      - time: 0
        value: 0
        inSlope: 0
        outSlope: 0
        tangentMode: 10
      - time: 0.73333335
        value: 0
        inSlope: 0
        outSlope: 0
        tangentMode: 10
      - time: 0.98333335
        value: 0
        inSlope: 0
        outSlope: 0
        tangentMode: 10
      - time: 1.4833333
        value: 0
        inSlope: 0
        outSlope: 0
        tangentMode: 10
      - time: 2
        value: 0
        inSlope: 0
        outSlope: 0
        tangentMode: 10
      m_PreInfinity: 2
      m_PostInfinity: 2
      m_RotationOrder: 4
    attribute: localEulerAnglesRaw.y
    path: Body/Torso/TorsoUpper/Neck/Head
    classID: 4
    script: {fileID: 0}
  - curve:
      serializedVersion: 2
      m_Curve:
      - time: 0
        value: -0.5814636
        inSlope: 2.8322065
        outSlope: 2.8322065
        tangentMode: 10
      - time: 0.73333335
        value: 1.4954878
        inSlope: 0.33763993
        outSlope: 0.33763993
        tangentMode: 10
      - time: 0.98333335
        value: 0.95625615
        inSlope: -2.649183
        outSlope: -2.649183
        tangentMode: 10
      - time: 1.4833333
        value: -0.61446357
        inSlope: -1.5387843
        outSlope: -1.5387843
        tangentMode: 10
      - time: 2
        value: -0.5814636
        inSlope: 0.06387095
        outSlope: 0.06387095
        tangentMode: 10
      m_PreInfinity: 2
      m_PostInfinity: 2
      m_RotationOrder: 4
    attribute: localEulerAnglesRaw.z
    path: Body/Torso/TorsoUpper/Neck/Head
    classID: 4
    script: {fileID: 0}
  - curve:
      serializedVersion: 2
      m_Curve:
      - time: 0
        value: 0.054000854
        inSlope: -0.0054557095
        outSlope: -0.0054557095
        tangentMode: 10
      - time: 0.73333335
        value: 0.05
        inSlope: -0.0027278548
        outSlope: -0.0027278548
        tangentMode: 10
      - time: 0.98333335
        value: 0.05
        inSlope: 0.001967633
        outSlope: 0.001967633
        tangentMode: 10
      - time: 2
        value: 0.054000854
        inSlope: 0.003935266
        outSlope: 0.003935266
        tangentMode: 10
      m_PreInfinity: 2
      m_PostInfinity: 2
      m_RotationOrder: 4
    attribute: m_LocalPosition.x
    path: Body/Torso/TorsoUpper/Neck/Head
    classID: 4
    script: {fileID: 0}
  - curve:
      serializedVersion: 2
      m_Curve:
      - time: 0
        value: 0.2729988
        inSlope: -0.099543825
        outSlope: -0.099543825
        tangentMode: 10
      - time: 0.73333335
        value: 0.2
        inSlope: -0.20977193
        outSlope: -0.20977193
        tangentMode: 10
      - time: 0.98333335
        value: 0.12
        inSlope: -0.0847547
        outSlope: -0.0847547
        tangentMode: 10
      - time: 2
        value: 0.2729988
        inSlope: 0.15049063
        outSlope: 0.15049063
        tangentMode: 10
      m_PreInfinity: 2
      m_PostInfinity: 2
      m_RotationOrder: 4
    attribute: m_LocalPosition.y
    path: Body/Torso/TorsoUpper/Neck/Head
    classID: 4
    script: {fileID: 0}
  - curve:
      serializedVersion: 2
      m_Curve:
      - time: 0
        value: 0
        inSlope: 0
        outSlope: 0
        tangentMode: 10
      - time: 0.73333335
        value: 0
        inSlope: 0
        outSlope: 0
        tangentMode: 10
      - time: 0.98333335
        value: 0
        inSlope: 0
        outSlope: 0
        tangentMode: 10
      - time: 2
        value: 0
        inSlope: 0
        outSlope: 0
        tangentMode: 10
      m_PreInfinity: 2
      m_PostInfinity: 2
      m_RotationOrder: 4
    attribute: m_LocalPosition.z
    path: Body/Torso/TorsoUpper/Neck/Head
    classID: 4
    script: {fileID: 0}
  - curve:
      serializedVersion: 2
      m_Curve:
      - time: 0
        value: 0
        inSlope: 0
        outSlope: 0
        tangentMode: 10
      - time: 1
        value: 0
        inSlope: 0
        outSlope: 0
        tangentMode: 10
      - time: 2
        value: 0
        inSlope: 0
        outSlope: 0
        tangentMode: 10
      m_PreInfinity: 2
      m_PostInfinity: 2
      m_RotationOrder: 4
    attribute: m_LocalPosition.x
    path: Body/Torso
    classID: 4
    script: {fileID: 0}
  - curve:
      serializedVersion: 2
      m_Curve:
      - time: 0
        value: 11.462
        inSlope: -0.09200001
        outSlope: -0.09200001
        tangentMode: 10
      - time: 1
        value: 11.37
        inSlope: 0
        outSlope: 0
        tangentMode: 10
      - time: 2
        value: 11.462
        inSlope: 0.09200001
        outSlope: 0.09200001
        tangentMode: 10
      m_PreInfinity: 2
      m_PostInfinity: 2
      m_RotationOrder: 4
    attribute: m_LocalPosition.y
    path: Body/Torso
    classID: 4
    script: {fileID: 0}
  - curve:
      serializedVersion: 2
      m_Curve:
      - time: 0
        value: 0
        inSlope: 0
        outSlope: 0
        tangentMode: 10
      - time: 1
        value: 0
        inSlope: 0
        outSlope: 0
        tangentMode: 10
      - time: 2
        value: 0
        inSlope: 0
        outSlope: 0
        tangentMode: 10
      m_PreInfinity: 2
      m_PostInfinity: 2
      m_RotationOrder: 4
    attribute: m_LocalPosition.z
    path: Body/Torso
    classID: 4
    script: {fileID: 0}
  - curve:
      serializedVersion: 2
      m_Curve:
      - time: 0
        value: 0
        inSlope: 0
        outSlope: 0
        tangentMode: 10
      - time: 0.5833333
        value: 0
        inSlope: 0
        outSlope: 0
        tangentMode: 0
      - time: 1.5
        value: 0
        inSlope: 0
        outSlope: 0
        tangentMode: 0
      - time: 2
        value: 0
        inSlope: 0
        outSlope: 0
        tangentMode: 10
      m_PreInfinity: 2
      m_PostInfinity: 2
      m_RotationOrder: 4
    attribute: localEulerAnglesRaw.x
    path: Body/Torso/TorsoUpper/Neck/Head/Face/Left/LeftEyebrow
    classID: 4
    script: {fileID: 0}
  - curve:
      serializedVersion: 2
      m_Curve:
      - time: 0
        value: 0
        inSlope: 0
        outSlope: 0
        tangentMode: 10
      - time: 0.5833333
        value: 0
        inSlope: 0
        outSlope: 0
        tangentMode: 0
      - time: 1.5
        value: 0
        inSlope: 0
        outSlope: 0
        tangentMode: 0
      - time: 2
        value: 0
        inSlope: 0
        outSlope: 0
        tangentMode: 10
      m_PreInfinity: 2
      m_PostInfinity: 2
      m_RotationOrder: 4
    attribute: localEulerAnglesRaw.y
    path: Body/Torso/TorsoUpper/Neck/Head/Face/Left/LeftEyebrow
    classID: 4
    script: {fileID: 0}
  - curve:
      serializedVersion: 2
      m_Curve:
      - time: 0
        value: 0
        inSlope: -26.077372
        outSlope: -26.077372
        tangentMode: 10
      - time: 0.5833333
        value: -15.2118
        inSlope: 0
        outSlope: 0
        tangentMode: 0
      - time: 1.5
        value: -15.2118
        inSlope: 0
        outSlope: 0
        tangentMode: 0
      - time: 2
        value: 0
        inSlope: 30.4236
        outSlope: 30.4236
        tangentMode: 10
      m_PreInfinity: 2
      m_PostInfinity: 2
      m_RotationOrder: 4
    attribute: localEulerAnglesRaw.z
    path: Body/Torso/TorsoUpper/Neck/Head/Face/Left/LeftEyebrow
    classID: 4
    script: {fileID: 0}
  - curve:
      serializedVersion: 2
      m_Curve:
      - time: 0
        value: 0
        inSlope: 0
        outSlope: 0
        tangentMode: 10
      - time: 0.5833333
        value: 0
        inSlope: 0
        outSlope: 0
        tangentMode: 0
      - time: 1.5
        value: 0
        inSlope: 0
        outSlope: 0
        tangentMode: 0
      - time: 2
        value: 0
        inSlope: 0
        outSlope: 0
        tangentMode: 10
      m_PreInfinity: 2
      m_PostInfinity: 2
      m_RotationOrder: 4
    attribute: localEulerAnglesRaw.x
    path: Body/Torso/TorsoUpper/Neck/Head/Face/Right/RightEyebrow
    classID: 4
    script: {fileID: 0}
  - curve:
      serializedVersion: 2
      m_Curve:
      - time: 0
        value: 0
        inSlope: 0
        outSlope: 0
        tangentMode: 10
      - time: 0.5833333
        value: 0
        inSlope: 0
        outSlope: 0
        tangentMode: 0
      - time: 1.5
        value: 0
        inSlope: 0
        outSlope: 0
        tangentMode: 0
      - time: 2
        value: 0
        inSlope: 0
        outSlope: 0
        tangentMode: 10
      m_PreInfinity: 2
      m_PostInfinity: 2
      m_RotationOrder: 4
    attribute: localEulerAnglesRaw.y
    path: Body/Torso/TorsoUpper/Neck/Head/Face/Right/RightEyebrow
    classID: 4
    script: {fileID: 0}
  - curve:
      serializedVersion: 2
      m_Curve:
      - time: 0
        value: 0
        inSlope: 39.041145
        outSlope: 39.041145
        tangentMode: 10
      - time: 0.5833333
        value: 22.774
        inSlope: 0
        outSlope: 0
        tangentMode: 0
      - time: 1.5
        value: 22.774
        inSlope: 0
        outSlope: 0
        tangentMode: 0
      - time: 2
        value: 0
        inSlope: -45.548
        outSlope: -45.548
        tangentMode: 10
      m_PreInfinity: 2
      m_PostInfinity: 2
      m_RotationOrder: 4
    attribute: localEulerAnglesRaw.z
    path: Body/Torso/TorsoUpper/Neck/Head/Face/Right/RightEyebrow
    classID: 4
    script: {fileID: 0}
  - curve:
      serializedVersion: 2
      m_Curve:
      - time: 0
        value: -0.071638465
        inSlope: 0.0068573104
        outSlope: 0.0068573104
        tangentMode: 10
      - time: 0.5833333
        value: -0.06763837
        inSlope: 0
        outSlope: 0
        tangentMode: 0
      - time: 1.5
        value: -0.06763837
        inSlope: 0
        outSlope: 0
        tangentMode: 0
      - time: 2
        value: -0.071638465
        inSlope: -0.008000195
        outSlope: -0.008000195
        tangentMode: 10
      m_PreInfinity: 2
      m_PostInfinity: 2
      m_RotationOrder: 4
    attribute: m_LocalPosition.x
    path: Body/Torso/TorsoUpper/Neck/Head/Face/Right/RightEyebrow
    classID: 4
    script: {fileID: 0}
  - curve:
      serializedVersion: 2
      m_Curve:
      - time: 0
        value: 0.21673076
        inSlope: -0.07371436
        outSlope: -0.07371436
        tangentMode: 10
      - time: 0.5833333
        value: 0.17373072
        inSlope: 0
        outSlope: 0
        tangentMode: 0
      - time: 1.5
        value: 0.17373072
        inSlope: 0
        outSlope: 0
        tangentMode: 0
      - time: 2
        value: 0.21673076
        inSlope: 0.086000085
        outSlope: 0.086000085
        tangentMode: 10
      m_PreInfinity: 2
      m_PostInfinity: 2
      m_RotationOrder: 4
    attribute: m_LocalPosition.y
    path: Body/Torso/TorsoUpper/Neck/Head/Face/Right/RightEyebrow
    classID: 4
    script: {fileID: 0}
  - curve:
      serializedVersion: 2
      m_Curve:
      - time: 0
        value: 0
        inSlope: 0
        outSlope: 0
        tangentMode: 10
      - time: 0.5833333
        value: 0
        inSlope: 0
        outSlope: 0
        tangentMode: 0
      - time: 1.5
        value: 0
        inSlope: 0
        outSlope: 0
        tangentMode: 0
      - time: 2
        value: 0
        inSlope: 0
        outSlope: 0
        tangentMode: 10
      m_PreInfinity: 2
      m_PostInfinity: 2
      m_RotationOrder: 4
    attribute: m_LocalPosition.z
    path: Body/Torso/TorsoUpper/Neck/Head/Face/Right/RightEyebrow
    classID: 4
    script: {fileID: 0}
  - curve:
      serializedVersion: 2
      m_Curve:
      - time: 0
        value: 0
        inSlope: 0
        outSlope: 0
        tangentMode: 10
      - time: 0.73333335
        value: 0
        inSlope: 0
        outSlope: 0
        tangentMode: 10
      - time: 0.98333335
        value: 0
        inSlope: 0
        outSlope: 0
        tangentMode: 10
      - time: 1.4833333
        value: 0
        inSlope: 0
        outSlope: 0
        tangentMode: 10
      - time: 2
        value: 0
        inSlope: 0
        outSlope: 0
        tangentMode: 10
      m_PreInfinity: 2
      m_PostInfinity: 2
      m_RotationOrder: 4
    attribute: localEulerAnglesRaw.x
    path: Body/Waist
    classID: 4
    script: {fileID: 0}
  - curve:
      serializedVersion: 2
      m_Curve:
      - time: 0
        value: 0
        inSlope: 0
        outSlope: 0
        tangentMode: 10
      - time: 0.73333335
        value: 0
        inSlope: 0
        outSlope: 0
        tangentMode: 10
      - time: 0.98333335
        value: 0
        inSlope: 0
        outSlope: 0
        tangentMode: 10
      - time: 1.4833333
        value: 0
        inSlope: 0
        outSlope: 0
        tangentMode: 10
      - time: 2
        value: 0
        inSlope: 0
        outSlope: 0
        tangentMode: 10
      m_PreInfinity: 2
      m_PostInfinity: 2
      m_RotationOrder: 4
    attribute: localEulerAnglesRaw.y
    path: Body/Waist
    classID: 4
    script: {fileID: 0}
  - curve:
      serializedVersion: 2
      m_Curve:
      - time: 0
        value: -3.782
        inSlope: 1.1140908
        outSlope: 1.1140908
        tangentMode: 10
      - time: 0.73333335
        value: -2.9650002
        inSlope: -4.196955
        outSlope: -4.196955
        tangentMode: 10
      - time: 0.98333335
        value: -5.3420005
        inSlope: -3.9640002
        outSlope: -3.9640002
        tangentMode: 10
      - time: 1.4833333
        value: -4.552
        inSlope: 1.5351617
        outSlope: 1.5351617
        tangentMode: 10
      - time: 2
        value: -3.782
        inSlope: 1.4903226
        outSlope: 1.4903226
        tangentMode: 10
      m_PreInfinity: 2
      m_PostInfinity: 2
      m_RotationOrder: 4
    attribute: localEulerAnglesRaw.z
    path: Body/Waist
    classID: 4
    script: {fileID: 0}
  - curve:
      serializedVersion: 2
      m_Curve:
      - time: 0
        value: 0.073999405
        inSlope: 0
        outSlope: 0
        tangentMode: 10
      - time: 1
        value: 0.073999405
        inSlope: 0
        outSlope: 0
        tangentMode: 10
      - time: 2
        value: 0.073999405
        inSlope: 0
        outSlope: 0
        tangentMode: 10
      m_PreInfinity: 2
      m_PostInfinity: 2
      m_RotationOrder: 4
    attribute: m_LocalPosition.x
    path: Body/Waist
    classID: 4
    script: {fileID: 0}
  - curve:
      serializedVersion: 2
      m_Curve:
      - time: 0
        value: 9.837
        inSlope: -0.04699993
        outSlope: -0.04699993
        tangentMode: 10
      - time: 1
        value: 9.79
        inSlope: 0
        outSlope: 0
        tangentMode: 10
      - time: 2
        value: 9.837
        inSlope: 0.04699993
        outSlope: 0.04699993
        tangentMode: 10
      m_PreInfinity: 2
      m_PostInfinity: 2
      m_RotationOrder: 4
    attribute: m_LocalPosition.y
    path: Body/Waist
    classID: 4
    script: {fileID: 0}
  - curve:
      serializedVersion: 2
      m_Curve:
      - time: 0
        value: 0
        inSlope: 0
        outSlope: 0
        tangentMode: 10
      - time: 1
        value: 0
        inSlope: 0
        outSlope: 0
        tangentMode: 10
      - time: 2
        value: 0
        inSlope: 0
        outSlope: 0
        tangentMode: 10
      m_PreInfinity: 2
      m_PostInfinity: 2
      m_RotationOrder: 4
    attribute: m_LocalPosition.z
    path: Body/Waist
    classID: 4
    script: {fileID: 0}
  - curve:
      serializedVersion: 2
      m_Curve:
      - time: 0
        value: 1
        inSlope: Infinity
        outSlope: Infinity
        tangentMode: 31
      - time: 0.56666666
        value: 0
        inSlope: Infinity
        outSlope: Infinity
        tangentMode: 31
      - time: 0.9166667
        value: 1
        inSlope: Infinity
        outSlope: Infinity
        tangentMode: 31
      m_PreInfinity: 2
      m_PostInfinity: 2
      m_RotationOrder: 4
    attribute: m_IsActive
    path: Body/Torso/TorsoUpper/Neck/Head/Face/MouthClosed
    classID: 1
    script: {fileID: 0}
  - curve:
      serializedVersion: 2
      m_Curve:
      - time: 0
        value: 0
        inSlope: Infinity
        outSlope: Infinity
        tangentMode: 31
      - time: 0.56666666
        value: 1
        inSlope: Infinity
        outSlope: Infinity
        tangentMode: 31
      - time: 0.9166667
        value: 0
        inSlope: Infinity
        outSlope: Infinity
        tangentMode: 31
      m_PreInfinity: 2
      m_PostInfinity: 2
      m_RotationOrder: 4
    attribute: m_IsActive
    path: Body/Torso/TorsoUpper/Neck/Head/Face/MouthOpen1
    classID: 1
    script: {fileID: 0}
  - curve:
      serializedVersion: 2
      m_Curve:
      - time: 0
        value: 0
        inSlope: 0
        outSlope: 0
        tangentMode: 10
      - time: 0.55
        value: 0
        inSlope: 0
        outSlope: 0
        tangentMode: 0
      - time: 2
        value: 0
        inSlope: 0
        outSlope: 0
        tangentMode: 0
      m_PreInfinity: 2
      m_PostInfinity: 2
      m_RotationOrder: 4
    attribute: localEulerAnglesRaw.x
    path: Body/Torso/TorsoUpper/RightArm/RightForearm
    classID: 4
    script: {fileID: 0}
  - curve:
      serializedVersion: 2
      m_Curve:
      - time: 0
        value: 0
        inSlope: 0
        outSlope: 0
        tangentMode: 10
      - time: 0.55
        value: 0
        inSlope: 0
        outSlope: 0
        tangentMode: 0
      - time: 2
        value: 0
        inSlope: 0
        outSlope: 0
        tangentMode: 0
      m_PreInfinity: 2
      m_PostInfinity: 2
      m_RotationOrder: 4
    attribute: localEulerAnglesRaw.y
    path: Body/Torso/TorsoUpper/RightArm/RightForearm
    classID: 4
    script: {fileID: 0}
  - curve:
      serializedVersion: 2
      m_Curve:
      - time: 0
        value: 0
        inSlope: -34.382565
        outSlope: -34.382565
        tangentMode: 10
      - time: 0.55
        value: -18.91041
        inSlope: 0
        outSlope: 0
        tangentMode: 0
      - time: 1.3833332
        value: -18.91041
        inSlope: 0
        outSlope: 0
        tangentMode: 0
      - time: 2
        value: 0
        inSlope: 30.665524
        outSlope: 30.665524
        tangentMode: 10
      m_PreInfinity: 2
      m_PostInfinity: 2
      m_RotationOrder: 4
    attribute: localEulerAnglesRaw.z
    path: Body/Torso/TorsoUpper/RightArm/RightForearm
    classID: 4
    script: {fileID: 0}
  - curve:
      serializedVersion: 2
      m_Curve:
      - time: 0
        value: 0
        inSlope: 0
        outSlope: 0
        tangentMode: 10
      - time: 0.78333336
        value: 0
        inSlope: 0
        outSlope: 0
        tangentMode: 10
      - time: 2
        value: 0
        inSlope: 0
        outSlope: 0
        tangentMode: 10
      m_PreInfinity: 2
      m_PostInfinity: 2
      m_RotationOrder: 4
    attribute: localEulerAnglesRaw.x
    path: Body/Torso/TorsoUpper/LeftArm/LeftForearm
    classID: 4
    script: {fileID: 0}
  - curve:
      serializedVersion: 2
      m_Curve:
      - time: 0
        value: 0
        inSlope: 0
        outSlope: 0
        tangentMode: 10
      - time: 0.78333336
        value: 0
        inSlope: 0
        outSlope: 0
        tangentMode: 10
      - time: 2
        value: 0
        inSlope: 0
        outSlope: 0
        tangentMode: 10
      m_PreInfinity: 2
      m_PostInfinity: 2
      m_RotationOrder: 4
    attribute: localEulerAnglesRaw.y
    path: Body/Torso/TorsoUpper/LeftArm/LeftForearm
    classID: 4
    script: {fileID: 0}
  - curve:
      serializedVersion: 2
      m_Curve:
      - time: 0
        value: 0
        inSlope: -180.3228
        outSlope: -180.3228
        tangentMode: 10
      - time: 0.78333336
        value: -141.25287
        inSlope: -5.4871035
        outSlope: -5.4871035
        tangentMode: 0
      - time: 1.65
        value: -141.25287
        inSlope: 15.654751
        outSlope: 15.654751
        tangentMode: 0
      - time: 2
        value: 0
        inSlope: 403.5796
        outSlope: 403.5796
        tangentMode: 10
      m_PreInfinity: 2
      m_PostInfinity: 2
      m_RotationOrder: 4
    attribute: localEulerAnglesRaw.z
    path: Body/Torso/TorsoUpper/LeftArm/LeftForearm
    classID: 4
    script: {fileID: 0}
  m_EulerEditorCurves:
  - curve:
      serializedVersion: 2
      m_Curve: []
      m_PreInfinity: 2
      m_PostInfinity: 2
      m_RotationOrder: 4
    attribute: m_LocalEulerAngles.z
    path: Body/Torso/TorsoUpper/LeftArm
    classID: 4
    script: {fileID: 0}
  - curve:
      serializedVersion: 2
      m_Curve: []
      m_PreInfinity: 2
      m_PostInfinity: 2
      m_RotationOrder: 4
    attribute: m_LocalEulerAngles.y
    path: Body/Torso/TorsoUpper/LeftArm
    classID: 4
    script: {fileID: 0}
  - curve:
      serializedVersion: 2
      m_Curve: []
      m_PreInfinity: 2
      m_PostInfinity: 2
      m_RotationOrder: 4
    attribute: m_LocalEulerAngles.x
    path: Body/Torso/TorsoUpper/LeftArm
    classID: 4
    script: {fileID: 0}
  - curve:
      serializedVersion: 2
      m_Curve: []
      m_PreInfinity: 2
      m_PostInfinity: 2
      m_RotationOrder: 4
    attribute: m_LocalEulerAngles.z
    path: Body/Waist
    classID: 4
    script: {fileID: 0}
  - curve:
      serializedVersion: 2
      m_Curve: []
      m_PreInfinity: 2
      m_PostInfinity: 2
      m_RotationOrder: 4
    attribute: m_LocalEulerAngles.y
    path: Body/Waist
    classID: 4
    script: {fileID: 0}
  - curve:
      serializedVersion: 2
      m_Curve: []
      m_PreInfinity: 2
      m_PostInfinity: 2
      m_RotationOrder: 4
    attribute: m_LocalEulerAngles.x
    path: Body/Waist
    classID: 4
    script: {fileID: 0}
  - curve:
      serializedVersion: 2
      m_Curve: []
      m_PreInfinity: 2
      m_PostInfinity: 2
      m_RotationOrder: 4
    attribute: m_LocalEulerAngles.z
    path: Body/Torso/TorsoUpper/Neck
    classID: 4
    script: {fileID: 0}
  - curve:
      serializedVersion: 2
      m_Curve: []
      m_PreInfinity: 2
      m_PostInfinity: 2
      m_RotationOrder: 4
    attribute: m_LocalEulerAngles.y
    path: Body/Torso/TorsoUpper/Neck
    classID: 4
    script: {fileID: 0}
  - curve:
      serializedVersion: 2
      m_Curve: []
      m_PreInfinity: 2
      m_PostInfinity: 2
      m_RotationOrder: 4
    attribute: m_LocalEulerAngles.x
    path: Body/Torso/TorsoUpper/Neck
    classID: 4
    script: {fileID: 0}
  - curve:
      serializedVersion: 2
      m_Curve: []
      m_PreInfinity: 2
      m_PostInfinity: 2
      m_RotationOrder: 4
    attribute: m_LocalEulerAngles.z
    path: Body/Torso/TorsoUpper
    classID: 4
    script: {fileID: 0}
  - curve:
      serializedVersion: 2
      m_Curve: []
      m_PreInfinity: 2
      m_PostInfinity: 2
      m_RotationOrder: 4
    attribute: m_LocalEulerAngles.y
    path: Body/Torso/TorsoUpper
    classID: 4
    script: {fileID: 0}
  - curve:
      serializedVersion: 2
      m_Curve: []
      m_PreInfinity: 2
      m_PostInfinity: 2
      m_RotationOrder: 4
    attribute: m_LocalEulerAngles.x
    path: Body/Torso/TorsoUpper
    classID: 4
    script: {fileID: 0}
  - curve:
      serializedVersion: 2
      m_Curve: []
      m_PreInfinity: 2
      m_PostInfinity: 2
      m_RotationOrder: 4
    attribute: m_LocalEulerAngles.z
    path: Body/Torso/TorsoUpper/LeftArm/LeftForearm/LeftHand
    classID: 4
    script: {fileID: 0}
  - curve:
      serializedVersion: 2
      m_Curve: []
      m_PreInfinity: 2
      m_PostInfinity: 2
      m_RotationOrder: 4
    attribute: m_LocalEulerAngles.y
    path: Body/Torso/TorsoUpper/LeftArm/LeftForearm/LeftHand
    classID: 4
    script: {fileID: 0}
  - curve:
      serializedVersion: 2
      m_Curve: []
      m_PreInfinity: 2
      m_PostInfinity: 2
      m_RotationOrder: 4
    attribute: m_LocalEulerAngles.x
    path: Body/Torso/TorsoUpper/LeftArm/LeftForearm/LeftHand
    classID: 4
    script: {fileID: 0}
  - curve:
      serializedVersion: 2
      m_Curve: []
      m_PreInfinity: 2
      m_PostInfinity: 2
      m_RotationOrder: 4
    attribute: m_LocalEulerAngles.z
    path: Body/Torso/TorsoUpper/Neck/Head
    classID: 4
    script: {fileID: 0}
  - curve:
      serializedVersion: 2
      m_Curve: []
      m_PreInfinity: 2
      m_PostInfinity: 2
      m_RotationOrder: 4
    attribute: m_LocalEulerAngles.y
    path: Body/Torso/TorsoUpper/Neck/Head
    classID: 4
    script: {fileID: 0}
  - curve:
      serializedVersion: 2
      m_Curve: []
      m_PreInfinity: 2
      m_PostInfinity: 2
      m_RotationOrder: 4
    attribute: m_LocalEulerAngles.x
    path: Body/Torso/TorsoUpper/Neck/Head
    classID: 4
    script: {fileID: 0}
  - curve:
      serializedVersion: 2
      m_Curve: []
      m_PreInfinity: 2
      m_PostInfinity: 2
      m_RotationOrder: 4
    attribute: m_LocalEulerAngles.z
    path: Body/Torso/TorsoUpper/RightArm
    classID: 4
    script: {fileID: 0}
  - curve:
      serializedVersion: 2
      m_Curve: []
      m_PreInfinity: 2
      m_PostInfinity: 2
      m_RotationOrder: 4
    attribute: m_LocalEulerAngles.y
    path: Body/Torso/TorsoUpper/RightArm
    classID: 4
    script: {fileID: 0}
  - curve:
      serializedVersion: 2
      m_Curve: []
      m_PreInfinity: 2
      m_PostInfinity: 2
      m_RotationOrder: 4
    attribute: m_LocalEulerAngles.x
    path: Body/Torso/TorsoUpper/RightArm
    classID: 4
    script: {fileID: 0}
  - curve:
      serializedVersion: 2
      m_Curve: []
      m_PreInfinity: 2
      m_PostInfinity: 2
      m_RotationOrder: 4
    attribute: m_LocalEulerAngles.z
    path: Body/Torso/TorsoUpper/Neck/Head/Face/Right/RightEyebrow
    classID: 4
    script: {fileID: 0}
  - curve:
      serializedVersion: 2
      m_Curve: []
      m_PreInfinity: 2
      m_PostInfinity: 2
      m_RotationOrder: 4
    attribute: m_LocalEulerAngles.y
    path: Body/Torso/TorsoUpper/Neck/Head/Face/Right/RightEyebrow
    classID: 4
    script: {fileID: 0}
  - curve:
      serializedVersion: 2
      m_Curve: []
      m_PreInfinity: 2
      m_PostInfinity: 2
      m_RotationOrder: 4
    attribute: m_LocalEulerAngles.x
    path: Body/Torso/TorsoUpper/Neck/Head/Face/Right/RightEyebrow
    classID: 4
    script: {fileID: 0}
  - curve:
      serializedVersion: 2
      m_Curve: []
      m_PreInfinity: 2
      m_PostInfinity: 2
      m_RotationOrder: 4
    attribute: m_LocalEulerAngles.z
    path: Body/Torso/TorsoUpper/RightArm/RightForearm
    classID: 4
    script: {fileID: 0}
  - curve:
      serializedVersion: 2
      m_Curve: []
      m_PreInfinity: 2
      m_PostInfinity: 2
      m_RotationOrder: 4
    attribute: m_LocalEulerAngles.y
    path: Body/Torso/TorsoUpper/RightArm/RightForearm
    classID: 4
    script: {fileID: 0}
  - curve:
      serializedVersion: 2
      m_Curve: []
      m_PreInfinity: 2
      m_PostInfinity: 2
      m_RotationOrder: 4
    attribute: m_LocalEulerAngles.x
    path: Body/Torso/TorsoUpper/RightArm/RightForearm
    classID: 4
    script: {fileID: 0}
  - curve:
      serializedVersion: 2
      m_Curve: []
      m_PreInfinity: 2
      m_PostInfinity: 2
      m_RotationOrder: 4
    attribute: m_LocalEulerAngles.z
    path: Body/Torso/TorsoUpper/Neck/Head/Face/Left/LeftEyebrow
    classID: 4
    script: {fileID: 0}
  - curve:
      serializedVersion: 2
      m_Curve: []
      m_PreInfinity: 2
      m_PostInfinity: 2
      m_RotationOrder: 4
    attribute: m_LocalEulerAngles.y
    path: Body/Torso/TorsoUpper/Neck/Head/Face/Left/LeftEyebrow
    classID: 4
    script: {fileID: 0}
  - curve:
      serializedVersion: 2
      m_Curve: []
      m_PreInfinity: 2
      m_PostInfinity: 2
      m_RotationOrder: 4
    attribute: m_LocalEulerAngles.x
    path: Body/Torso/TorsoUpper/Neck/Head/Face/Left/LeftEyebrow
    classID: 4
    script: {fileID: 0}
  - curve:
      serializedVersion: 2
      m_Curve: []
      m_PreInfinity: 2
      m_PostInfinity: 2
      m_RotationOrder: 4
    attribute: m_LocalEulerAngles.x
    path: Body/Torso/TorsoUpper/LeftArm/LeftForearm
    classID: 4
    script: {fileID: 0}
  - curve:
      serializedVersion: 2
      m_Curve: []
      m_PreInfinity: 2
      m_PostInfinity: 2
      m_RotationOrder: 4
    attribute: m_LocalEulerAngles.y
    path: Body/Torso/TorsoUpper/LeftArm/LeftForearm
    classID: 4
    script: {fileID: 0}
  - curve:
      serializedVersion: 2
      m_Curve: []
      m_PreInfinity: 2
      m_PostInfinity: 2
      m_RotationOrder: 4
    attribute: m_LocalEulerAngles.z
    path: Body/Torso/TorsoUpper/LeftArm/LeftForearm
    classID: 4
    script: {fileID: 0}
  m_HasGenericRootTransform: 0
  m_HasMotionFloatCurves: 0
  m_GenerateMotionCurves: 0
  m_Events: []
