%YAML 1.1
%TAG !u! tag:unity3d.com,2011:
--- !u!74 &7400000
AnimationClip:
  m_ObjectHideFlags: 0
  m_PrefabParentObject: {fileID: 0}
  m_PrefabInternal: {fileID: 0}
  m_Name: MaleMouthSpeaking
  serializedVersion: 6
  m_Legacy: 0
  m_Compressed: 0
  m_UseHighQualityCurve: 1
  m_RotationCurves: []
  m_CompressedRotationCurves: []
  m_EulerCurves: []
  m_PositionCurves:
  - curve:
      serializedVersion: 2
      m_Curve:
      - time: 0
        value: {x: 0.07900047, y: -0.56699944, z: 0}
        inSlope: {x: -0.02019526, y: -0.0038050383, z: 0}
        outSlope: {x: -0.02019526, y: -0.0038050383, z: 0}
        tangentMode: 0
      - time: 3.4166667
        value: {x: 0.01, y: -0.58, z: 0}
        inSlope: {x: -0.02019526, y: -0.0038050383, z: 0}
        outSlope: {x: -0.02019526, y: -0.0038050383, z: 0}
        tangentMode: 0
      m_PreInfinity: 2
      m_PostInfinity: 2
      m_RotationOrder: 4
    path: Body/Torso/TorsoUpper/Neck/Head/Face/MouthClosed
  m_ScaleCurves: []
  m_FloatCurves:
  - curve:
      serializedVersion: 2
      m_Curve:
      - time: 0
        value: 0
        inSlope: Infinity
        outSlope: Infinity
        tangentMode: 31
      - time: 0.4
        value: 1
        inSlope: Infinity
        outSlope: Infinity
        tangentMode: 31
      - time: 0.5
        value: 0
        inSlope: Infinity
        outSlope: Infinity
        tangentMode: 31
      - time: 0.9
        value: 1
        inSlope: Infinity
        outSlope: Infinity
        tangentMode: 31
      - time: 1.2833333
        value: 1
        inSlope: Infinity
        outSlope: Infinity
        tangentMode: 31
      - time: 1.3833333
        value: 0
        inSlope: Infinity
        outSlope: Infinity
        tangentMode: 31
      - time: 1.4833333
        value: 1
        inSlope: Infinity
        outSlope: Infinity
        tangentMode: 31
      - time: 1.5833334
        value: 0
        inSlope: Infinity
        outSlope: Infinity
        tangentMode: 31
      - time: 1.7833333
        value: 1
        inSlope: Infinity
        outSlope: Infinity
        tangentMode: 31
      - time: 1.8833333
        value: 0
        inSlope: Infinity
        outSlope: Infinity
        tangentMode: 31
      - time: 1.9833333
        value: 1
        inSlope: Infinity
        outSlope: Infinity
        tangentMode: 31
      - time: 2.0833333
        value: 0
        inSlope: Infinity
        outSlope: Infinity
        tangentMode: 31
      - time: 2.3333333
        value: 1
        inSlope: Infinity
        outSlope: Infinity
        tangentMode: 31
      - time: 2.4333334
        value: 0
        inSlope: Infinity
        outSlope: Infinity
        tangentMode: 31
      - time: 2.5333333
        value: 1
        inSlope: Infinity
        outSlope: Infinity
        tangentMode: 31
      - time: 2.6333334
        value: 0
        inSlope: Infinity
        outSlope: Infinity
        tangentMode: 31
      - time: 2.8333333
        value: 1
        inSlope: Infinity
        outSlope: Infinity
        tangentMode: 31
      - time: 2.9333334
        value: 0
        inSlope: Infinity
        outSlope: Infinity
        tangentMode: 31
      - time: 3.0333333
        value: 1
        inSlope: Infinity
        outSlope: Infinity
        tangentMode: 31
      - time: 3.1333334
        value: 0
        inSlope: Infinity
        outSlope: Infinity
        tangentMode: 31
      - time: 3.3833334
        value: 1
        inSlope: Infinity
        outSlope: Infinity
        tangentMode: 31
      - time: 3.4833333
        value: 0
        inSlope: Infinity
        outSlope: Infinity
        tangentMode: 31
      - time: 3.5833333
        value: 1
        inSlope: Infinity
        outSlope: Infinity
        tangentMode: 31
      - time: 3.6833334
        value: 0
        inSlope: Infinity
        outSlope: Infinity
        tangentMode: 31
      - time: 3.8833334
        value: 1
        inSlope: Infinity
        outSlope: Infinity
        tangentMode: 31
      - time: 3.9833333
        value: 0
        inSlope: Infinity
        outSlope: Infinity
        tangentMode: 31
      - time: 4.0833335
        value: 1
        inSlope: Infinity
        outSlope: Infinity
        tangentMode: 31
      - time: 4.1833334
        value: 0
        inSlope: Infinity
        outSlope: Infinity
        tangentMode: 31
      - time: 4.2833333
        value: 1
        inSlope: Infinity
        outSlope: Infinity
        tangentMode: 31
      m_PreInfinity: 2
      m_PostInfinity: 2
      m_RotationOrder: 4
    attribute: m_IsActive
    path: Body/Torso/TorsoUpper/Neck/Head/Face/MouthClosed
    classID: 1
    script: {fileID: 0}
  - curve:
      serializedVersion: 2
      m_Curve:
      - time: 0
        value: 1
        inSlope: Infinity
        outSlope: Infinity
        tangentMode: 31
      - time: 0.1
        value: 0
        inSlope: Infinity
        outSlope: Infinity
        tangentMode: 31
      - time: 0.2
        value: 1
        inSlope: Infinity
        outSlope: Infinity
        tangentMode: 31
      - time: 0.3
        value: 0
        inSlope: Infinity
        outSlope: Infinity
        tangentMode: 31
      - time: 0.5
        value: 1
        inSlope: Infinity
        outSlope: Infinity
        tangentMode: 31
      - time: 0.6
        value: 0
        inSlope: Infinity
        outSlope: Infinity
        tangentMode: 31
      - time: 0.7
        value: 1
        inSlope: Infinity
        outSlope: Infinity
        tangentMode: 31
      - time: 0.8
        value: 0
        inSlope: Infinity
        outSlope: Infinity
        tangentMode: 31
      - time: 1.1833333
        value: 0
        inSlope: Infinity
        outSlope: Infinity
        tangentMode: 31
      - time: 1.5833334
        value: 1
        inSlope: Infinity
        outSlope: Infinity
        tangentMode: 31
      - time: 1.6833333
        value: 0
        inSlope: Infinity
        outSlope: Infinity
        tangentMode: 31
      - time: 2.0833333
        value: 1
        inSlope: Infinity
        outSlope: Infinity
        tangentMode: 31
      - time: 2.2333333
        value: 0
        inSlope: Infinity
        outSlope: Infinity
        tangentMode: 31
      - time: 2.6333334
        value: 1
        inSlope: Infinity
        outSlope: Infinity
        tangentMode: 31
      - time: 2.7333333
        value: 0
        inSlope: Infinity
        outSlope: Infinity
        tangentMode: 31
      - time: 3.1333334
        value: 1
        inSlope: Infinity
        outSlope: Infinity
        tangentMode: 31
      - time: 3.2833333
        value: 0
        inSlope: Infinity
        outSlope: Infinity
        tangentMode: 31
      - time: 3.6833334
        value: 1
        inSlope: Infinity
        outSlope: Infinity
        tangentMode: 31
      - time: 3.7833333
        value: 0
        inSlope: Infinity
        outSlope: Infinity
        tangentMode: 31
      - time: 4.1833334
        value: 1
        inSlope: Infinity
        outSlope: Infinity
        tangentMode: 31
      - time: 4.2833333
        value: 0
        inSlope: Infinity
        outSlope: Infinity
        tangentMode: 31
      m_PreInfinity: 2
      m_PostInfinity: 2
      m_RotationOrder: 4
    attribute: m_IsActive
    path: Body/Torso/TorsoUpper/Neck/Head/Face/MouthOpen1
    classID: 1
    script: {fileID: 0}
  - curve:
      serializedVersion: 2
      m_Curve:
      - time: 0
        value: 0
        inSlope: Infinity
        outSlope: Infinity
        tangentMode: 31
      - time: 0.1
        value: 1
        inSlope: Infinity
        outSlope: Infinity
        tangentMode: 31
      - time: 0.2
        value: 0
        inSlope: Infinity
        outSlope: Infinity
        tangentMode: 31
      - time: 0.3
        value: 1
        inSlope: Infinity
        outSlope: Infinity
        tangentMode: 31
      - time: 0.4
        value: 0
        inSlope: Infinity
        outSlope: Infinity
        tangentMode: 31
      - time: 0.6
        value: 1
        inSlope: Infinity
        outSlope: Infinity
        tangentMode: 31
      - time: 0.7
        value: 0
        inSlope: Infinity
        outSlope: Infinity
        tangentMode: 31
      - time: 0.8
        value: 1
        inSlope: Infinity
        outSlope: Infinity
        tangentMode: 31
      - time: 0.9
        value: 0
        inSlope: Infinity
        outSlope: Infinity
        tangentMode: 31
      - time: 1.1833333
        value: 1
        inSlope: Infinity
        outSlope: Infinity
        tangentMode: 31
      - time: 1.2833333
        value: 0
        inSlope: Infinity
        outSlope: Infinity
        tangentMode: 31
      - time: 1.3833333
        value: 1
        inSlope: Infinity
        outSlope: Infinity
        tangentMode: 31
      - time: 1.4833333
        value: 0
        inSlope: Infinity
        outSlope: Infinity
        tangentMode: 31
      - time: 1.6833333
        value: 1
        inSlope: Infinity
        outSlope: Infinity
        tangentMode: 31
      - time: 1.7833333
        value: 0
        inSlope: Infinity
        outSlope: Infinity
        tangentMode: 31
      - time: 1.8833333
        value: 1
        inSlope: Infinity
        outSlope: Infinity
        tangentMode: 31
      - time: 1.9833333
        value: 0
        inSlope: Infinity
        outSlope: Infinity
        tangentMode: 31
      - time: 2.2333333
        value: 1
        inSlope: Infinity
        outSlope: Infinity
        tangentMode: 31
      - time: 2.3333333
        value: 0
        inSlope: Infinity
        outSlope: Infinity
        tangentMode: 31
      - time: 2.4333334
        value: 1
        inSlope: Infinity
        outSlope: Infinity
        tangentMode: 31
      - time: 2.5333333
        value: 0
        inSlope: Infinity
        outSlope: Infinity
        tangentMode: 31
      - time: 2.7333333
        value: 1
        inSlope: Infinity
        outSlope: Infinity
        tangentMode: 31
      - time: 2.8333333
        value: 0
        inSlope: Infinity
        outSlope: Infinity
        tangentMode: 31
      - time: 2.9333334
        value: 1
        inSlope: Infinity
        outSlope: Infinity
        tangentMode: 31
      - time: 3.0333333
        value: 0
        inSlope: Infinity
        outSlope: Infinity
        tangentMode: 31
      - time: 3.2833333
        value: 1
        inSlope: Infinity
        outSlope: Infinity
        tangentMode: 31
      - time: 3.3833334
        value: 0
        inSlope: Infinity
        outSlope: Infinity
        tangentMode: 31
      - time: 3.4833333
        value: 1
        inSlope: Infinity
        outSlope: Infinity
        tangentMode: 31
      - time: 3.5833333
        value: 0
        inSlope: Infinity
        outSlope: Infinity
        tangentMode: 31
      - time: 3.7833333
        value: 1
        inSlope: Infinity
        outSlope: Infinity
        tangentMode: 31
      - time: 3.8833334
        value: 0
        inSlope: Infinity
        outSlope: Infinity
        tangentMode: 31
      - time: 3.9833333
        value: 1
        inSlope: Infinity
        outSlope: Infinity
        tangentMode: 31
      - time: 4.0833335
        value: 0
        inSlope: Infinity
        outSlope: Infinity
        tangentMode: 31
      m_PreInfinity: 2
      m_PostInfinity: 2
      m_RotationOrder: 4
    attribute: m_IsActive
    path: Body/Torso/TorsoUpper/Neck/Head/Face/MouthOpen2
    classID: 1
    script: {fileID: 0}
  - curve:
      serializedVersion: 2
      m_Curve:
      - time: 0
        value: 0
        inSlope: Infinity
        outSlope: Infinity
        tangentMode: 31
      m_PreInfinity: 2
      m_PostInfinity: 2
      m_RotationOrder: 4
    attribute: m_IsActive
    path: Body/Torso/TorsoUpper/Neck/Head/Face/MouthDisgust
    classID: 1
    script: {fileID: 0}
  - curve:
      serializedVersion: 2
      m_Curve:
      - time: 0
        value: 0
        inSlope: Infinity
        outSlope: Infinity
        tangentMode: 31
      m_PreInfinity: 2
      m_PostInfinity: 2
      m_RotationOrder: 4
    attribute: m_IsActive
    path: Body/Torso/TorsoUpper/Neck/Head/Face/MouthAnger
    classID: 1
    script: {fileID: 0}
  - curve:
      serializedVersion: 2
      m_Curve:
      - time: 0
        value: 0
        inSlope: Infinity
        outSlope: Infinity
        tangentMode: 31
      m_PreInfinity: 2
      m_PostInfinity: 2
      m_RotationOrder: 4
    attribute: m_IsActive
    path: Body/Torso/TorsoUpper/Neck/Head/Face/MouthEyeWink
    classID: 1
    script: {fileID: 0}
  - curve:
      serializedVersion: 2
      m_Curve:
      - time: 0
        value: 0
        inSlope: Infinity
        outSlope: Infinity
        tangentMode: 31
      m_PreInfinity: 2
      m_PostInfinity: 2
      m_RotationOrder: 4
    attribute: m_IsActive
    path: Body/Torso/TorsoUpper/Neck/Head/Face/MouthSurprise
    classID: 1
    script: {fileID: 0}
  - curve:
      serializedVersion: 2
      m_Curve:
      - time: 0
        value: 0
        inSlope: Infinity
        outSlope: Infinity
        tangentMode: 31
      m_PreInfinity: 2
      m_PostInfinity: 2
      m_RotationOrder: 4
    attribute: m_IsActive
    path: Body/Torso/TorsoUpper/Neck/Head/Face/MouthSmile
    classID: 1
    script: {fileID: 0}
  - curve:
      serializedVersion: 2
      m_Curve:
      - time: 0
        value: 0
        inSlope: Infinity
        outSlope: Infinity
        tangentMode: 31
      m_PreInfinity: 2
      m_PostInfinity: 2
      m_RotationOrder: 4
    attribute: m_IsActive
    path: Body/Torso/TorsoUpper/Neck/Head/Face/MouthMischief
    classID: 1
    script: {fileID: 0}
  - curve:
      serializedVersion: 2
      m_Curve:
      - time: 0
        value: 0
        inSlope: Infinity
        outSlope: Infinity
        tangentMode: 31
      m_PreInfinity: 2
      m_PostInfinity: 2
      m_RotationOrder: 4
    attribute: m_IsActive
    path: Body/Torso/TorsoUpper/Neck/Head/Face/MouthHappiness
    classID: 1
    script: {fileID: 0}
  - curve:
      serializedVersion: 2
      m_Curve:
      - time: 0
        value: 0
        inSlope: Infinity
        outSlope: Infinity
        tangentMode: 31
      m_PreInfinity: 2
      m_PostInfinity: 2
      m_RotationOrder: 4
    attribute: m_IsActive
    path: Body/Torso/TorsoUpper/Neck/Head/Face/MouthSmiling
    classID: 1
    script: {fileID: 0}
  m_PPtrCurves: []
  m_SampleRate: 60
  m_WrapMode: 0
  m_Bounds:
    m_Center: {x: 0, y: 0, z: 0}
    m_Extent: {x: 0, y: 0, z: 0}
  m_ClipBindingConstant:
    genericBindings:
    - path: 1030089362
      attribute: 1
      script: {fileID: 0}
      classID: 4
      customType: 0
      isPPtrCurve: 0
    - path: 1030089362
      attribute: 2086281974
      script: {fileID: 0}
      classID: 1
      customType: 0
      isPPtrCurve: 0
    - path: 4090973222
      attribute: 2086281974
      script: {fileID: 0}
      classID: 1
      customType: 0
      isPPtrCurve: 0
    - path: 1792941468
      attribute: 2086281974
      script: {fileID: 0}
      classID: 1
      customType: 0
      isPPtrCurve: 0
    - path: 1844641722
      attribute: 2086281974
      script: {fileID: 0}
      classID: 1
      customType: 0
      isPPtrCurve: 0
    - path: 4085567332
      attribute: 2086281974
      script: {fileID: 0}
      classID: 1
      customType: 0
      isPPtrCurve: 0
    - path: 2961201131
      attribute: 2086281974
      script: {fileID: 0}
      classID: 1
      customType: 0
      isPPtrCurve: 0
    - path: 3367504976
      attribute: 2086281974
      script: {fileID: 0}
      classID: 1
      customType: 0
      isPPtrCurve: 0
    - path: 2745087980
      attribute: 2086281974
      script: {fileID: 0}
      classID: 1
      customType: 0
      isPPtrCurve: 0
    - path: 1474213010
      attribute: 2086281974
      script: {fileID: 0}
      classID: 1
      customType: 0
      isPPtrCurve: 0
    - path: 3212976280
      attribute: 2086281974
      script: {fileID: 0}
      classID: 1
      customType: 0
      isPPtrCurve: 0
    - path: 3349504024
      attribute: 2086281974
      script: {fileID: 0}
      classID: 1
      customType: 0
      isPPtrCurve: 0
    pptrCurveMapping: []
  m_AnimationClipSettings:
    serializedVersion: 2
    m_AdditiveReferencePoseClip: {fileID: 0}
    m_AdditiveReferencePoseTime: 0
    m_StartTime: 0
    m_StopTime: 4.2833333
    m_OrientationOffsetY: 0
    m_Level: 0
    m_CycleOffset: 0
    m_HasAdditiveReferencePose: 0
    m_LoopTime: 0
    m_LoopBlend: 0
    m_LoopBlendOrientation: 0
    m_LoopBlendPositionY: 0
    m_LoopBlendPositionXZ: 0
    m_KeepOriginalOrientation: 0
    m_KeepOriginalPositionY: 1
    m_KeepOriginalPositionXZ: 0
    m_HeightFromFeet: 0
    m_Mirror: 0
  m_EditorCurves:
  - curve:
      serializedVersion: 2
      m_Curve:
      - time: 0
        value: 0
        inSlope: Infinity
        outSlope: Infinity
        tangentMode: 31
      - time: 0.4
        value: 1
        inSlope: Infinity
        outSlope: Infinity
        tangentMode: 31
      - time: 0.5
        value: 0
        inSlope: Infinity
        outSlope: Infinity
        tangentMode: 31
      - time: 0.9
        value: 1
        inSlope: Infinity
        outSlope: Infinity
        tangentMode: 31
      - time: 1.2833333
        value: 1
        inSlope: Infinity
        outSlope: Infinity
        tangentMode: 31
      - time: 1.3833333
        value: 0
        inSlope: Infinity
        outSlope: Infinity
        tangentMode: 31
      - time: 1.4833333
        value: 1
        inSlope: Infinity
        outSlope: Infinity
        tangentMode: 31
      - time: 1.5833334
        value: 0
        inSlope: Infinity
        outSlope: Infinity
        tangentMode: 31
      - time: 1.7833333
        value: 1
        inSlope: Infinity
        outSlope: Infinity
        tangentMode: 31
      - time: 1.8833333
        value: 0
        inSlope: Infinity
        outSlope: Infinity
        tangentMode: 31
      - time: 1.9833333
        value: 1
        inSlope: Infinity
        outSlope: Infinity
        tangentMode: 31
      - time: 2.0833333
        value: 0
        inSlope: Infinity
        outSlope: Infinity
        tangentMode: 31
      - time: 2.3333333
        value: 1
        inSlope: Infinity
        outSlope: Infinity
        tangentMode: 31
      - time: 2.4333334
        value: 0
        inSlope: Infinity
        outSlope: Infinity
        tangentMode: 31
      - time: 2.5333333
        value: 1
        inSlope: Infinity
        outSlope: Infinity
        tangentMode: 31
      - time: 2.6333334
        value: 0
        inSlope: Infinity
        outSlope: Infinity
        tangentMode: 31
      - time: 2.8333333
        value: 1
        inSlope: Infinity
        outSlope: Infinity
        tangentMode: 31
      - time: 2.9333334
        value: 0
        inSlope: Infinity
        outSlope: Infinity
        tangentMode: 31
      - time: 3.0333333
        value: 1
        inSlope: Infinity
        outSlope: Infinity
        tangentMode: 31
      - time: 3.1333334
        value: 0
        inSlope: Infinity
        outSlope: Infinity
        tangentMode: 31
      - time: 3.3833334
        value: 1
        inSlope: Infinity
        outSlope: Infinity
        tangentMode: 31
      - time: 3.4833333
        value: 0
        inSlope: Infinity
        outSlope: Infinity
        tangentMode: 31
      - time: 3.5833333
        value: 1
        inSlope: Infinity
        outSlope: Infinity
        tangentMode: 31
      - time: 3.6833334
        value: 0
        inSlope: Infinity
        outSlope: Infinity
        tangentMode: 31
      - time: 3.8833334
        value: 1
        inSlope: Infinity
        outSlope: Infinity
        tangentMode: 31
      - time: 3.9833333
        value: 0
        inSlope: Infinity
        outSlope: Infinity
        tangentMode: 31
      - time: 4.0833335
        value: 1
        inSlope: Infinity
        outSlope: Infinity
        tangentMode: 31
      - time: 4.1833334
        value: 0
        inSlope: Infinity
        outSlope: Infinity
        tangentMode: 31
      - time: 4.2833333
        value: 1
        inSlope: Infinity
        outSlope: Infinity
        tangentMode: 31
      m_PreInfinity: 2
      m_PostInfinity: 2
      m_RotationOrder: 4
    attribute: m_IsActive
    path: Body/Torso/TorsoUpper/Neck/Head/Face/MouthClosed
    classID: 1
    script: {fileID: 0}
  - curve:
      serializedVersion: 2
      m_Curve:
      - time: 0
        value: 1
        inSlope: Infinity
        outSlope: Infinity
        tangentMode: 31
      - time: 0.1
        value: 0
        inSlope: Infinity
        outSlope: Infinity
        tangentMode: 31
      - time: 0.2
        value: 1
        inSlope: Infinity
        outSlope: Infinity
        tangentMode: 31
      - time: 0.3
        value: 0
        inSlope: Infinity
        outSlope: Infinity
        tangentMode: 31
      - time: 0.5
        value: 1
        inSlope: Infinity
        outSlope: Infinity
        tangentMode: 31
      - time: 0.6
        value: 0
        inSlope: Infinity
        outSlope: Infinity
        tangentMode: 31
      - time: 0.7
        value: 1
        inSlope: Infinity
        outSlope: Infinity
        tangentMode: 31
      - time: 0.8
        value: 0
        inSlope: Infinity
        outSlope: Infinity
        tangentMode: 31
      - time: 1.1833333
        value: 0
        inSlope: Infinity
        outSlope: Infinity
        tangentMode: 31
      - time: 1.5833334
        value: 1
        inSlope: Infinity
        outSlope: Infinity
        tangentMode: 31
      - time: 1.6833333
        value: 0
        inSlope: Infinity
        outSlope: Infinity
        tangentMode: 31
      - time: 2.0833333
        value: 1
        inSlope: Infinity
        outSlope: Infinity
        tangentMode: 31
      - time: 2.2333333
        value: 0
        inSlope: Infinity
        outSlope: Infinity
        tangentMode: 31
      - time: 2.6333334
        value: 1
        inSlope: Infinity
        outSlope: Infinity
        tangentMode: 31
      - time: 2.7333333
        value: 0
        inSlope: Infinity
        outSlope: Infinity
        tangentMode: 31
      - time: 3.1333334
        value: 1
        inSlope: Infinity
        outSlope: Infinity
        tangentMode: 31
      - time: 3.2833333
        value: 0
        inSlope: Infinity
        outSlope: Infinity
        tangentMode: 31
      - time: 3.6833334
        value: 1
        inSlope: Infinity
        outSlope: Infinity
        tangentMode: 31
      - time: 3.7833333
        value: 0
        inSlope: Infinity
        outSlope: Infinity
        tangentMode: 31
      - time: 4.1833334
        value: 1
        inSlope: Infinity
        outSlope: Infinity
        tangentMode: 31
      - time: 4.2833333
        value: 0
        inSlope: Infinity
        outSlope: Infinity
        tangentMode: 31
      m_PreInfinity: 2
      m_PostInfinity: 2
      m_RotationOrder: 4
    attribute: m_IsActive
    path: Body/Torso/TorsoUpper/Neck/Head/Face/MouthOpen1
    classID: 1
    script: {fileID: 0}
  - curve:
      serializedVersion: 2
      m_Curve:
      - time: 0
        value: 0
        inSlope: Infinity
        outSlope: Infinity
        tangentMode: 31
      - time: 0.1
        value: 1
        inSlope: Infinity
        outSlope: Infinity
        tangentMode: 31
      - time: 0.2
        value: 0
        inSlope: Infinity
        outSlope: Infinity
        tangentMode: 31
      - time: 0.3
        value: 1
        inSlope: Infinity
        outSlope: Infinity
        tangentMode: 31
      - time: 0.4
        value: 0
        inSlope: Infinity
        outSlope: Infinity
        tangentMode: 31
      - time: 0.6
        value: 1
        inSlope: Infinity
        outSlope: Infinity
        tangentMode: 31
      - time: 0.7
        value: 0
        inSlope: Infinity
        outSlope: Infinity
        tangentMode: 31
      - time: 0.8
        value: 1
        inSlope: Infinity
        outSlope: Infinity
        tangentMode: 31
      - time: 0.9
        value: 0
        inSlope: Infinity
        outSlope: Infinity
        tangentMode: 31
      - time: 1.1833333
        value: 1
        inSlope: Infinity
        outSlope: Infinity
        tangentMode: 31
      - time: 1.2833333
        value: 0
        inSlope: Infinity
        outSlope: Infinity
        tangentMode: 31
      - time: 1.3833333
        value: 1
        inSlope: Infinity
        outSlope: Infinity
        tangentMode: 31
      - time: 1.4833333
        value: 0
        inSlope: Infinity
        outSlope: Infinity
        tangentMode: 31
      - time: 1.6833333
        value: 1
        inSlope: Infinity
        outSlope: Infinity
        tangentMode: 31
      - time: 1.7833333
        value: 0
        inSlope: Infinity
        outSlope: Infinity
        tangentMode: 31
      - time: 1.8833333
        value: 1
        inSlope: Infinity
        outSlope: Infinity
        tangentMode: 31
      - time: 1.9833333
        value: 0
        inSlope: Infinity
        outSlope: Infinity
        tangentMode: 31
      - time: 2.2333333
        value: 1
        inSlope: Infinity
        outSlope: Infinity
        tangentMode: 31
      - time: 2.3333333
        value: 0
        inSlope: Infinity
        outSlope: Infinity
        tangentMode: 31
      - time: 2.4333334
        value: 1
        inSlope: Infinity
        outSlope: Infinity
        tangentMode: 31
      - time: 2.5333333
        value: 0
        inSlope: Infinity
        outSlope: Infinity
        tangentMode: 31
      - time: 2.7333333
        value: 1
        inSlope: Infinity
        outSlope: Infinity
        tangentMode: 31
      - time: 2.8333333
        value: 0
        inSlope: Infinity
        outSlope: Infinity
        tangentMode: 31
      - time: 2.9333334
        value: 1
        inSlope: Infinity
        outSlope: Infinity
        tangentMode: 31
      - time: 3.0333333
        value: 0
        inSlope: Infinity
        outSlope: Infinity
        tangentMode: 31
      - time: 3.2833333
        value: 1
        inSlope: Infinity
        outSlope: Infinity
        tangentMode: 31
      - time: 3.3833334
        value: 0
        inSlope: Infinity
        outSlope: Infinity
        tangentMode: 31
      - time: 3.4833333
        value: 1
        inSlope: Infinity
        outSlope: Infinity
        tangentMode: 31
      - time: 3.5833333
        value: 0
        inSlope: Infinity
        outSlope: Infinity
        tangentMode: 31
      - time: 3.7833333
        value: 1
        inSlope: Infinity
        outSlope: Infinity
        tangentMode: 31
      - time: 3.8833334
        value: 0
        inSlope: Infinity
        outSlope: Infinity
        tangentMode: 31
      - time: 3.9833333
        value: 1
        inSlope: Infinity
        outSlope: Infinity
        tangentMode: 31
      - time: 4.0833335
        value: 0
        inSlope: Infinity
        outSlope: Infinity
        tangentMode: 31
      m_PreInfinity: 2
      m_PostInfinity: 2
      m_RotationOrder: 4
    attribute: m_IsActive
    path: Body/Torso/TorsoUpper/Neck/Head/Face/MouthOpen2
    classID: 1
    script: {fileID: 0}
  - curve:
      serializedVersion: 2
      m_Curve:
      - time: 0
        value: 0
        inSlope: Infinity
        outSlope: Infinity
        tangentMode: 31
      m_PreInfinity: 2
      m_PostInfinity: 2
      m_RotationOrder: 4
    attribute: m_IsActive
    path: Body/Torso/TorsoUpper/Neck/Head/Face/MouthDisgust
    classID: 1
    script: {fileID: 0}
  - curve:
      serializedVersion: 2
      m_Curve:
      - time: 0
        value: 0
        inSlope: Infinity
        outSlope: Infinity
        tangentMode: 31
      m_PreInfinity: 2
      m_PostInfinity: 2
      m_RotationOrder: 4
    attribute: m_IsActive
    path: Body/Torso/TorsoUpper/Neck/Head/Face/MouthAnger
    classID: 1
    script: {fileID: 0}
  - curve:
      serializedVersion: 2
      m_Curve:
      - time: 0
        value: 0
        inSlope: Infinity
        outSlope: Infinity
        tangentMode: 31
      m_PreInfinity: 2
      m_PostInfinity: 2
      m_RotationOrder: 4
    attribute: m_IsActive
    path: Body/Torso/TorsoUpper/Neck/Head/Face/MouthEyeWink
    classID: 1
    script: {fileID: 0}
  - curve:
      serializedVersion: 2
      m_Curve:
      - time: 0
        value: 0
        inSlope: Infinity
        outSlope: Infinity
        tangentMode: 31
      m_PreInfinity: 2
      m_PostInfinity: 2
      m_RotationOrder: 4
    attribute: m_IsActive
    path: Body/Torso/TorsoUpper/Neck/Head/Face/MouthSurprise
    classID: 1
    script: {fileID: 0}
  - curve:
      serializedVersion: 2
      m_Curve:
      - time: 0
        value: 0
        inSlope: Infinity
        outSlope: Infinity
        tangentMode: 31
      m_PreInfinity: 2
      m_PostInfinity: 2
      m_RotationOrder: 4
    attribute: m_IsActive
    path: Body/Torso/TorsoUpper/Neck/Head/Face/MouthSmile
    classID: 1
    script: {fileID: 0}
  - curve:
      serializedVersion: 2
      m_Curve:
      - time: 0
        value: 0
        inSlope: Infinity
        outSlope: Infinity
        tangentMode: 31
      m_PreInfinity: 2
      m_PostInfinity: 2
      m_RotationOrder: 4
    attribute: m_IsActive
    path: Body/Torso/TorsoUpper/Neck/Head/Face/MouthMischief
    classID: 1
    script: {fileID: 0}
  - curve:
      serializedVersion: 2
      m_Curve:
      - time: 0
        value: 0
        inSlope: Infinity
        outSlope: Infinity
        tangentMode: 31
      m_PreInfinity: 2
      m_PostInfinity: 2
      m_RotationOrder: 4
    attribute: m_IsActive
    path: Body/Torso/TorsoUpper/Neck/Head/Face/MouthHappiness
    classID: 1
    script: {fileID: 0}
  - curve:
      serializedVersion: 2
      m_Curve:
      - time: 0
        value: 0
        inSlope: Infinity
        outSlope: Infinity
        tangentMode: 31
      m_PreInfinity: 2
      m_PostInfinity: 2
      m_RotationOrder: 4
    attribute: m_IsActive
    path: Body/Torso/TorsoUpper/Neck/Head/Face/MouthSmiling
    classID: 1
    script: {fileID: 0}
  - curve:
      serializedVersion: 2
      m_Curve:
      - time: 0
        value: 0.07900047
        inSlope: -0.02019526
        outSlope: -0.02019526
        tangentMode: 10
      - time: 3.4166667
        value: 0.01
        inSlope: -0.02019526
        outSlope: -0.02019526
        tangentMode: 10
      m_PreInfinity: 2
      m_PostInfinity: 2
      m_RotationOrder: 4
    attribute: m_LocalPosition.x
    path: Body/Torso/TorsoUpper/Neck/Head/Face/MouthClosed
    classID: 4
    script: {fileID: 0}
  - curve:
      serializedVersion: 2
      m_Curve:
      - time: 0
        value: -0.56699944
        inSlope: -0.0038050383
        outSlope: -0.0038050383
        tangentMode: 10
      - time: 3.4166667
        value: -0.58
        inSlope: -0.0038050383
        outSlope: -0.0038050383
        tangentMode: 10
      m_PreInfinity: 2
      m_PostInfinity: 2
      m_RotationOrder: 4
    attribute: m_LocalPosition.y
    path: Body/Torso/TorsoUpper/Neck/Head/Face/MouthClosed
    classID: 4
    script: {fileID: 0}
  - curve:
      serializedVersion: 2
      m_Curve:
      - time: 0
        value: 0
        inSlope: 0
        outSlope: 0
        tangentMode: 10
      - time: 3.4166667
        value: 0
        inSlope: 0
        outSlope: 0
        tangentMode: 10
      m_PreInfinity: 2
      m_PostInfinity: 2
      m_RotationOrder: 4
    attribute: m_LocalPosition.z
    path: Body/Torso/TorsoUpper/Neck/Head/Face/MouthClosed
    classID: 4
    script: {fileID: 0}
  m_EulerEditorCurves: []
  m_HasGenericRootTransform: 0
  m_HasMotionFloatCurves: 0
  m_GenerateMotionCurves: 0
  m_Events: []
