%YAML 1.1
%TAG !u! tag:unity3d.com,2011:
--- !u!74 &7400000
AnimationClip:
  m_ObjectHideFlags: 0
  m_PrefabParentObject: {fileID: 0}
  m_PrefabInternal: {fileID: 0}
  m_Name: MaleSadness
  serializedVersion: 6
  m_Legacy: 0
  m_Compressed: 0
  m_UseHighQualityCurve: 1
  m_RotationCurves: []
  m_CompressedRotationCurves: []
  m_EulerCurves:
  - curve:
      serializedVersion: 2
      m_Curve:
      - time: 0
        value: {x: 0, y: 0, z: -1.022789}
        inSlope: {x: 0, y: 0, z: -38.338665}
        outSlope: {x: 0, y: 0, z: -38.338665}
        tangentMode: 0
      - time: 0.5
        value: {x: 0, y: 0, z: -20.192122}
        inSlope: {x: 0, y: 0, z: 0}
        outSlope: {x: 0, y: 0, z: 0}
        tangentMode: 0
      - time: 1.8666667
        value: {x: 0, y: 0, z: -20.192122}
        inSlope: {x: 0, y: 0, z: 0}
        outSlope: {x: 0, y: 0, z: 0}
        tangentMode: 0
      - time: 2.65
        value: {x: 0, y: 0, z: -1.022789}
        inSlope: {x: 0, y: 0, z: 24.471485}
        outSlope: {x: 0, y: 0, z: 24.471485}
        tangentMode: 0
      m_PreInfinity: 2
      m_PostInfinity: 2
      m_RotationOrder: 4
    path: Body/Torso/TorsoUpper/Neck/Head/Face/Left/LeftEyebrow
  - curve:
      serializedVersion: 2
      m_Curve:
      - time: 0
        value: {x: 0, y: 0, z: 1.702776}
        inSlope: {x: 0, y: 0, z: 45.756237}
        outSlope: {x: 0, y: 0, z: 45.756237}
        tangentMode: 0
      - time: 0.5
        value: {x: 0, y: 0, z: 24.580894}
        inSlope: {x: 0, y: 0, z: 0}
        outSlope: {x: 0, y: 0, z: 0}
        tangentMode: 0
      - time: 1.8666667
        value: {x: 0, y: 0, z: 24.580894}
        inSlope: {x: 0, y: 0, z: 0}
        outSlope: {x: 0, y: 0, z: 0}
        tangentMode: 0
      - time: 2.65
        value: {x: 0, y: 0, z: 1.702776}
        inSlope: {x: 0, y: 0, z: -29.206106}
        outSlope: {x: 0, y: 0, z: -29.206106}
        tangentMode: 0
      m_PreInfinity: 2
      m_PostInfinity: 2
      m_RotationOrder: 4
    path: Body/Torso/TorsoUpper/Neck/Head/Face/Right/RightEyebrow
  - curve:
      serializedVersion: 2
      m_Curve:
      - time: 0
        value: {x: 0, y: 0, z: 0}
        inSlope: {x: 0, y: 0, z: 6.4472947}
        outSlope: {x: 0, y: 0, z: 6.4472947}
        tangentMode: 0
      - time: 0.5
        value: {x: 0, y: 0, z: 3.2236474}
        inSlope: {x: 0, y: 0, z: 3.2185001}
        outSlope: {x: 0, y: 0, z: 3.2185001}
        tangentMode: 0
      - time: 1.25
        value: {x: 0, y: 0, z: 3.2159266}
        inSlope: {x: 0, y: 0, z: 0.059787933}
        outSlope: {x: 0, y: 0, z: 0.059787933}
        tangentMode: 0
      - time: 1.9666667
        value: {x: 0, y: 0, z: 3.3090003}
        inSlope: {x: 0, y: 0, z: -2.3562846}
        outSlope: {x: 0, y: 0, z: -2.3562846}
        tangentMode: 0
      - time: 2.65
        value: {x: 0, y: 0, z: 0}
        inSlope: {x: 0, y: 0, z: -4.842439}
        outSlope: {x: 0, y: 0, z: -4.842439}
        tangentMode: 0
      m_PreInfinity: 2
      m_PostInfinity: 2
      m_RotationOrder: 4
    path: Body/Torso/TorsoUpper
  - curve:
      serializedVersion: 2
      m_Curve:
      - time: 0
        value: {x: 0, y: 0, z: 0}
        inSlope: {x: 0, y: 0, z: 5.352}
        outSlope: {x: 0, y: 0, z: 5.352}
        tangentMode: 0
      - time: 0.5
        value: {x: 0, y: 0, z: 2.676}
        inSlope: {x: 0, y: 0, z: 4.65}
        outSlope: {x: 0, y: 0, z: 4.65}
        tangentMode: 0
      - time: 1.25
        value: {x: 0, y: 0, z: 5.637}
        inSlope: {x: 0, y: 0, z: 0.64493024}
        outSlope: {x: 0, y: 0, z: 0.64493024}
        tangentMode: 0
      - time: 1.9666667
        value: {x: 0, y: 0, z: 3.732}
        inSlope: {x: 0, y: 0, z: -4.059801}
        outSlope: {x: 0, y: 0, z: -4.059801}
        tangentMode: 0
      - time: 2.65
        value: {x: 0, y: 0, z: 0}
        inSlope: {x: 0, y: 0, z: -5.461463}
        outSlope: {x: 0, y: 0, z: -5.461463}
        tangentMode: 0
      m_PreInfinity: 2
      m_PostInfinity: 2
      m_RotationOrder: 4
    path: Body/Torso/TorsoUpper/Neck
  - curve:
      serializedVersion: 2
      m_Curve:
      - time: 0
        value: {x: 0, y: 0, z: 0}
        inSlope: {x: 0, y: 0, z: 7.1240005}
        outSlope: {x: 0, y: 0, z: 7.1240005}
        tangentMode: 0
      - time: 0.5
        value: {x: 0, y: 0, z: 3.5620003}
        inSlope: {x: 0, y: 0, z: 0.5146668}
        outSlope: {x: 0, y: 0, z: 0.5146668}
        tangentMode: 0
      - time: 1.25
        value: {x: 0, y: 0, z: -1.0090001}
        inSlope: {x: 0, y: 0, z: -1.8536125}
        outSlope: {x: 0, y: 0, z: -1.8536125}
        tangentMode: 0
      - time: 1.9666667
        value: {x: 0, y: 0, z: 0.702}
        inSlope: {x: 0, y: 0, z: 0.6800624}
        outSlope: {x: 0, y: 0, z: 0.6800624}
        tangentMode: 0
      - time: 2.65
        value: {x: 0, y: 0, z: 0}
        inSlope: {x: 0, y: 0, z: -1.027317}
        outSlope: {x: 0, y: 0, z: -1.027317}
        tangentMode: 0
      m_PreInfinity: 2
      m_PostInfinity: 2
      m_RotationOrder: 4
    path: Body/Torso/TorsoUpper/Neck/Head
  - curve:
      serializedVersion: 2
      m_Curve:
      - time: 0
        value: {x: 0, y: 0, z: 0}
        inSlope: {x: 0, y: 0, z: -5.8120003}
        outSlope: {x: 0, y: 0, z: -5.8120003}
        tangentMode: 0
      - time: 0.5
        value: {x: 0, y: 0, z: -2.9060001}
        inSlope: {x: 0, y: 0, z: 0}
        outSlope: {x: 0, y: 0, z: 0}
        tangentMode: 0
      - time: 1.25
        value: {x: 0, y: 0, z: -0.81900007}
        inSlope: {x: 0, y: 0, z: 0}
        outSlope: {x: 0, y: 0, z: 0}
        tangentMode: 0
      - time: 1.9666667
        value: {x: 0, y: 0, z: -1.25}
        inSlope: {x: 0, y: 0, z: 0.6139364}
        outSlope: {x: 0, y: 0, z: 0.6139364}
        tangentMode: 0
      - time: 2.65
        value: {x: 0, y: 0, z: 0}
        inSlope: {x: 0, y: 0, z: 1.8292681}
        outSlope: {x: 0, y: 0, z: 1.8292681}
        tangentMode: 0
      m_PreInfinity: 2
      m_PostInfinity: 2
      m_RotationOrder: 4
    path: Body/Torso/TorsoUpper/RightArm
  - curve:
      serializedVersion: 2
      m_Curve:
      - time: 0
        value: {x: 0, y: 0, z: 0}
        inSlope: {x: 0, y: 0, z: -8.455452}
        outSlope: {x: 0, y: 0, z: -8.455452}
        tangentMode: 0
      - time: 0.5
        value: {x: 0, y: 0, z: -4.227726}
        inSlope: {x: 0, y: 0, z: -3.6584504}
        outSlope: {x: 0, y: 0, z: -3.6584504}
        tangentMode: 0
      - time: 1.25
        value: {x: 0, y: 0, z: -3.3738127}
        inSlope: {x: 0, y: 0, z: 0.091429204}
        outSlope: {x: 0, y: 0, z: 0.091429204}
        tangentMode: 0
      - time: 1.9666667
        value: {x: 0, y: 0, z: -4.058726}
        inSlope: {x: 0, y: 0, z: 2.4919527}
        outSlope: {x: 0, y: 0, z: 2.4919527}
        tangentMode: 0
      - time: 2.65
        value: {x: 0, y: 0, z: 0}
        inSlope: {x: 0, y: 0, z: 5.939598}
        outSlope: {x: 0, y: 0, z: 5.939598}
        tangentMode: 0
      m_PreInfinity: 2
      m_PostInfinity: 2
      m_RotationOrder: 4
    path: Body/Torso/TorsoUpper/LeftArm
  - curve:
      serializedVersion: 2
      m_Curve:
      - time: 0
        value: {x: 0, y: 0, z: 0}
        inSlope: {x: 0, y: 0, z: -14.6}
        outSlope: {x: 0, y: 0, z: -14.6}
        tangentMode: 0
      - time: 0.5
        value: {x: 0, y: 0, z: -7.3}
        inSlope: {x: 0, y: 0, z: -7.3}
        outSlope: {x: 0, y: 0, z: -7.3}
        tangentMode: 0
      - time: 1.9666667
        value: {x: 0, y: 0, z: -7.3}
        inSlope: {x: 0, y: 0, z: 5.341463}
        outSlope: {x: 0, y: 0, z: 5.341463}
        tangentMode: 0
      - time: 2.65
        value: {x: 0, y: 0, z: 0}
        inSlope: {x: 0, y: 0, z: 10.682926}
        outSlope: {x: 0, y: 0, z: 10.682926}
        tangentMode: 0
      m_PreInfinity: 2
      m_PostInfinity: 2
      m_RotationOrder: 4
    path: Body/LeftLeg
  - curve:
      serializedVersion: 2
      m_Curve:
      - time: 0
        value: {x: 0, y: 0, z: 0}
        inSlope: {x: 0, y: 0, z: 21.636002}
        outSlope: {x: 0, y: 0, z: 21.636002}
        tangentMode: 0
      - time: 0.5
        value: {x: 0, y: 0, z: 10.818001}
        inSlope: {x: 0, y: 0, z: 10.818001}
        outSlope: {x: 0, y: 0, z: 10.818001}
        tangentMode: 0
      - time: 1.9666667
        value: {x: 0, y: 0, z: 10.818001}
        inSlope: {x: 0, y: 0, z: -7.91561}
        outSlope: {x: 0, y: 0, z: -7.91561}
        tangentMode: 0
      - time: 2.65
        value: {x: 0, y: 0, z: 0}
        inSlope: {x: 0, y: 0, z: -15.83122}
        outSlope: {x: 0, y: 0, z: -15.83122}
        tangentMode: 0
      m_PreInfinity: 2
      m_PostInfinity: 2
      m_RotationOrder: 4
    path: Body/LeftLeg/LeftLegLower
  - curve:
      serializedVersion: 2
      m_Curve:
      - time: 0
        value: {x: 0, y: 0, z: 0}
        inSlope: {x: 0, y: 0, z: -12.876}
        outSlope: {x: 0, y: 0, z: -12.876}
        tangentMode: 0
      - time: 0.5
        value: {x: 0, y: 0, z: -6.438}
        inSlope: {x: 0, y: 0, z: -6.438}
        outSlope: {x: 0, y: 0, z: -6.438}
        tangentMode: 0
      - time: 1.9666667
        value: {x: 0, y: 0, z: -6.438}
        inSlope: {x: 0, y: 0, z: 4.7107315}
        outSlope: {x: 0, y: 0, z: 4.7107315}
        tangentMode: 0
      - time: 2.65
        value: {x: 0, y: 0, z: 0}
        inSlope: {x: 0, y: 0, z: 9.421463}
        outSlope: {x: 0, y: 0, z: 9.421463}
        tangentMode: 0
      m_PreInfinity: 2
      m_PostInfinity: 2
      m_RotationOrder: 4
    path: Body/LeftLeg/LeftLegLower/LeftShoe
  - curve:
      serializedVersion: 2
      m_Curve:
      - time: 0
        value: {x: 0, y: 0, z: -7.913772}
        inSlope: {x: 0, y: 0, z: 7.2558174}
        outSlope: {x: 0, y: 0, z: 7.2558174}
        tangentMode: 0
      - time: 1.25
        value: {x: 0, y: 0, z: 1.156}
        inSlope: {x: 0, y: 0, z: 9.343258}
        outSlope: {x: 0, y: 0, z: 9.343258}
        tangentMode: 0
      - time: 1.9666667
        value: {x: 0, y: 0, z: 9.348001}
        inSlope: {x: 0, y: 0, z: -6.915215}
        outSlope: {x: 0, y: 0, z: -6.915215}
        tangentMode: 0
      - time: 2.65
        value: {x: 0, y: 0, z: -7.913772}
        inSlope: {x: 0, y: 0, z: -25.261127}
        outSlope: {x: 0, y: 0, z: -25.261127}
        tangentMode: 0
      m_PreInfinity: 2
      m_PostInfinity: 2
      m_RotationOrder: 4
    path: Body/Torso/TorsoUpper/RightArm/RightForearm/RightHand
  - curve:
      serializedVersion: 2
      m_Curve:
      - time: 0
        value: {x: 0, y: 0, z: 0}
        inSlope: {x: 0, y: 0, z: -9.194839}
        outSlope: {x: 0, y: 0, z: -9.194839}
        tangentMode: 0
      - time: 0.6166667
        value: {x: 0, y: 0, z: -5.6701508}
        inSlope: {x: 0, y: 0, z: -1.8732429}
        outSlope: {x: 0, y: 0, z: -1.8732429}
        tangentMode: 0
      - time: 1.25
        value: {x: 0, y: 0, z: -2.2195275}
        inSlope: {x: 0, y: 0, z: 0.7186668}
        outSlope: {x: 0, y: 0, z: 0.7186668}
        tangentMode: 0
      - time: 1.9666667
        value: {x: 0, y: 0, z: -5.0940914}
        inSlope: {x: 0, y: 0, z: 1.721874}
        outSlope: {x: 0, y: 0, z: 1.721874}
        tangentMode: 0
      - time: 2.65
        value: {x: 0, y: 0, z: 0}
        inSlope: {x: 0, y: 0, z: 7.454767}
        outSlope: {x: 0, y: 0, z: 7.454767}
        tangentMode: 0
      m_PreInfinity: 2
      m_PostInfinity: 2
      m_RotationOrder: 4
    path: Body/Torso/TorsoUpper/LeftArm/LeftForearm
  - curve:
      serializedVersion: 2
      m_Curve:
      - time: 0
        value: {x: 0, y: 0, z: 0}
        inSlope: {x: 0, y: 0, z: 3.3560002}
        outSlope: {x: 0, y: 0, z: 3.3560002}
        tangentMode: 0
      - time: 1.25
        value: {x: 0, y: 0, z: 4.195}
        inSlope: {x: 0, y: 0, z: -6.3906045}
        outSlope: {x: 0, y: 0, z: -6.3906045}
        tangentMode: 0
      - time: 1.9666667
        value: {x: 0, y: 0, z: -7.3700004}
        inSlope: {x: 0, y: 0, z: -2.675922}
        outSlope: {x: 0, y: 0, z: -2.675922}
        tangentMode: 0
      - time: 2.65
        value: {x: 0, y: 0, z: 0}
        inSlope: {x: 0, y: 0, z: 10.785365}
        outSlope: {x: 0, y: 0, z: 10.785365}
        tangentMode: 0
      m_PreInfinity: 2
      m_PostInfinity: 2
      m_RotationOrder: 4
    path: Body/Torso/TorsoUpper/LeftArm/LeftForearm/LeftHand
  - curve:
      serializedVersion: 2
      m_Curve:
      - time: 0
        value: {x: 0, y: 0, z: 0}
        inSlope: {x: 0, y: 0, z: -4.504576}
        outSlope: {x: 0, y: 0, z: -4.504576}
        tangentMode: 0
      - time: 1.9666667
        value: {x: 0, y: 0, z: -8.859}
        inSlope: {x: 0, y: 0, z: 4.229907}
        outSlope: {x: 0, y: 0, z: 4.229907}
        tangentMode: 0
      - time: 2.65
        value: {x: 0, y: 0, z: 0}
        inSlope: {x: 0, y: 0, z: 12.96439}
        outSlope: {x: 0, y: 0, z: 12.96439}
        tangentMode: 0
      m_PreInfinity: 2
      m_PostInfinity: 2
      m_RotationOrder: 4
    path: Body/Torso/TorsoUpper/RightArm/RightForearm
  m_PositionCurves:
  - curve:
      serializedVersion: 2
      m_Curve:
      - time: 0
        value: {x: -0.048318744, y: 0.21339932, z: 0}
        inSlope: {x: 0.26456407, y: -0.058002293, z: 0}
        outSlope: {x: 0.26456407, y: -0.058002293, z: 0}
        tangentMode: 0
      - time: 0.33333334
        value: {x: 0.03986928, y: 0.18976875, z: 0}
        inSlope: {x: 0, y: -0.058002323, z: 0}
        outSlope: {x: 0, y: -0.058002323, z: 0}
        tangentMode: 0
      - time: 0.5
        value: {x: 0.039869275, y: 0.18439817, z: 0}
        inSlope: {x: 0, y: 0, z: 0}
        outSlope: {x: 0, y: 0, z: 0}
        tangentMode: 0
      - time: 1.7
        value: {x: 0.03986928, y: 0.18439817, z: 0}
        inSlope: {x: 0, y: 0, z: 0}
        outSlope: {x: 0, y: 0, z: 0}
        tangentMode: 0
      - time: 1.8666667
        value: {x: 0.034916848, y: 0.18439817, z: 0}
        inSlope: {x: -0.056571983, y: 0, z: 0}
        outSlope: {x: -0.056571983, y: 0, z: 0}
        tangentMode: 0
      - time: 2.65
        value: {x: -0.048318744, y: 0.21339932, z: 0}
        inSlope: {x: -0.092829496, y: 0.037022736, z: 0}
        outSlope: {x: -0.092829496, y: 0.037022736, z: 0}
        tangentMode: 0
      m_PreInfinity: 2
      m_PostInfinity: 2
      m_RotationOrder: 4
    path: Body/Torso/TorsoUpper/Neck/Head/Face/Left/LeftEyebrow
  - curve:
      serializedVersion: 2
      m_Curve:
      - time: 0
        value: {x: -0.0673331, y: 0.20293847, z: 0}
        inSlope: {x: 0.005210802, y: 0.029999912, z: 0}
        outSlope: {x: 0.005210802, y: 0.029999912, z: 0}
        tangentMode: 0
      - time: 0.5
        value: {x: -0.0647277, y: 0.21793842, z: 0}
        inSlope: {x: 0.002605401, y: 0.014999956, z: 0}
        outSlope: {x: 0.002605401, y: 0.014999956, z: 0}
        tangentMode: 0
      - time: 1.8666667
        value: {x: -0.0647277, y: 0.21793842, z: 0}
        inSlope: {x: -0.0016630217, y: -0.009574438, z: 0}
        outSlope: {x: -0.0016630217, y: -0.009574438, z: 0}
        tangentMode: 0
      - time: 2.65
        value: {x: -0.0673331, y: 0.20293847, z: 0}
        inSlope: {x: -0.0033260435, y: -0.019148877, z: 0}
        outSlope: {x: -0.0033260435, y: -0.019148877, z: 0}
        tangentMode: 0
      m_PreInfinity: 2
      m_PostInfinity: 2
      m_RotationOrder: 4
    path: Body/Torso/TorsoUpper/Neck/Head/Face/Right/RightEyebrow
  - curve:
      serializedVersion: 2
      m_Curve:
      - time: 0
        value: {x: 0, y: 11.462, z: 0}
        inSlope: {x: 0, y: -0.30399895, z: 0}
        outSlope: {x: 0, y: -0.30399895, z: 0}
        tangentMode: 0
      - time: 0.5
        value: {x: 0, y: 11.31, z: 0}
        inSlope: {x: 0, y: -0.15199947, z: 0}
        outSlope: {x: 0, y: -0.15199947, z: 0}
        tangentMode: 0
      - time: 1.85
        value: {x: 0, y: 11.31, z: 0}
        inSlope: {x: 0, y: 0.09499966, z: 0}
        outSlope: {x: 0, y: 0.09499966, z: 0}
        tangentMode: 0
      - time: 2.65
        value: {x: 0, y: 11.462, z: 0}
        inSlope: {x: 0, y: 0.18999933, z: 0}
        outSlope: {x: 0, y: 0.18999933, z: 0}
        tangentMode: 0
      m_PreInfinity: 2
      m_PostInfinity: 2
      m_RotationOrder: 4
    path: Body/Torso
  - curve:
      serializedVersion: 2
      m_Curve:
      - time: 0
        value: {x: 0.073999405, y: 9.837, z: 0}
        inSlope: {x: 0, y: -0.15399933, z: 0}
        outSlope: {x: 0, y: -0.15399933, z: 0}
        tangentMode: 0
      - time: 0.5
        value: {x: 0.073999405, y: 9.76, z: 0}
        inSlope: {x: 0, y: -0.076999664, z: 0}
        outSlope: {x: 0, y: -0.076999664, z: 0}
        tangentMode: 0
      - time: 1.9166666
        value: {x: 0.073999405, y: 9.76, z: 0}
        inSlope: {x: 0, y: 0.05249976, z: 0}
        outSlope: {x: 0, y: 0.05249976, z: 0}
        tangentMode: 0
      - time: 2.65
        value: {x: 0.073999405, y: 9.837, z: 0}
        inSlope: {x: 0, y: 0.10499952, z: 0}
        outSlope: {x: 0, y: 0.10499952, z: 0}
        tangentMode: 0
      m_PreInfinity: 2
      m_PostInfinity: 2
      m_RotationOrder: 4
    path: Body/Waist
  m_ScaleCurves: []
  m_FloatCurves:
  - curve:
      serializedVersion: 2
      m_Curve:
      - time: 0
        value: 0
        inSlope: Infinity
        outSlope: Infinity
        tangentMode: 31
      - time: 0.5
        value: 1
        inSlope: Infinity
        outSlope: Infinity
        tangentMode: 31
      - time: 1.3666667
        value: 0
        inSlope: Infinity
        outSlope: Infinity
        tangentMode: 31
      m_PreInfinity: 2
      m_PostInfinity: 2
      m_RotationOrder: 4
    attribute: m_IsActive
    path: Body/Torso/TorsoUpper/Neck/Head/Face/Right/EyeRightClosed
    classID: 1
    script: {fileID: 0}
  - curve:
      serializedVersion: 2
      m_Curve:
      - time: 0
        value: 0
        inSlope: Infinity
        outSlope: Infinity
        tangentMode: 31
      - time: 0.5
        value: 1
        inSlope: Infinity
        outSlope: Infinity
        tangentMode: 31
      - time: 1.3666667
        value: 0
        inSlope: Infinity
        outSlope: Infinity
        tangentMode: 31
      m_PreInfinity: 2
      m_PostInfinity: 2
      m_RotationOrder: 4
    attribute: m_IsActive
    path: Body/Torso/TorsoUpper/Neck/Head/Face/Left/EyeLeftClosed
    classID: 1
    script: {fileID: 0}
  - curve:
      serializedVersion: 2
      m_Curve:
      - time: 0
        value: 1
        inSlope: Infinity
        outSlope: Infinity
        tangentMode: 31
      - time: 0.25
        value: 0
        inSlope: Infinity
        outSlope: Infinity
        tangentMode: 31
      - time: 2.15
        value: 1
        inSlope: Infinity
        outSlope: Infinity
        tangentMode: 31
      m_PreInfinity: 2
      m_PostInfinity: 2
      m_RotationOrder: 4
    attribute: m_IsActive
    path: Body/Torso/TorsoUpper/Neck/Head/Face/MouthClosed
    classID: 1
    script: {fileID: 0}
  - curve:
      serializedVersion: 2
      m_Curve:
      - time: 0
        value: 0
        inSlope: Infinity
        outSlope: Infinity
        tangentMode: 31
      - time: 0.25
        value: 1
        inSlope: Infinity
        outSlope: Infinity
        tangentMode: 31
      - time: 2.15
        value: 0
        inSlope: Infinity
        outSlope: Infinity
        tangentMode: 31
      m_PreInfinity: 2
      m_PostInfinity: 2
      m_RotationOrder: 4
    attribute: m_IsActive
    path: Body/Torso/TorsoUpper/Neck/Head/Face/MouthAnger
    classID: 1
    script: {fileID: 0}
  m_PPtrCurves: []
  m_SampleRate: 60
  m_WrapMode: 0
  m_Bounds:
    m_Center: {x: 0, y: 0, z: 0}
    m_Extent: {x: 0, y: 0, z: 0}
  m_ClipBindingConstant:
    genericBindings:
    - path: 1701800160
      attribute: 1
      script: {fileID: 0}
      classID: 4
      customType: 0
      isPPtrCurve: 0
    - path: 4044341784
      attribute: 1
      script: {fileID: 0}
      classID: 4
      customType: 0
      isPPtrCurve: 0
    - path: 17307992
      attribute: 1
      script: {fileID: 0}
      classID: 4
      customType: 0
      isPPtrCurve: 0
    - path: 1013027270
      attribute: 1
      script: {fileID: 0}
      classID: 4
      customType: 0
      isPPtrCurve: 0
    - path: 1701800160
      attribute: 4
      script: {fileID: 0}
      classID: 4
      customType: 14
      isPPtrCurve: 0
    - path: 4044341784
      attribute: 4
      script: {fileID: 0}
      classID: 4
      customType: 14
      isPPtrCurve: 0
    - path: 2157539374
      attribute: 4
      script: {fileID: 0}
      classID: 4
      customType: 14
      isPPtrCurve: 0
    - path: 4166763380
      attribute: 4
      script: {fileID: 0}
      classID: 4
      customType: 14
      isPPtrCurve: 0
    - path: 1997562997
      attribute: 4
      script: {fileID: 0}
      classID: 4
      customType: 14
      isPPtrCurve: 0
    - path: 928226820
      attribute: 4
      script: {fileID: 0}
      classID: 4
      customType: 14
      isPPtrCurve: 0
    - path: 3095407969
      attribute: 4
      script: {fileID: 0}
      classID: 4
      customType: 14
      isPPtrCurve: 0
    - path: 1536821247
      attribute: 4
      script: {fileID: 0}
      classID: 4
      customType: 14
      isPPtrCurve: 0
    - path: 1982359513
      attribute: 4
      script: {fileID: 0}
      classID: 4
      customType: 14
      isPPtrCurve: 0
    - path: 3445643512
      attribute: 4
      script: {fileID: 0}
      classID: 4
      customType: 14
      isPPtrCurve: 0
    - path: 1209925952
      attribute: 4
      script: {fileID: 0}
      classID: 4
      customType: 14
      isPPtrCurve: 0
    - path: 541443673
      attribute: 4
      script: {fileID: 0}
      classID: 4
      customType: 14
      isPPtrCurve: 0
    - path: 464622508
      attribute: 4
      script: {fileID: 0}
      classID: 4
      customType: 14
      isPPtrCurve: 0
    - path: 2224152727
      attribute: 4
      script: {fileID: 0}
      classID: 4
      customType: 14
      isPPtrCurve: 0
    - path: 1857883897
      attribute: 2086281974
      script: {fileID: 0}
      classID: 1
      customType: 0
      isPPtrCurve: 0
    - path: 2419079199
      attribute: 2086281974
      script: {fileID: 0}
      classID: 1
      customType: 0
      isPPtrCurve: 0
    - path: 1030089362
      attribute: 2086281974
      script: {fileID: 0}
      classID: 1
      customType: 0
      isPPtrCurve: 0
    - path: 4085567332
      attribute: 2086281974
      script: {fileID: 0}
      classID: 1
      customType: 0
      isPPtrCurve: 0
    pptrCurveMapping: []
  m_AnimationClipSettings:
    serializedVersion: 2
    m_AdditiveReferencePoseClip: {fileID: 0}
    m_AdditiveReferencePoseTime: 0
    m_StartTime: 0
    m_StopTime: 2.65
    m_OrientationOffsetY: 0
    m_Level: 0
    m_CycleOffset: 0
    m_HasAdditiveReferencePose: 0
    m_LoopTime: 0
    m_LoopBlend: 0
    m_LoopBlendOrientation: 0
    m_LoopBlendPositionY: 0
    m_LoopBlendPositionXZ: 0
    m_KeepOriginalOrientation: 0
    m_KeepOriginalPositionY: 1
    m_KeepOriginalPositionXZ: 0
    m_HeightFromFeet: 0
    m_Mirror: 0
  m_EditorCurves:
  - curve:
      serializedVersion: 2
      m_Curve:
      - time: 0
        value: 0
        inSlope: 0
        outSlope: 0
        tangentMode: 10
      - time: 0.5
        value: 0
        inSlope: 0
        outSlope: 0
        tangentMode: 10
      - time: 2.65
        value: 0
        inSlope: 0
        outSlope: 0
        tangentMode: 10
      m_PreInfinity: 2
      m_PostInfinity: 2
      m_RotationOrder: 4
    attribute: localEulerAnglesRaw.x
    path: Body/Torso/TorsoUpper/Neck/Head/Face/Left/LeftEyebrow
    classID: 4
    script: {fileID: 0}
  - curve:
      serializedVersion: 2
      m_Curve:
      - time: 0
        value: 0
        inSlope: 0
        outSlope: 0
        tangentMode: 10
      - time: 0.5
        value: 0
        inSlope: 0
        outSlope: 0
        tangentMode: 10
      - time: 2.65
        value: 0
        inSlope: 0
        outSlope: 0
        tangentMode: 10
      m_PreInfinity: 2
      m_PostInfinity: 2
      m_RotationOrder: 4
    attribute: localEulerAnglesRaw.y
    path: Body/Torso/TorsoUpper/Neck/Head/Face/Left/LeftEyebrow
    classID: 4
    script: {fileID: 0}
  - curve:
      serializedVersion: 2
      m_Curve:
      - time: 0
        value: -1.022789
        inSlope: -38.338665
        outSlope: -38.338665
        tangentMode: 10
      - time: 0.5
        value: -20.192122
        inSlope: 0
        outSlope: 0
        tangentMode: 0
      - time: 1.8666667
        value: -20.192122
        inSlope: 0
        outSlope: 0
        tangentMode: 0
      - time: 2.65
        value: -1.022789
        inSlope: 24.471485
        outSlope: 24.471485
        tangentMode: 10
      m_PreInfinity: 2
      m_PostInfinity: 2
      m_RotationOrder: 4
    attribute: localEulerAnglesRaw.z
    path: Body/Torso/TorsoUpper/Neck/Head/Face/Left/LeftEyebrow
    classID: 4
    script: {fileID: 0}
  - curve:
      serializedVersion: 2
      m_Curve:
      - time: 0
        value: -0.048318744
        inSlope: 0.26456407
        outSlope: 0.26456407
        tangentMode: 10
      - time: 0.33333334
        value: 0.03986928
        inSlope: 0
        outSlope: 0
        tangentMode: 0
      - time: 1.7
        value: 0.03986928
        inSlope: 0
        outSlope: 0
        tangentMode: 0
      - time: 2.65
        value: -0.048318744
        inSlope: -0.092829496
        outSlope: -0.092829496
        tangentMode: 10
      m_PreInfinity: 2
      m_PostInfinity: 2
      m_RotationOrder: 4
    attribute: m_LocalPosition.x
    path: Body/Torso/TorsoUpper/Neck/Head/Face/Left/LeftEyebrow
    classID: 4
    script: {fileID: 0}
  - curve:
      serializedVersion: 2
      m_Curve:
      - time: 0
        value: 0.21339932
        inSlope: -0.058002293
        outSlope: -0.058002293
        tangentMode: 10
      - time: 0.5
        value: 0.18439817
        inSlope: 0
        outSlope: 0
        tangentMode: 0
      - time: 1.8666667
        value: 0.18439817
        inSlope: 0
        outSlope: 0
        tangentMode: 0
      - time: 2.65
        value: 0.21339932
        inSlope: 0.037022736
        outSlope: 0.037022736
        tangentMode: 10
      m_PreInfinity: 2
      m_PostInfinity: 2
      m_RotationOrder: 4
    attribute: m_LocalPosition.y
    path: Body/Torso/TorsoUpper/Neck/Head/Face/Left/LeftEyebrow
    classID: 4
    script: {fileID: 0}
  - curve:
      serializedVersion: 2
      m_Curve:
      - time: 0
        value: 0
        inSlope: 0
        outSlope: 0
        tangentMode: 10
      - time: 0.5
        value: 0
        inSlope: 0
        outSlope: 0
        tangentMode: 0
      - time: 1.8666667
        value: 0
        inSlope: 0
        outSlope: 0
        tangentMode: 0
      - time: 2.65
        value: 0
        inSlope: 0
        outSlope: 0
        tangentMode: 10
      m_PreInfinity: 2
      m_PostInfinity: 2
      m_RotationOrder: 4
    attribute: m_LocalPosition.z
    path: Body/Torso/TorsoUpper/Neck/Head/Face/Left/LeftEyebrow
    classID: 4
    script: {fileID: 0}
  - curve:
      serializedVersion: 2
      m_Curve:
      - time: 0
        value: 0
        inSlope: 0
        outSlope: 0
        tangentMode: 10
      - time: 0.5
        value: 0
        inSlope: 0
        outSlope: 0
        tangentMode: 10
      - time: 2.65
        value: 0
        inSlope: 0
        outSlope: 0
        tangentMode: 10
      m_PreInfinity: 2
      m_PostInfinity: 2
      m_RotationOrder: 4
    attribute: localEulerAnglesRaw.x
    path: Body/Torso/TorsoUpper/Neck/Head/Face/Right/RightEyebrow
    classID: 4
    script: {fileID: 0}
  - curve:
      serializedVersion: 2
      m_Curve:
      - time: 0
        value: 0
        inSlope: 0
        outSlope: 0
        tangentMode: 10
      - time: 0.5
        value: 0
        inSlope: 0
        outSlope: 0
        tangentMode: 10
      - time: 2.65
        value: 0
        inSlope: 0
        outSlope: 0
        tangentMode: 10
      m_PreInfinity: 2
      m_PostInfinity: 2
      m_RotationOrder: 4
    attribute: localEulerAnglesRaw.y
    path: Body/Torso/TorsoUpper/Neck/Head/Face/Right/RightEyebrow
    classID: 4
    script: {fileID: 0}
  - curve:
      serializedVersion: 2
      m_Curve:
      - time: 0
        value: 1.702776
        inSlope: 45.756237
        outSlope: 45.756237
        tangentMode: 10
      - time: 0.5
        value: 24.580894
        inSlope: 0
        outSlope: 0
        tangentMode: 0
      - time: 1.8666667
        value: 24.580894
        inSlope: 0
        outSlope: 0
        tangentMode: 0
      - time: 2.65
        value: 1.702776
        inSlope: -29.206106
        outSlope: -29.206106
        tangentMode: 10
      m_PreInfinity: 2
      m_PostInfinity: 2
      m_RotationOrder: 4
    attribute: localEulerAnglesRaw.z
    path: Body/Torso/TorsoUpper/Neck/Head/Face/Right/RightEyebrow
    classID: 4
    script: {fileID: 0}
  - curve:
      serializedVersion: 2
      m_Curve:
      - time: 0
        value: -0.0673331
        inSlope: 0.005210802
        outSlope: 0.005210802
        tangentMode: 10
      - time: 0.5
        value: -0.0647277
        inSlope: 0.002605401
        outSlope: 0.002605401
        tangentMode: 10
      - time: 1.8666667
        value: -0.0647277
        inSlope: -0.0016630217
        outSlope: -0.0016630217
        tangentMode: 10
      - time: 2.65
        value: -0.0673331
        inSlope: -0.0033260435
        outSlope: -0.0033260435
        tangentMode: 10
      m_PreInfinity: 2
      m_PostInfinity: 2
      m_RotationOrder: 4
    attribute: m_LocalPosition.x
    path: Body/Torso/TorsoUpper/Neck/Head/Face/Right/RightEyebrow
    classID: 4
    script: {fileID: 0}
  - curve:
      serializedVersion: 2
      m_Curve:
      - time: 0
        value: 0.20293847
        inSlope: 0.029999912
        outSlope: 0.029999912
        tangentMode: 10
      - time: 0.5
        value: 0.21793842
        inSlope: 0.014999956
        outSlope: 0.014999956
        tangentMode: 10
      - time: 1.8666667
        value: 0.21793842
        inSlope: -0.009574438
        outSlope: -0.009574438
        tangentMode: 10
      - time: 2.65
        value: 0.20293847
        inSlope: -0.019148877
        outSlope: -0.019148877
        tangentMode: 10
      m_PreInfinity: 2
      m_PostInfinity: 2
      m_RotationOrder: 4
    attribute: m_LocalPosition.y
    path: Body/Torso/TorsoUpper/Neck/Head/Face/Right/RightEyebrow
    classID: 4
    script: {fileID: 0}
  - curve:
      serializedVersion: 2
      m_Curve:
      - time: 0
        value: 0
        inSlope: 0
        outSlope: 0
        tangentMode: 10
      - time: 0.5
        value: 0
        inSlope: 0
        outSlope: 0
        tangentMode: 10
      - time: 1.8666667
        value: 0
        inSlope: 0
        outSlope: 0
        tangentMode: 10
      - time: 2.65
        value: 0
        inSlope: 0
        outSlope: 0
        tangentMode: 10
      m_PreInfinity: 2
      m_PostInfinity: 2
      m_RotationOrder: 4
    attribute: m_LocalPosition.z
    path: Body/Torso/TorsoUpper/Neck/Head/Face/Right/RightEyebrow
    classID: 4
    script: {fileID: 0}
  - curve:
      serializedVersion: 2
      m_Curve:
      - time: 0
        value: 0
        inSlope: 0
        outSlope: 0
        tangentMode: 10
      - time: 0.5
        value: 0
        inSlope: 0
        outSlope: 0
        tangentMode: 10
      - time: 1.25
        value: 0
        inSlope: 0
        outSlope: 0
        tangentMode: 10
      - time: 1.9666667
        value: 0
        inSlope: 0
        outSlope: 0
        tangentMode: 10
      - time: 2.65
        value: 0
        inSlope: 0
        outSlope: 0
        tangentMode: 10
      m_PreInfinity: 2
      m_PostInfinity: 2
      m_RotationOrder: 4
    attribute: localEulerAnglesRaw.x
    path: Body/Torso/TorsoUpper
    classID: 4
    script: {fileID: 0}
  - curve:
      serializedVersion: 2
      m_Curve:
      - time: 0
        value: 0
        inSlope: 0
        outSlope: 0
        tangentMode: 10
      - time: 0.5
        value: 0
        inSlope: 0
        outSlope: 0
        tangentMode: 10
      - time: 1.25
        value: 0
        inSlope: 0
        outSlope: 0
        tangentMode: 10
      - time: 1.9666667
        value: 0
        inSlope: 0
        outSlope: 0
        tangentMode: 10
      - time: 2.65
        value: 0
        inSlope: 0
        outSlope: 0
        tangentMode: 10
      m_PreInfinity: 2
      m_PostInfinity: 2
      m_RotationOrder: 4
    attribute: localEulerAnglesRaw.y
    path: Body/Torso/TorsoUpper
    classID: 4
    script: {fileID: 0}
  - curve:
      serializedVersion: 2
      m_Curve:
      - time: 0
        value: 0
        inSlope: 6.4472947
        outSlope: 6.4472947
        tangentMode: 10
      - time: 0.5
        value: 3.2236474
        inSlope: 3.2185001
        outSlope: 3.2185001
        tangentMode: 10
      - time: 1.25
        value: 3.2159266
        inSlope: 0.059787933
        outSlope: 0.059787933
        tangentMode: 10
      - time: 1.9666667
        value: 3.3090003
        inSlope: -2.3562846
        outSlope: -2.3562846
        tangentMode: 10
      - time: 2.65
        value: 0
        inSlope: -4.842439
        outSlope: -4.842439
        tangentMode: 10
      m_PreInfinity: 2
      m_PostInfinity: 2
      m_RotationOrder: 4
    attribute: localEulerAnglesRaw.z
    path: Body/Torso/TorsoUpper
    classID: 4
    script: {fileID: 0}
  - curve:
      serializedVersion: 2
      m_Curve:
      - time: 0
        value: 0
        inSlope: 0
        outSlope: 0
        tangentMode: 10
      - time: 0.5
        value: 0
        inSlope: 0
        outSlope: 0
        tangentMode: 10
      - time: 1.25
        value: 0
        inSlope: 0
        outSlope: 0
        tangentMode: 10
      - time: 1.9666667
        value: 0
        inSlope: 0
        outSlope: 0
        tangentMode: 10
      - time: 2.65
        value: 0
        inSlope: 0
        outSlope: 0
        tangentMode: 10
      m_PreInfinity: 2
      m_PostInfinity: 2
      m_RotationOrder: 4
    attribute: localEulerAnglesRaw.x
    path: Body/Torso/TorsoUpper/Neck
    classID: 4
    script: {fileID: 0}
  - curve:
      serializedVersion: 2
      m_Curve:
      - time: 0
        value: 0
        inSlope: 0
        outSlope: 0
        tangentMode: 10
      - time: 0.5
        value: 0
        inSlope: 0
        outSlope: 0
        tangentMode: 10
      - time: 1.25
        value: 0
        inSlope: 0
        outSlope: 0
        tangentMode: 10
      - time: 1.9666667
        value: 0
        inSlope: 0
        outSlope: 0
        tangentMode: 10
      - time: 2.65
        value: 0
        inSlope: 0
        outSlope: 0
        tangentMode: 10
      m_PreInfinity: 2
      m_PostInfinity: 2
      m_RotationOrder: 4
    attribute: localEulerAnglesRaw.y
    path: Body/Torso/TorsoUpper/Neck
    classID: 4
    script: {fileID: 0}
  - curve:
      serializedVersion: 2
      m_Curve:
      - time: 0
        value: 0
        inSlope: 5.352
        outSlope: 5.352
        tangentMode: 10
      - time: 0.5
        value: 2.676
        inSlope: 4.65
        outSlope: 4.65
        tangentMode: 10
      - time: 1.25
        value: 5.637
        inSlope: 0.64493024
        outSlope: 0.64493024
        tangentMode: 10
      - time: 1.9666667
        value: 3.732
        inSlope: -4.059801
        outSlope: -4.059801
        tangentMode: 10
      - time: 2.65
        value: 0
        inSlope: -5.461463
        outSlope: -5.461463
        tangentMode: 10
      m_PreInfinity: 2
      m_PostInfinity: 2
      m_RotationOrder: 4
    attribute: localEulerAnglesRaw.z
    path: Body/Torso/TorsoUpper/Neck
    classID: 4
    script: {fileID: 0}
  - curve:
      serializedVersion: 2
      m_Curve:
      - time: 0
        value: 0
        inSlope: 0
        outSlope: 0
        tangentMode: 10
      - time: 0.5
        value: 0
        inSlope: 0
        outSlope: 0
        tangentMode: 10
      - time: 1.25
        value: 0
        inSlope: 0
        outSlope: 0
        tangentMode: 10
      - time: 1.9666667
        value: 0
        inSlope: 0
        outSlope: 0
        tangentMode: 10
      - time: 2.65
        value: 0
        inSlope: 0
        outSlope: 0
        tangentMode: 10
      m_PreInfinity: 2
      m_PostInfinity: 2
      m_RotationOrder: 4
    attribute: localEulerAnglesRaw.x
    path: Body/Torso/TorsoUpper/Neck/Head
    classID: 4
    script: {fileID: 0}
  - curve:
      serializedVersion: 2
      m_Curve:
      - time: 0
        value: 0
        inSlope: 0
        outSlope: 0
        tangentMode: 10
      - time: 0.5
        value: 0
        inSlope: 0
        outSlope: 0
        tangentMode: 10
      - time: 1.25
        value: 0
        inSlope: 0
        outSlope: 0
        tangentMode: 10
      - time: 1.9666667
        value: 0
        inSlope: 0
        outSlope: 0
        tangentMode: 10
      - time: 2.65
        value: 0
        inSlope: 0
        outSlope: 0
        tangentMode: 10
      m_PreInfinity: 2
      m_PostInfinity: 2
      m_RotationOrder: 4
    attribute: localEulerAnglesRaw.y
    path: Body/Torso/TorsoUpper/Neck/Head
    classID: 4
    script: {fileID: 0}
  - curve:
      serializedVersion: 2
      m_Curve:
      - time: 0
        value: 0
        inSlope: 7.1240005
        outSlope: 7.1240005
        tangentMode: 10
      - time: 0.5
        value: 3.5620003
        inSlope: 0.5146668
        outSlope: 0.5146668
        tangentMode: 10
      - time: 1.25
        value: -1.0090001
        inSlope: -1.8536125
        outSlope: -1.8536125
        tangentMode: 10
      - time: 1.9666667
        value: 0.702
        inSlope: 0.6800624
        outSlope: 0.6800624
        tangentMode: 10
      - time: 2.65
        value: 0
        inSlope: -1.027317
        outSlope: -1.027317
        tangentMode: 10
      m_PreInfinity: 2
      m_PostInfinity: 2
      m_RotationOrder: 4
    attribute: localEulerAnglesRaw.z
    path: Body/Torso/TorsoUpper/Neck/Head
    classID: 4
    script: {fileID: 0}
  - curve:
      serializedVersion: 2
      m_Curve:
      - time: 0
        value: 0
        inSlope: 0
        outSlope: 0
        tangentMode: 10
      - time: 0.5
        value: 0
        inSlope: 0
        outSlope: 0
        tangentMode: 0
      - time: 1.25
        value: 0
        inSlope: 0
        outSlope: 0
        tangentMode: 0
      - time: 1.9666667
        value: 0
        inSlope: 0
        outSlope: 0
        tangentMode: 10
      - time: 2.65
        value: 0
        inSlope: 0
        outSlope: 0
        tangentMode: 10
      m_PreInfinity: 2
      m_PostInfinity: 2
      m_RotationOrder: 4
    attribute: localEulerAnglesRaw.x
    path: Body/Torso/TorsoUpper/RightArm
    classID: 4
    script: {fileID: 0}
  - curve:
      serializedVersion: 2
      m_Curve:
      - time: 0
        value: 0
        inSlope: 0
        outSlope: 0
        tangentMode: 10
      - time: 0.5
        value: 0
        inSlope: 0
        outSlope: 0
        tangentMode: 0
      - time: 1.25
        value: 0
        inSlope: 0
        outSlope: 0
        tangentMode: 0
      - time: 1.9666667
        value: 0
        inSlope: 0
        outSlope: 0
        tangentMode: 10
      - time: 2.65
        value: 0
        inSlope: 0
        outSlope: 0
        tangentMode: 10
      m_PreInfinity: 2
      m_PostInfinity: 2
      m_RotationOrder: 4
    attribute: localEulerAnglesRaw.y
    path: Body/Torso/TorsoUpper/RightArm
    classID: 4
    script: {fileID: 0}
  - curve:
      serializedVersion: 2
      m_Curve:
      - time: 0
        value: 0
        inSlope: -5.8120003
        outSlope: -5.8120003
        tangentMode: 10
      - time: 0.5
        value: -2.9060001
        inSlope: 0
        outSlope: 0
        tangentMode: 0
      - time: 1.25
        value: -0.81900007
        inSlope: 0
        outSlope: 0
        tangentMode: 0
      - time: 1.9666667
        value: -1.25
        inSlope: 0.6139364
        outSlope: 0.6139364
        tangentMode: 10
      - time: 2.65
        value: 0
        inSlope: 1.8292681
        outSlope: 1.8292681
        tangentMode: 10
      m_PreInfinity: 2
      m_PostInfinity: 2
      m_RotationOrder: 4
    attribute: localEulerAnglesRaw.z
    path: Body/Torso/TorsoUpper/RightArm
    classID: 4
    script: {fileID: 0}
  - curve:
      serializedVersion: 2
      m_Curve:
      - time: 0
        value: 0
        inSlope: 0
        outSlope: 0
        tangentMode: 10
      - time: 0.5
        value: 0
        inSlope: 0
        outSlope: 0
        tangentMode: 10
      - time: 1.25
        value: 0
        inSlope: 0
        outSlope: 0
        tangentMode: 10
      - time: 1.9666667
        value: 0
        inSlope: 0
        outSlope: 0
        tangentMode: 10
      - time: 2.65
        value: 0
        inSlope: 0
        outSlope: 0
        tangentMode: 10
      m_PreInfinity: 2
      m_PostInfinity: 2
      m_RotationOrder: 4
    attribute: localEulerAnglesRaw.x
    path: Body/Torso/TorsoUpper/LeftArm
    classID: 4
    script: {fileID: 0}
  - curve:
      serializedVersion: 2
      m_Curve:
      - time: 0
        value: 0
        inSlope: 0
        outSlope: 0
        tangentMode: 10
      - time: 0.5
        value: 0
        inSlope: 0
        outSlope: 0
        tangentMode: 10
      - time: 1.25
        value: 0
        inSlope: 0
        outSlope: 0
        tangentMode: 10
      - time: 1.9666667
        value: 0
        inSlope: 0
        outSlope: 0
        tangentMode: 10
      - time: 2.65
        value: 0
        inSlope: 0
        outSlope: 0
        tangentMode: 10
      m_PreInfinity: 2
      m_PostInfinity: 2
      m_RotationOrder: 4
    attribute: localEulerAnglesRaw.y
    path: Body/Torso/TorsoUpper/LeftArm
    classID: 4
    script: {fileID: 0}
  - curve:
      serializedVersion: 2
      m_Curve:
      - time: 0
        value: 0
        inSlope: -8.455452
        outSlope: -8.455452
        tangentMode: 10
      - time: 0.5
        value: -4.227726
        inSlope: -3.6584504
        outSlope: -3.6584504
        tangentMode: 10
      - time: 1.25
        value: -3.3738127
        inSlope: 0.091429204
        outSlope: 0.091429204
        tangentMode: 10
      - time: 1.9666667
        value: -4.058726
        inSlope: 2.4919527
        outSlope: 2.4919527
        tangentMode: 10
      - time: 2.65
        value: 0
        inSlope: 5.939598
        outSlope: 5.939598
        tangentMode: 10
      m_PreInfinity: 2
      m_PostInfinity: 2
      m_RotationOrder: 4
    attribute: localEulerAnglesRaw.z
    path: Body/Torso/TorsoUpper/LeftArm
    classID: 4
    script: {fileID: 0}
  - curve:
      serializedVersion: 2
      m_Curve:
      - time: 0
        value: 0
        inSlope: 0
        outSlope: 0
        tangentMode: 10
      - time: 0.5
        value: 0
        inSlope: 0
        outSlope: 0
        tangentMode: 10
      - time: 1.9666667
        value: 0
        inSlope: 0
        outSlope: 0
        tangentMode: 10
      - time: 2.65
        value: 0
        inSlope: 0
        outSlope: 0
        tangentMode: 10
      m_PreInfinity: 2
      m_PostInfinity: 2
      m_RotationOrder: 4
    attribute: localEulerAnglesRaw.x
    path: Body/LeftLeg
    classID: 4
    script: {fileID: 0}
  - curve:
      serializedVersion: 2
      m_Curve:
      - time: 0
        value: 0
        inSlope: 0
        outSlope: 0
        tangentMode: 10
      - time: 0.5
        value: 0
        inSlope: 0
        outSlope: 0
        tangentMode: 10
      - time: 1.9666667
        value: 0
        inSlope: 0
        outSlope: 0
        tangentMode: 10
      - time: 2.65
        value: 0
        inSlope: 0
        outSlope: 0
        tangentMode: 10
      m_PreInfinity: 2
      m_PostInfinity: 2
      m_RotationOrder: 4
    attribute: localEulerAnglesRaw.y
    path: Body/LeftLeg
    classID: 4
    script: {fileID: 0}
  - curve:
      serializedVersion: 2
      m_Curve:
      - time: 0
        value: 0
        inSlope: -14.6
        outSlope: -14.6
        tangentMode: 10
      - time: 0.5
        value: -7.3
        inSlope: -7.3
        outSlope: -7.3
        tangentMode: 10
      - time: 1.9666667
        value: -7.3
        inSlope: 5.341463
        outSlope: 5.341463
        tangentMode: 10
      - time: 2.65
        value: 0
        inSlope: 10.682926
        outSlope: 10.682926
        tangentMode: 10
      m_PreInfinity: 2
      m_PostInfinity: 2
      m_RotationOrder: 4
    attribute: localEulerAnglesRaw.z
    path: Body/LeftLeg
    classID: 4
    script: {fileID: 0}
  - curve:
      serializedVersion: 2
      m_Curve:
      - time: 0
        value: 0
        inSlope: 0
        outSlope: 0
        tangentMode: 10
      - time: 0.5
        value: 0
        inSlope: 0
        outSlope: 0
        tangentMode: 10
      - time: 1.9666667
        value: 0
        inSlope: 0
        outSlope: 0
        tangentMode: 10
      - time: 2.65
        value: 0
        inSlope: 0
        outSlope: 0
        tangentMode: 10
      m_PreInfinity: 2
      m_PostInfinity: 2
      m_RotationOrder: 4
    attribute: localEulerAnglesRaw.x
    path: Body/LeftLeg/LeftLegLower
    classID: 4
    script: {fileID: 0}
  - curve:
      serializedVersion: 2
      m_Curve:
      - time: 0
        value: 0
        inSlope: 0
        outSlope: 0
        tangentMode: 10
      - time: 0.5
        value: 0
        inSlope: 0
        outSlope: 0
        tangentMode: 10
      - time: 1.9666667
        value: 0
        inSlope: 0
        outSlope: 0
        tangentMode: 10
      - time: 2.65
        value: 0
        inSlope: 0
        outSlope: 0
        tangentMode: 10
      m_PreInfinity: 2
      m_PostInfinity: 2
      m_RotationOrder: 4
    attribute: localEulerAnglesRaw.y
    path: Body/LeftLeg/LeftLegLower
    classID: 4
    script: {fileID: 0}
  - curve:
      serializedVersion: 2
      m_Curve:
      - time: 0
        value: 0
        inSlope: 21.636002
        outSlope: 21.636002
        tangentMode: 10
      - time: 0.5
        value: 10.818001
        inSlope: 10.818001
        outSlope: 10.818001
        tangentMode: 10
      - time: 1.9666667
        value: 10.818001
        inSlope: -7.91561
        outSlope: -7.91561
        tangentMode: 10
      - time: 2.65
        value: 0
        inSlope: -15.83122
        outSlope: -15.83122
        tangentMode: 10
      m_PreInfinity: 2
      m_PostInfinity: 2
      m_RotationOrder: 4
    attribute: localEulerAnglesRaw.z
    path: Body/LeftLeg/LeftLegLower
    classID: 4
    script: {fileID: 0}
  - curve:
      serializedVersion: 2
      m_Curve:
      - time: 0
        value: 0
        inSlope: 0
        outSlope: 0
        tangentMode: 10
      - time: 0.5
        value: 0
        inSlope: 0
        outSlope: 0
        tangentMode: 10
      - time: 1.9666667
        value: 0
        inSlope: 0
        outSlope: 0
        tangentMode: 10
      - time: 2.65
        value: 0
        inSlope: 0
        outSlope: 0
        tangentMode: 10
      m_PreInfinity: 2
      m_PostInfinity: 2
      m_RotationOrder: 4
    attribute: localEulerAnglesRaw.x
    path: Body/LeftLeg/LeftLegLower/LeftShoe
    classID: 4
    script: {fileID: 0}
  - curve:
      serializedVersion: 2
      m_Curve:
      - time: 0
        value: 0
        inSlope: 0
        outSlope: 0
        tangentMode: 10
      - time: 0.5
        value: 0
        inSlope: 0
        outSlope: 0
        tangentMode: 10
      - time: 1.9666667
        value: 0
        inSlope: 0
        outSlope: 0
        tangentMode: 10
      - time: 2.65
        value: 0
        inSlope: 0
        outSlope: 0
        tangentMode: 10
      m_PreInfinity: 2
      m_PostInfinity: 2
      m_RotationOrder: 4
    attribute: localEulerAnglesRaw.y
    path: Body/LeftLeg/LeftLegLower/LeftShoe
    classID: 4
    script: {fileID: 0}
  - curve:
      serializedVersion: 2
      m_Curve:
      - time: 0
        value: 0
        inSlope: -12.876
        outSlope: -12.876
        tangentMode: 10
      - time: 0.5
        value: -6.438
        inSlope: -6.438
        outSlope: -6.438
        tangentMode: 10
      - time: 1.9666667
        value: -6.438
        inSlope: 4.7107315
        outSlope: 4.7107315
        tangentMode: 10
      - time: 2.65
        value: 0
        inSlope: 9.421463
        outSlope: 9.421463
        tangentMode: 10
      m_PreInfinity: 2
      m_PostInfinity: 2
      m_RotationOrder: 4
    attribute: localEulerAnglesRaw.z
    path: Body/LeftLeg/LeftLegLower/LeftShoe
    classID: 4
    script: {fileID: 0}
  - curve:
      serializedVersion: 2
      m_Curve:
      - time: 0
        value: 0
        inSlope: 0
        outSlope: 0
        tangentMode: 10
      - time: 0.5
        value: 0
        inSlope: 0
        outSlope: 0
        tangentMode: 10
      - time: 1.85
        value: 0
        inSlope: 0
        outSlope: 0
        tangentMode: 10
      - time: 2.65
        value: 0
        inSlope: 0
        outSlope: 0
        tangentMode: 10
      m_PreInfinity: 2
      m_PostInfinity: 2
      m_RotationOrder: 4
    attribute: m_LocalPosition.x
    path: Body/Torso
    classID: 4
    script: {fileID: 0}
  - curve:
      serializedVersion: 2
      m_Curve:
      - time: 0
        value: 11.462
        inSlope: -0.30399895
        outSlope: -0.30399895
        tangentMode: 10
      - time: 0.5
        value: 11.31
        inSlope: -0.15199947
        outSlope: -0.15199947
        tangentMode: 10
      - time: 1.85
        value: 11.31
        inSlope: 0.09499966
        outSlope: 0.09499966
        tangentMode: 10
      - time: 2.65
        value: 11.462
        inSlope: 0.18999933
        outSlope: 0.18999933
        tangentMode: 10
      m_PreInfinity: 2
      m_PostInfinity: 2
      m_RotationOrder: 4
    attribute: m_LocalPosition.y
    path: Body/Torso
    classID: 4
    script: {fileID: 0}
  - curve:
      serializedVersion: 2
      m_Curve:
      - time: 0
        value: 0
        inSlope: 0
        outSlope: 0
        tangentMode: 10
      - time: 0.5
        value: 0
        inSlope: 0
        outSlope: 0
        tangentMode: 10
      - time: 1.85
        value: 0
        inSlope: 0
        outSlope: 0
        tangentMode: 10
      - time: 2.65
        value: 0
        inSlope: 0
        outSlope: 0
        tangentMode: 10
      m_PreInfinity: 2
      m_PostInfinity: 2
      m_RotationOrder: 4
    attribute: m_LocalPosition.z
    path: Body/Torso
    classID: 4
    script: {fileID: 0}
  - curve:
      serializedVersion: 2
      m_Curve:
      - time: 0
        value: 0.073999405
        inSlope: 0
        outSlope: 0
        tangentMode: 10
      - time: 0.5
        value: 0.073999405
        inSlope: 0
        outSlope: 0
        tangentMode: 10
      - time: 1.9166666
        value: 0.073999405
        inSlope: 0
        outSlope: 0
        tangentMode: 10
      - time: 2.65
        value: 0.073999405
        inSlope: 0
        outSlope: 0
        tangentMode: 10
      m_PreInfinity: 2
      m_PostInfinity: 2
      m_RotationOrder: 4
    attribute: m_LocalPosition.x
    path: Body/Waist
    classID: 4
    script: {fileID: 0}
  - curve:
      serializedVersion: 2
      m_Curve:
      - time: 0
        value: 9.837
        inSlope: -0.15399933
        outSlope: -0.15399933
        tangentMode: 10
      - time: 0.5
        value: 9.76
        inSlope: -0.076999664
        outSlope: -0.076999664
        tangentMode: 10
      - time: 1.9166666
        value: 9.76
        inSlope: 0.05249976
        outSlope: 0.05249976
        tangentMode: 10
      - time: 2.65
        value: 9.837
        inSlope: 0.10499952
        outSlope: 0.10499952
        tangentMode: 10
      m_PreInfinity: 2
      m_PostInfinity: 2
      m_RotationOrder: 4
    attribute: m_LocalPosition.y
    path: Body/Waist
    classID: 4
    script: {fileID: 0}
  - curve:
      serializedVersion: 2
      m_Curve:
      - time: 0
        value: 0
        inSlope: 0
        outSlope: 0
        tangentMode: 10
      - time: 0.5
        value: 0
        inSlope: 0
        outSlope: 0
        tangentMode: 10
      - time: 1.9166666
        value: 0
        inSlope: 0
        outSlope: 0
        tangentMode: 10
      - time: 2.65
        value: 0
        inSlope: 0
        outSlope: 0
        tangentMode: 10
      m_PreInfinity: 2
      m_PostInfinity: 2
      m_RotationOrder: 4
    attribute: m_LocalPosition.z
    path: Body/Waist
    classID: 4
    script: {fileID: 0}
  - curve:
      serializedVersion: 2
      m_Curve:
      - time: 0
        value: 0
        inSlope: 0
        outSlope: 0
        tangentMode: 10
      - time: 1.25
        value: 0
        inSlope: 0
        outSlope: 0
        tangentMode: 10
      - time: 1.9666667
        value: 0
        inSlope: 0
        outSlope: 0
        tangentMode: 10
      - time: 2.65
        value: 0
        inSlope: 0
        outSlope: 0
        tangentMode: 10
      m_PreInfinity: 2
      m_PostInfinity: 2
      m_RotationOrder: 4
    attribute: localEulerAnglesRaw.x
    path: Body/Torso/TorsoUpper/RightArm/RightForearm/RightHand
    classID: 4
    script: {fileID: 0}
  - curve:
      serializedVersion: 2
      m_Curve:
      - time: 0
        value: 0
        inSlope: 0
        outSlope: 0
        tangentMode: 10
      - time: 1.25
        value: 0
        inSlope: 0
        outSlope: 0
        tangentMode: 10
      - time: 1.9666667
        value: 0
        inSlope: 0
        outSlope: 0
        tangentMode: 10
      - time: 2.65
        value: 0
        inSlope: 0
        outSlope: 0
        tangentMode: 10
      m_PreInfinity: 2
      m_PostInfinity: 2
      m_RotationOrder: 4
    attribute: localEulerAnglesRaw.y
    path: Body/Torso/TorsoUpper/RightArm/RightForearm/RightHand
    classID: 4
    script: {fileID: 0}
  - curve:
      serializedVersion: 2
      m_Curve:
      - time: 0
        value: -7.913772
        inSlope: 7.2558174
        outSlope: 7.2558174
        tangentMode: 10
      - time: 1.25
        value: 1.156
        inSlope: 9.343258
        outSlope: 9.343258
        tangentMode: 10
      - time: 1.9666667
        value: 9.348001
        inSlope: -6.915215
        outSlope: -6.915215
        tangentMode: 10
      - time: 2.65
        value: -7.913772
        inSlope: -25.261127
        outSlope: -25.261127
        tangentMode: 10
      m_PreInfinity: 2
      m_PostInfinity: 2
      m_RotationOrder: 4
    attribute: localEulerAnglesRaw.z
    path: Body/Torso/TorsoUpper/RightArm/RightForearm/RightHand
    classID: 4
    script: {fileID: 0}
  - curve:
      serializedVersion: 2
      m_Curve:
      - time: 0
        value: 0
        inSlope: 0
        outSlope: 0
        tangentMode: 10
      - time: 1.25
        value: 0
        inSlope: 0
        outSlope: 0
        tangentMode: 10
      - time: 1.9666667
        value: 0
        inSlope: 0
        outSlope: 0
        tangentMode: 10
      - time: 2.65
        value: 0
        inSlope: 0
        outSlope: 0
        tangentMode: 10
      m_PreInfinity: 2
      m_PostInfinity: 2
      m_RotationOrder: 4
    attribute: localEulerAnglesRaw.x
    path: Body/Torso/TorsoUpper/LeftArm/LeftForearm
    classID: 4
    script: {fileID: 0}
  - curve:
      serializedVersion: 2
      m_Curve:
      - time: 0
        value: 0
        inSlope: 0
        outSlope: 0
        tangentMode: 10
      - time: 1.25
        value: 0
        inSlope: 0
        outSlope: 0
        tangentMode: 10
      - time: 1.9666667
        value: 0
        inSlope: 0
        outSlope: 0
        tangentMode: 10
      - time: 2.65
        value: 0
        inSlope: 0
        outSlope: 0
        tangentMode: 10
      m_PreInfinity: 2
      m_PostInfinity: 2
      m_RotationOrder: 4
    attribute: localEulerAnglesRaw.y
    path: Body/Torso/TorsoUpper/LeftArm/LeftForearm
    classID: 4
    script: {fileID: 0}
  - curve:
      serializedVersion: 2
      m_Curve:
      - time: 0
        value: 0
        inSlope: -9.194839
        outSlope: -9.194839
        tangentMode: 10
      - time: 0.6166667
        value: -5.6701508
        inSlope: -1.8732429
        outSlope: -1.8732429
        tangentMode: 10
      - time: 1.25
        value: -2.2195275
        inSlope: 0.7186668
        outSlope: 0.7186668
        tangentMode: 10
      - time: 1.9666667
        value: -5.0940914
        inSlope: 1.721874
        outSlope: 1.721874
        tangentMode: 10
      - time: 2.65
        value: 0
        inSlope: 7.454767
        outSlope: 7.454767
        tangentMode: 10
      m_PreInfinity: 2
      m_PostInfinity: 2
      m_RotationOrder: 4
    attribute: localEulerAnglesRaw.z
    path: Body/Torso/TorsoUpper/LeftArm/LeftForearm
    classID: 4
    script: {fileID: 0}
  - curve:
      serializedVersion: 2
      m_Curve:
      - time: 0
        value: 0
        inSlope: 0
        outSlope: 0
        tangentMode: 10
      - time: 1.25
        value: 0
        inSlope: 0
        outSlope: 0
        tangentMode: 10
      - time: 1.9666667
        value: 0
        inSlope: 0
        outSlope: 0
        tangentMode: 10
      - time: 2.65
        value: 0
        inSlope: 0
        outSlope: 0
        tangentMode: 10
      m_PreInfinity: 2
      m_PostInfinity: 2
      m_RotationOrder: 4
    attribute: localEulerAnglesRaw.x
    path: Body/Torso/TorsoUpper/LeftArm/LeftForearm/LeftHand
    classID: 4
    script: {fileID: 0}
  - curve:
      serializedVersion: 2
      m_Curve:
      - time: 0
        value: 0
        inSlope: 0
        outSlope: 0
        tangentMode: 10
      - time: 1.25
        value: 0
        inSlope: 0
        outSlope: 0
        tangentMode: 10
      - time: 1.9666667
        value: 0
        inSlope: 0
        outSlope: 0
        tangentMode: 10
      - time: 2.65
        value: 0
        inSlope: 0
        outSlope: 0
        tangentMode: 10
      m_PreInfinity: 2
      m_PostInfinity: 2
      m_RotationOrder: 4
    attribute: localEulerAnglesRaw.y
    path: Body/Torso/TorsoUpper/LeftArm/LeftForearm/LeftHand
    classID: 4
    script: {fileID: 0}
  - curve:
      serializedVersion: 2
      m_Curve:
      - time: 0
        value: 0
        inSlope: 3.3560002
        outSlope: 3.3560002
        tangentMode: 10
      - time: 1.25
        value: 4.195
        inSlope: -6.3906045
        outSlope: -6.3906045
        tangentMode: 10
      - time: 1.9666667
        value: -7.3700004
        inSlope: -2.675922
        outSlope: -2.675922
        tangentMode: 10
      - time: 2.65
        value: 0
        inSlope: 10.785365
        outSlope: 10.785365
        tangentMode: 10
      m_PreInfinity: 2
      m_PostInfinity: 2
      m_RotationOrder: 4
    attribute: localEulerAnglesRaw.z
    path: Body/Torso/TorsoUpper/LeftArm/LeftForearm/LeftHand
    classID: 4
    script: {fileID: 0}
  - curve:
      serializedVersion: 2
      m_Curve:
      - time: 0
        value: 0
        inSlope: 0
        outSlope: 0
        tangentMode: 10
      - time: 1.9666667
        value: 0
        inSlope: 0
        outSlope: 0
        tangentMode: 10
      - time: 2.65
        value: 0
        inSlope: 0
        outSlope: 0
        tangentMode: 10
      m_PreInfinity: 2
      m_PostInfinity: 2
      m_RotationOrder: 4
    attribute: localEulerAnglesRaw.x
    path: Body/Torso/TorsoUpper/RightArm/RightForearm
    classID: 4
    script: {fileID: 0}
  - curve:
      serializedVersion: 2
      m_Curve:
      - time: 0
        value: 0
        inSlope: 0
        outSlope: 0
        tangentMode: 10
      - time: 1.9666667
        value: 0
        inSlope: 0
        outSlope: 0
        tangentMode: 10
      - time: 2.65
        value: 0
        inSlope: 0
        outSlope: 0
        tangentMode: 10
      m_PreInfinity: 2
      m_PostInfinity: 2
      m_RotationOrder: 4
    attribute: localEulerAnglesRaw.y
    path: Body/Torso/TorsoUpper/RightArm/RightForearm
    classID: 4
    script: {fileID: 0}
  - curve:
      serializedVersion: 2
      m_Curve:
      - time: 0
        value: 0
        inSlope: -4.504576
        outSlope: -4.504576
        tangentMode: 10
      - time: 1.9666667
        value: -8.859
        inSlope: 4.229907
        outSlope: 4.229907
        tangentMode: 10
      - time: 2.65
        value: 0
        inSlope: 12.96439
        outSlope: 12.96439
        tangentMode: 10
      m_PreInfinity: 2
      m_PostInfinity: 2
      m_RotationOrder: 4
    attribute: localEulerAnglesRaw.z
    path: Body/Torso/TorsoUpper/RightArm/RightForearm
    classID: 4
    script: {fileID: 0}
  - curve:
      serializedVersion: 2
      m_Curve:
      - time: 0
        value: 0
        inSlope: Infinity
        outSlope: Infinity
        tangentMode: 31
      - time: 0.5
        value: 1
        inSlope: Infinity
        outSlope: Infinity
        tangentMode: 31
      - time: 1.3666667
        value: 0
        inSlope: Infinity
        outSlope: Infinity
        tangentMode: 31
      m_PreInfinity: 2
      m_PostInfinity: 2
      m_RotationOrder: 4
    attribute: m_IsActive
    path: Body/Torso/TorsoUpper/Neck/Head/Face/Right/EyeRightClosed
    classID: 1
    script: {fileID: 0}
  - curve:
      serializedVersion: 2
      m_Curve:
      - time: 0
        value: 0
        inSlope: Infinity
        outSlope: Infinity
        tangentMode: 31
      - time: 0.5
        value: 1
        inSlope: Infinity
        outSlope: Infinity
        tangentMode: 31
      - time: 1.3666667
        value: 0
        inSlope: Infinity
        outSlope: Infinity
        tangentMode: 31
      m_PreInfinity: 2
      m_PostInfinity: 2
      m_RotationOrder: 4
    attribute: m_IsActive
    path: Body/Torso/TorsoUpper/Neck/Head/Face/Left/EyeLeftClosed
    classID: 1
    script: {fileID: 0}
  - curve:
      serializedVersion: 2
      m_Curve:
      - time: 0
        value: 1
        inSlope: Infinity
        outSlope: Infinity
        tangentMode: 31
      - time: 0.25
        value: 0
        inSlope: Infinity
        outSlope: Infinity
        tangentMode: 31
      - time: 2.15
        value: 1
        inSlope: Infinity
        outSlope: Infinity
        tangentMode: 31
      m_PreInfinity: 2
      m_PostInfinity: 2
      m_RotationOrder: 4
    attribute: m_IsActive
    path: Body/Torso/TorsoUpper/Neck/Head/Face/MouthClosed
    classID: 1
    script: {fileID: 0}
  - curve:
      serializedVersion: 2
      m_Curve:
      - time: 0
        value: 0
        inSlope: Infinity
        outSlope: Infinity
        tangentMode: 31
      - time: 0.25
        value: 1
        inSlope: Infinity
        outSlope: Infinity
        tangentMode: 31
      - time: 2.15
        value: 0
        inSlope: Infinity
        outSlope: Infinity
        tangentMode: 31
      m_PreInfinity: 2
      m_PostInfinity: 2
      m_RotationOrder: 4
    attribute: m_IsActive
    path: Body/Torso/TorsoUpper/Neck/Head/Face/MouthAnger
    classID: 1
    script: {fileID: 0}
  m_EulerEditorCurves:
  - curve:
      serializedVersion: 2
      m_Curve: []
      m_PreInfinity: 2
      m_PostInfinity: 2
      m_RotationOrder: 4
    attribute: m_LocalEulerAngles.z
    path: Body/LeftLeg
    classID: 4
    script: {fileID: 0}
  - curve:
      serializedVersion: 2
      m_Curve: []
      m_PreInfinity: 2
      m_PostInfinity: 2
      m_RotationOrder: 4
    attribute: m_LocalEulerAngles.y
    path: Body/LeftLeg
    classID: 4
    script: {fileID: 0}
  - curve:
      serializedVersion: 2
      m_Curve: []
      m_PreInfinity: 2
      m_PostInfinity: 2
      m_RotationOrder: 4
    attribute: m_LocalEulerAngles.x
    path: Body/LeftLeg
    classID: 4
    script: {fileID: 0}
  - curve:
      serializedVersion: 2
      m_Curve: []
      m_PreInfinity: 2
      m_PostInfinity: 2
      m_RotationOrder: 4
    attribute: m_LocalEulerAngles.z
    path: Body/Torso/TorsoUpper/RightArm/RightForearm/RightHand
    classID: 4
    script: {fileID: 0}
  - curve:
      serializedVersion: 2
      m_Curve: []
      m_PreInfinity: 2
      m_PostInfinity: 2
      m_RotationOrder: 4
    attribute: m_LocalEulerAngles.y
    path: Body/Torso/TorsoUpper/RightArm/RightForearm/RightHand
    classID: 4
    script: {fileID: 0}
  - curve:
      serializedVersion: 2
      m_Curve: []
      m_PreInfinity: 2
      m_PostInfinity: 2
      m_RotationOrder: 4
    attribute: m_LocalEulerAngles.x
    path: Body/Torso/TorsoUpper/RightArm/RightForearm/RightHand
    classID: 4
    script: {fileID: 0}
  - curve:
      serializedVersion: 2
      m_Curve: []
      m_PreInfinity: 2
      m_PostInfinity: 2
      m_RotationOrder: 4
    attribute: m_LocalEulerAngles.z
    path: Body/Torso/TorsoUpper/Neck
    classID: 4
    script: {fileID: 0}
  - curve:
      serializedVersion: 2
      m_Curve: []
      m_PreInfinity: 2
      m_PostInfinity: 2
      m_RotationOrder: 4
    attribute: m_LocalEulerAngles.y
    path: Body/Torso/TorsoUpper/Neck
    classID: 4
    script: {fileID: 0}
  - curve:
      serializedVersion: 2
      m_Curve: []
      m_PreInfinity: 2
      m_PostInfinity: 2
      m_RotationOrder: 4
    attribute: m_LocalEulerAngles.x
    path: Body/Torso/TorsoUpper/Neck
    classID: 4
    script: {fileID: 0}
  - curve:
      serializedVersion: 2
      m_Curve: []
      m_PreInfinity: 2
      m_PostInfinity: 2
      m_RotationOrder: 4
    attribute: m_LocalEulerAngles.z
    path: Body/Torso/TorsoUpper/LeftArm
    classID: 4
    script: {fileID: 0}
  - curve:
      serializedVersion: 2
      m_Curve: []
      m_PreInfinity: 2
      m_PostInfinity: 2
      m_RotationOrder: 4
    attribute: m_LocalEulerAngles.y
    path: Body/Torso/TorsoUpper/LeftArm
    classID: 4
    script: {fileID: 0}
  - curve:
      serializedVersion: 2
      m_Curve: []
      m_PreInfinity: 2
      m_PostInfinity: 2
      m_RotationOrder: 4
    attribute: m_LocalEulerAngles.x
    path: Body/Torso/TorsoUpper/LeftArm
    classID: 4
    script: {fileID: 0}
  - curve:
      serializedVersion: 2
      m_Curve: []
      m_PreInfinity: 2
      m_PostInfinity: 2
      m_RotationOrder: 4
    attribute: m_LocalEulerAngles.z
    path: Body/LeftLeg/LeftLegLower/LeftShoe
    classID: 4
    script: {fileID: 0}
  - curve:
      serializedVersion: 2
      m_Curve: []
      m_PreInfinity: 2
      m_PostInfinity: 2
      m_RotationOrder: 4
    attribute: m_LocalEulerAngles.y
    path: Body/LeftLeg/LeftLegLower/LeftShoe
    classID: 4
    script: {fileID: 0}
  - curve:
      serializedVersion: 2
      m_Curve: []
      m_PreInfinity: 2
      m_PostInfinity: 2
      m_RotationOrder: 4
    attribute: m_LocalEulerAngles.x
    path: Body/LeftLeg/LeftLegLower/LeftShoe
    classID: 4
    script: {fileID: 0}
  - curve:
      serializedVersion: 2
      m_Curve: []
      m_PreInfinity: 2
      m_PostInfinity: 2
      m_RotationOrder: 4
    attribute: m_LocalEulerAngles.z
    path: Body/Torso/TorsoUpper/RightArm
    classID: 4
    script: {fileID: 0}
  - curve:
      serializedVersion: 2
      m_Curve: []
      m_PreInfinity: 2
      m_PostInfinity: 2
      m_RotationOrder: 4
    attribute: m_LocalEulerAngles.y
    path: Body/Torso/TorsoUpper/RightArm
    classID: 4
    script: {fileID: 0}
  - curve:
      serializedVersion: 2
      m_Curve: []
      m_PreInfinity: 2
      m_PostInfinity: 2
      m_RotationOrder: 4
    attribute: m_LocalEulerAngles.x
    path: Body/Torso/TorsoUpper/RightArm
    classID: 4
    script: {fileID: 0}
  - curve:
      serializedVersion: 2
      m_Curve: []
      m_PreInfinity: 2
      m_PostInfinity: 2
      m_RotationOrder: 4
    attribute: m_LocalEulerAngles.z
    path: Body/LeftLeg/LeftLegLower
    classID: 4
    script: {fileID: 0}
  - curve:
      serializedVersion: 2
      m_Curve: []
      m_PreInfinity: 2
      m_PostInfinity: 2
      m_RotationOrder: 4
    attribute: m_LocalEulerAngles.y
    path: Body/LeftLeg/LeftLegLower
    classID: 4
    script: {fileID: 0}
  - curve:
      serializedVersion: 2
      m_Curve: []
      m_PreInfinity: 2
      m_PostInfinity: 2
      m_RotationOrder: 4
    attribute: m_LocalEulerAngles.x
    path: Body/LeftLeg/LeftLegLower
    classID: 4
    script: {fileID: 0}
  - curve:
      serializedVersion: 2
      m_Curve: []
      m_PreInfinity: 2
      m_PostInfinity: 2
      m_RotationOrder: 4
    attribute: m_LocalEulerAngles.z
    path: Body/Torso/TorsoUpper/LeftArm/LeftForearm
    classID: 4
    script: {fileID: 0}
  - curve:
      serializedVersion: 2
      m_Curve: []
      m_PreInfinity: 2
      m_PostInfinity: 2
      m_RotationOrder: 4
    attribute: m_LocalEulerAngles.y
    path: Body/Torso/TorsoUpper/LeftArm/LeftForearm
    classID: 4
    script: {fileID: 0}
  - curve:
      serializedVersion: 2
      m_Curve: []
      m_PreInfinity: 2
      m_PostInfinity: 2
      m_RotationOrder: 4
    attribute: m_LocalEulerAngles.x
    path: Body/Torso/TorsoUpper/LeftArm/LeftForearm
    classID: 4
    script: {fileID: 0}
  - curve:
      serializedVersion: 2
      m_Curve: []
      m_PreInfinity: 2
      m_PostInfinity: 2
      m_RotationOrder: 4
    attribute: m_LocalEulerAngles.z
    path: Body/Torso/TorsoUpper/Neck/Head
    classID: 4
    script: {fileID: 0}
  - curve:
      serializedVersion: 2
      m_Curve: []
      m_PreInfinity: 2
      m_PostInfinity: 2
      m_RotationOrder: 4
    attribute: m_LocalEulerAngles.y
    path: Body/Torso/TorsoUpper/Neck/Head
    classID: 4
    script: {fileID: 0}
  - curve:
      serializedVersion: 2
      m_Curve: []
      m_PreInfinity: 2
      m_PostInfinity: 2
      m_RotationOrder: 4
    attribute: m_LocalEulerAngles.x
    path: Body/Torso/TorsoUpper/Neck/Head
    classID: 4
    script: {fileID: 0}
  - curve:
      serializedVersion: 2
      m_Curve: []
      m_PreInfinity: 2
      m_PostInfinity: 2
      m_RotationOrder: 4
    attribute: m_LocalEulerAngles.z
    path: Body/Torso/TorsoUpper/LeftArm/LeftForearm/LeftHand
    classID: 4
    script: {fileID: 0}
  - curve:
      serializedVersion: 2
      m_Curve: []
      m_PreInfinity: 2
      m_PostInfinity: 2
      m_RotationOrder: 4
    attribute: m_LocalEulerAngles.y
    path: Body/Torso/TorsoUpper/LeftArm/LeftForearm/LeftHand
    classID: 4
    script: {fileID: 0}
  - curve:
      serializedVersion: 2
      m_Curve: []
      m_PreInfinity: 2
      m_PostInfinity: 2
      m_RotationOrder: 4
    attribute: m_LocalEulerAngles.x
    path: Body/Torso/TorsoUpper/LeftArm/LeftForearm/LeftHand
    classID: 4
    script: {fileID: 0}
  - curve:
      serializedVersion: 2
      m_Curve: []
      m_PreInfinity: 2
      m_PostInfinity: 2
      m_RotationOrder: 4
    attribute: m_LocalEulerAngles.z
    path: Body/Torso/TorsoUpper/Neck/Head/Face/Left/LeftEyebrow
    classID: 4
    script: {fileID: 0}
  - curve:
      serializedVersion: 2
      m_Curve: []
      m_PreInfinity: 2
      m_PostInfinity: 2
      m_RotationOrder: 4
    attribute: m_LocalEulerAngles.y
    path: Body/Torso/TorsoUpper/Neck/Head/Face/Left/LeftEyebrow
    classID: 4
    script: {fileID: 0}
  - curve:
      serializedVersion: 2
      m_Curve: []
      m_PreInfinity: 2
      m_PostInfinity: 2
      m_RotationOrder: 4
    attribute: m_LocalEulerAngles.x
    path: Body/Torso/TorsoUpper/Neck/Head/Face/Left/LeftEyebrow
    classID: 4
    script: {fileID: 0}
  - curve:
      serializedVersion: 2
      m_Curve: []
      m_PreInfinity: 2
      m_PostInfinity: 2
      m_RotationOrder: 4
    attribute: m_LocalEulerAngles.z
    path: Body/Torso/TorsoUpper
    classID: 4
    script: {fileID: 0}
  - curve:
      serializedVersion: 2
      m_Curve: []
      m_PreInfinity: 2
      m_PostInfinity: 2
      m_RotationOrder: 4
    attribute: m_LocalEulerAngles.y
    path: Body/Torso/TorsoUpper
    classID: 4
    script: {fileID: 0}
  - curve:
      serializedVersion: 2
      m_Curve: []
      m_PreInfinity: 2
      m_PostInfinity: 2
      m_RotationOrder: 4
    attribute: m_LocalEulerAngles.x
    path: Body/Torso/TorsoUpper
    classID: 4
    script: {fileID: 0}
  - curve:
      serializedVersion: 2
      m_Curve: []
      m_PreInfinity: 2
      m_PostInfinity: 2
      m_RotationOrder: 4
    attribute: m_LocalEulerAngles.z
    path: Body/Torso/TorsoUpper/Neck/Head/Face/Right/RightEyebrow
    classID: 4
    script: {fileID: 0}
  - curve:
      serializedVersion: 2
      m_Curve: []
      m_PreInfinity: 2
      m_PostInfinity: 2
      m_RotationOrder: 4
    attribute: m_LocalEulerAngles.y
    path: Body/Torso/TorsoUpper/Neck/Head/Face/Right/RightEyebrow
    classID: 4
    script: {fileID: 0}
  - curve:
      serializedVersion: 2
      m_Curve: []
      m_PreInfinity: 2
      m_PostInfinity: 2
      m_RotationOrder: 4
    attribute: m_LocalEulerAngles.x
    path: Body/Torso/TorsoUpper/Neck/Head/Face/Right/RightEyebrow
    classID: 4
    script: {fileID: 0}
  - curve:
      serializedVersion: 2
      m_Curve: []
      m_PreInfinity: 2
      m_PostInfinity: 2
      m_RotationOrder: 4
    attribute: m_LocalEulerAngles.x
    path: Body/Torso/TorsoUpper/RightArm/RightForearm
    classID: 4
    script: {fileID: 0}
  - curve:
      serializedVersion: 2
      m_Curve: []
      m_PreInfinity: 2
      m_PostInfinity: 2
      m_RotationOrder: 4
    attribute: m_LocalEulerAngles.y
    path: Body/Torso/TorsoUpper/RightArm/RightForearm
    classID: 4
    script: {fileID: 0}
  - curve:
      serializedVersion: 2
      m_Curve: []
      m_PreInfinity: 2
      m_PostInfinity: 2
      m_RotationOrder: 4
    attribute: m_LocalEulerAngles.z
    path: Body/Torso/TorsoUpper/RightArm/RightForearm
    classID: 4
    script: {fileID: 0}
  m_HasGenericRootTransform: 0
  m_HasMotionFloatCurves: 0
  m_GenerateMotionCurves: 0
  m_Events: []
