%YAML 1.1
%TAG !u! tag:unity3d.com,2011:
--- !u!74 &7400000
AnimationClip:
  m_ObjectHideFlags: 0
  m_PrefabParentObject: {fileID: 0}
  m_PrefabInternal: {fileID: 0}
  m_Name: MaledGivingSomething
  serializedVersion: 6
  m_Legacy: 0
  m_Compressed: 0
  m_UseHighQualityCurve: 1
  m_RotationCurves: []
  m_CompressedRotationCurves: []
  m_EulerCurves:
  - curve:
      serializedVersion: 2
      m_Curve:
      - time: 0
        value: {x: 0, y: 0, z: 0}
        inSlope: {x: 0, y: 0, z: -3.2027888}
        outSlope: {x: 0, y: 0, z: -3.2027888}
        tangentMode: 0
      - time: 0.45
        value: {x: 0, y: 0, z: -1.441255}
        inSlope: {x: 0, y: 0, z: 0}
        outSlope: {x: 0, y: 0, z: 0}
        tangentMode: 0
      - time: 0.85
        value: {x: 0, y: 0, z: -1.5224342}
        inSlope: {x: 0, y: 0, z: 0}
        outSlope: {x: 0, y: 0, z: 0}
        tangentMode: 0
      - time: 1.25
        value: {x: 0, y: 0, z: -1.5224342}
        inSlope: {x: 0, y: 0, z: 0}
        outSlope: {x: 0, y: 0, z: 0}
        tangentMode: 0
      - time: 1.5
        value: {x: 0, y: 0, z: 0}
        inSlope: {x: 0, y: 0, z: 6.089737}
        outSlope: {x: 0, y: 0, z: 6.089737}
        tangentMode: 0
      m_PreInfinity: 2
      m_PostInfinity: 2
      m_RotationOrder: 4
    path: Body/LeftLeg
  - curve:
      serializedVersion: 2
      m_Curve:
      - time: 0
        value: {x: 0, y: 0, z: 0}
        inSlope: {x: 0, y: 0, z: -3.559959}
        outSlope: {x: 0, y: 0, z: -3.559959}
        tangentMode: 0
      - time: 0.45
        value: {x: 0, y: 0, z: -1.6019815}
        inSlope: {x: 0, y: 0, z: 0}
        outSlope: {x: 0, y: 0, z: 0}
        tangentMode: 0
      - time: 0.85
        value: {x: 0, y: 0, z: -1.6922135}
        inSlope: {x: 0, y: 0, z: 0}
        outSlope: {x: 0, y: 0, z: 0}
        tangentMode: 0
      - time: 1.25
        value: {x: 0, y: 0, z: -1.6922135}
        inSlope: {x: 0, y: 0, z: 0}
        outSlope: {x: 0, y: 0, z: 0}
        tangentMode: 0
      - time: 1.5
        value: {x: 0, y: 0, z: 0}
        inSlope: {x: 0, y: 0, z: 6.768854}
        outSlope: {x: 0, y: 0, z: 6.768854}
        tangentMode: 0
      m_PreInfinity: 2
      m_PostInfinity: 2
      m_RotationOrder: 4
    path: Body/RightLeg
  - curve:
      serializedVersion: 2
      m_Curve:
      - time: 0
        value: {x: 0, y: 0, z: 0}
        inSlope: {x: 0, y: 0, z: 3.624913}
        outSlope: {x: 0, y: 0, z: 3.624913}
        tangentMode: 0
      - time: 0.45
        value: {x: 0, y: 0, z: 1.6312108}
        inSlope: {x: 0, y: 0, z: 0}
        outSlope: {x: 0, y: 0, z: 0}
        tangentMode: 0
      - time: 0.85
        value: {x: 0, y: 0, z: 1.7230892}
        inSlope: {x: 0, y: 0, z: 0}
        outSlope: {x: 0, y: 0, z: 0}
        tangentMode: 0
      - time: 1.25
        value: {x: 0, y: 0, z: 1.7230892}
        inSlope: {x: 0, y: 0, z: 0}
        outSlope: {x: 0, y: 0, z: 0}
        tangentMode: 0
      - time: 1.5
        value: {x: 0, y: 0, z: 0}
        inSlope: {x: 0, y: 0, z: -6.892357}
        outSlope: {x: 0, y: 0, z: -6.892357}
        tangentMode: 0
      m_PreInfinity: 2
      m_PostInfinity: 2
      m_RotationOrder: 4
    path: Body/LeftLeg/LeftLegLower
  - curve:
      serializedVersion: 2
      m_Curve:
      - time: 0
        value: {x: 0, y: 0, z: 0}
        inSlope: {x: 0, y: 0, z: 1.8652656}
        outSlope: {x: 0, y: 0, z: 1.8652656}
        tangentMode: 0
      - time: 0.45
        value: {x: 0, y: 0, z: 0.8393695}
        inSlope: {x: 0, y: 0, z: 0}
        outSlope: {x: 0, y: 0, z: 0}
        tangentMode: 0
      - time: 0.85
        value: {x: 0, y: 0, z: 0.8866472}
        inSlope: {x: 0, y: 0, z: 0}
        outSlope: {x: 0, y: 0, z: 0}
        tangentMode: 0
      - time: 1.25
        value: {x: 0, y: 0, z: 0.8866472}
        inSlope: {x: 0, y: 0, z: 0}
        outSlope: {x: 0, y: 0, z: 0}
        tangentMode: 0
      - time: 1.5
        value: {x: 0, y: 0, z: 0}
        inSlope: {x: 0, y: 0, z: -3.546589}
        outSlope: {x: 0, y: 0, z: -3.546589}
        tangentMode: 0
      m_PreInfinity: 2
      m_PostInfinity: 2
      m_RotationOrder: 4
    path: Body/RightLeg/RightLegLower
  - curve:
      serializedVersion: 2
      m_Curve:
      - time: 0
        value: {x: 0, y: 0, z: 0}
        inSlope: {x: 0, y: 0, z: -3.762428}
        outSlope: {x: 0, y: 0, z: -3.762428}
        tangentMode: 0
      - time: 0.45
        value: {x: 0, y: 0, z: -1.6930926}
        inSlope: {x: 0, y: 0, z: 0}
        outSlope: {x: 0, y: 0, z: 0}
        tangentMode: 0
      - time: 0.85
        value: {x: 0, y: 0, z: -1.7884564}
        inSlope: {x: 0, y: 0, z: 0}
        outSlope: {x: 0, y: 0, z: 0}
        tangentMode: 0
      - time: 1.25
        value: {x: 0, y: 0, z: -1.7884564}
        inSlope: {x: 0, y: 0, z: 0}
        outSlope: {x: 0, y: 0, z: 0}
        tangentMode: 0
      - time: 1.5
        value: {x: 0, y: 0, z: 0}
        inSlope: {x: 0, y: 0, z: 7.1538258}
        outSlope: {x: 0, y: 0, z: 7.1538258}
        tangentMode: 0
      m_PreInfinity: 2
      m_PostInfinity: 2
      m_RotationOrder: 4
    path: Body/LeftLeg/LeftLegLower/LeftShoe
  - curve:
      serializedVersion: 2
      m_Curve:
      - time: 0
        value: {x: 0, y: 0, z: 0}
        inSlope: {x: 0, y: 0, z: -3.969444}
        outSlope: {x: 0, y: 0, z: -3.969444}
        tangentMode: 0
      - time: 0.45
        value: {x: 0, y: 0, z: -1.7862498}
        inSlope: {x: 0, y: 0, z: 0}
        outSlope: {x: 0, y: 0, z: 0}
        tangentMode: 0
      - time: 0.85
        value: {x: 0, y: 0, z: -1.8868608}
        inSlope: {x: 0, y: 0, z: 0}
        outSlope: {x: 0, y: 0, z: 0}
        tangentMode: 0
      - time: 1.25
        value: {x: 0, y: 0, z: -1.8868608}
        inSlope: {x: 0, y: 0, z: 0}
        outSlope: {x: 0, y: 0, z: 0}
        tangentMode: 0
      - time: 1.5
        value: {x: 0, y: 0, z: 0}
        inSlope: {x: 0, y: 0, z: 7.5474434}
        outSlope: {x: 0, y: 0, z: 7.5474434}
        tangentMode: 0
      m_PreInfinity: 2
      m_PostInfinity: 2
      m_RotationOrder: 4
    path: Body/RightLeg/RightLegLower/RightShoe
  - curve:
      serializedVersion: 2
      m_Curve:
      - time: 0
        value: {x: 0, y: 0, z: 0}
        inSlope: {x: 0, y: 0, z: -82.77122}
        outSlope: {x: 0, y: 0, z: -82.77122}
        tangentMode: 0
      - time: 0.45
        value: {x: 0, y: 0, z: -37.247047}
        inSlope: {x: 0, y: 0, z: 0}
        outSlope: {x: 0, y: 0, z: 0}
        tangentMode: 0
      - time: 0.85
        value: {x: 0, y: 0, z: -60.24}
        inSlope: {x: 0, y: 0, z: 0}
        outSlope: {x: 0, y: 0, z: 0}
        tangentMode: 0
      - time: 1.25
        value: {x: 0, y: 0, z: -60.24}
        inSlope: {x: 0, y: 0, z: 0}
        outSlope: {x: 0, y: 0, z: 0}
        tangentMode: 0
      - time: 1.5
        value: {x: 0, y: 0, z: 0}
        inSlope: {x: 0, y: 0, z: 240.96}
        outSlope: {x: 0, y: 0, z: 240.96}
        tangentMode: 0
      m_PreInfinity: 2
      m_PostInfinity: 2
      m_RotationOrder: 4
    path: Body/Torso/TorsoUpper/LeftArm
  - curve:
      serializedVersion: 2
      m_Curve:
      - time: 0
        value: {x: 0, y: 0, z: 0}
        inSlope: {x: 0, y: 0, z: 3.4290786}
        outSlope: {x: 0, y: 0, z: 3.4290786}
        tangentMode: 0
      - time: 0.45
        value: {x: 0, y: 0, z: 1.5430853}
        inSlope: {x: 0, y: 0, z: 0}
        outSlope: {x: 0, y: 0, z: 0}
        tangentMode: 0
      - time: 0.85
        value: {x: 0, y: 0, z: 1.6300001}
        inSlope: {x: 0, y: 0, z: 0}
        outSlope: {x: 0, y: 0, z: 0}
        tangentMode: 0
      - time: 1.25
        value: {x: 0, y: 0, z: 1.6300001}
        inSlope: {x: 0, y: 0, z: 0}
        outSlope: {x: 0, y: 0, z: 0}
        tangentMode: 0
      - time: 1.5
        value: {x: 0, y: 0, z: 0}
        inSlope: {x: 0, y: 0, z: -6.5200005}
        outSlope: {x: 0, y: 0, z: -6.5200005}
        tangentMode: 0
      m_PreInfinity: 2
      m_PostInfinity: 2
      m_RotationOrder: 4
    path: Body/Torso/TorsoUpper/Neck
  - curve:
      serializedVersion: 2
      m_Curve:
      - time: 0
        value: {x: 0, y: 0, z: 0}
        inSlope: {x: 0, y: 0, z: 25.629738}
        outSlope: {x: 0, y: 0, z: 25.629738}
        tangentMode: 0
      - time: 0.45
        value: {x: 0, y: 0, z: 11.533381}
        inSlope: {x: 0, y: 0, z: 0}
        outSlope: {x: 0, y: 0, z: 0}
        tangentMode: 0
      - time: 0.85
        value: {x: 0, y: 0, z: -15.047001}
        inSlope: {x: 0, y: 0, z: 0}
        outSlope: {x: 0, y: 0, z: 0}
        tangentMode: 0
      - time: 1.25
        value: {x: 0, y: 0, z: -15.047001}
        inSlope: {x: 0, y: 0, z: 0}
        outSlope: {x: 0, y: 0, z: 0}
        tangentMode: 0
      - time: 1.5
        value: {x: 0, y: 0, z: 0}
        inSlope: {x: 0, y: 0, z: 60.188004}
        outSlope: {x: 0, y: 0, z: 60.188004}
        tangentMode: 0
      m_PreInfinity: 2
      m_PostInfinity: 2
      m_RotationOrder: 4
    path: Body/Torso/TorsoUpper/RightArm
  - curve:
      serializedVersion: 2
      m_Curve:
      - time: 0
        value: {x: 0, y: 0, z: 0}
        inSlope: {x: 0, y: 0, z: -110.3406}
        outSlope: {x: 0, y: 0, z: -110.3406}
        tangentMode: 0
      - time: 0.45
        value: {x: 0, y: 0, z: -49.653267}
        inSlope: {x: 0, y: 0, z: 0}
        outSlope: {x: 0, y: 0, z: 0}
        tangentMode: 0
      - time: 0.85
        value: {x: 0, y: 0, z: -16.042}
        inSlope: {x: 0, y: 0, z: 0}
        outSlope: {x: 0, y: 0, z: 0}
        tangentMode: 0
      - time: 1.25
        value: {x: 0, y: 0, z: -16.042}
        inSlope: {x: 0, y: 0, z: 0}
        outSlope: {x: 0, y: 0, z: 0}
        tangentMode: 0
      - time: 1.5
        value: {x: 0, y: 0, z: 0}
        inSlope: {x: 0, y: 0, z: 64.168}
        outSlope: {x: 0, y: 0, z: 64.168}
        tangentMode: 0
      m_PreInfinity: 2
      m_PostInfinity: 2
      m_RotationOrder: 4
    path: Body/Torso/TorsoUpper/LeftArm/LeftForearm
  - curve:
      serializedVersion: 2
      m_Curve:
      - time: 0
        value: {x: 0, y: 0, z: 0}
        inSlope: {x: 0, y: 0, z: 2.999918}
        outSlope: {x: 0, y: 0, z: 2.999918}
        tangentMode: 0
      - time: 0.45
        value: {x: 0, y: 0, z: 1.3499631}
        inSlope: {x: 0, y: 0, z: 0}
        outSlope: {x: 0, y: 0, z: 0}
        tangentMode: 0
      - time: 0.85
        value: {x: 0, y: 0, z: 1.4260001}
        inSlope: {x: 0, y: 0, z: 0}
        outSlope: {x: 0, y: 0, z: 0}
        tangentMode: 0
      - time: 1.25
        value: {x: 0, y: 0, z: 1.4260001}
        inSlope: {x: 0, y: 0, z: 0}
        outSlope: {x: 0, y: 0, z: 0}
        tangentMode: 0
      - time: 1.5
        value: {x: 0, y: 0, z: 0}
        inSlope: {x: 0, y: 0, z: -5.7040005}
        outSlope: {x: 0, y: 0, z: -5.7040005}
        tangentMode: 0
      m_PreInfinity: 2
      m_PostInfinity: 2
      m_RotationOrder: 4
    path: Body/Torso/TorsoUpper/Neck/Head
  - curve:
      serializedVersion: 2
      m_Curve:
      - time: 0
        value: {x: 0, y: 0, z: 0}
        inSlope: {x: -49.86679, y: -92.59773, z: -236.27615}
        outSlope: {x: -49.86679, y: -92.59773, z: -236.27615}
        tangentMode: 0
      - time: 0.45
        value: {x: -22.440056, y: -41.66898, z: -106.324265}
        inSlope: {x: 0, y: 0, z: 0}
        outSlope: {x: 0, y: 0, z: 0}
        tangentMode: 0
      - time: 0.85
        value: {x: 9.3880005, y: -47.97, z: -81.58401}
        inSlope: {x: 0, y: 0, z: 0}
        outSlope: {x: 0, y: 0, z: 0}
        tangentMode: 0
      - time: 1.25
        value: {x: 9.3880005, y: -47.97, z: -81.58401}
        inSlope: {x: 0, y: 0, z: 0}
        outSlope: {x: 0, y: 0, z: 0}
        tangentMode: 0
      - time: 1.5
        value: {x: 0, y: 0, z: 0}
        inSlope: {x: -37.552002, y: 191.88, z: 326.33603}
        outSlope: {x: -37.552002, y: 191.88, z: 326.33603}
        tangentMode: 0
      m_PreInfinity: 2
      m_PostInfinity: 2
      m_RotationOrder: 4
    path: Body/Torso/TorsoUpper/RightArm/RightForearm
  - curve:
      serializedVersion: 2
      m_Curve:
      - time: 0
        value: {x: 0, y: 0, z: -0.3089041}
        inSlope: {x: 0, y: 0, z: 32.136364}
        outSlope: {x: 0, y: 0, z: 32.136364}
        tangentMode: 0
      - time: 0.45
        value: {x: 0, y: 0, z: 14.152459}
        inSlope: {x: 0, y: 0, z: 0}
        outSlope: {x: 0, y: 0, z: 0}
        tangentMode: 0
      - time: 0.85
        value: {x: 0, y: 0, z: 14.967001}
        inSlope: {x: 0, y: 0, z: 0}
        outSlope: {x: 0, y: 0, z: 0}
        tangentMode: 0
      - time: 1.25
        value: {x: 0, y: 0, z: 14.967001}
        inSlope: {x: 0, y: 0, z: 0}
        outSlope: {x: 0, y: 0, z: 0}
        tangentMode: 0
      - time: 1.5
        value: {x: 0, y: 0, z: -0.3089041}
        inSlope: {x: 0, y: 0, z: -61.10362}
        outSlope: {x: 0, y: 0, z: -61.10362}
        tangentMode: 0
      m_PreInfinity: 2
      m_PostInfinity: 2
      m_RotationOrder: 4
    path: Body/Torso/TorsoUpper/LeftArm/LeftForearm/LeftHand
  - curve:
      serializedVersion: 2
      m_Curve:
      - time: 0
        value: {x: 0, y: 0, z: 0}
        inSlope: {x: -84.61199, y: 0.5785256, z: 43.412556}
        outSlope: {x: -84.61199, y: 0.5785256, z: 43.412556}
        tangentMode: 0
      - time: 0.45
        value: {x: -38.075394, y: 0.26033652, z: 19.53565}
        inSlope: {x: 0, y: 0, z: 0}
        outSlope: {x: 0, y: 0, z: 0}
        tangentMode: 0
      - time: 0.85
        value: {x: -40.861, y: -4.386, z: -1.332}
        inSlope: {x: 0, y: 0, z: 0}
        outSlope: {x: 0, y: 0, z: 0}
        tangentMode: 0
      - time: 1.25
        value: {x: -40.861, y: -4.386, z: -1.332}
        inSlope: {x: 0, y: 0, z: 0}
        outSlope: {x: 0, y: 0, z: 0}
        tangentMode: 0
      - time: 1.5
        value: {x: 0, y: 0, z: 0}
        inSlope: {x: 163.444, y: 17.544, z: 5.328}
        outSlope: {x: 163.444, y: 17.544, z: 5.328}
        tangentMode: 0
      m_PreInfinity: 2
      m_PostInfinity: 2
      m_RotationOrder: 4
    path: Body/Torso/TorsoUpper/RightArm/RightForearm/RightHand
  - curve:
      serializedVersion: 2
      m_Curve:
      - time: 0
        value: {x: 0, y: 0, z: 90}
        inSlope: {x: 0, y: 0, z: -52.595573}
        outSlope: {x: 0, y: 0, z: -52.595573}
        tangentMode: 0
      - time: 0.45
        value: {x: 0, y: 0, z: 66.33199}
        inSlope: {x: 0, y: 0, z: -11.505282}
        outSlope: {x: 0, y: 0, z: -11.505282}
        tangentMode: 0
      - time: 1.25
        value: {x: 0, y: 0, z: 90}
        inSlope: {x: 0, y: 0, z: 14.792504}
        outSlope: {x: 0, y: 0, z: 14.792504}
        tangentMode: 0
      - time: 1.5
        value: {x: 0, y: 0, z: 90}
        inSlope: {x: 0, y: 0, z: 0}
        outSlope: {x: 0, y: 0, z: 0}
        tangentMode: 0
      m_PreInfinity: 2
      m_PostInfinity: 2
      m_RotationOrder: 4
    path: Body/Torso/TorsoUpper/LeftArm/LeftForearm/LeftHand/LeftHandFainting
  m_PositionCurves:
  - curve:
      serializedVersion: 2
      m_Curve:
      - time: 0
        value: {x: 0, y: 11.462, z: 0}
        inSlope: {x: 0, y: 0, z: 0}
        outSlope: {x: 0, y: 0, z: 0}
        tangentMode: 0
      - time: 0.45
        value: {x: 0, y: 11.434514, z: 0}
        inSlope: {x: 0, y: 0, z: 0}
        outSlope: {x: 0, y: 0, z: 0}
        tangentMode: 0
      - time: 0.85
        value: {x: 0, y: 11.430611, z: 0}
        inSlope: {x: 0, y: -0.0048792358, z: 0}
        outSlope: {x: 0, y: -0.0048792358, z: 0}
        tangentMode: 0
      - time: 1.25
        value: {x: 0, y: 11.430611, z: 0}
        inSlope: {x: 0, y: 0.06277847, z: 0}
        outSlope: {x: 0, y: 0.06277847, z: 0}
        tangentMode: 0
      - time: 1.5
        value: {x: 0, y: 11.462, z: 0}
        inSlope: {x: 0, y: 0, z: 0}
        outSlope: {x: 0, y: 0, z: 0}
        tangentMode: 0
      m_PreInfinity: 2
      m_PostInfinity: 2
      m_RotationOrder: 4
    path: Body/Torso
  m_ScaleCurves: []
  m_FloatCurves:
  - curve:
      serializedVersion: 2
      m_Curve:
      - time: 0
        value: 1
        inSlope: Infinity
        outSlope: Infinity
        tangentMode: 31
      - time: 0.45
        value: 0
        inSlope: Infinity
        outSlope: Infinity
        tangentMode: 31
      - time: 1.25
        value: 1
        inSlope: Infinity
        outSlope: Infinity
        tangentMode: 31
      - time: 1.5
        value: 1
        inSlope: Infinity
        outSlope: Infinity
        tangentMode: 31
      m_PreInfinity: 2
      m_PostInfinity: 2
      m_RotationOrder: 4
    attribute: m_IsActive
    path: Body/Torso/TorsoUpper/LeftArm/LeftForearm/LeftHand/HandLeftIdle
    classID: 1
    script: {fileID: 0}
  - curve:
      serializedVersion: 2
      m_Curve:
      - time: 0
        value: 0
        inSlope: Infinity
        outSlope: Infinity
        tangentMode: 31
      - time: 0.45
        value: 0
        inSlope: Infinity
        outSlope: Infinity
        tangentMode: 31
      - time: 1.25
        value: 0
        inSlope: Infinity
        outSlope: Infinity
        tangentMode: 31
      - time: 1.5
        value: 0
        inSlope: Infinity
        outSlope: Infinity
        tangentMode: 31
      m_PreInfinity: 2
      m_PostInfinity: 2
      m_RotationOrder: 4
    attribute: m_IsActive
    path: Body/Torso/TorsoUpper/LeftArm/LeftForearm/LeftHand/HandLeftTakingSomething
    classID: 1
    script: {fileID: 0}
  - curve:
      serializedVersion: 2
      m_Curve:
      - time: 0
        value: 1
        inSlope: Infinity
        outSlope: Infinity
        tangentMode: 31
      - time: 0.45
        value: 0
        inSlope: Infinity
        outSlope: Infinity
        tangentMode: 31
      - time: 1.25
        value: 1
        inSlope: Infinity
        outSlope: Infinity
        tangentMode: 31
      - time: 1.5
        value: 1
        inSlope: Infinity
        outSlope: Infinity
        tangentMode: 31
      m_PreInfinity: 2
      m_PostInfinity: 2
      m_RotationOrder: 4
    attribute: m_IsActive
    path: Body/Torso/TorsoUpper/RightArm/RightForearm/RightHand/HandRightIdle
    classID: 1
    script: {fileID: 0}
  - curve:
      serializedVersion: 2
      m_Curve:
      - time: 0
        value: 0
        inSlope: Infinity
        outSlope: Infinity
        tangentMode: 31
      - time: 0.45
        value: 1
        inSlope: Infinity
        outSlope: Infinity
        tangentMode: 31
      - time: 1.25
        value: 0
        inSlope: Infinity
        outSlope: Infinity
        tangentMode: 31
      - time: 1.5
        value: 0
        inSlope: Infinity
        outSlope: Infinity
        tangentMode: 31
      m_PreInfinity: 2
      m_PostInfinity: 2
      m_RotationOrder: 4
    attribute: m_IsActive
    path: Body/Torso/TorsoUpper/RightArm/RightForearm/RightHand/HandRightTakingSomething
    classID: 1
    script: {fileID: 0}
  - curve:
      serializedVersion: 2
      m_Curve:
      - time: 0
        value: 0
        inSlope: Infinity
        outSlope: Infinity
        tangentMode: 31
      - time: 0.45
        value: 0
        inSlope: Infinity
        outSlope: Infinity
        tangentMode: 31
      - time: 1.25
        value: 0
        inSlope: Infinity
        outSlope: Infinity
        tangentMode: 31
      - time: 1.5
        value: 0
        inSlope: Infinity
        outSlope: Infinity
        tangentMode: 31
      m_PreInfinity: 2
      m_PostInfinity: 2
      m_RotationOrder: 4
    attribute: m_IsActive
    path: Body/Torso/TorsoUpper/LeftArm/LeftForearm/LeftHand/LeftHandFainting
    classID: 1
    script: {fileID: 0}
  - curve:
      serializedVersion: 2
      m_Curve:
      - time: 0
        value: 0
        inSlope: Infinity
        outSlope: Infinity
        tangentMode: 31
      - time: 0.45
        value: 1
        inSlope: Infinity
        outSlope: Infinity
        tangentMode: 31
      - time: 1.25
        value: 0
        inSlope: Infinity
        outSlope: Infinity
        tangentMode: 31
      m_PreInfinity: 2
      m_PostInfinity: 2
      m_RotationOrder: 4
    attribute: m_IsActive
    path: Body/Torso/TorsoUpper/LeftArm/LeftForearm/LeftHand/LeftHandGiving
    classID: 1
    script: {fileID: 0}
  m_PPtrCurves: []
  m_SampleRate: 60
  m_WrapMode: 0
  m_Bounds:
    m_Center: {x: 0, y: 0, z: 0}
    m_Extent: {x: 0, y: 0, z: 0}
  m_ClipBindingConstant:
    genericBindings:
    - path: 17307992
      attribute: 1
      script: {fileID: 0}
      classID: 4
      customType: 0
      isPPtrCurve: 0
    - path: 1536821247
      attribute: 4
      script: {fileID: 0}
      classID: 4
      customType: 14
      isPPtrCurve: 0
    - path: 3697623316
      attribute: 4
      script: {fileID: 0}
      classID: 4
      customType: 14
      isPPtrCurve: 0
    - path: 1982359513
      attribute: 4
      script: {fileID: 0}
      classID: 4
      customType: 14
      isPPtrCurve: 0
    - path: 2440267433
      attribute: 4
      script: {fileID: 0}
      classID: 4
      customType: 14
      isPPtrCurve: 0
    - path: 3445643512
      attribute: 4
      script: {fileID: 0}
      classID: 4
      customType: 14
      isPPtrCurve: 0
    - path: 60502102
      attribute: 4
      script: {fileID: 0}
      classID: 4
      customType: 14
      isPPtrCurve: 0
    - path: 3095407969
      attribute: 4
      script: {fileID: 0}
      classID: 4
      customType: 14
      isPPtrCurve: 0
    - path: 4166763380
      attribute: 4
      script: {fileID: 0}
      classID: 4
      customType: 14
      isPPtrCurve: 0
    - path: 928226820
      attribute: 4
      script: {fileID: 0}
      classID: 4
      customType: 14
      isPPtrCurve: 0
    - path: 541443673
      attribute: 4
      script: {fileID: 0}
      classID: 4
      customType: 14
      isPPtrCurve: 0
    - path: 1997562997
      attribute: 4
      script: {fileID: 0}
      classID: 4
      customType: 14
      isPPtrCurve: 0
    - path: 2224152727
      attribute: 4
      script: {fileID: 0}
      classID: 4
      customType: 14
      isPPtrCurve: 0
    - path: 464622508
      attribute: 4
      script: {fileID: 0}
      classID: 4
      customType: 14
      isPPtrCurve: 0
    - path: 1209925952
      attribute: 4
      script: {fileID: 0}
      classID: 4
      customType: 14
      isPPtrCurve: 0
    - path: 2124449075
      attribute: 4
      script: {fileID: 0}
      classID: 4
      customType: 14
      isPPtrCurve: 0
    - path: 156972009
      attribute: 2086281974
      script: {fileID: 0}
      classID: 1
      customType: 0
      isPPtrCurve: 0
    - path: 1132338243
      attribute: 2086281974
      script: {fileID: 0}
      classID: 1
      customType: 0
      isPPtrCurve: 0
    - path: 3114764356
      attribute: 2086281974
      script: {fileID: 0}
      classID: 1
      customType: 0
      isPPtrCurve: 0
    - path: 2847243755
      attribute: 2086281974
      script: {fileID: 0}
      classID: 1
      customType: 0
      isPPtrCurve: 0
    - path: 2124449075
      attribute: 2086281974
      script: {fileID: 0}
      classID: 1
      customType: 0
      isPPtrCurve: 0
    - path: 1021987374
      attribute: 2086281974
      script: {fileID: 0}
      classID: 1
      customType: 0
      isPPtrCurve: 0
    pptrCurveMapping: []
  m_AnimationClipSettings:
    serializedVersion: 2
    m_AdditiveReferencePoseClip: {fileID: 0}
    m_AdditiveReferencePoseTime: 0
    m_StartTime: 0
    m_StopTime: 1.5
    m_OrientationOffsetY: 0
    m_Level: 0
    m_CycleOffset: 0
    m_HasAdditiveReferencePose: 0
    m_LoopTime: 0
    m_LoopBlend: 0
    m_LoopBlendOrientation: 0
    m_LoopBlendPositionY: 0
    m_LoopBlendPositionXZ: 0
    m_KeepOriginalOrientation: 0
    m_KeepOriginalPositionY: 1
    m_KeepOriginalPositionXZ: 0
    m_HeightFromFeet: 0
    m_Mirror: 0
  m_EditorCurves:
  - curve:
      serializedVersion: 2
      m_Curve:
      - time: 0
        value: 0
        inSlope: 0
        outSlope: 0
        tangentMode: 10
      - time: 0.45
        value: 0
        inSlope: 0
        outSlope: 0
        tangentMode: 0
      - time: 0.85
        value: 0
        inSlope: 0
        outSlope: 0
        tangentMode: 0
      - time: 1.25
        value: 0
        inSlope: 0
        outSlope: 0
        tangentMode: 0
      - time: 1.5
        value: 0
        inSlope: 0
        outSlope: 0
        tangentMode: 10
      m_PreInfinity: 2
      m_PostInfinity: 2
      m_RotationOrder: 4
    attribute: localEulerAnglesRaw.x
    path: Body/LeftLeg
    classID: 4
    script: {fileID: 0}
  - curve:
      serializedVersion: 2
      m_Curve:
      - time: 0
        value: 0
        inSlope: 0
        outSlope: 0
        tangentMode: 10
      - time: 0.45
        value: 0
        inSlope: 0
        outSlope: 0
        tangentMode: 0
      - time: 0.85
        value: 0
        inSlope: 0
        outSlope: 0
        tangentMode: 0
      - time: 1.25
        value: 0
        inSlope: 0
        outSlope: 0
        tangentMode: 0
      - time: 1.5
        value: 0
        inSlope: 0
        outSlope: 0
        tangentMode: 10
      m_PreInfinity: 2
      m_PostInfinity: 2
      m_RotationOrder: 4
    attribute: localEulerAnglesRaw.y
    path: Body/LeftLeg
    classID: 4
    script: {fileID: 0}
  - curve:
      serializedVersion: 2
      m_Curve:
      - time: 0
        value: 0
        inSlope: -3.2027888
        outSlope: -3.2027888
        tangentMode: 10
      - time: 0.45
        value: -1.441255
        inSlope: 0
        outSlope: 0
        tangentMode: 0
      - time: 0.85
        value: -1.5224342
        inSlope: 0
        outSlope: 0
        tangentMode: 0
      - time: 1.25
        value: -1.5224342
        inSlope: 0
        outSlope: 0
        tangentMode: 0
      - time: 1.5
        value: 0
        inSlope: 6.089737
        outSlope: 6.089737
        tangentMode: 10
      m_PreInfinity: 2
      m_PostInfinity: 2
      m_RotationOrder: 4
    attribute: localEulerAnglesRaw.z
    path: Body/LeftLeg
    classID: 4
    script: {fileID: 0}
  - curve:
      serializedVersion: 2
      m_Curve:
      - time: 0
        value: 0
        inSlope: 0
        outSlope: 0
        tangentMode: 10
      - time: 0.45
        value: 0
        inSlope: 0
        outSlope: 0
        tangentMode: 0
      - time: 0.85
        value: 0
        inSlope: 0
        outSlope: 0
        tangentMode: 0
      - time: 1.25
        value: 0
        inSlope: 0
        outSlope: 0
        tangentMode: 0
      - time: 1.5
        value: 0
        inSlope: 0
        outSlope: 0
        tangentMode: 10
      m_PreInfinity: 2
      m_PostInfinity: 2
      m_RotationOrder: 4
    attribute: localEulerAnglesRaw.x
    path: Body/RightLeg
    classID: 4
    script: {fileID: 0}
  - curve:
      serializedVersion: 2
      m_Curve:
      - time: 0
        value: 0
        inSlope: 0
        outSlope: 0
        tangentMode: 10
      - time: 0.45
        value: 0
        inSlope: 0
        outSlope: 0
        tangentMode: 0
      - time: 0.85
        value: 0
        inSlope: 0
        outSlope: 0
        tangentMode: 0
      - time: 1.25
        value: 0
        inSlope: 0
        outSlope: 0
        tangentMode: 0
      - time: 1.5
        value: 0
        inSlope: 0
        outSlope: 0
        tangentMode: 10
      m_PreInfinity: 2
      m_PostInfinity: 2
      m_RotationOrder: 4
    attribute: localEulerAnglesRaw.y
    path: Body/RightLeg
    classID: 4
    script: {fileID: 0}
  - curve:
      serializedVersion: 2
      m_Curve:
      - time: 0
        value: 0
        inSlope: -3.559959
        outSlope: -3.559959
        tangentMode: 10
      - time: 0.45
        value: -1.6019815
        inSlope: 0
        outSlope: 0
        tangentMode: 0
      - time: 0.85
        value: -1.6922135
        inSlope: 0
        outSlope: 0
        tangentMode: 0
      - time: 1.25
        value: -1.6922135
        inSlope: 0
        outSlope: 0
        tangentMode: 0
      - time: 1.5
        value: 0
        inSlope: 6.768854
        outSlope: 6.768854
        tangentMode: 10
      m_PreInfinity: 2
      m_PostInfinity: 2
      m_RotationOrder: 4
    attribute: localEulerAnglesRaw.z
    path: Body/RightLeg
    classID: 4
    script: {fileID: 0}
  - curve:
      serializedVersion: 2
      m_Curve:
      - time: 0
        value: 0
        inSlope: 0
        outSlope: 0
        tangentMode: 10
      - time: 0.45
        value: 0
        inSlope: 0
        outSlope: 0
        tangentMode: 10
      - time: 0.85
        value: 0
        inSlope: 0
        outSlope: 0
        tangentMode: 10
      - time: 1.25
        value: 0
        inSlope: 0
        outSlope: 0
        tangentMode: 10
      - time: 1.5
        value: 0
        inSlope: 0
        outSlope: 0
        tangentMode: 10
      m_PreInfinity: 2
      m_PostInfinity: 2
      m_RotationOrder: 4
    attribute: m_LocalPosition.x
    path: Body/Torso
    classID: 4
    script: {fileID: 0}
  - curve:
      serializedVersion: 2
      m_Curve:
      - time: 0
        value: 11.462
        inSlope: 0
        outSlope: 0
        tangentMode: 0
      - time: 0.45
        value: 11.434514
        inSlope: 0
        outSlope: 0
        tangentMode: 0
      - time: 0.85
        value: 11.430611
        inSlope: -0.0048792358
        outSlope: -0.0048792358
        tangentMode: 10
      - time: 1.25
        value: 11.430611
        inSlope: 0.06277847
        outSlope: 0.06277847
        tangentMode: 10
      - time: 1.5
        value: 11.462
        inSlope: 0
        outSlope: 0
        tangentMode: 0
      m_PreInfinity: 2
      m_PostInfinity: 2
      m_RotationOrder: 4
    attribute: m_LocalPosition.y
    path: Body/Torso
    classID: 4
    script: {fileID: 0}
  - curve:
      serializedVersion: 2
      m_Curve:
      - time: 0
        value: 0
        inSlope: 0
        outSlope: 0
        tangentMode: 10
      - time: 0.45
        value: 0
        inSlope: 0
        outSlope: 0
        tangentMode: 10
      - time: 0.85
        value: 0
        inSlope: 0
        outSlope: 0
        tangentMode: 10
      - time: 1.25
        value: 0
        inSlope: 0
        outSlope: 0
        tangentMode: 10
      - time: 1.5
        value: 0
        inSlope: 0
        outSlope: 0
        tangentMode: 10
      m_PreInfinity: 2
      m_PostInfinity: 2
      m_RotationOrder: 4
    attribute: m_LocalPosition.z
    path: Body/Torso
    classID: 4
    script: {fileID: 0}
  - curve:
      serializedVersion: 2
      m_Curve:
      - time: 0
        value: 0
        inSlope: 0
        outSlope: 0
        tangentMode: 10
      - time: 0.45
        value: 0
        inSlope: 0
        outSlope: 0
        tangentMode: 0
      - time: 0.85
        value: 0
        inSlope: 0
        outSlope: 0
        tangentMode: 0
      - time: 1.25
        value: 0
        inSlope: 0
        outSlope: 0
        tangentMode: 0
      - time: 1.5
        value: 0
        inSlope: 0
        outSlope: 0
        tangentMode: 10
      m_PreInfinity: 2
      m_PostInfinity: 2
      m_RotationOrder: 4
    attribute: localEulerAnglesRaw.x
    path: Body/LeftLeg/LeftLegLower
    classID: 4
    script: {fileID: 0}
  - curve:
      serializedVersion: 2
      m_Curve:
      - time: 0
        value: 0
        inSlope: 0
        outSlope: 0
        tangentMode: 10
      - time: 0.45
        value: 0
        inSlope: 0
        outSlope: 0
        tangentMode: 0
      - time: 0.85
        value: 0
        inSlope: 0
        outSlope: 0
        tangentMode: 0
      - time: 1.25
        value: 0
        inSlope: 0
        outSlope: 0
        tangentMode: 0
      - time: 1.5
        value: 0
        inSlope: 0
        outSlope: 0
        tangentMode: 10
      m_PreInfinity: 2
      m_PostInfinity: 2
      m_RotationOrder: 4
    attribute: localEulerAnglesRaw.y
    path: Body/LeftLeg/LeftLegLower
    classID: 4
    script: {fileID: 0}
  - curve:
      serializedVersion: 2
      m_Curve:
      - time: 0
        value: 0
        inSlope: 3.624913
        outSlope: 3.624913
        tangentMode: 10
      - time: 0.45
        value: 1.6312108
        inSlope: 0
        outSlope: 0
        tangentMode: 0
      - time: 0.85
        value: 1.7230892
        inSlope: 0
        outSlope: 0
        tangentMode: 0
      - time: 1.25
        value: 1.7230892
        inSlope: 0
        outSlope: 0
        tangentMode: 0
      - time: 1.5
        value: 0
        inSlope: -6.892357
        outSlope: -6.892357
        tangentMode: 10
      m_PreInfinity: 2
      m_PostInfinity: 2
      m_RotationOrder: 4
    attribute: localEulerAnglesRaw.z
    path: Body/LeftLeg/LeftLegLower
    classID: 4
    script: {fileID: 0}
  - curve:
      serializedVersion: 2
      m_Curve:
      - time: 0
        value: 0
        inSlope: 0
        outSlope: 0
        tangentMode: 10
      - time: 0.45
        value: 0
        inSlope: 0
        outSlope: 0
        tangentMode: 0
      - time: 0.85
        value: 0
        inSlope: 0
        outSlope: 0
        tangentMode: 0
      - time: 1.25
        value: 0
        inSlope: 0
        outSlope: 0
        tangentMode: 0
      - time: 1.5
        value: 0
        inSlope: 0
        outSlope: 0
        tangentMode: 10
      m_PreInfinity: 2
      m_PostInfinity: 2
      m_RotationOrder: 4
    attribute: localEulerAnglesRaw.x
    path: Body/RightLeg/RightLegLower
    classID: 4
    script: {fileID: 0}
  - curve:
      serializedVersion: 2
      m_Curve:
      - time: 0
        value: 0
        inSlope: 0
        outSlope: 0
        tangentMode: 10
      - time: 0.45
        value: 0
        inSlope: 0
        outSlope: 0
        tangentMode: 0
      - time: 0.85
        value: 0
        inSlope: 0
        outSlope: 0
        tangentMode: 0
      - time: 1.25
        value: 0
        inSlope: 0
        outSlope: 0
        tangentMode: 0
      - time: 1.5
        value: 0
        inSlope: 0
        outSlope: 0
        tangentMode: 10
      m_PreInfinity: 2
      m_PostInfinity: 2
      m_RotationOrder: 4
    attribute: localEulerAnglesRaw.y
    path: Body/RightLeg/RightLegLower
    classID: 4
    script: {fileID: 0}
  - curve:
      serializedVersion: 2
      m_Curve:
      - time: 0
        value: 0
        inSlope: 1.8652656
        outSlope: 1.8652656
        tangentMode: 10
      - time: 0.45
        value: 0.8393695
        inSlope: 0
        outSlope: 0
        tangentMode: 0
      - time: 0.85
        value: 0.8866472
        inSlope: 0
        outSlope: 0
        tangentMode: 0
      - time: 1.25
        value: 0.8866472
        inSlope: 0
        outSlope: 0
        tangentMode: 0
      - time: 1.5
        value: 0
        inSlope: -3.546589
        outSlope: -3.546589
        tangentMode: 10
      m_PreInfinity: 2
      m_PostInfinity: 2
      m_RotationOrder: 4
    attribute: localEulerAnglesRaw.z
    path: Body/RightLeg/RightLegLower
    classID: 4
    script: {fileID: 0}
  - curve:
      serializedVersion: 2
      m_Curve:
      - time: 0
        value: 0
        inSlope: 0
        outSlope: 0
        tangentMode: 10
      - time: 0.45
        value: 0
        inSlope: 0
        outSlope: 0
        tangentMode: 0
      - time: 0.85
        value: 0
        inSlope: 0
        outSlope: 0
        tangentMode: 0
      - time: 1.25
        value: 0
        inSlope: 0
        outSlope: 0
        tangentMode: 0
      - time: 1.5
        value: 0
        inSlope: 0
        outSlope: 0
        tangentMode: 10
      m_PreInfinity: 2
      m_PostInfinity: 2
      m_RotationOrder: 4
    attribute: localEulerAnglesRaw.x
    path: Body/LeftLeg/LeftLegLower/LeftShoe
    classID: 4
    script: {fileID: 0}
  - curve:
      serializedVersion: 2
      m_Curve:
      - time: 0
        value: 0
        inSlope: 0
        outSlope: 0
        tangentMode: 10
      - time: 0.45
        value: 0
        inSlope: 0
        outSlope: 0
        tangentMode: 0
      - time: 0.85
        value: 0
        inSlope: 0
        outSlope: 0
        tangentMode: 0
      - time: 1.25
        value: 0
        inSlope: 0
        outSlope: 0
        tangentMode: 0
      - time: 1.5
        value: 0
        inSlope: 0
        outSlope: 0
        tangentMode: 10
      m_PreInfinity: 2
      m_PostInfinity: 2
      m_RotationOrder: 4
    attribute: localEulerAnglesRaw.y
    path: Body/LeftLeg/LeftLegLower/LeftShoe
    classID: 4
    script: {fileID: 0}
  - curve:
      serializedVersion: 2
      m_Curve:
      - time: 0
        value: 0
        inSlope: -3.762428
        outSlope: -3.762428
        tangentMode: 10
      - time: 0.45
        value: -1.6930926
        inSlope: 0
        outSlope: 0
        tangentMode: 0
      - time: 0.85
        value: -1.7884564
        inSlope: 0
        outSlope: 0
        tangentMode: 0
      - time: 1.25
        value: -1.7884564
        inSlope: 0
        outSlope: 0
        tangentMode: 0
      - time: 1.5
        value: 0
        inSlope: 7.1538258
        outSlope: 7.1538258
        tangentMode: 10
      m_PreInfinity: 2
      m_PostInfinity: 2
      m_RotationOrder: 4
    attribute: localEulerAnglesRaw.z
    path: Body/LeftLeg/LeftLegLower/LeftShoe
    classID: 4
    script: {fileID: 0}
  - curve:
      serializedVersion: 2
      m_Curve:
      - time: 0
        value: 0
        inSlope: 0
        outSlope: 0
        tangentMode: 10
      - time: 0.45
        value: 0
        inSlope: 0
        outSlope: 0
        tangentMode: 0
      - time: 0.85
        value: 0
        inSlope: 0
        outSlope: 0
        tangentMode: 0
      - time: 1.25
        value: 0
        inSlope: 0
        outSlope: 0
        tangentMode: 0
      - time: 1.5
        value: 0
        inSlope: 0
        outSlope: 0
        tangentMode: 10
      m_PreInfinity: 2
      m_PostInfinity: 2
      m_RotationOrder: 4
    attribute: localEulerAnglesRaw.x
    path: Body/RightLeg/RightLegLower/RightShoe
    classID: 4
    script: {fileID: 0}
  - curve:
      serializedVersion: 2
      m_Curve:
      - time: 0
        value: 0
        inSlope: 0
        outSlope: 0
        tangentMode: 10
      - time: 0.45
        value: 0
        inSlope: 0
        outSlope: 0
        tangentMode: 0
      - time: 0.85
        value: 0
        inSlope: 0
        outSlope: 0
        tangentMode: 0
      - time: 1.25
        value: 0
        inSlope: 0
        outSlope: 0
        tangentMode: 0
      - time: 1.5
        value: 0
        inSlope: 0
        outSlope: 0
        tangentMode: 10
      m_PreInfinity: 2
      m_PostInfinity: 2
      m_RotationOrder: 4
    attribute: localEulerAnglesRaw.y
    path: Body/RightLeg/RightLegLower/RightShoe
    classID: 4
    script: {fileID: 0}
  - curve:
      serializedVersion: 2
      m_Curve:
      - time: 0
        value: 0
        inSlope: -3.969444
        outSlope: -3.969444
        tangentMode: 10
      - time: 0.45
        value: -1.7862498
        inSlope: 0
        outSlope: 0
        tangentMode: 0
      - time: 0.85
        value: -1.8868608
        inSlope: 0
        outSlope: 0
        tangentMode: 0
      - time: 1.25
        value: -1.8868608
        inSlope: 0
        outSlope: 0
        tangentMode: 0
      - time: 1.5
        value: 0
        inSlope: 7.5474434
        outSlope: 7.5474434
        tangentMode: 10
      m_PreInfinity: 2
      m_PostInfinity: 2
      m_RotationOrder: 4
    attribute: localEulerAnglesRaw.z
    path: Body/RightLeg/RightLegLower/RightShoe
    classID: 4
    script: {fileID: 0}
  - curve:
      serializedVersion: 2
      m_Curve:
      - time: 0
        value: 0
        inSlope: 0
        outSlope: 0
        tangentMode: 10
      - time: 0.45
        value: 0
        inSlope: 0
        outSlope: 0
        tangentMode: 10
      - time: 0.85
        value: 0
        inSlope: 0
        outSlope: 0
        tangentMode: 10
      - time: 1.25
        value: 0
        inSlope: 0
        outSlope: 0
        tangentMode: 10
      - time: 1.5
        value: 0
        inSlope: 0
        outSlope: 0
        tangentMode: 10
      m_PreInfinity: 2
      m_PostInfinity: 2
      m_RotationOrder: 4
    attribute: localEulerAnglesRaw.x
    path: Body/Torso/TorsoUpper/LeftArm
    classID: 4
    script: {fileID: 0}
  - curve:
      serializedVersion: 2
      m_Curve:
      - time: 0
        value: 0
        inSlope: 0
        outSlope: 0
        tangentMode: 10
      - time: 0.45
        value: 0
        inSlope: 0
        outSlope: 0
        tangentMode: 10
      - time: 0.85
        value: 0
        inSlope: 0
        outSlope: 0
        tangentMode: 10
      - time: 1.25
        value: 0
        inSlope: 0
        outSlope: 0
        tangentMode: 10
      - time: 1.5
        value: 0
        inSlope: 0
        outSlope: 0
        tangentMode: 10
      m_PreInfinity: 2
      m_PostInfinity: 2
      m_RotationOrder: 4
    attribute: localEulerAnglesRaw.y
    path: Body/Torso/TorsoUpper/LeftArm
    classID: 4
    script: {fileID: 0}
  - curve:
      serializedVersion: 2
      m_Curve:
      - time: 0
        value: 0
        inSlope: -82.77122
        outSlope: -82.77122
        tangentMode: 10
      - time: 0.45
        value: -37.247047
        inSlope: 0
        outSlope: 0
        tangentMode: 0
      - time: 0.85
        value: -60.24
        inSlope: 0
        outSlope: 0
        tangentMode: 0
      - time: 1.25
        value: -60.24
        inSlope: 0
        outSlope: 0
        tangentMode: 0
      - time: 1.5
        value: 0
        inSlope: 240.96
        outSlope: 240.96
        tangentMode: 10
      m_PreInfinity: 2
      m_PostInfinity: 2
      m_RotationOrder: 4
    attribute: localEulerAnglesRaw.z
    path: Body/Torso/TorsoUpper/LeftArm
    classID: 4
    script: {fileID: 0}
  - curve:
      serializedVersion: 2
      m_Curve:
      - time: 0
        value: 0
        inSlope: 0
        outSlope: 0
        tangentMode: 10
      - time: 0.45
        value: 0
        inSlope: 0
        outSlope: 0
        tangentMode: 10
      - time: 0.85
        value: 0
        inSlope: 0
        outSlope: 0
        tangentMode: 10
      - time: 1.25
        value: 0
        inSlope: 0
        outSlope: 0
        tangentMode: 10
      - time: 1.5
        value: 0
        inSlope: 0
        outSlope: 0
        tangentMode: 10
      m_PreInfinity: 2
      m_PostInfinity: 2
      m_RotationOrder: 4
    attribute: localEulerAnglesRaw.x
    path: Body/Torso/TorsoUpper/Neck
    classID: 4
    script: {fileID: 0}
  - curve:
      serializedVersion: 2
      m_Curve:
      - time: 0
        value: 0
        inSlope: 0
        outSlope: 0
        tangentMode: 10
      - time: 0.45
        value: 0
        inSlope: 0
        outSlope: 0
        tangentMode: 10
      - time: 0.85
        value: 0
        inSlope: 0
        outSlope: 0
        tangentMode: 10
      - time: 1.25
        value: 0
        inSlope: 0
        outSlope: 0
        tangentMode: 10
      - time: 1.5
        value: 0
        inSlope: 0
        outSlope: 0
        tangentMode: 10
      m_PreInfinity: 2
      m_PostInfinity: 2
      m_RotationOrder: 4
    attribute: localEulerAnglesRaw.y
    path: Body/Torso/TorsoUpper/Neck
    classID: 4
    script: {fileID: 0}
  - curve:
      serializedVersion: 2
      m_Curve:
      - time: 0
        value: 0
        inSlope: 3.4290786
        outSlope: 3.4290786
        tangentMode: 10
      - time: 0.45
        value: 1.5430853
        inSlope: 0
        outSlope: 0
        tangentMode: 0
      - time: 0.85
        value: 1.6300001
        inSlope: 0
        outSlope: 0
        tangentMode: 0
      - time: 1.25
        value: 1.6300001
        inSlope: 0
        outSlope: 0
        tangentMode: 0
      - time: 1.5
        value: 0
        inSlope: -6.5200005
        outSlope: -6.5200005
        tangentMode: 10
      m_PreInfinity: 2
      m_PostInfinity: 2
      m_RotationOrder: 4
    attribute: localEulerAnglesRaw.z
    path: Body/Torso/TorsoUpper/Neck
    classID: 4
    script: {fileID: 0}
  - curve:
      serializedVersion: 2
      m_Curve:
      - time: 0
        value: 0
        inSlope: 0
        outSlope: 0
        tangentMode: 10
      - time: 0.45
        value: 0
        inSlope: 0
        outSlope: 0
        tangentMode: 10
      - time: 0.85
        value: 0
        inSlope: 0
        outSlope: 0
        tangentMode: 10
      - time: 1.25
        value: 0
        inSlope: 0
        outSlope: 0
        tangentMode: 10
      - time: 1.5
        value: 0
        inSlope: 0
        outSlope: 0
        tangentMode: 10
      m_PreInfinity: 2
      m_PostInfinity: 2
      m_RotationOrder: 4
    attribute: localEulerAnglesRaw.x
    path: Body/Torso/TorsoUpper/RightArm
    classID: 4
    script: {fileID: 0}
  - curve:
      serializedVersion: 2
      m_Curve:
      - time: 0
        value: 0
        inSlope: 0
        outSlope: 0
        tangentMode: 10
      - time: 0.45
        value: 0
        inSlope: 0
        outSlope: 0
        tangentMode: 10
      - time: 0.85
        value: 0
        inSlope: 0
        outSlope: 0
        tangentMode: 10
      - time: 1.25
        value: 0
        inSlope: 0
        outSlope: 0
        tangentMode: 10
      - time: 1.5
        value: 0
        inSlope: 0
        outSlope: 0
        tangentMode: 10
      m_PreInfinity: 2
      m_PostInfinity: 2
      m_RotationOrder: 4
    attribute: localEulerAnglesRaw.y
    path: Body/Torso/TorsoUpper/RightArm
    classID: 4
    script: {fileID: 0}
  - curve:
      serializedVersion: 2
      m_Curve:
      - time: 0
        value: 0
        inSlope: 25.629738
        outSlope: 25.629738
        tangentMode: 10
      - time: 0.45
        value: 11.533381
        inSlope: 0
        outSlope: 0
        tangentMode: 0
      - time: 0.85
        value: -15.047001
        inSlope: 0
        outSlope: 0
        tangentMode: 0
      - time: 1.25
        value: -15.047001
        inSlope: 0
        outSlope: 0
        tangentMode: 0
      - time: 1.5
        value: 0
        inSlope: 60.188004
        outSlope: 60.188004
        tangentMode: 10
      m_PreInfinity: 2
      m_PostInfinity: 2
      m_RotationOrder: 4
    attribute: localEulerAnglesRaw.z
    path: Body/Torso/TorsoUpper/RightArm
    classID: 4
    script: {fileID: 0}
  - curve:
      serializedVersion: 2
      m_Curve:
      - time: 0
        value: 0
        inSlope: 0
        outSlope: 0
        tangentMode: 10
      - time: 0.45
        value: 0
        inSlope: 0
        outSlope: 0
        tangentMode: 10
      - time: 0.85
        value: 0
        inSlope: 0
        outSlope: 0
        tangentMode: 10
      - time: 1.25
        value: 0
        inSlope: 0
        outSlope: 0
        tangentMode: 10
      - time: 1.5
        value: 0
        inSlope: 0
        outSlope: 0
        tangentMode: 10
      m_PreInfinity: 2
      m_PostInfinity: 2
      m_RotationOrder: 4
    attribute: localEulerAnglesRaw.x
    path: Body/Torso/TorsoUpper/LeftArm/LeftForearm
    classID: 4
    script: {fileID: 0}
  - curve:
      serializedVersion: 2
      m_Curve:
      - time: 0
        value: 0
        inSlope: 0
        outSlope: 0
        tangentMode: 10
      - time: 0.45
        value: 0
        inSlope: 0
        outSlope: 0
        tangentMode: 10
      - time: 0.85
        value: 0
        inSlope: 0
        outSlope: 0
        tangentMode: 10
      - time: 1.25
        value: 0
        inSlope: 0
        outSlope: 0
        tangentMode: 10
      - time: 1.5
        value: 0
        inSlope: 0
        outSlope: 0
        tangentMode: 10
      m_PreInfinity: 2
      m_PostInfinity: 2
      m_RotationOrder: 4
    attribute: localEulerAnglesRaw.y
    path: Body/Torso/TorsoUpper/LeftArm/LeftForearm
    classID: 4
    script: {fileID: 0}
  - curve:
      serializedVersion: 2
      m_Curve:
      - time: 0
        value: 0
        inSlope: -110.3406
        outSlope: -110.3406
        tangentMode: 10
      - time: 0.45
        value: -49.653267
        inSlope: 0
        outSlope: 0
        tangentMode: 0
      - time: 0.85
        value: -16.042
        inSlope: 0
        outSlope: 0
        tangentMode: 0
      - time: 1.25
        value: -16.042
        inSlope: 0
        outSlope: 0
        tangentMode: 0
      - time: 1.5
        value: 0
        inSlope: 64.168
        outSlope: 64.168
        tangentMode: 10
      m_PreInfinity: 2
      m_PostInfinity: 2
      m_RotationOrder: 4
    attribute: localEulerAnglesRaw.z
    path: Body/Torso/TorsoUpper/LeftArm/LeftForearm
    classID: 4
    script: {fileID: 0}
  - curve:
      serializedVersion: 2
      m_Curve:
      - time: 0
        value: 0
        inSlope: 0
        outSlope: 0
        tangentMode: 10
      - time: 0.45
        value: 0
        inSlope: 0
        outSlope: 0
        tangentMode: 10
      - time: 0.85
        value: 0
        inSlope: 0
        outSlope: 0
        tangentMode: 10
      - time: 1.25
        value: 0
        inSlope: 0
        outSlope: 0
        tangentMode: 10
      - time: 1.5
        value: 0
        inSlope: 0
        outSlope: 0
        tangentMode: 10
      m_PreInfinity: 2
      m_PostInfinity: 2
      m_RotationOrder: 4
    attribute: localEulerAnglesRaw.x
    path: Body/Torso/TorsoUpper/Neck/Head
    classID: 4
    script: {fileID: 0}
  - curve:
      serializedVersion: 2
      m_Curve:
      - time: 0
        value: 0
        inSlope: 0
        outSlope: 0
        tangentMode: 10
      - time: 0.45
        value: 0
        inSlope: 0
        outSlope: 0
        tangentMode: 10
      - time: 0.85
        value: 0
        inSlope: 0
        outSlope: 0
        tangentMode: 10
      - time: 1.25
        value: 0
        inSlope: 0
        outSlope: 0
        tangentMode: 10
      - time: 1.5
        value: 0
        inSlope: 0
        outSlope: 0
        tangentMode: 10
      m_PreInfinity: 2
      m_PostInfinity: 2
      m_RotationOrder: 4
    attribute: localEulerAnglesRaw.y
    path: Body/Torso/TorsoUpper/Neck/Head
    classID: 4
    script: {fileID: 0}
  - curve:
      serializedVersion: 2
      m_Curve:
      - time: 0
        value: 0
        inSlope: 2.999918
        outSlope: 2.999918
        tangentMode: 10
      - time: 0.45
        value: 1.3499631
        inSlope: 0
        outSlope: 0
        tangentMode: 0
      - time: 0.85
        value: 1.4260001
        inSlope: 0
        outSlope: 0
        tangentMode: 0
      - time: 1.25
        value: 1.4260001
        inSlope: 0
        outSlope: 0
        tangentMode: 0
      - time: 1.5
        value: 0
        inSlope: -5.7040005
        outSlope: -5.7040005
        tangentMode: 10
      m_PreInfinity: 2
      m_PostInfinity: 2
      m_RotationOrder: 4
    attribute: localEulerAnglesRaw.z
    path: Body/Torso/TorsoUpper/Neck/Head
    classID: 4
    script: {fileID: 0}
  - curve:
      serializedVersion: 2
      m_Curve:
      - time: 0
        value: 0
        inSlope: -49.86679
        outSlope: -49.86679
        tangentMode: 10
      - time: 0.45
        value: -22.440056
        inSlope: 0
        outSlope: 0
        tangentMode: 0
      - time: 0.85
        value: 9.3880005
        inSlope: 0
        outSlope: 0
        tangentMode: 0
      - time: 1.25
        value: 9.3880005
        inSlope: 0
        outSlope: 0
        tangentMode: 0
      - time: 1.5
        value: 0
        inSlope: -37.552002
        outSlope: -37.552002
        tangentMode: 10
      m_PreInfinity: 2
      m_PostInfinity: 2
      m_RotationOrder: 4
    attribute: localEulerAnglesRaw.x
    path: Body/Torso/TorsoUpper/RightArm/RightForearm
    classID: 4
    script: {fileID: 0}
  - curve:
      serializedVersion: 2
      m_Curve:
      - time: 0
        value: 0
        inSlope: -92.59773
        outSlope: -92.59773
        tangentMode: 10
      - time: 0.45
        value: -41.66898
        inSlope: 0
        outSlope: 0
        tangentMode: 0
      - time: 0.85
        value: -47.97
        inSlope: 0
        outSlope: 0
        tangentMode: 0
      - time: 1.25
        value: -47.97
        inSlope: 0
        outSlope: 0
        tangentMode: 0
      - time: 1.5
        value: 0
        inSlope: 191.88
        outSlope: 191.88
        tangentMode: 10
      m_PreInfinity: 2
      m_PostInfinity: 2
      m_RotationOrder: 4
    attribute: localEulerAnglesRaw.y
    path: Body/Torso/TorsoUpper/RightArm/RightForearm
    classID: 4
    script: {fileID: 0}
  - curve:
      serializedVersion: 2
      m_Curve:
      - time: 0
        value: 0
        inSlope: -236.27615
        outSlope: -236.27615
        tangentMode: 10
      - time: 0.45
        value: -106.324265
        inSlope: 0
        outSlope: 0
        tangentMode: 0
      - time: 0.85
        value: -81.58401
        inSlope: 0
        outSlope: 0
        tangentMode: 0
      - time: 1.25
        value: -81.58401
        inSlope: 0
        outSlope: 0
        tangentMode: 0
      - time: 1.5
        value: 0
        inSlope: 326.33603
        outSlope: 326.33603
        tangentMode: 10
      m_PreInfinity: 2
      m_PostInfinity: 2
      m_RotationOrder: 4
    attribute: localEulerAnglesRaw.z
    path: Body/Torso/TorsoUpper/RightArm/RightForearm
    classID: 4
    script: {fileID: 0}
  - curve:
      serializedVersion: 2
      m_Curve:
      - time: 0
        value: 0
        inSlope: 0
        outSlope: 0
        tangentMode: 10
      - time: 0.45
        value: 0
        inSlope: 0
        outSlope: 0
        tangentMode: 0
      - time: 0.85
        value: 0
        inSlope: 0
        outSlope: 0
        tangentMode: 0
      - time: 1.25
        value: 0
        inSlope: 0
        outSlope: 0
        tangentMode: 0
      - time: 1.5
        value: 0
        inSlope: 0
        outSlope: 0
        tangentMode: 10
      m_PreInfinity: 2
      m_PostInfinity: 2
      m_RotationOrder: 4
    attribute: localEulerAnglesRaw.x
    path: Body/Torso/TorsoUpper/LeftArm/LeftForearm/LeftHand
    classID: 4
    script: {fileID: 0}
  - curve:
      serializedVersion: 2
      m_Curve:
      - time: 0
        value: 0
        inSlope: 0
        outSlope: 0
        tangentMode: 10
      - time: 0.45
        value: 0
        inSlope: 0
        outSlope: 0
        tangentMode: 0
      - time: 0.85
        value: 0
        inSlope: 0
        outSlope: 0
        tangentMode: 0
      - time: 1.25
        value: 0
        inSlope: 0
        outSlope: 0
        tangentMode: 0
      - time: 1.5
        value: 0
        inSlope: 0
        outSlope: 0
        tangentMode: 10
      m_PreInfinity: 2
      m_PostInfinity: 2
      m_RotationOrder: 4
    attribute: localEulerAnglesRaw.y
    path: Body/Torso/TorsoUpper/LeftArm/LeftForearm/LeftHand
    classID: 4
    script: {fileID: 0}
  - curve:
      serializedVersion: 2
      m_Curve:
      - time: 0
        value: -0.3089041
        inSlope: 32.136364
        outSlope: 32.136364
        tangentMode: 10
      - time: 0.45
        value: 14.152459
        inSlope: 0
        outSlope: 0
        tangentMode: 0
      - time: 0.85
        value: 14.967001
        inSlope: 0
        outSlope: 0
        tangentMode: 0
      - time: 1.25
        value: 14.967001
        inSlope: 0
        outSlope: 0
        tangentMode: 0
      - time: 1.5
        value: -0.3089041
        inSlope: -61.10362
        outSlope: -61.10362
        tangentMode: 10
      m_PreInfinity: 2
      m_PostInfinity: 2
      m_RotationOrder: 4
    attribute: localEulerAnglesRaw.z
    path: Body/Torso/TorsoUpper/LeftArm/LeftForearm/LeftHand
    classID: 4
    script: {fileID: 0}
  - curve:
      serializedVersion: 2
      m_Curve:
      - time: 0
        value: 0
        inSlope: -84.61199
        outSlope: -84.61199
        tangentMode: 10
      - time: 0.45
        value: -38.075394
        inSlope: 0
        outSlope: 0
        tangentMode: 0
      - time: 0.85
        value: -40.861
        inSlope: 0
        outSlope: 0
        tangentMode: 0
      - time: 1.25
        value: -40.861
        inSlope: 0
        outSlope: 0
        tangentMode: 0
      - time: 1.5
        value: 0
        inSlope: 163.444
        outSlope: 163.444
        tangentMode: 10
      m_PreInfinity: 2
      m_PostInfinity: 2
      m_RotationOrder: 4
    attribute: localEulerAnglesRaw.x
    path: Body/Torso/TorsoUpper/RightArm/RightForearm/RightHand
    classID: 4
    script: {fileID: 0}
  - curve:
      serializedVersion: 2
      m_Curve:
      - time: 0
        value: 0
        inSlope: 0.5785256
        outSlope: 0.5785256
        tangentMode: 10
      - time: 0.45
        value: 0.26033652
        inSlope: 0
        outSlope: 0
        tangentMode: 0
      - time: 0.85
        value: -4.386
        inSlope: 0
        outSlope: 0
        tangentMode: 0
      - time: 1.25
        value: -4.386
        inSlope: 0
        outSlope: 0
        tangentMode: 0
      - time: 1.5
        value: 0
        inSlope: 17.544
        outSlope: 17.544
        tangentMode: 10
      m_PreInfinity: 2
      m_PostInfinity: 2
      m_RotationOrder: 4
    attribute: localEulerAnglesRaw.y
    path: Body/Torso/TorsoUpper/RightArm/RightForearm/RightHand
    classID: 4
    script: {fileID: 0}
  - curve:
      serializedVersion: 2
      m_Curve:
      - time: 0
        value: 0
        inSlope: 43.412556
        outSlope: 43.412556
        tangentMode: 10
      - time: 0.45
        value: 19.53565
        inSlope: 0
        outSlope: 0
        tangentMode: 0
      - time: 0.85
        value: -1.332
        inSlope: 0
        outSlope: 0
        tangentMode: 0
      - time: 1.25
        value: -1.332
        inSlope: 0
        outSlope: 0
        tangentMode: 0
      - time: 1.5
        value: 0
        inSlope: 5.328
        outSlope: 5.328
        tangentMode: 10
      m_PreInfinity: 2
      m_PostInfinity: 2
      m_RotationOrder: 4
    attribute: localEulerAnglesRaw.z
    path: Body/Torso/TorsoUpper/RightArm/RightForearm/RightHand
    classID: 4
    script: {fileID: 0}
  - curve:
      serializedVersion: 2
      m_Curve:
      - time: 0
        value: 1
        inSlope: Infinity
        outSlope: Infinity
        tangentMode: 31
      - time: 0.45
        value: 0
        inSlope: Infinity
        outSlope: Infinity
        tangentMode: 31
      - time: 1.25
        value: 1
        inSlope: Infinity
        outSlope: Infinity
        tangentMode: 31
      - time: 1.5
        value: 1
        inSlope: Infinity
        outSlope: Infinity
        tangentMode: 31
      m_PreInfinity: 2
      m_PostInfinity: 2
      m_RotationOrder: 4
    attribute: m_IsActive
    path: Body/Torso/TorsoUpper/LeftArm/LeftForearm/LeftHand/HandLeftIdle
    classID: 1
    script: {fileID: 0}
  - curve:
      serializedVersion: 2
      m_Curve:
      - time: 0
        value: 0
        inSlope: Infinity
        outSlope: Infinity
        tangentMode: 31
      - time: 0.45
        value: 0
        inSlope: Infinity
        outSlope: Infinity
        tangentMode: 31
      - time: 1.25
        value: 0
        inSlope: Infinity
        outSlope: Infinity
        tangentMode: 31
      - time: 1.5
        value: 0
        inSlope: Infinity
        outSlope: Infinity
        tangentMode: 31
      m_PreInfinity: 2
      m_PostInfinity: 2
      m_RotationOrder: 4
    attribute: m_IsActive
    path: Body/Torso/TorsoUpper/LeftArm/LeftForearm/LeftHand/HandLeftTakingSomething
    classID: 1
    script: {fileID: 0}
  - curve:
      serializedVersion: 2
      m_Curve:
      - time: 0
        value: 1
        inSlope: Infinity
        outSlope: Infinity
        tangentMode: 31
      - time: 0.45
        value: 0
        inSlope: Infinity
        outSlope: Infinity
        tangentMode: 31
      - time: 1.25
        value: 1
        inSlope: Infinity
        outSlope: Infinity
        tangentMode: 31
      - time: 1.5
        value: 1
        inSlope: Infinity
        outSlope: Infinity
        tangentMode: 31
      m_PreInfinity: 2
      m_PostInfinity: 2
      m_RotationOrder: 4
    attribute: m_IsActive
    path: Body/Torso/TorsoUpper/RightArm/RightForearm/RightHand/HandRightIdle
    classID: 1
    script: {fileID: 0}
  - curve:
      serializedVersion: 2
      m_Curve:
      - time: 0
        value: 0
        inSlope: Infinity
        outSlope: Infinity
        tangentMode: 31
      - time: 0.45
        value: 1
        inSlope: Infinity
        outSlope: Infinity
        tangentMode: 31
      - time: 1.25
        value: 0
        inSlope: Infinity
        outSlope: Infinity
        tangentMode: 31
      - time: 1.5
        value: 0
        inSlope: Infinity
        outSlope: Infinity
        tangentMode: 31
      m_PreInfinity: 2
      m_PostInfinity: 2
      m_RotationOrder: 4
    attribute: m_IsActive
    path: Body/Torso/TorsoUpper/RightArm/RightForearm/RightHand/HandRightTakingSomething
    classID: 1
    script: {fileID: 0}
  - curve:
      serializedVersion: 2
      m_Curve:
      - time: 0
        value: 0
        inSlope: Infinity
        outSlope: Infinity
        tangentMode: 31
      - time: 0.45
        value: 0
        inSlope: Infinity
        outSlope: Infinity
        tangentMode: 31
      - time: 1.25
        value: 0
        inSlope: Infinity
        outSlope: Infinity
        tangentMode: 31
      - time: 1.5
        value: 0
        inSlope: Infinity
        outSlope: Infinity
        tangentMode: 31
      m_PreInfinity: 2
      m_PostInfinity: 2
      m_RotationOrder: 4
    attribute: m_IsActive
    path: Body/Torso/TorsoUpper/LeftArm/LeftForearm/LeftHand/LeftHandFainting
    classID: 1
    script: {fileID: 0}
  - curve:
      serializedVersion: 2
      m_Curve:
      - time: 0
        value: 0
        inSlope: 0
        outSlope: 0
        tangentMode: 10
      - time: 0.45
        value: 0
        inSlope: 0
        outSlope: 0
        tangentMode: 10
      - time: 1.25
        value: 0
        inSlope: 0
        outSlope: 0
        tangentMode: 10
      - time: 1.5
        value: 0
        inSlope: 0
        outSlope: 0
        tangentMode: 10
      m_PreInfinity: 2
      m_PostInfinity: 2
      m_RotationOrder: 4
    attribute: localEulerAnglesRaw.x
    path: Body/Torso/TorsoUpper/LeftArm/LeftForearm/LeftHand/LeftHandFainting
    classID: 4
    script: {fileID: 0}
  - curve:
      serializedVersion: 2
      m_Curve:
      - time: 0
        value: 0
        inSlope: 0
        outSlope: 0
        tangentMode: 10
      - time: 0.45
        value: 0
        inSlope: 0
        outSlope: 0
        tangentMode: 10
      - time: 1.25
        value: 0
        inSlope: 0
        outSlope: 0
        tangentMode: 10
      - time: 1.5
        value: 0
        inSlope: 0
        outSlope: 0
        tangentMode: 10
      m_PreInfinity: 2
      m_PostInfinity: 2
      m_RotationOrder: 4
    attribute: localEulerAnglesRaw.y
    path: Body/Torso/TorsoUpper/LeftArm/LeftForearm/LeftHand/LeftHandFainting
    classID: 4
    script: {fileID: 0}
  - curve:
      serializedVersion: 2
      m_Curve:
      - time: 0
        value: 90
        inSlope: -52.595573
        outSlope: -52.595573
        tangentMode: 10
      - time: 0.45
        value: 66.33199
        inSlope: -11.505282
        outSlope: -11.505282
        tangentMode: 10
      - time: 1.25
        value: 90
        inSlope: 14.792504
        outSlope: 14.792504
        tangentMode: 10
      - time: 1.5
        value: 90
        inSlope: 0
        outSlope: 0
        tangentMode: 10
      m_PreInfinity: 2
      m_PostInfinity: 2
      m_RotationOrder: 4
    attribute: localEulerAnglesRaw.z
    path: Body/Torso/TorsoUpper/LeftArm/LeftForearm/LeftHand/LeftHandFainting
    classID: 4
    script: {fileID: 0}
  - curve:
      serializedVersion: 2
      m_Curve:
      - time: 0
        value: 0
        inSlope: Infinity
        outSlope: Infinity
        tangentMode: 31
      - time: 0.45
        value: 1
        inSlope: Infinity
        outSlope: Infinity
        tangentMode: 31
      - time: 1.25
        value: 0
        inSlope: Infinity
        outSlope: Infinity
        tangentMode: 31
      m_PreInfinity: 2
      m_PostInfinity: 2
      m_RotationOrder: 4
    attribute: m_IsActive
    path: Body/Torso/TorsoUpper/LeftArm/LeftForearm/LeftHand/LeftHandGiving
    classID: 1
    script: {fileID: 0}
  m_EulerEditorCurves:
  - curve:
      serializedVersion: 2
      m_Curve: []
      m_PreInfinity: 2
      m_PostInfinity: 2
      m_RotationOrder: 4
    attribute: m_LocalEulerAngles.z
    path: Body/LeftLeg/LeftLegLower
    classID: 4
    script: {fileID: 0}
  - curve:
      serializedVersion: 2
      m_Curve: []
      m_PreInfinity: 2
      m_PostInfinity: 2
      m_RotationOrder: 4
    attribute: m_LocalEulerAngles.y
    path: Body/LeftLeg/LeftLegLower
    classID: 4
    script: {fileID: 0}
  - curve:
      serializedVersion: 2
      m_Curve: []
      m_PreInfinity: 2
      m_PostInfinity: 2
      m_RotationOrder: 4
    attribute: m_LocalEulerAngles.x
    path: Body/LeftLeg/LeftLegLower
    classID: 4
    script: {fileID: 0}
  - curve:
      serializedVersion: 2
      m_Curve: []
      m_PreInfinity: 2
      m_PostInfinity: 2
      m_RotationOrder: 4
    attribute: m_LocalEulerAngles.z
    path: Body/RightLeg/RightLegLower
    classID: 4
    script: {fileID: 0}
  - curve:
      serializedVersion: 2
      m_Curve: []
      m_PreInfinity: 2
      m_PostInfinity: 2
      m_RotationOrder: 4
    attribute: m_LocalEulerAngles.y
    path: Body/RightLeg/RightLegLower
    classID: 4
    script: {fileID: 0}
  - curve:
      serializedVersion: 2
      m_Curve: []
      m_PreInfinity: 2
      m_PostInfinity: 2
      m_RotationOrder: 4
    attribute: m_LocalEulerAngles.x
    path: Body/RightLeg/RightLegLower
    classID: 4
    script: {fileID: 0}
  - curve:
      serializedVersion: 2
      m_Curve: []
      m_PreInfinity: 2
      m_PostInfinity: 2
      m_RotationOrder: 4
    attribute: m_LocalEulerAngles.z
    path: Body/RightLeg/RightLegLower/RightShoe
    classID: 4
    script: {fileID: 0}
  - curve:
      serializedVersion: 2
      m_Curve: []
      m_PreInfinity: 2
      m_PostInfinity: 2
      m_RotationOrder: 4
    attribute: m_LocalEulerAngles.y
    path: Body/RightLeg/RightLegLower/RightShoe
    classID: 4
    script: {fileID: 0}
  - curve:
      serializedVersion: 2
      m_Curve: []
      m_PreInfinity: 2
      m_PostInfinity: 2
      m_RotationOrder: 4
    attribute: m_LocalEulerAngles.x
    path: Body/RightLeg/RightLegLower/RightShoe
    classID: 4
    script: {fileID: 0}
  - curve:
      serializedVersion: 2
      m_Curve: []
      m_PreInfinity: 2
      m_PostInfinity: 2
      m_RotationOrder: 4
    attribute: m_LocalEulerAngles.z
    path: Body/Torso/TorsoUpper/RightArm
    classID: 4
    script: {fileID: 0}
  - curve:
      serializedVersion: 2
      m_Curve: []
      m_PreInfinity: 2
      m_PostInfinity: 2
      m_RotationOrder: 4
    attribute: m_LocalEulerAngles.y
    path: Body/Torso/TorsoUpper/RightArm
    classID: 4
    script: {fileID: 0}
  - curve:
      serializedVersion: 2
      m_Curve: []
      m_PreInfinity: 2
      m_PostInfinity: 2
      m_RotationOrder: 4
    attribute: m_LocalEulerAngles.x
    path: Body/Torso/TorsoUpper/RightArm
    classID: 4
    script: {fileID: 0}
  - curve:
      serializedVersion: 2
      m_Curve: []
      m_PreInfinity: 2
      m_PostInfinity: 2
      m_RotationOrder: 4
    attribute: m_LocalEulerAngles.z
    path: Body/Torso/TorsoUpper/LeftArm
    classID: 4
    script: {fileID: 0}
  - curve:
      serializedVersion: 2
      m_Curve: []
      m_PreInfinity: 2
      m_PostInfinity: 2
      m_RotationOrder: 4
    attribute: m_LocalEulerAngles.y
    path: Body/Torso/TorsoUpper/LeftArm
    classID: 4
    script: {fileID: 0}
  - curve:
      serializedVersion: 2
      m_Curve: []
      m_PreInfinity: 2
      m_PostInfinity: 2
      m_RotationOrder: 4
    attribute: m_LocalEulerAngles.x
    path: Body/Torso/TorsoUpper/LeftArm
    classID: 4
    script: {fileID: 0}
  - curve:
      serializedVersion: 2
      m_Curve: []
      m_PreInfinity: 2
      m_PostInfinity: 2
      m_RotationOrder: 4
    attribute: m_LocalEulerAngles.z
    path: Body/Torso/TorsoUpper/Neck
    classID: 4
    script: {fileID: 0}
  - curve:
      serializedVersion: 2
      m_Curve: []
      m_PreInfinity: 2
      m_PostInfinity: 2
      m_RotationOrder: 4
    attribute: m_LocalEulerAngles.y
    path: Body/Torso/TorsoUpper/Neck
    classID: 4
    script: {fileID: 0}
  - curve:
      serializedVersion: 2
      m_Curve: []
      m_PreInfinity: 2
      m_PostInfinity: 2
      m_RotationOrder: 4
    attribute: m_LocalEulerAngles.x
    path: Body/Torso/TorsoUpper/Neck
    classID: 4
    script: {fileID: 0}
  - curve:
      serializedVersion: 2
      m_Curve: []
      m_PreInfinity: 2
      m_PostInfinity: 2
      m_RotationOrder: 4
    attribute: m_LocalEulerAngles.z
    path: Body/Torso/TorsoUpper/LeftArm/LeftForearm
    classID: 4
    script: {fileID: 0}
  - curve:
      serializedVersion: 2
      m_Curve: []
      m_PreInfinity: 2
      m_PostInfinity: 2
      m_RotationOrder: 4
    attribute: m_LocalEulerAngles.y
    path: Body/Torso/TorsoUpper/LeftArm/LeftForearm
    classID: 4
    script: {fileID: 0}
  - curve:
      serializedVersion: 2
      m_Curve: []
      m_PreInfinity: 2
      m_PostInfinity: 2
      m_RotationOrder: 4
    attribute: m_LocalEulerAngles.x
    path: Body/Torso/TorsoUpper/LeftArm/LeftForearm
    classID: 4
    script: {fileID: 0}
  - curve:
      serializedVersion: 2
      m_Curve: []
      m_PreInfinity: 2
      m_PostInfinity: 2
      m_RotationOrder: 4
    attribute: m_LocalEulerAngles.z
    path: Body/LeftLeg/LeftLegLower/LeftShoe
    classID: 4
    script: {fileID: 0}
  - curve:
      serializedVersion: 2
      m_Curve: []
      m_PreInfinity: 2
      m_PostInfinity: 2
      m_RotationOrder: 4
    attribute: m_LocalEulerAngles.y
    path: Body/LeftLeg/LeftLegLower/LeftShoe
    classID: 4
    script: {fileID: 0}
  - curve:
      serializedVersion: 2
      m_Curve: []
      m_PreInfinity: 2
      m_PostInfinity: 2
      m_RotationOrder: 4
    attribute: m_LocalEulerAngles.x
    path: Body/LeftLeg/LeftLegLower/LeftShoe
    classID: 4
    script: {fileID: 0}
  - curve:
      serializedVersion: 2
      m_Curve: []
      m_PreInfinity: 2
      m_PostInfinity: 2
      m_RotationOrder: 4
    attribute: m_LocalEulerAngles.z
    path: Body/Torso/TorsoUpper/RightArm/RightForearm
    classID: 4
    script: {fileID: 0}
  - curve:
      serializedVersion: 2
      m_Curve: []
      m_PreInfinity: 2
      m_PostInfinity: 2
      m_RotationOrder: 4
    attribute: m_LocalEulerAngles.y
    path: Body/Torso/TorsoUpper/RightArm/RightForearm
    classID: 4
    script: {fileID: 0}
  - curve:
      serializedVersion: 2
      m_Curve: []
      m_PreInfinity: 2
      m_PostInfinity: 2
      m_RotationOrder: 4
    attribute: m_LocalEulerAngles.x
    path: Body/Torso/TorsoUpper/RightArm/RightForearm
    classID: 4
    script: {fileID: 0}
  - curve:
      serializedVersion: 2
      m_Curve: []
      m_PreInfinity: 2
      m_PostInfinity: 2
      m_RotationOrder: 4
    attribute: m_LocalEulerAngles.z
    path: Body/Torso/TorsoUpper/RightArm/RightForearm/RightHand
    classID: 4
    script: {fileID: 0}
  - curve:
      serializedVersion: 2
      m_Curve: []
      m_PreInfinity: 2
      m_PostInfinity: 2
      m_RotationOrder: 4
    attribute: m_LocalEulerAngles.y
    path: Body/Torso/TorsoUpper/RightArm/RightForearm/RightHand
    classID: 4
    script: {fileID: 0}
  - curve:
      serializedVersion: 2
      m_Curve: []
      m_PreInfinity: 2
      m_PostInfinity: 2
      m_RotationOrder: 4
    attribute: m_LocalEulerAngles.x
    path: Body/Torso/TorsoUpper/RightArm/RightForearm/RightHand
    classID: 4
    script: {fileID: 0}
  - curve:
      serializedVersion: 2
      m_Curve: []
      m_PreInfinity: 2
      m_PostInfinity: 2
      m_RotationOrder: 4
    attribute: m_LocalEulerAngles.z
    path: Body/Torso/TorsoUpper/Neck/Head
    classID: 4
    script: {fileID: 0}
  - curve:
      serializedVersion: 2
      m_Curve: []
      m_PreInfinity: 2
      m_PostInfinity: 2
      m_RotationOrder: 4
    attribute: m_LocalEulerAngles.y
    path: Body/Torso/TorsoUpper/Neck/Head
    classID: 4
    script: {fileID: 0}
  - curve:
      serializedVersion: 2
      m_Curve: []
      m_PreInfinity: 2
      m_PostInfinity: 2
      m_RotationOrder: 4
    attribute: m_LocalEulerAngles.x
    path: Body/Torso/TorsoUpper/Neck/Head
    classID: 4
    script: {fileID: 0}
  - curve:
      serializedVersion: 2
      m_Curve: []
      m_PreInfinity: 2
      m_PostInfinity: 2
      m_RotationOrder: 4
    attribute: m_LocalEulerAngles.z
    path: Body/LeftLeg
    classID: 4
    script: {fileID: 0}
  - curve:
      serializedVersion: 2
      m_Curve: []
      m_PreInfinity: 2
      m_PostInfinity: 2
      m_RotationOrder: 4
    attribute: m_LocalEulerAngles.y
    path: Body/LeftLeg
    classID: 4
    script: {fileID: 0}
  - curve:
      serializedVersion: 2
      m_Curve: []
      m_PreInfinity: 2
      m_PostInfinity: 2
      m_RotationOrder: 4
    attribute: m_LocalEulerAngles.x
    path: Body/LeftLeg
    classID: 4
    script: {fileID: 0}
  - curve:
      serializedVersion: 2
      m_Curve: []
      m_PreInfinity: 2
      m_PostInfinity: 2
      m_RotationOrder: 4
    attribute: m_LocalEulerAngles.z
    path: Body/RightLeg
    classID: 4
    script: {fileID: 0}
  - curve:
      serializedVersion: 2
      m_Curve: []
      m_PreInfinity: 2
      m_PostInfinity: 2
      m_RotationOrder: 4
    attribute: m_LocalEulerAngles.y
    path: Body/RightLeg
    classID: 4
    script: {fileID: 0}
  - curve:
      serializedVersion: 2
      m_Curve: []
      m_PreInfinity: 2
      m_PostInfinity: 2
      m_RotationOrder: 4
    attribute: m_LocalEulerAngles.x
    path: Body/RightLeg
    classID: 4
    script: {fileID: 0}
  - curve:
      serializedVersion: 2
      m_Curve: []
      m_PreInfinity: 2
      m_PostInfinity: 2
      m_RotationOrder: 4
    attribute: m_LocalEulerAngles.z
    path: Body/Torso/TorsoUpper/LeftArm/LeftForearm/LeftHand
    classID: 4
    script: {fileID: 0}
  - curve:
      serializedVersion: 2
      m_Curve: []
      m_PreInfinity: 2
      m_PostInfinity: 2
      m_RotationOrder: 4
    attribute: m_LocalEulerAngles.y
    path: Body/Torso/TorsoUpper/LeftArm/LeftForearm/LeftHand
    classID: 4
    script: {fileID: 0}
  - curve:
      serializedVersion: 2
      m_Curve: []
      m_PreInfinity: 2
      m_PostInfinity: 2
      m_RotationOrder: 4
    attribute: m_LocalEulerAngles.x
    path: Body/Torso/TorsoUpper/LeftArm/LeftForearm/LeftHand
    classID: 4
    script: {fileID: 0}
  - curve:
      serializedVersion: 2
      m_Curve: []
      m_PreInfinity: 2
      m_PostInfinity: 2
      m_RotationOrder: 4
    attribute: m_LocalEulerAngles.x
    path: Body/Torso/TorsoUpper/LeftArm/LeftForearm/LeftHand/LeftHandFainting
    classID: 4
    script: {fileID: 0}
  - curve:
      serializedVersion: 2
      m_Curve: []
      m_PreInfinity: 2
      m_PostInfinity: 2
      m_RotationOrder: 4
    attribute: m_LocalEulerAngles.y
    path: Body/Torso/TorsoUpper/LeftArm/LeftForearm/LeftHand/LeftHandFainting
    classID: 4
    script: {fileID: 0}
  - curve:
      serializedVersion: 2
      m_Curve: []
      m_PreInfinity: 2
      m_PostInfinity: 2
      m_RotationOrder: 4
    attribute: m_LocalEulerAngles.z
    path: Body/Torso/TorsoUpper/LeftArm/LeftForearm/LeftHand/LeftHandFainting
    classID: 4
    script: {fileID: 0}
  m_HasGenericRootTransform: 0
  m_HasMotionFloatCurves: 0
  m_GenerateMotionCurves: 0
  m_Events: []
