%YAML 1.1
%TAG !u! tag:unity3d.com,2011:
--- !u!74 &7400000
AnimationClip:
  m_ObjectHideFlags: 0
  m_PrefabParentObject: {fileID: 0}
  m_PrefabInternal: {fileID: 0}
  m_Name: FemaleRaisedEyebrow
  serializedVersion: 6
  m_Legacy: 0
  m_Compressed: 0
  m_UseHighQualityCurve: 1
  m_RotationCurves: []
  m_CompressedRotationCurves: []
  m_EulerCurves:
  - curve:
      serializedVersion: 2
      m_Curve:
      - time: 0
        value: {x: 0, y: 0, z: -0.103455424}
        inSlope: {x: 0, y: 0, z: 0.012084987}
        outSlope: {x: 0, y: 0, z: 0.012084987}
        tangentMode: 0
      - time: 0.55
        value: {x: 0, y: 0, z: -0.8797058}
        inSlope: {x: 0, y: 0, z: -0.49265304}
        outSlope: {x: 0, y: 0, z: -0.49265304}
        tangentMode: 0
      - time: 1.85
        value: {x: 0, y: 0, z: -0.3258301}
        inSlope: {x: 0, y: 0, z: -0.12997118}
        outSlope: {x: 0, y: 0, z: -0.12997118}
        tangentMode: 0
      - time: 2.6666667
        value: {x: 0, y: 0, z: -0.88606393}
        inSlope: {x: 0, y: 0, z: 0.17873871}
        outSlope: {x: 0, y: 0, z: 0.17873871}
        tangentMode: 0
      - time: 3.4166667
        value: {x: 0, y: 0, z: -0.103455424}
        inSlope: {x: 0, y: 0, z: 0.014196476}
        outSlope: {x: 0, y: 0, z: 0.014196476}
        tangentMode: 0
      m_PreInfinity: 2
      m_PostInfinity: 2
      m_RotationOrder: 4
    path: Body/Torso
  - curve:
      serializedVersion: 2
      m_Curve:
      - time: 0
        value: {x: 0, y: 0, z: 0}
        inSlope: {x: 0, y: 0, z: -1.7536082}
        outSlope: {x: 0, y: 0, z: -1.7536082}
        tangentMode: 0
      - time: 1.6166667
        value: {x: 0, y: 0, z: -2.835}
        inSlope: {x: 0, y: 0, z: -0.18534076}
        outSlope: {x: 0, y: 0, z: -0.18534076}
        tangentMode: 0
      - time: 3.6666667
        value: {x: 0, y: 0, z: 0}
        inSlope: {x: 0, y: 0, z: 1.3829267}
        outSlope: {x: 0, y: 0, z: 1.3829267}
        tangentMode: 0
      m_PreInfinity: 2
      m_PostInfinity: 2
      m_RotationOrder: 4
    path: Body/UpperLegLeft
  - curve:
      serializedVersion: 2
      m_Curve:
      - time: 0
        value: {x: 0, y: 0, z: 0}
        inSlope: {x: 0, y: 0, z: -2.2762887}
        outSlope: {x: 0, y: 0, z: -2.2762887}
        tangentMode: 0
      - time: 1.6166667
        value: {x: 0, y: 0, z: -3.68}
        inSlope: {x: 0, y: 0, z: -0.24058348}
        outSlope: {x: 0, y: 0, z: -0.24058348}
        tangentMode: 0
      - time: 3.6666667
        value: {x: 0, y: 0, z: 0}
        inSlope: {x: 0, y: 0, z: 1.7951218}
        outSlope: {x: 0, y: 0, z: 1.7951218}
        tangentMode: 0
      m_PreInfinity: 2
      m_PostInfinity: 2
      m_RotationOrder: 4
    path: Body/UpperLegRight
  - curve:
      serializedVersion: 2
      m_Curve:
      - time: 0
        value: {x: 0, y: 0, z: 0}
        inSlope: {x: 0, y: 0, z: -2.8310528}
        outSlope: {x: 0, y: 0, z: -2.8310528}
        tangentMode: 0
      - time: 0.6333333
        value: {x: 0, y: 0, z: -1.7930001}
        inSlope: {x: 0, y: 0, z: 2.6634736}
        outSlope: {x: 0, y: 0, z: 2.6634736}
        tangentMode: 0
      - time: 1.1333333
        value: {x: 0, y: 0, z: 2.286}
        inSlope: {x: 0, y: 0, z: 6.2215805}
        outSlope: {x: 0, y: 0, z: 6.2215805}
        tangentMode: 0
      - time: 1.65
        value: {x: 0, y: 0, z: 4.5}
        inSlope: {x: 0, y: 0, z: -1.9146912}
        outSlope: {x: 0, y: 0, z: -1.9146912}
        tangentMode: 0
      - time: 2.2
        value: {x: 0, y: 0, z: 0.037}
        inSlope: {x: 0, y: 0, z: -2.2764382}
        outSlope: {x: 0, y: 0, z: -2.2764382}
        tangentMode: 0
      - time: 2.8
        value: {x: 0, y: 0, z: 2.174}
        inSlope: {x: 0, y: 0, z: 0.5266031}
        outSlope: {x: 0, y: 0, z: 0.5266031}
        tangentMode: 0
      - time: 3.6666667
        value: {x: 0, y: 0, z: 0}
        inSlope: {x: 0, y: 0, z: -2.5084612}
        outSlope: {x: 0, y: 0, z: -2.5084612}
        tangentMode: 0
      m_PreInfinity: 2
      m_PostInfinity: 2
      m_RotationOrder: 4
    path: Body/Torso/LeftShoulder
  - curve:
      serializedVersion: 2
      m_Curve:
      - time: 0
        value: {x: 0, y: 0, z: 0}
        inSlope: {x: 0, y: 0, z: 3.0243566}
        outSlope: {x: 0, y: 0, z: 3.0243566}
        tangentMode: 0
      - time: 1.6833333
        value: {x: 0, y: 0, z: 5.091}
        inSlope: {x: 0, y: 0, z: 0.22873294}
        outSlope: {x: 0, y: 0, z: 0.22873294}
        tangentMode: 0
      - time: 3.6666667
        value: {x: 0, y: 0, z: 0}
        inSlope: {x: 0, y: 0, z: -2.5668907}
        outSlope: {x: 0, y: 0, z: -2.5668907}
        tangentMode: 0
      m_PreInfinity: 2
      m_PostInfinity: 2
      m_RotationOrder: 4
    path: Body/Torso/RightShoulder
  - curve:
      serializedVersion: 2
      m_Curve:
      - time: 0
        value: {x: 0, y: 0, z: 0}
        inSlope: {x: 0, y: 0, z: 2.1694777}
        outSlope: {x: 0, y: 0, z: 2.1694777}
        tangentMode: 0
      - time: 0.6333333
        value: {x: 0, y: 0, z: 1.3740025}
        inSlope: {x: 0, y: 0, z: 1.1605598}
        outSlope: {x: 0, y: 0, z: 1.1605598}
        tangentMode: 0
      - time: 1.35
        value: {x: 0, y: 0, z: 1.4826791}
        inSlope: {x: 0, y: 0, z: -0.43345165}
        outSlope: {x: 0, y: 0, z: -0.43345165}
        tangentMode: 0
      - time: 2.0333333
        value: {x: 0, y: 0, z: 0.7866733}
        inSlope: {x: 0, y: 0, z: -0.28274953}
        outSlope: {x: 0, y: 0, z: -0.28274953}
        tangentMode: 0
      - time: 2.8
        value: {x: 0, y: 0, z: 1.1340086}
        inSlope: {x: 0, y: 0, z: -0.42771262}
        outSlope: {x: 0, y: 0, z: -0.42771262}
        tangentMode: 0
      - time: 3.6666667
        value: {x: 0, y: 0, z: 0}
        inSlope: {x: 0, y: 0, z: -1.3084713}
        outSlope: {x: 0, y: 0, z: -1.3084713}
        tangentMode: 0
      m_PreInfinity: 2
      m_PostInfinity: 2
      m_RotationOrder: 4
    path: Body/Torso/Skirt
  - curve:
      serializedVersion: 2
      m_Curve:
      - time: 0
        value: {x: 0, y: 0, z: 0}
        inSlope: {x: 0, y: 0, z: -9.5}
        outSlope: {x: 0, y: 0, z: -9.5}
        tangentMode: 0
      - time: 0.3
        value: {x: 0, y: 0, z: -2.8500001}
        inSlope: {x: 0, y: 0, z: -2.4006248}
        outSlope: {x: 0, y: 0, z: -2.4006248}
        tangentMode: 0
      - time: 0.8333333
        value: {x: 0, y: 0, z: -0.344}
        inSlope: {x: 0, y: 0, z: 1.8076105}
        outSlope: {x: 0, y: 0, z: 1.8076105}
        tangentMode: 0
      - time: 1.6833333
        value: {x: 0, y: 0, z: -1.2650001}
        inSlope: {x: 0, y: 0, z: 0.88894933}
        outSlope: {x: 0, y: 0, z: 0.88894933}
        tangentMode: 0
      - time: 2.3833334
        value: {x: 0, y: 0, z: 0.73800004}
        inSlope: {x: 0, y: 0, z: -0.6067147}
        outSlope: {x: 0, y: 0, z: -0.6067147}
        tangentMode: 0
      - time: 2.9666667
        value: {x: 0, y: 0, z: -1.639}
        inSlope: {x: 0, y: 0, z: -0.8667146}
        outSlope: {x: 0, y: 0, z: -0.8667146}
        tangentMode: 0
      - time: 3.6666667
        value: {x: 0, y: 0, z: 0}
        inSlope: {x: 0, y: 0, z: 2.3414285}
        outSlope: {x: 0, y: 0, z: 2.3414285}
        tangentMode: 0
      m_PreInfinity: 2
      m_PostInfinity: 2
      m_RotationOrder: 4
    path: Body/Torso/Wallet
  - curve:
      serializedVersion: 2
      m_Curve:
      - time: 0
        value: {x: 0, y: 0, z: 0}
        inSlope: {x: 0, y: 0, z: 5.077732}
        outSlope: {x: 0, y: 0, z: 5.077732}
        tangentMode: 0
      - time: 1.6166667
        value: {x: 0, y: 0, z: 8.209001}
        inSlope: {x: 0, y: 0, z: 0.5366709}
        outSlope: {x: 0, y: 0, z: 0.5366709}
        tangentMode: 0
      - time: 3.6666667
        value: {x: 0, y: 0, z: 0}
        inSlope: {x: 0, y: 0, z: -4.0043902}
        outSlope: {x: 0, y: 0, z: -4.0043902}
        tangentMode: 0
      m_PreInfinity: 2
      m_PostInfinity: 2
      m_RotationOrder: 4
    path: Body/UpperLegLeft/LowerLegLeft
  - curve:
      serializedVersion: 2
      m_Curve:
      - time: 0
        value: {x: 0, y: 0, z: 0}
        inSlope: {x: 0, y: 0, z: 4.8569074}
        outSlope: {x: 0, y: 0, z: 4.8569074}
        tangentMode: 0
      - time: 1.6166667
        value: {x: 0, y: 0, z: 7.852}
        inSlope: {x: 0, y: 0, z: 0.5133319}
        outSlope: {x: 0, y: 0, z: 0.5133319}
        tangentMode: 0
      - time: 3.6666667
        value: {x: 0, y: 0, z: 0}
        inSlope: {x: 0, y: 0, z: -3.8302436}
        outSlope: {x: 0, y: 0, z: -3.8302436}
        tangentMode: 0
      m_PreInfinity: 2
      m_PostInfinity: 2
      m_RotationOrder: 4
    path: Body/UpperLegRight/LowerLegRight
  - curve:
      serializedVersion: 2
      m_Curve:
      - time: 0
        value: {x: 0, y: 0, z: 0}
        inSlope: {x: 0, y: 0, z: -6.340816}
        outSlope: {x: 0, y: 0, z: -6.340816}
        tangentMode: 0
      - time: 0.6333333
        value: {x: 0, y: 0, z: -4.01585}
        inSlope: {x: 0, y: 0, z: -5.0384083}
        outSlope: {x: 0, y: 0, z: -5.0384083}
        tangentMode: 0
      - time: 1.1333333
        value: {x: 0, y: 0, z: -5.88385}
        inSlope: {x: 0, y: 0, z: -4.061049}
        outSlope: {x: 0, y: 0, z: -4.061049}
        tangentMode: 0
      - time: 1.65
        value: {x: 0, y: 0, z: -8.150001}
        inSlope: {x: 0, y: 0, z: -2.5714028}
        outSlope: {x: 0, y: 0, z: -2.5714028}
        tangentMode: 0
      - time: 2.2
        value: {x: 0, y: 0, z: -8.56619}
        inSlope: {x: 0, y: 0, z: -0.0023628473}
        outSlope: {x: 0, y: 0, z: -0.0023628473}
        tangentMode: 0
      - time: 2.8
        value: {x: 0, y: 0, z: -8.115001}
        inSlope: {x: 0, y: 0, z: 5.057721}
        outSlope: {x: 0, y: 0, z: 5.057721}
        tangentMode: 0
      - time: 3.6666667
        value: {x: 0, y: 0, z: 0}
        inSlope: {x: 0, y: 0, z: 9.363461}
        outSlope: {x: 0, y: 0, z: 9.363461}
        tangentMode: 0
      m_PreInfinity: 2
      m_PostInfinity: 2
      m_RotationOrder: 4
    path: Body/Torso/LeftShoulder/LeftArm
  - curve:
      serializedVersion: 2
      m_Curve:
      - time: 0
        value: {x: 0, y: 0, z: 0}
        inSlope: {x: 0, y: 0, z: 0}
        outSlope: {x: 0, y: 0, z: 0}
        tangentMode: 0
      - time: 3.6666667
        value: {x: 0, y: 0, z: 0}
        inSlope: {x: 0, y: 0, z: 0}
        outSlope: {x: 0, y: 0, z: 0}
        tangentMode: 0
      m_PreInfinity: 2
      m_PostInfinity: 2
      m_RotationOrder: 4
    path: Body/Torso/Neck/Head
  - curve:
      serializedVersion: 2
      m_Curve:
      - time: 0
        value: {x: 0, y: 0, z: 0}
        inSlope: {x: 0, y: 0, z: 7.2766666}
        outSlope: {x: 0, y: 0, z: 7.2766666}
        tangentMode: 0
      - time: 0.3
        value: {x: 0, y: 0, z: 2.183}
        inSlope: {x: 0, y: 0, z: 4.0294585}
        outSlope: {x: 0, y: 0, z: 4.0294585}
        tangentMode: 0
      - time: 2.9666667
        value: {x: 0, y: 0, z: 4.269}
        inSlope: {x: 0, y: 0, z: -2.6581607}
        outSlope: {x: 0, y: 0, z: -2.6581607}
        tangentMode: 0
      - time: 3.6666667
        value: {x: 0, y: 0, z: 0}
        inSlope: {x: 0, y: 0, z: -6.0985713}
        outSlope: {x: 0, y: 0, z: -6.0985713}
        tangentMode: 0
      m_PreInfinity: 2
      m_PostInfinity: 2
      m_RotationOrder: 4
    path: Body/Torso/RightShoulder/RightArm
  - curve:
      serializedVersion: 2
      m_Curve:
      - time: 0
        value: {x: 0, y: 0, z: 0}
        inSlope: {x: 0, y: 0, z: -21.576668}
        outSlope: {x: 0, y: 0, z: -21.576668}
        tangentMode: 0
      - time: 0.3
        value: {x: 0, y: 0, z: -6.4730005}
        inSlope: {x: 0, y: 0, z: -8.602083}
        outSlope: {x: 0, y: 0, z: -8.602083}
        tangentMode: 0
      - time: 0.8333333
        value: {x: 0, y: 0, z: -4.1410003}
        inSlope: {x: 0, y: 0, z: -0.09139681}
        outSlope: {x: 0, y: 0, z: -0.09139681}
        tangentMode: 0
      - time: 1.6833333
        value: {x: 0, y: 0, z: -8.0130005}
        inSlope: {x: 0, y: 0, z: 0.08878088}
        outSlope: {x: 0, y: 0, z: 0.08878088}
        tangentMode: 0
      - time: 2.3833334
        value: {x: 0, y: 0, z: -4.7000003}
        inSlope: {x: 0, y: 0, z: -0.57700133}
        outSlope: {x: 0, y: 0, z: -0.57700133}
        tangentMode: 0
      - time: 2.9666667
        value: {x: 0, y: 0, z: -8.134001}
        inSlope: {x: 0, y: 0, z: 2.8665705}
        outSlope: {x: 0, y: 0, z: 2.8665705}
        tangentMode: 0
      - time: 3.6666667
        value: {x: 0, y: 0, z: 0}
        inSlope: {x: 0, y: 0, z: 11.62}
        outSlope: {x: 0, y: 0, z: 11.62}
        tangentMode: 0
      m_PreInfinity: 2
      m_PostInfinity: 2
      m_RotationOrder: 4
    path: Body/Torso/Wallet/Wallet
  - curve:
      serializedVersion: 2
      m_Curve:
      - time: 0
        value: {x: 0, y: 0, z: 0}
        inSlope: {x: 0, y: 0, z: -3.1131961}
        outSlope: {x: 0, y: 0, z: -3.1131961}
        tangentMode: 0
      - time: 1.6166667
        value: {x: 0, y: 0, z: -5.0330005}
        inSlope: {x: 0, y: 0, z: -0.32903707}
        outSlope: {x: 0, y: 0, z: -0.32903707}
        tangentMode: 0
      - time: 3.6666667
        value: {x: 0, y: 0, z: 0}
        inSlope: {x: 0, y: 0, z: 2.455122}
        outSlope: {x: 0, y: 0, z: 2.455122}
        tangentMode: 0
      m_PreInfinity: 2
      m_PostInfinity: 2
      m_RotationOrder: 4
    path: Body/UpperLegLeft/LowerLegLeft/LeftShoe
  - curve:
      serializedVersion: 2
      m_Curve:
      - time: 0
        value: {x: 0, y: 0, z: 0}
        inSlope: {x: 0, y: 0, z: 3.9199998}
        outSlope: {x: 0, y: 0, z: 3.9199998}
        tangentMode: 0
      - time: 0.3
        value: {x: 0, y: 0, z: 1.176}
        inSlope: {x: 0, y: 0, z: 1.5265}
        outSlope: {x: 0, y: 0, z: 1.5265}
        tangentMode: 0
      - time: 0.6333333
        value: {x: 0, y: 0, z: 0.887}
        inSlope: {x: 0, y: 0, z: 0.14900005}
        outSlope: {x: 0, y: 0, z: 0.14900005}
        tangentMode: 0
      - time: 1.0333333
        value: {x: 0, y: 0, z: 1.353}
        inSlope: {x: 0, y: 0, z: 0.58550006}
        outSlope: {x: 0, y: 0, z: 0.58550006}
        tangentMode: 0
      - time: 2.7
        value: {x: 0, y: 0, z: 1.363}
        inSlope: {x: 0, y: 0, z: -0.7255714}
        outSlope: {x: 0, y: 0, z: -0.7255714}
        tangentMode: 0
      - time: 3.1666667
        value: {x: 0, y: 0, z: 0.683}
        inSlope: {x: 0, y: 0, z: -1.4115715}
        outSlope: {x: 0, y: 0, z: -1.4115715}
        tangentMode: 0
      - time: 3.6666667
        value: {x: 0, y: 0, z: 0}
        inSlope: {x: 0, y: 0, z: -1.366}
        outSlope: {x: 0, y: 0, z: -1.366}
        tangentMode: 0
      m_PreInfinity: 2
      m_PostInfinity: 2
      m_RotationOrder: 4
    path: Body/Torso/Neck/Head/Hair
  - curve:
      serializedVersion: 2
      m_Curve:
      - time: 0
        value: {x: 0, y: 0, z: 0}
        inSlope: {x: 0, y: 0, z: 19.426363}
        outSlope: {x: 0, y: 0, z: 19.426363}
        tangentMode: 0
      - time: 0.36666667
        value: {x: 0, y: 0, z: 7.123}
        inSlope: {x: 0, y: 0, z: 1.9039507}
        outSlope: {x: 0, y: 0, z: 1.9039507}
        tangentMode: 0
      - time: 0.8
        value: {x: 0, y: 0, z: 0.35500002}
        inSlope: {x: 0, y: 0, z: -4.0323877}
        outSlope: {x: 0, y: 0, z: -4.0323877}
        tangentMode: 0
      - time: 1.4333333
        value: {x: 0, y: 0, z: 5.1390004}
        inSlope: {x: 0, y: 0, z: 0.7435994}
        outSlope: {x: 0, y: 0, z: 0.7435994}
        tangentMode: 0
      - time: 2.05
        value: {x: 0, y: 0, z: 1.3980001}
        inSlope: {x: 0, y: 0, z: 0.85402966}
        outSlope: {x: 0, y: 0, z: 0.85402966}
        tangentMode: 0
      - time: 2.6
        value: {x: 0, y: 0, z: 5.6740003}
        inSlope: {x: 0, y: 0, z: 1.2275858}
        outSlope: {x: 0, y: 0, z: 1.2275858}
        tangentMode: 0
      - time: 3.6666667
        value: {x: 0, y: 0, z: 0}
        inSlope: {x: 0, y: 0, z: -5.3193746}
        outSlope: {x: 0, y: 0, z: -5.3193746}
        tangentMode: 0
      m_PreInfinity: 2
      m_PostInfinity: 2
      m_RotationOrder: 4
    path: Body/Torso/Neck/Head/Jewel
  - curve:
      serializedVersion: 2
      m_Curve:
      - time: 0
        value: {x: 0, y: 0, z: -7.635248}
        inSlope: {x: 0, y: 0, z: 8.196194}
        outSlope: {x: 0, y: 0, z: 8.196194}
        tangentMode: 0
      - time: 1.1666666
        value: {x: 0, y: 0, z: 1.9269775}
        inSlope: {x: 0, y: 0, z: 0}
        outSlope: {x: 0, y: 0, z: 0}
        tangentMode: 0
      - time: 1.5833334
        value: {x: 0, y: 0, z: 1.9269775}
        inSlope: {x: 0, y: 0, z: 0}
        outSlope: {x: 0, y: 0, z: 0}
        tangentMode: 0
      - time: 2.5666666
        value: {x: 0, y: 0, z: 1.9269775}
        inSlope: {x: 0, y: 0, z: 0}
        outSlope: {x: 0, y: 0, z: 0}
        tangentMode: 0
      - time: 3.6666667
        value: {x: 0, y: 0, z: -7.635248}
        inSlope: {x: 0, y: 0, z: -8.692931}
        outSlope: {x: 0, y: 0, z: -8.692931}
        tangentMode: 0
      m_PreInfinity: 2
      m_PostInfinity: 2
      m_RotationOrder: 4
    path: Body/Torso/Neck/Head/Face/Left/LeftEyebrown
  - curve:
      serializedVersion: 2
      m_Curve:
      - time: 0
        value: {x: 0, y: 0, z: 15.475464}
        inSlope: {x: 0, y: 0, z: 1.1587886}
        outSlope: {x: 0, y: 0, z: 1.1587886}
        tangentMode: 0
      - time: 1.5666667
        value: {x: 0, y: 0, z: 17.2909}
        inSlope: {x: 0, y: 0, z: 1.1587886}
        outSlope: {x: 0, y: 0, z: 1.1587886}
        tangentMode: 0
      - time: 1.5833334
        value: {x: 0, y: 0, z: 17.2909}
        inSlope: {x: 0, y: 0, z: 0}
        outSlope: {x: 0, y: 0, z: 0}
        tangentMode: 0
      m_PreInfinity: 2
      m_PostInfinity: 2
      m_RotationOrder: 4
    path: Body/Torso/Neck/Head/Face/Right/RightEyebrown
  m_PositionCurves:
  - curve:
      serializedVersion: 2
      m_Curve:
      - time: 0
        value: {x: 0, y: 0.1627684, z: 0}
        inSlope: {x: 0, y: 0.08674067, z: 0}
        outSlope: {x: 0, y: 0.08674067, z: 0}
        tangentMode: 0
      - time: 1.5833334
        value: {x: 0, y: 0.30888623, z: 0}
        inSlope: {x: 0, y: 0.02258558, z: 0}
        outSlope: {x: 0, y: 0.02258558, z: 0}
        tangentMode: 0
      - time: 1.7
        value: {x: 0, y: 0.31022754, z: 0}
        inSlope: {x: 0, y: 0, z: 0}
        outSlope: {x: 0, y: 0, z: 0}
        tangentMode: 0
      - time: 1.7833333
        value: {x: 0, y: 0.31022754, z: 0}
        inSlope: {x: 0, y: 0, z: 0}
        outSlope: {x: 0, y: 0, z: 0}
        tangentMode: 0
      - time: 1.9166666
        value: {x: 0, y: 0.31022754, z: 0}
        inSlope: {x: 0, y: 0, z: 0}
        outSlope: {x: 0, y: 0, z: 0}
        tangentMode: 0
      - time: 3.1666667
        value: {x: 0, y: 0.31022754, z: 0}
        inSlope: {x: 0, y: 0, z: 0}
        outSlope: {x: 0, y: 0, z: 0}
        tangentMode: 0
      - time: 3.6666667
        value: {x: 0, y: 0.1627684, z: 0}
        inSlope: {x: 0, y: -0.2949183, z: 0}
        outSlope: {x: 0, y: -0.2949183, z: 0}
        tangentMode: 0
      m_PreInfinity: 2
      m_PostInfinity: 2
      m_RotationOrder: 4
    path: Body/Torso/Neck/Head/Face/Left/LeftEyebrown
  m_ScaleCurves: []
  m_FloatCurves: []
  m_PPtrCurves: []
  m_SampleRate: 60
  m_WrapMode: 0
  m_Bounds:
    m_Center: {x: 0, y: 0, z: 0}
    m_Extent: {x: 0, y: 0, z: 0}
  m_ClipBindingConstant:
    genericBindings:
    - path: 2700673122
      attribute: 1
      script: {fileID: 0}
      classID: 4
      customType: 0
      isPPtrCurve: 0
    - path: 17307992
      attribute: 4
      script: {fileID: 0}
      classID: 4
      customType: 14
      isPPtrCurve: 0
    - path: 2967996916
      attribute: 4
      script: {fileID: 0}
      classID: 4
      customType: 14
      isPPtrCurve: 0
    - path: 1303979413
      attribute: 4
      script: {fileID: 0}
      classID: 4
      customType: 14
      isPPtrCurve: 0
    - path: 1523632015
      attribute: 4
      script: {fileID: 0}
      classID: 4
      customType: 14
      isPPtrCurve: 0
    - path: 1400595497
      attribute: 4
      script: {fileID: 0}
      classID: 4
      customType: 14
      isPPtrCurve: 0
    - path: 2425401366
      attribute: 4
      script: {fileID: 0}
      classID: 4
      customType: 14
      isPPtrCurve: 0
    - path: 3534780582
      attribute: 4
      script: {fileID: 0}
      classID: 4
      customType: 14
      isPPtrCurve: 0
    - path: 3728011670
      attribute: 4
      script: {fileID: 0}
      classID: 4
      customType: 14
      isPPtrCurve: 0
    - path: 871651648
      attribute: 4
      script: {fileID: 0}
      classID: 4
      customType: 14
      isPPtrCurve: 0
    - path: 3500640001
      attribute: 4
      script: {fileID: 0}
      classID: 4
      customType: 14
      isPPtrCurve: 0
    - path: 2874545571
      attribute: 4
      script: {fileID: 0}
      classID: 4
      customType: 14
      isPPtrCurve: 0
    - path: 823111807
      attribute: 4
      script: {fileID: 0}
      classID: 4
      customType: 14
      isPPtrCurve: 0
    - path: 1888832609
      attribute: 4
      script: {fileID: 0}
      classID: 4
      customType: 14
      isPPtrCurve: 0
    - path: 1437080233
      attribute: 4
      script: {fileID: 0}
      classID: 4
      customType: 14
      isPPtrCurve: 0
    - path: 3753951091
      attribute: 4
      script: {fileID: 0}
      classID: 4
      customType: 14
      isPPtrCurve: 0
    - path: 2700673122
      attribute: 4
      script: {fileID: 0}
      classID: 4
      customType: 14
      isPPtrCurve: 0
    - path: 423951870
      attribute: 4
      script: {fileID: 0}
      classID: 4
      customType: 14
      isPPtrCurve: 0
    - path: 2982998908
      attribute: 4
      script: {fileID: 0}
      classID: 4
      customType: 14
      isPPtrCurve: 0
    pptrCurveMapping: []
  m_AnimationClipSettings:
    serializedVersion: 2
    m_AdditiveReferencePoseClip: {fileID: 0}
    m_AdditiveReferencePoseTime: 0
    m_StartTime: 0
    m_StopTime: 3.6666667
    m_OrientationOffsetY: 0
    m_Level: 0
    m_CycleOffset: 0
    m_HasAdditiveReferencePose: 0
    m_LoopTime: 0
    m_LoopBlend: 0
    m_LoopBlendOrientation: 0
    m_LoopBlendPositionY: 0
    m_LoopBlendPositionXZ: 0
    m_KeepOriginalOrientation: 0
    m_KeepOriginalPositionY: 1
    m_KeepOriginalPositionXZ: 0
    m_HeightFromFeet: 0
    m_Mirror: 0
  m_EditorCurves:
  - curve:
      serializedVersion: 2
      m_Curve:
      - time: 0
        value: 0
        inSlope: 0
        outSlope: 0
        tangentMode: 10
      - time: 0.55
        value: 0
        inSlope: 0
        outSlope: 0
        tangentMode: 10
      - time: 1.85
        value: 0
        inSlope: 0
        outSlope: 0
        tangentMode: 10
      - time: 2.6666667
        value: 0
        inSlope: 0
        outSlope: 0
        tangentMode: 10
      - time: 3.4166667
        value: 0
        inSlope: 0
        outSlope: 0
        tangentMode: 10
      m_PreInfinity: 2
      m_PostInfinity: 2
      m_RotationOrder: 4
    attribute: localEulerAnglesRaw.x
    path: Body/Torso
    classID: 4
    script: {fileID: 0}
  - curve:
      serializedVersion: 2
      m_Curve:
      - time: 0
        value: 0
        inSlope: 0
        outSlope: 0
        tangentMode: 10
      - time: 0.55
        value: 0
        inSlope: 0
        outSlope: 0
        tangentMode: 10
      - time: 1.85
        value: 0
        inSlope: 0
        outSlope: 0
        tangentMode: 10
      - time: 2.6666667
        value: 0
        inSlope: 0
        outSlope: 0
        tangentMode: 10
      - time: 3.4166667
        value: 0
        inSlope: 0
        outSlope: 0
        tangentMode: 10
      m_PreInfinity: 2
      m_PostInfinity: 2
      m_RotationOrder: 4
    attribute: localEulerAnglesRaw.y
    path: Body/Torso
    classID: 4
    script: {fileID: 0}
  - curve:
      serializedVersion: 2
      m_Curve:
      - time: 0
        value: -0.103455424
        inSlope: 0.012084987
        outSlope: 0.012084987
        tangentMode: 0
      - time: 0.55
        value: -0.8797058
        inSlope: -0.49265304
        outSlope: -0.49265304
        tangentMode: 10
      - time: 1.85
        value: -0.3258301
        inSlope: -0.12997118
        outSlope: -0.12997118
        tangentMode: 10
      - time: 2.6666667
        value: -0.88606393
        inSlope: 0.17873871
        outSlope: 0.17873871
        tangentMode: 10
      - time: 3.4166667
        value: -0.103455424
        inSlope: 0.014196476
        outSlope: 0.014196476
        tangentMode: 0
      m_PreInfinity: 2
      m_PostInfinity: 2
      m_RotationOrder: 4
    attribute: localEulerAnglesRaw.z
    path: Body/Torso
    classID: 4
    script: {fileID: 0}
  - curve:
      serializedVersion: 2
      m_Curve:
      - time: 0
        value: 0
        inSlope: 0
        outSlope: 0
        tangentMode: 10
      - time: 1.6166667
        value: 0
        inSlope: 0
        outSlope: 0
        tangentMode: 10
      - time: 3.6666667
        value: 0
        inSlope: 0
        outSlope: 0
        tangentMode: 10
      m_PreInfinity: 2
      m_PostInfinity: 2
      m_RotationOrder: 4
    attribute: localEulerAnglesRaw.x
    path: Body/UpperLegLeft
    classID: 4
    script: {fileID: 0}
  - curve:
      serializedVersion: 2
      m_Curve:
      - time: 0
        value: 0
        inSlope: 0
        outSlope: 0
        tangentMode: 10
      - time: 1.6166667
        value: 0
        inSlope: 0
        outSlope: 0
        tangentMode: 10
      - time: 3.6666667
        value: 0
        inSlope: 0
        outSlope: 0
        tangentMode: 10
      m_PreInfinity: 2
      m_PostInfinity: 2
      m_RotationOrder: 4
    attribute: localEulerAnglesRaw.y
    path: Body/UpperLegLeft
    classID: 4
    script: {fileID: 0}
  - curve:
      serializedVersion: 2
      m_Curve:
      - time: 0
        value: 0
        inSlope: -1.7536082
        outSlope: -1.7536082
        tangentMode: 10
      - time: 1.6166667
        value: -2.835
        inSlope: -0.18534076
        outSlope: -0.18534076
        tangentMode: 10
      - time: 3.6666667
        value: 0
        inSlope: 1.3829267
        outSlope: 1.3829267
        tangentMode: 10
      m_PreInfinity: 2
      m_PostInfinity: 2
      m_RotationOrder: 4
    attribute: localEulerAnglesRaw.z
    path: Body/UpperLegLeft
    classID: 4
    script: {fileID: 0}
  - curve:
      serializedVersion: 2
      m_Curve:
      - time: 0
        value: 0
        inSlope: 0
        outSlope: 0
        tangentMode: 10
      - time: 1.6166667
        value: 0
        inSlope: 0
        outSlope: 0
        tangentMode: 10
      - time: 3.6666667
        value: 0
        inSlope: 0
        outSlope: 0
        tangentMode: 10
      m_PreInfinity: 2
      m_PostInfinity: 2
      m_RotationOrder: 4
    attribute: localEulerAnglesRaw.x
    path: Body/UpperLegRight
    classID: 4
    script: {fileID: 0}
  - curve:
      serializedVersion: 2
      m_Curve:
      - time: 0
        value: 0
        inSlope: 0
        outSlope: 0
        tangentMode: 10
      - time: 1.6166667
        value: 0
        inSlope: 0
        outSlope: 0
        tangentMode: 10
      - time: 3.6666667
        value: 0
        inSlope: 0
        outSlope: 0
        tangentMode: 10
      m_PreInfinity: 2
      m_PostInfinity: 2
      m_RotationOrder: 4
    attribute: localEulerAnglesRaw.y
    path: Body/UpperLegRight
    classID: 4
    script: {fileID: 0}
  - curve:
      serializedVersion: 2
      m_Curve:
      - time: 0
        value: 0
        inSlope: -2.2762887
        outSlope: -2.2762887
        tangentMode: 10
      - time: 1.6166667
        value: -3.68
        inSlope: -0.24058348
        outSlope: -0.24058348
        tangentMode: 10
      - time: 3.6666667
        value: 0
        inSlope: 1.7951218
        outSlope: 1.7951218
        tangentMode: 10
      m_PreInfinity: 2
      m_PostInfinity: 2
      m_RotationOrder: 4
    attribute: localEulerAnglesRaw.z
    path: Body/UpperLegRight
    classID: 4
    script: {fileID: 0}
  - curve:
      serializedVersion: 2
      m_Curve:
      - time: 0
        value: 0
        inSlope: 0
        outSlope: 0
        tangentMode: 10
      - time: 0.6333333
        value: 0
        inSlope: 0
        outSlope: 0
        tangentMode: 10
      - time: 1.1333333
        value: 0
        inSlope: 0
        outSlope: 0
        tangentMode: 10
      - time: 1.65
        value: 0
        inSlope: 0
        outSlope: 0
        tangentMode: 10
      - time: 2.2
        value: 0
        inSlope: 0
        outSlope: 0
        tangentMode: 10
      - time: 2.8
        value: 0
        inSlope: 0
        outSlope: 0
        tangentMode: 10
      - time: 3.6666667
        value: 0
        inSlope: 0
        outSlope: 0
        tangentMode: 10
      m_PreInfinity: 2
      m_PostInfinity: 2
      m_RotationOrder: 4
    attribute: localEulerAnglesRaw.x
    path: Body/Torso/LeftShoulder
    classID: 4
    script: {fileID: 0}
  - curve:
      serializedVersion: 2
      m_Curve:
      - time: 0
        value: 0
        inSlope: 0
        outSlope: 0
        tangentMode: 10
      - time: 0.6333333
        value: 0
        inSlope: 0
        outSlope: 0
        tangentMode: 10
      - time: 1.1333333
        value: 0
        inSlope: 0
        outSlope: 0
        tangentMode: 10
      - time: 1.65
        value: 0
        inSlope: 0
        outSlope: 0
        tangentMode: 10
      - time: 2.2
        value: 0
        inSlope: 0
        outSlope: 0
        tangentMode: 10
      - time: 2.8
        value: 0
        inSlope: 0
        outSlope: 0
        tangentMode: 10
      - time: 3.6666667
        value: 0
        inSlope: 0
        outSlope: 0
        tangentMode: 10
      m_PreInfinity: 2
      m_PostInfinity: 2
      m_RotationOrder: 4
    attribute: localEulerAnglesRaw.y
    path: Body/Torso/LeftShoulder
    classID: 4
    script: {fileID: 0}
  - curve:
      serializedVersion: 2
      m_Curve:
      - time: 0
        value: 0
        inSlope: -2.8310528
        outSlope: -2.8310528
        tangentMode: 10
      - time: 0.6333333
        value: -1.7930001
        inSlope: 2.6634736
        outSlope: 2.6634736
        tangentMode: 10
      - time: 1.1333333
        value: 2.286
        inSlope: 6.2215805
        outSlope: 6.2215805
        tangentMode: 10
      - time: 1.65
        value: 4.5
        inSlope: -1.9146912
        outSlope: -1.9146912
        tangentMode: 10
      - time: 2.2
        value: 0.037
        inSlope: -2.2764382
        outSlope: -2.2764382
        tangentMode: 10
      - time: 2.8
        value: 2.174
        inSlope: 0.5266031
        outSlope: 0.5266031
        tangentMode: 10
      - time: 3.6666667
        value: 0
        inSlope: -2.5084612
        outSlope: -2.5084612
        tangentMode: 10
      m_PreInfinity: 2
      m_PostInfinity: 2
      m_RotationOrder: 4
    attribute: localEulerAnglesRaw.z
    path: Body/Torso/LeftShoulder
    classID: 4
    script: {fileID: 0}
  - curve:
      serializedVersion: 2
      m_Curve:
      - time: 0
        value: 0
        inSlope: 0
        outSlope: 0
        tangentMode: 10
      - time: 1.6833333
        value: 0
        inSlope: 0
        outSlope: 0
        tangentMode: 10
      - time: 3.6666667
        value: 0
        inSlope: 0
        outSlope: 0
        tangentMode: 10
      m_PreInfinity: 2
      m_PostInfinity: 2
      m_RotationOrder: 4
    attribute: localEulerAnglesRaw.x
    path: Body/Torso/RightShoulder
    classID: 4
    script: {fileID: 0}
  - curve:
      serializedVersion: 2
      m_Curve:
      - time: 0
        value: 0
        inSlope: 0
        outSlope: 0
        tangentMode: 10
      - time: 1.6833333
        value: 0
        inSlope: 0
        outSlope: 0
        tangentMode: 10
      - time: 3.6666667
        value: 0
        inSlope: 0
        outSlope: 0
        tangentMode: 10
      m_PreInfinity: 2
      m_PostInfinity: 2
      m_RotationOrder: 4
    attribute: localEulerAnglesRaw.y
    path: Body/Torso/RightShoulder
    classID: 4
    script: {fileID: 0}
  - curve:
      serializedVersion: 2
      m_Curve:
      - time: 0
        value: 0
        inSlope: 3.0243566
        outSlope: 3.0243566
        tangentMode: 10
      - time: 1.6833333
        value: 5.091
        inSlope: 0.22873294
        outSlope: 0.22873294
        tangentMode: 10
      - time: 3.6666667
        value: 0
        inSlope: -2.5668907
        outSlope: -2.5668907
        tangentMode: 10
      m_PreInfinity: 2
      m_PostInfinity: 2
      m_RotationOrder: 4
    attribute: localEulerAnglesRaw.z
    path: Body/Torso/RightShoulder
    classID: 4
    script: {fileID: 0}
  - curve:
      serializedVersion: 2
      m_Curve:
      - time: 0
        value: 0
        inSlope: 0
        outSlope: 0
        tangentMode: 10
      - time: 0.6333333
        value: 0
        inSlope: 0
        outSlope: 0
        tangentMode: 10
      - time: 1.35
        value: 0
        inSlope: 0
        outSlope: 0
        tangentMode: 10
      - time: 2.0333333
        value: 0
        inSlope: 0
        outSlope: 0
        tangentMode: 10
      - time: 2.8
        value: 0
        inSlope: 0
        outSlope: 0
        tangentMode: 10
      - time: 3.6666667
        value: 0
        inSlope: 0
        outSlope: 0
        tangentMode: 10
      m_PreInfinity: 2
      m_PostInfinity: 2
      m_RotationOrder: 4
    attribute: localEulerAnglesRaw.x
    path: Body/Torso/Skirt
    classID: 4
    script: {fileID: 0}
  - curve:
      serializedVersion: 2
      m_Curve:
      - time: 0
        value: 0
        inSlope: 0
        outSlope: 0
        tangentMode: 10
      - time: 0.6333333
        value: 0
        inSlope: 0
        outSlope: 0
        tangentMode: 10
      - time: 1.35
        value: 0
        inSlope: 0
        outSlope: 0
        tangentMode: 10
      - time: 2.0333333
        value: 0
        inSlope: 0
        outSlope: 0
        tangentMode: 10
      - time: 2.8
        value: 0
        inSlope: 0
        outSlope: 0
        tangentMode: 10
      - time: 3.6666667
        value: 0
        inSlope: 0
        outSlope: 0
        tangentMode: 10
      m_PreInfinity: 2
      m_PostInfinity: 2
      m_RotationOrder: 4
    attribute: localEulerAnglesRaw.y
    path: Body/Torso/Skirt
    classID: 4
    script: {fileID: 0}
  - curve:
      serializedVersion: 2
      m_Curve:
      - time: 0
        value: 0
        inSlope: 2.1694777
        outSlope: 2.1694777
        tangentMode: 10
      - time: 0.6333333
        value: 1.3740025
        inSlope: 1.1605598
        outSlope: 1.1605598
        tangentMode: 10
      - time: 1.35
        value: 1.4826791
        inSlope: -0.43345165
        outSlope: -0.43345165
        tangentMode: 10
      - time: 2.0333333
        value: 0.7866733
        inSlope: -0.28274953
        outSlope: -0.28274953
        tangentMode: 10
      - time: 2.8
        value: 1.1340086
        inSlope: -0.42771262
        outSlope: -0.42771262
        tangentMode: 10
      - time: 3.6666667
        value: 0
        inSlope: -1.3084713
        outSlope: -1.3084713
        tangentMode: 10
      m_PreInfinity: 2
      m_PostInfinity: 2
      m_RotationOrder: 4
    attribute: localEulerAnglesRaw.z
    path: Body/Torso/Skirt
    classID: 4
    script: {fileID: 0}
  - curve:
      serializedVersion: 2
      m_Curve:
      - time: 0
        value: 0
        inSlope: 0
        outSlope: 0
        tangentMode: 10
      - time: 0.3
        value: 0
        inSlope: 0
        outSlope: 0
        tangentMode: 10
      - time: 0.8333333
        value: 0
        inSlope: 0
        outSlope: 0
        tangentMode: 10
      - time: 1.6833333
        value: 0
        inSlope: 0
        outSlope: 0
        tangentMode: 10
      - time: 2.3833334
        value: 0
        inSlope: 0
        outSlope: 0
        tangentMode: 10
      - time: 2.9666667
        value: 0
        inSlope: 0
        outSlope: 0
        tangentMode: 10
      - time: 3.6666667
        value: 0
        inSlope: 0
        outSlope: 0
        tangentMode: 10
      m_PreInfinity: 2
      m_PostInfinity: 2
      m_RotationOrder: 4
    attribute: localEulerAnglesRaw.x
    path: Body/Torso/Wallet
    classID: 4
    script: {fileID: 0}
  - curve:
      serializedVersion: 2
      m_Curve:
      - time: 0
        value: 0
        inSlope: 0
        outSlope: 0
        tangentMode: 10
      - time: 0.3
        value: 0
        inSlope: 0
        outSlope: 0
        tangentMode: 10
      - time: 0.8333333
        value: 0
        inSlope: 0
        outSlope: 0
        tangentMode: 10
      - time: 1.6833333
        value: 0
        inSlope: 0
        outSlope: 0
        tangentMode: 10
      - time: 2.3833334
        value: 0
        inSlope: 0
        outSlope: 0
        tangentMode: 10
      - time: 2.9666667
        value: 0
        inSlope: 0
        outSlope: 0
        tangentMode: 10
      - time: 3.6666667
        value: 0
        inSlope: 0
        outSlope: 0
        tangentMode: 10
      m_PreInfinity: 2
      m_PostInfinity: 2
      m_RotationOrder: 4
    attribute: localEulerAnglesRaw.y
    path: Body/Torso/Wallet
    classID: 4
    script: {fileID: 0}
  - curve:
      serializedVersion: 2
      m_Curve:
      - time: 0
        value: 0
        inSlope: -9.5
        outSlope: -9.5
        tangentMode: 10
      - time: 0.3
        value: -2.8500001
        inSlope: -2.4006248
        outSlope: -2.4006248
        tangentMode: 10
      - time: 0.8333333
        value: -0.344
        inSlope: 1.8076105
        outSlope: 1.8076105
        tangentMode: 10
      - time: 1.6833333
        value: -1.2650001
        inSlope: 0.88894933
        outSlope: 0.88894933
        tangentMode: 10
      - time: 2.3833334
        value: 0.73800004
        inSlope: -0.6067147
        outSlope: -0.6067147
        tangentMode: 10
      - time: 2.9666667
        value: -1.639
        inSlope: -0.8667146
        outSlope: -0.8667146
        tangentMode: 10
      - time: 3.6666667
        value: 0
        inSlope: 2.3414285
        outSlope: 2.3414285
        tangentMode: 10
      m_PreInfinity: 2
      m_PostInfinity: 2
      m_RotationOrder: 4
    attribute: localEulerAnglesRaw.z
    path: Body/Torso/Wallet
    classID: 4
    script: {fileID: 0}
  - curve:
      serializedVersion: 2
      m_Curve:
      - time: 0
        value: 0
        inSlope: 0
        outSlope: 0
        tangentMode: 10
      - time: 1.6166667
        value: 0
        inSlope: 0
        outSlope: 0
        tangentMode: 10
      - time: 3.6666667
        value: 0
        inSlope: 0
        outSlope: 0
        tangentMode: 10
      m_PreInfinity: 2
      m_PostInfinity: 2
      m_RotationOrder: 4
    attribute: localEulerAnglesRaw.x
    path: Body/UpperLegLeft/LowerLegLeft
    classID: 4
    script: {fileID: 0}
  - curve:
      serializedVersion: 2
      m_Curve:
      - time: 0
        value: 0
        inSlope: 0
        outSlope: 0
        tangentMode: 10
      - time: 1.6166667
        value: 0
        inSlope: 0
        outSlope: 0
        tangentMode: 10
      - time: 3.6666667
        value: 0
        inSlope: 0
        outSlope: 0
        tangentMode: 10
      m_PreInfinity: 2
      m_PostInfinity: 2
      m_RotationOrder: 4
    attribute: localEulerAnglesRaw.y
    path: Body/UpperLegLeft/LowerLegLeft
    classID: 4
    script: {fileID: 0}
  - curve:
      serializedVersion: 2
      m_Curve:
      - time: 0
        value: 0
        inSlope: 5.077732
        outSlope: 5.077732
        tangentMode: 10
      - time: 1.6166667
        value: 8.209001
        inSlope: 0.5366709
        outSlope: 0.5366709
        tangentMode: 10
      - time: 3.6666667
        value: 0
        inSlope: -4.0043902
        outSlope: -4.0043902
        tangentMode: 10
      m_PreInfinity: 2
      m_PostInfinity: 2
      m_RotationOrder: 4
    attribute: localEulerAnglesRaw.z
    path: Body/UpperLegLeft/LowerLegLeft
    classID: 4
    script: {fileID: 0}
  - curve:
      serializedVersion: 2
      m_Curve:
      - time: 0
        value: 0
        inSlope: 0
        outSlope: 0
        tangentMode: 10
      - time: 1.6166667
        value: 0
        inSlope: 0
        outSlope: 0
        tangentMode: 10
      - time: 3.6666667
        value: 0
        inSlope: 0
        outSlope: 0
        tangentMode: 10
      m_PreInfinity: 2
      m_PostInfinity: 2
      m_RotationOrder: 4
    attribute: localEulerAnglesRaw.x
    path: Body/UpperLegRight/LowerLegRight
    classID: 4
    script: {fileID: 0}
  - curve:
      serializedVersion: 2
      m_Curve:
      - time: 0
        value: 0
        inSlope: 0
        outSlope: 0
        tangentMode: 10
      - time: 1.6166667
        value: 0
        inSlope: 0
        outSlope: 0
        tangentMode: 10
      - time: 3.6666667
        value: 0
        inSlope: 0
        outSlope: 0
        tangentMode: 10
      m_PreInfinity: 2
      m_PostInfinity: 2
      m_RotationOrder: 4
    attribute: localEulerAnglesRaw.y
    path: Body/UpperLegRight/LowerLegRight
    classID: 4
    script: {fileID: 0}
  - curve:
      serializedVersion: 2
      m_Curve:
      - time: 0
        value: 0
        inSlope: 4.8569074
        outSlope: 4.8569074
        tangentMode: 10
      - time: 1.6166667
        value: 7.852
        inSlope: 0.5133319
        outSlope: 0.5133319
        tangentMode: 10
      - time: 3.6666667
        value: 0
        inSlope: -3.8302436
        outSlope: -3.8302436
        tangentMode: 10
      m_PreInfinity: 2
      m_PostInfinity: 2
      m_RotationOrder: 4
    attribute: localEulerAnglesRaw.z
    path: Body/UpperLegRight/LowerLegRight
    classID: 4
    script: {fileID: 0}
  - curve:
      serializedVersion: 2
      m_Curve:
      - time: 0
        value: 0
        inSlope: 0
        outSlope: 0
        tangentMode: 10
      - time: 0.6333333
        value: 0
        inSlope: 0
        outSlope: 0
        tangentMode: 10
      - time: 1.1333333
        value: 0
        inSlope: 0
        outSlope: 0
        tangentMode: 10
      - time: 1.65
        value: 0
        inSlope: 0
        outSlope: 0
        tangentMode: 10
      - time: 2.2
        value: 0
        inSlope: 0
        outSlope: 0
        tangentMode: 10
      - time: 2.8
        value: 0
        inSlope: 0
        outSlope: 0
        tangentMode: 10
      - time: 3.6666667
        value: 0
        inSlope: 0
        outSlope: 0
        tangentMode: 10
      m_PreInfinity: 2
      m_PostInfinity: 2
      m_RotationOrder: 4
    attribute: localEulerAnglesRaw.x
    path: Body/Torso/LeftShoulder/LeftArm
    classID: 4
    script: {fileID: 0}
  - curve:
      serializedVersion: 2
      m_Curve:
      - time: 0
        value: 0
        inSlope: 0
        outSlope: 0
        tangentMode: 10
      - time: 0.6333333
        value: 0
        inSlope: 0
        outSlope: 0
        tangentMode: 10
      - time: 1.1333333
        value: 0
        inSlope: 0
        outSlope: 0
        tangentMode: 10
      - time: 1.65
        value: 0
        inSlope: 0
        outSlope: 0
        tangentMode: 10
      - time: 2.2
        value: 0
        inSlope: 0
        outSlope: 0
        tangentMode: 10
      - time: 2.8
        value: 0
        inSlope: 0
        outSlope: 0
        tangentMode: 10
      - time: 3.6666667
        value: 0
        inSlope: 0
        outSlope: 0
        tangentMode: 10
      m_PreInfinity: 2
      m_PostInfinity: 2
      m_RotationOrder: 4
    attribute: localEulerAnglesRaw.y
    path: Body/Torso/LeftShoulder/LeftArm
    classID: 4
    script: {fileID: 0}
  - curve:
      serializedVersion: 2
      m_Curve:
      - time: 0
        value: 0
        inSlope: -6.340816
        outSlope: -6.340816
        tangentMode: 10
      - time: 0.6333333
        value: -4.01585
        inSlope: -5.0384083
        outSlope: -5.0384083
        tangentMode: 10
      - time: 1.1333333
        value: -5.88385
        inSlope: -4.061049
        outSlope: -4.061049
        tangentMode: 10
      - time: 1.65
        value: -8.150001
        inSlope: -2.5714028
        outSlope: -2.5714028
        tangentMode: 10
      - time: 2.2
        value: -8.56619
        inSlope: -0.0023628473
        outSlope: -0.0023628473
        tangentMode: 10
      - time: 2.8
        value: -8.115001
        inSlope: 5.057721
        outSlope: 5.057721
        tangentMode: 10
      - time: 3.6666667
        value: 0
        inSlope: 9.363461
        outSlope: 9.363461
        tangentMode: 10
      m_PreInfinity: 2
      m_PostInfinity: 2
      m_RotationOrder: 4
    attribute: localEulerAnglesRaw.z
    path: Body/Torso/LeftShoulder/LeftArm
    classID: 4
    script: {fileID: 0}
  - curve:
      serializedVersion: 2
      m_Curve:
      - time: 0
        value: 0
        inSlope: 0
        outSlope: 0
        tangentMode: 10
      - time: 3.6666667
        value: 0
        inSlope: 0
        outSlope: 0
        tangentMode: 10
      m_PreInfinity: 2
      m_PostInfinity: 2
      m_RotationOrder: 4
    attribute: localEulerAnglesRaw.x
    path: Body/Torso/Neck/Head
    classID: 4
    script: {fileID: 0}
  - curve:
      serializedVersion: 2
      m_Curve:
      - time: 0
        value: 0
        inSlope: 0
        outSlope: 0
        tangentMode: 10
      - time: 3.6666667
        value: 0
        inSlope: 0
        outSlope: 0
        tangentMode: 10
      m_PreInfinity: 2
      m_PostInfinity: 2
      m_RotationOrder: 4
    attribute: localEulerAnglesRaw.y
    path: Body/Torso/Neck/Head
    classID: 4
    script: {fileID: 0}
  - curve:
      serializedVersion: 2
      m_Curve:
      - time: 0
        value: 0
        inSlope: 0
        outSlope: 0
        tangentMode: 10
      - time: 3.6666667
        value: 0
        inSlope: 0
        outSlope: 0
        tangentMode: 10
      m_PreInfinity: 2
      m_PostInfinity: 2
      m_RotationOrder: 4
    attribute: localEulerAnglesRaw.z
    path: Body/Torso/Neck/Head
    classID: 4
    script: {fileID: 0}
  - curve:
      serializedVersion: 2
      m_Curve:
      - time: 0
        value: 0
        inSlope: 0
        outSlope: 0
        tangentMode: 10
      - time: 0.3
        value: 0
        inSlope: 0
        outSlope: 0
        tangentMode: 10
      - time: 2.9666667
        value: 0
        inSlope: 0
        outSlope: 0
        tangentMode: 10
      - time: 3.6666667
        value: 0
        inSlope: 0
        outSlope: 0
        tangentMode: 10
      m_PreInfinity: 2
      m_PostInfinity: 2
      m_RotationOrder: 4
    attribute: localEulerAnglesRaw.x
    path: Body/Torso/RightShoulder/RightArm
    classID: 4
    script: {fileID: 0}
  - curve:
      serializedVersion: 2
      m_Curve:
      - time: 0
        value: 0
        inSlope: 0
        outSlope: 0
        tangentMode: 10
      - time: 0.3
        value: 0
        inSlope: 0
        outSlope: 0
        tangentMode: 10
      - time: 2.9666667
        value: 0
        inSlope: 0
        outSlope: 0
        tangentMode: 10
      - time: 3.6666667
        value: 0
        inSlope: 0
        outSlope: 0
        tangentMode: 10
      m_PreInfinity: 2
      m_PostInfinity: 2
      m_RotationOrder: 4
    attribute: localEulerAnglesRaw.y
    path: Body/Torso/RightShoulder/RightArm
    classID: 4
    script: {fileID: 0}
  - curve:
      serializedVersion: 2
      m_Curve:
      - time: 0
        value: 0
        inSlope: 7.2766666
        outSlope: 7.2766666
        tangentMode: 10
      - time: 0.3
        value: 2.183
        inSlope: 4.0294585
        outSlope: 4.0294585
        tangentMode: 10
      - time: 2.9666667
        value: 4.269
        inSlope: -2.6581607
        outSlope: -2.6581607
        tangentMode: 10
      - time: 3.6666667
        value: 0
        inSlope: -6.0985713
        outSlope: -6.0985713
        tangentMode: 10
      m_PreInfinity: 2
      m_PostInfinity: 2
      m_RotationOrder: 4
    attribute: localEulerAnglesRaw.z
    path: Body/Torso/RightShoulder/RightArm
    classID: 4
    script: {fileID: 0}
  - curve:
      serializedVersion: 2
      m_Curve:
      - time: 0
        value: 0
        inSlope: 0
        outSlope: 0
        tangentMode: 10
      - time: 0.3
        value: 0
        inSlope: 0
        outSlope: 0
        tangentMode: 10
      - time: 0.8333333
        value: 0
        inSlope: 0
        outSlope: 0
        tangentMode: 10
      - time: 1.6833333
        value: 0
        inSlope: 0
        outSlope: 0
        tangentMode: 10
      - time: 2.3833334
        value: 0
        inSlope: 0
        outSlope: 0
        tangentMode: 10
      - time: 2.9666667
        value: 0
        inSlope: 0
        outSlope: 0
        tangentMode: 10
      - time: 3.6666667
        value: 0
        inSlope: 0
        outSlope: 0
        tangentMode: 10
      m_PreInfinity: 2
      m_PostInfinity: 2
      m_RotationOrder: 4
    attribute: localEulerAnglesRaw.x
    path: Body/Torso/Wallet/Wallet
    classID: 4
    script: {fileID: 0}
  - curve:
      serializedVersion: 2
      m_Curve:
      - time: 0
        value: 0
        inSlope: 0
        outSlope: 0
        tangentMode: 10
      - time: 0.3
        value: 0
        inSlope: 0
        outSlope: 0
        tangentMode: 10
      - time: 0.8333333
        value: 0
        inSlope: 0
        outSlope: 0
        tangentMode: 10
      - time: 1.6833333
        value: 0
        inSlope: 0
        outSlope: 0
        tangentMode: 10
      - time: 2.3833334
        value: 0
        inSlope: 0
        outSlope: 0
        tangentMode: 10
      - time: 2.9666667
        value: 0
        inSlope: 0
        outSlope: 0
        tangentMode: 10
      - time: 3.6666667
        value: 0
        inSlope: 0
        outSlope: 0
        tangentMode: 10
      m_PreInfinity: 2
      m_PostInfinity: 2
      m_RotationOrder: 4
    attribute: localEulerAnglesRaw.y
    path: Body/Torso/Wallet/Wallet
    classID: 4
    script: {fileID: 0}
  - curve:
      serializedVersion: 2
      m_Curve:
      - time: 0
        value: 0
        inSlope: -21.576668
        outSlope: -21.576668
        tangentMode: 10
      - time: 0.3
        value: -6.4730005
        inSlope: -8.602083
        outSlope: -8.602083
        tangentMode: 10
      - time: 0.8333333
        value: -4.1410003
        inSlope: -0.09139681
        outSlope: -0.09139681
        tangentMode: 10
      - time: 1.6833333
        value: -8.0130005
        inSlope: 0.08878088
        outSlope: 0.08878088
        tangentMode: 10
      - time: 2.3833334
        value: -4.7000003
        inSlope: -0.57700133
        outSlope: -0.57700133
        tangentMode: 10
      - time: 2.9666667
        value: -8.134001
        inSlope: 2.8665705
        outSlope: 2.8665705
        tangentMode: 10
      - time: 3.6666667
        value: 0
        inSlope: 11.62
        outSlope: 11.62
        tangentMode: 10
      m_PreInfinity: 2
      m_PostInfinity: 2
      m_RotationOrder: 4
    attribute: localEulerAnglesRaw.z
    path: Body/Torso/Wallet/Wallet
    classID: 4
    script: {fileID: 0}
  - curve:
      serializedVersion: 2
      m_Curve:
      - time: 0
        value: 0
        inSlope: 0
        outSlope: 0
        tangentMode: 10
      - time: 1.6166667
        value: 0
        inSlope: 0
        outSlope: 0
        tangentMode: 10
      - time: 3.6666667
        value: 0
        inSlope: 0
        outSlope: 0
        tangentMode: 10
      m_PreInfinity: 2
      m_PostInfinity: 2
      m_RotationOrder: 4
    attribute: localEulerAnglesRaw.x
    path: Body/UpperLegLeft/LowerLegLeft/LeftShoe
    classID: 4
    script: {fileID: 0}
  - curve:
      serializedVersion: 2
      m_Curve:
      - time: 0
        value: 0
        inSlope: 0
        outSlope: 0
        tangentMode: 10
      - time: 1.6166667
        value: 0
        inSlope: 0
        outSlope: 0
        tangentMode: 10
      - time: 3.6666667
        value: 0
        inSlope: 0
        outSlope: 0
        tangentMode: 10
      m_PreInfinity: 2
      m_PostInfinity: 2
      m_RotationOrder: 4
    attribute: localEulerAnglesRaw.y
    path: Body/UpperLegLeft/LowerLegLeft/LeftShoe
    classID: 4
    script: {fileID: 0}
  - curve:
      serializedVersion: 2
      m_Curve:
      - time: 0
        value: 0
        inSlope: -3.1131961
        outSlope: -3.1131961
        tangentMode: 10
      - time: 1.6166667
        value: -5.0330005
        inSlope: -0.32903707
        outSlope: -0.32903707
        tangentMode: 10
      - time: 3.6666667
        value: 0
        inSlope: 2.455122
        outSlope: 2.455122
        tangentMode: 10
      m_PreInfinity: 2
      m_PostInfinity: 2
      m_RotationOrder: 4
    attribute: localEulerAnglesRaw.z
    path: Body/UpperLegLeft/LowerLegLeft/LeftShoe
    classID: 4
    script: {fileID: 0}
  - curve:
      serializedVersion: 2
      m_Curve:
      - time: 0
        value: 0
        inSlope: 0
        outSlope: 0
        tangentMode: 10
      - time: 0.3
        value: 0
        inSlope: 0
        outSlope: 0
        tangentMode: 10
      - time: 0.6333333
        value: 0
        inSlope: 0
        outSlope: 0
        tangentMode: 10
      - time: 1.0333333
        value: 0
        inSlope: 0
        outSlope: 0
        tangentMode: 10
      - time: 2.7
        value: 0
        inSlope: 0
        outSlope: 0
        tangentMode: 10
      - time: 3.1666667
        value: 0
        inSlope: 0
        outSlope: 0
        tangentMode: 10
      - time: 3.6666667
        value: 0
        inSlope: 0
        outSlope: 0
        tangentMode: 10
      m_PreInfinity: 2
      m_PostInfinity: 2
      m_RotationOrder: 4
    attribute: localEulerAnglesRaw.x
    path: Body/Torso/Neck/Head/Hair
    classID: 4
    script: {fileID: 0}
  - curve:
      serializedVersion: 2
      m_Curve:
      - time: 0
        value: 0
        inSlope: 0
        outSlope: 0
        tangentMode: 10
      - time: 0.3
        value: 0
        inSlope: 0
        outSlope: 0
        tangentMode: 10
      - time: 0.6333333
        value: 0
        inSlope: 0
        outSlope: 0
        tangentMode: 10
      - time: 1.0333333
        value: 0
        inSlope: 0
        outSlope: 0
        tangentMode: 10
      - time: 2.7
        value: 0
        inSlope: 0
        outSlope: 0
        tangentMode: 10
      - time: 3.1666667
        value: 0
        inSlope: 0
        outSlope: 0
        tangentMode: 10
      - time: 3.6666667
        value: 0
        inSlope: 0
        outSlope: 0
        tangentMode: 10
      m_PreInfinity: 2
      m_PostInfinity: 2
      m_RotationOrder: 4
    attribute: localEulerAnglesRaw.y
    path: Body/Torso/Neck/Head/Hair
    classID: 4
    script: {fileID: 0}
  - curve:
      serializedVersion: 2
      m_Curve:
      - time: 0
        value: 0
        inSlope: 3.9199998
        outSlope: 3.9199998
        tangentMode: 10
      - time: 0.3
        value: 1.176
        inSlope: 1.5265
        outSlope: 1.5265
        tangentMode: 10
      - time: 0.6333333
        value: 0.887
        inSlope: 0.14900005
        outSlope: 0.14900005
        tangentMode: 10
      - time: 1.0333333
        value: 1.353
        inSlope: 0.58550006
        outSlope: 0.58550006
        tangentMode: 10
      - time: 2.7
        value: 1.363
        inSlope: -0.7255714
        outSlope: -0.7255714
        tangentMode: 10
      - time: 3.1666667
        value: 0.683
        inSlope: -1.4115715
        outSlope: -1.4115715
        tangentMode: 10
      - time: 3.6666667
        value: 0
        inSlope: -1.366
        outSlope: -1.366
        tangentMode: 10
      m_PreInfinity: 2
      m_PostInfinity: 2
      m_RotationOrder: 4
    attribute: localEulerAnglesRaw.z
    path: Body/Torso/Neck/Head/Hair
    classID: 4
    script: {fileID: 0}
  - curve:
      serializedVersion: 2
      m_Curve:
      - time: 0
        value: 0
        inSlope: 0
        outSlope: 0
        tangentMode: 10
      - time: 0.36666667
        value: 0
        inSlope: 0
        outSlope: 0
        tangentMode: 10
      - time: 0.8
        value: 0
        inSlope: 0
        outSlope: 0
        tangentMode: 10
      - time: 1.4333333
        value: 0
        inSlope: 0
        outSlope: 0
        tangentMode: 10
      - time: 2.05
        value: 0
        inSlope: 0
        outSlope: 0
        tangentMode: 10
      - time: 2.6
        value: 0
        inSlope: 0
        outSlope: 0
        tangentMode: 10
      - time: 3.6666667
        value: 0
        inSlope: 0
        outSlope: 0
        tangentMode: 10
      m_PreInfinity: 2
      m_PostInfinity: 2
      m_RotationOrder: 4
    attribute: localEulerAnglesRaw.x
    path: Body/Torso/Neck/Head/Jewel
    classID: 4
    script: {fileID: 0}
  - curve:
      serializedVersion: 2
      m_Curve:
      - time: 0
        value: 0
        inSlope: 0
        outSlope: 0
        tangentMode: 10
      - time: 0.36666667
        value: 0
        inSlope: 0
        outSlope: 0
        tangentMode: 10
      - time: 0.8
        value: 0
        inSlope: 0
        outSlope: 0
        tangentMode: 10
      - time: 1.4333333
        value: 0
        inSlope: 0
        outSlope: 0
        tangentMode: 10
      - time: 2.05
        value: 0
        inSlope: 0
        outSlope: 0
        tangentMode: 10
      - time: 2.6
        value: 0
        inSlope: 0
        outSlope: 0
        tangentMode: 10
      - time: 3.6666667
        value: 0
        inSlope: 0
        outSlope: 0
        tangentMode: 10
      m_PreInfinity: 2
      m_PostInfinity: 2
      m_RotationOrder: 4
    attribute: localEulerAnglesRaw.y
    path: Body/Torso/Neck/Head/Jewel
    classID: 4
    script: {fileID: 0}
  - curve:
      serializedVersion: 2
      m_Curve:
      - time: 0
        value: 0
        inSlope: 19.426363
        outSlope: 19.426363
        tangentMode: 10
      - time: 0.36666667
        value: 7.123
        inSlope: 1.9039507
        outSlope: 1.9039507
        tangentMode: 10
      - time: 0.8
        value: 0.35500002
        inSlope: -4.0323877
        outSlope: -4.0323877
        tangentMode: 10
      - time: 1.4333333
        value: 5.1390004
        inSlope: 0.7435994
        outSlope: 0.7435994
        tangentMode: 10
      - time: 2.05
        value: 1.3980001
        inSlope: 0.85402966
        outSlope: 0.85402966
        tangentMode: 10
      - time: 2.6
        value: 5.6740003
        inSlope: 1.2275858
        outSlope: 1.2275858
        tangentMode: 10
      - time: 3.6666667
        value: 0
        inSlope: -5.3193746
        outSlope: -5.3193746
        tangentMode: 10
      m_PreInfinity: 2
      m_PostInfinity: 2
      m_RotationOrder: 4
    attribute: localEulerAnglesRaw.z
    path: Body/Torso/Neck/Head/Jewel
    classID: 4
    script: {fileID: 0}
  - curve:
      serializedVersion: 2
      m_Curve: []
      m_PreInfinity: 2
      m_PostInfinity: 2
      m_RotationOrder: 4
    attribute: m_LocalPosition.x
    path: Body/Torso/Neck/Head/Face/Left/LeftEyebrown
    classID: 4
    script: {fileID: 0}
  - curve:
      serializedVersion: 2
      m_Curve:
      - time: 0
        value: 0.1627684
        inSlope: 0.08674067
        outSlope: 0.08674067
        tangentMode: 10
      - time: 1.7
        value: 0.31022754
        inSlope: 0
        outSlope: 0
        tangentMode: 0
      - time: 3.1666667
        value: 0.31022754
        inSlope: 0
        outSlope: 0
        tangentMode: 0
      - time: 3.6666667
        value: 0.1627684
        inSlope: -0.2949183
        outSlope: -0.2949183
        tangentMode: 10
      m_PreInfinity: 2
      m_PostInfinity: 2
      m_RotationOrder: 4
    attribute: m_LocalPosition.y
    path: Body/Torso/Neck/Head/Face/Left/LeftEyebrown
    classID: 4
    script: {fileID: 0}
  - curve:
      serializedVersion: 2
      m_Curve:
      - time: 0
        value: 0
        inSlope: 0
        outSlope: 0
        tangentMode: 10
      - time: 1.5833334
        value: 0
        inSlope: 0
        outSlope: 0
        tangentMode: 10
      - time: 1.7833333
        value: 0
        inSlope: 0
        outSlope: 0
        tangentMode: 10
      - time: 1.9166666
        value: 0
        inSlope: 0
        outSlope: 0
        tangentMode: 10
      m_PreInfinity: 2
      m_PostInfinity: 2
      m_RotationOrder: 4
    attribute: m_LocalPosition.z
    path: Body/Torso/Neck/Head/Face/Left/LeftEyebrown
    classID: 4
    script: {fileID: 0}
  - curve:
      serializedVersion: 2
      m_Curve:
      - time: 0
        value: 0
        inSlope: 0
        outSlope: 0
        tangentMode: 10
      - time: 1.5833334
        value: 0
        inSlope: 0
        outSlope: 0
        tangentMode: 10
      m_PreInfinity: 2
      m_PostInfinity: 2
      m_RotationOrder: 4
    attribute: localEulerAnglesRaw.x
    path: Body/Torso/Neck/Head/Face/Left/LeftEyebrown
    classID: 4
    script: {fileID: 0}
  - curve:
      serializedVersion: 2
      m_Curve:
      - time: 0
        value: 0
        inSlope: 0
        outSlope: 0
        tangentMode: 10
      - time: 1.5833334
        value: 0
        inSlope: 0
        outSlope: 0
        tangentMode: 10
      m_PreInfinity: 2
      m_PostInfinity: 2
      m_RotationOrder: 4
    attribute: localEulerAnglesRaw.y
    path: Body/Torso/Neck/Head/Face/Left/LeftEyebrown
    classID: 4
    script: {fileID: 0}
  - curve:
      serializedVersion: 2
      m_Curve:
      - time: 0
        value: -7.635248
        inSlope: 8.196194
        outSlope: 8.196194
        tangentMode: 10
      - time: 1.1666666
        value: 1.9269775
        inSlope: 0
        outSlope: 0
        tangentMode: 0
      - time: 2.5666666
        value: 1.9269775
        inSlope: 0
        outSlope: 0
        tangentMode: 0
      - time: 3.6666667
        value: -7.635248
        inSlope: -8.692931
        outSlope: -8.692931
        tangentMode: 10
      m_PreInfinity: 2
      m_PostInfinity: 2
      m_RotationOrder: 4
    attribute: localEulerAnglesRaw.z
    path: Body/Torso/Neck/Head/Face/Left/LeftEyebrown
    classID: 4
    script: {fileID: 0}
  - curve:
      serializedVersion: 2
      m_Curve:
      - time: 0
        value: 0
        inSlope: 0
        outSlope: 0
        tangentMode: 10
      - time: 1.5833334
        value: 0
        inSlope: 0
        outSlope: 0
        tangentMode: 10
      m_PreInfinity: 2
      m_PostInfinity: 2
      m_RotationOrder: 4
    attribute: localEulerAnglesRaw.x
    path: Body/Torso/Neck/Head/Face/Right/RightEyebrown
    classID: 4
    script: {fileID: 0}
  - curve:
      serializedVersion: 2
      m_Curve:
      - time: 0
        value: 0
        inSlope: 0
        outSlope: 0
        tangentMode: 10
      - time: 1.5833334
        value: 0
        inSlope: 0
        outSlope: 0
        tangentMode: 10
      m_PreInfinity: 2
      m_PostInfinity: 2
      m_RotationOrder: 4
    attribute: localEulerAnglesRaw.y
    path: Body/Torso/Neck/Head/Face/Right/RightEyebrown
    classID: 4
    script: {fileID: 0}
  - curve:
      serializedVersion: 2
      m_Curve:
      - time: 0
        value: 15.475464
        inSlope: 1.1587886
        outSlope: 1.1587886
        tangentMode: 10
      - time: 1.5666667
        value: 17.2909
        inSlope: 1.1587886
        outSlope: 1.1587886
        tangentMode: 10
      m_PreInfinity: 2
      m_PostInfinity: 2
      m_RotationOrder: 4
    attribute: localEulerAnglesRaw.z
    path: Body/Torso/Neck/Head/Face/Right/RightEyebrown
    classID: 4
    script: {fileID: 0}
  m_EulerEditorCurves:
  - curve:
      serializedVersion: 2
      m_Curve: []
      m_PreInfinity: 2
      m_PostInfinity: 2
      m_RotationOrder: 4
    attribute: m_LocalEulerAngles.z
    path: Body/Torso/Wallet
    classID: 4
    script: {fileID: 0}
  - curve:
      serializedVersion: 2
      m_Curve: []
      m_PreInfinity: 2
      m_PostInfinity: 2
      m_RotationOrder: 4
    attribute: m_LocalEulerAngles.y
    path: Body/Torso/Wallet
    classID: 4
    script: {fileID: 0}
  - curve:
      serializedVersion: 2
      m_Curve: []
      m_PreInfinity: 2
      m_PostInfinity: 2
      m_RotationOrder: 4
    attribute: m_LocalEulerAngles.x
    path: Body/Torso/Wallet
    classID: 4
    script: {fileID: 0}
  - curve:
      serializedVersion: 2
      m_Curve: []
      m_PreInfinity: 2
      m_PostInfinity: 2
      m_RotationOrder: 4
    attribute: m_LocalEulerAngles.z
    path: Body/UpperLegLeft/LowerLegLeft
    classID: 4
    script: {fileID: 0}
  - curve:
      serializedVersion: 2
      m_Curve: []
      m_PreInfinity: 2
      m_PostInfinity: 2
      m_RotationOrder: 4
    attribute: m_LocalEulerAngles.y
    path: Body/UpperLegLeft/LowerLegLeft
    classID: 4
    script: {fileID: 0}
  - curve:
      serializedVersion: 2
      m_Curve: []
      m_PreInfinity: 2
      m_PostInfinity: 2
      m_RotationOrder: 4
    attribute: m_LocalEulerAngles.x
    path: Body/UpperLegLeft/LowerLegLeft
    classID: 4
    script: {fileID: 0}
  - curve:
      serializedVersion: 2
      m_Curve: []
      m_PreInfinity: 2
      m_PostInfinity: 2
      m_RotationOrder: 4
    attribute: m_LocalEulerAngles.z
    path: Body/UpperLegRight/LowerLegRight
    classID: 4
    script: {fileID: 0}
  - curve:
      serializedVersion: 2
      m_Curve: []
      m_PreInfinity: 2
      m_PostInfinity: 2
      m_RotationOrder: 4
    attribute: m_LocalEulerAngles.y
    path: Body/UpperLegRight/LowerLegRight
    classID: 4
    script: {fileID: 0}
  - curve:
      serializedVersion: 2
      m_Curve: []
      m_PreInfinity: 2
      m_PostInfinity: 2
      m_RotationOrder: 4
    attribute: m_LocalEulerAngles.x
    path: Body/UpperLegRight/LowerLegRight
    classID: 4
    script: {fileID: 0}
  - curve:
      serializedVersion: 2
      m_Curve: []
      m_PreInfinity: 2
      m_PostInfinity: 2
      m_RotationOrder: 4
    attribute: m_LocalEulerAngles.z
    path: Body/Torso/LeftShoulder/LeftArm
    classID: 4
    script: {fileID: 0}
  - curve:
      serializedVersion: 2
      m_Curve: []
      m_PreInfinity: 2
      m_PostInfinity: 2
      m_RotationOrder: 4
    attribute: m_LocalEulerAngles.y
    path: Body/Torso/LeftShoulder/LeftArm
    classID: 4
    script: {fileID: 0}
  - curve:
      serializedVersion: 2
      m_Curve: []
      m_PreInfinity: 2
      m_PostInfinity: 2
      m_RotationOrder: 4
    attribute: m_LocalEulerAngles.x
    path: Body/Torso/LeftShoulder/LeftArm
    classID: 4
    script: {fileID: 0}
  - curve:
      serializedVersion: 2
      m_Curve: []
      m_PreInfinity: 2
      m_PostInfinity: 2
      m_RotationOrder: 4
    attribute: m_LocalEulerAngles.z
    path: Body/Torso/Neck/Head
    classID: 4
    script: {fileID: 0}
  - curve:
      serializedVersion: 2
      m_Curve: []
      m_PreInfinity: 2
      m_PostInfinity: 2
      m_RotationOrder: 4
    attribute: m_LocalEulerAngles.y
    path: Body/Torso/Neck/Head
    classID: 4
    script: {fileID: 0}
  - curve:
      serializedVersion: 2
      m_Curve: []
      m_PreInfinity: 2
      m_PostInfinity: 2
      m_RotationOrder: 4
    attribute: m_LocalEulerAngles.x
    path: Body/Torso/Neck/Head
    classID: 4
    script: {fileID: 0}
  - curve:
      serializedVersion: 2
      m_Curve: []
      m_PreInfinity: 2
      m_PostInfinity: 2
      m_RotationOrder: 4
    attribute: m_LocalEulerAngles.z
    path: Body/Torso/RightShoulder/RightArm
    classID: 4
    script: {fileID: 0}
  - curve:
      serializedVersion: 2
      m_Curve: []
      m_PreInfinity: 2
      m_PostInfinity: 2
      m_RotationOrder: 4
    attribute: m_LocalEulerAngles.y
    path: Body/Torso/RightShoulder/RightArm
    classID: 4
    script: {fileID: 0}
  - curve:
      serializedVersion: 2
      m_Curve: []
      m_PreInfinity: 2
      m_PostInfinity: 2
      m_RotationOrder: 4
    attribute: m_LocalEulerAngles.x
    path: Body/Torso/RightShoulder/RightArm
    classID: 4
    script: {fileID: 0}
  - curve:
      serializedVersion: 2
      m_Curve: []
      m_PreInfinity: 2
      m_PostInfinity: 2
      m_RotationOrder: 4
    attribute: m_LocalEulerAngles.z
    path: Body/UpperLegLeft/LowerLegLeft/LeftShoe
    classID: 4
    script: {fileID: 0}
  - curve:
      serializedVersion: 2
      m_Curve: []
      m_PreInfinity: 2
      m_PostInfinity: 2
      m_RotationOrder: 4
    attribute: m_LocalEulerAngles.y
    path: Body/UpperLegLeft/LowerLegLeft/LeftShoe
    classID: 4
    script: {fileID: 0}
  - curve:
      serializedVersion: 2
      m_Curve: []
      m_PreInfinity: 2
      m_PostInfinity: 2
      m_RotationOrder: 4
    attribute: m_LocalEulerAngles.x
    path: Body/UpperLegLeft/LowerLegLeft/LeftShoe
    classID: 4
    script: {fileID: 0}
  - curve:
      serializedVersion: 2
      m_Curve: []
      m_PreInfinity: 2
      m_PostInfinity: 2
      m_RotationOrder: 4
    attribute: m_LocalEulerAngles.z
    path: Body/Torso/Wallet/Wallet
    classID: 4
    script: {fileID: 0}
  - curve:
      serializedVersion: 2
      m_Curve: []
      m_PreInfinity: 2
      m_PostInfinity: 2
      m_RotationOrder: 4
    attribute: m_LocalEulerAngles.y
    path: Body/Torso/Wallet/Wallet
    classID: 4
    script: {fileID: 0}
  - curve:
      serializedVersion: 2
      m_Curve: []
      m_PreInfinity: 2
      m_PostInfinity: 2
      m_RotationOrder: 4
    attribute: m_LocalEulerAngles.x
    path: Body/Torso/Wallet/Wallet
    classID: 4
    script: {fileID: 0}
  - curve:
      serializedVersion: 2
      m_Curve: []
      m_PreInfinity: 2
      m_PostInfinity: 2
      m_RotationOrder: 4
    attribute: m_LocalEulerAngles.z
    path: Body/Torso/Neck/Head/Hair
    classID: 4
    script: {fileID: 0}
  - curve:
      serializedVersion: 2
      m_Curve: []
      m_PreInfinity: 2
      m_PostInfinity: 2
      m_RotationOrder: 4
    attribute: m_LocalEulerAngles.y
    path: Body/Torso/Neck/Head/Hair
    classID: 4
    script: {fileID: 0}
  - curve:
      serializedVersion: 2
      m_Curve: []
      m_PreInfinity: 2
      m_PostInfinity: 2
      m_RotationOrder: 4
    attribute: m_LocalEulerAngles.x
    path: Body/Torso/Neck/Head/Hair
    classID: 4
    script: {fileID: 0}
  - curve:
      serializedVersion: 2
      m_Curve: []
      m_PreInfinity: 2
      m_PostInfinity: 2
      m_RotationOrder: 4
    attribute: m_LocalEulerAngles.z
    path: Body/Torso
    classID: 4
    script: {fileID: 0}
  - curve:
      serializedVersion: 2
      m_Curve: []
      m_PreInfinity: 2
      m_PostInfinity: 2
      m_RotationOrder: 4
    attribute: m_LocalEulerAngles.y
    path: Body/Torso
    classID: 4
    script: {fileID: 0}
  - curve:
      serializedVersion: 2
      m_Curve: []
      m_PreInfinity: 2
      m_PostInfinity: 2
      m_RotationOrder: 4
    attribute: m_LocalEulerAngles.x
    path: Body/Torso
    classID: 4
    script: {fileID: 0}
  - curve:
      serializedVersion: 2
      m_Curve: []
      m_PreInfinity: 2
      m_PostInfinity: 2
      m_RotationOrder: 4
    attribute: m_LocalEulerAngles.z
    path: Body/UpperLegLeft
    classID: 4
    script: {fileID: 0}
  - curve:
      serializedVersion: 2
      m_Curve: []
      m_PreInfinity: 2
      m_PostInfinity: 2
      m_RotationOrder: 4
    attribute: m_LocalEulerAngles.y
    path: Body/UpperLegLeft
    classID: 4
    script: {fileID: 0}
  - curve:
      serializedVersion: 2
      m_Curve: []
      m_PreInfinity: 2
      m_PostInfinity: 2
      m_RotationOrder: 4
    attribute: m_LocalEulerAngles.x
    path: Body/UpperLegLeft
    classID: 4
    script: {fileID: 0}
  - curve:
      serializedVersion: 2
      m_Curve: []
      m_PreInfinity: 2
      m_PostInfinity: 2
      m_RotationOrder: 4
    attribute: m_LocalEulerAngles.z
    path: Body/UpperLegRight
    classID: 4
    script: {fileID: 0}
  - curve:
      serializedVersion: 2
      m_Curve: []
      m_PreInfinity: 2
      m_PostInfinity: 2
      m_RotationOrder: 4
    attribute: m_LocalEulerAngles.y
    path: Body/UpperLegRight
    classID: 4
    script: {fileID: 0}
  - curve:
      serializedVersion: 2
      m_Curve: []
      m_PreInfinity: 2
      m_PostInfinity: 2
      m_RotationOrder: 4
    attribute: m_LocalEulerAngles.x
    path: Body/UpperLegRight
    classID: 4
    script: {fileID: 0}
  - curve:
      serializedVersion: 2
      m_Curve: []
      m_PreInfinity: 2
      m_PostInfinity: 2
      m_RotationOrder: 4
    attribute: m_LocalEulerAngles.z
    path: Body/Torso/LeftShoulder
    classID: 4
    script: {fileID: 0}
  - curve:
      serializedVersion: 2
      m_Curve: []
      m_PreInfinity: 2
      m_PostInfinity: 2
      m_RotationOrder: 4
    attribute: m_LocalEulerAngles.y
    path: Body/Torso/LeftShoulder
    classID: 4
    script: {fileID: 0}
  - curve:
      serializedVersion: 2
      m_Curve: []
      m_PreInfinity: 2
      m_PostInfinity: 2
      m_RotationOrder: 4
    attribute: m_LocalEulerAngles.x
    path: Body/Torso/LeftShoulder
    classID: 4
    script: {fileID: 0}
  - curve:
      serializedVersion: 2
      m_Curve: []
      m_PreInfinity: 2
      m_PostInfinity: 2
      m_RotationOrder: 4
    attribute: m_LocalEulerAngles.z
    path: Body/Torso/RightShoulder
    classID: 4
    script: {fileID: 0}
  - curve:
      serializedVersion: 2
      m_Curve: []
      m_PreInfinity: 2
      m_PostInfinity: 2
      m_RotationOrder: 4
    attribute: m_LocalEulerAngles.y
    path: Body/Torso/RightShoulder
    classID: 4
    script: {fileID: 0}
  - curve:
      serializedVersion: 2
      m_Curve: []
      m_PreInfinity: 2
      m_PostInfinity: 2
      m_RotationOrder: 4
    attribute: m_LocalEulerAngles.x
    path: Body/Torso/RightShoulder
    classID: 4
    script: {fileID: 0}
  - curve:
      serializedVersion: 2
      m_Curve: []
      m_PreInfinity: 2
      m_PostInfinity: 2
      m_RotationOrder: 4
    attribute: m_LocalEulerAngles.z
    path: Body/Torso/Skirt
    classID: 4
    script: {fileID: 0}
  - curve:
      serializedVersion: 2
      m_Curve: []
      m_PreInfinity: 2
      m_PostInfinity: 2
      m_RotationOrder: 4
    attribute: m_LocalEulerAngles.y
    path: Body/Torso/Skirt
    classID: 4
    script: {fileID: 0}
  - curve:
      serializedVersion: 2
      m_Curve: []
      m_PreInfinity: 2
      m_PostInfinity: 2
      m_RotationOrder: 4
    attribute: m_LocalEulerAngles.x
    path: Body/Torso/Skirt
    classID: 4
    script: {fileID: 0}
  - curve:
      serializedVersion: 2
      m_Curve: []
      m_PreInfinity: 2
      m_PostInfinity: 2
      m_RotationOrder: 4
    attribute: m_LocalEulerAngles.x
    path: Body/Torso/Neck/Head/Jewel
    classID: 4
    script: {fileID: 0}
  - curve:
      serializedVersion: 2
      m_Curve: []
      m_PreInfinity: 2
      m_PostInfinity: 2
      m_RotationOrder: 4
    attribute: m_LocalEulerAngles.y
    path: Body/Torso/Neck/Head/Jewel
    classID: 4
    script: {fileID: 0}
  - curve:
      serializedVersion: 2
      m_Curve: []
      m_PreInfinity: 2
      m_PostInfinity: 2
      m_RotationOrder: 4
    attribute: m_LocalEulerAngles.z
    path: Body/Torso/Neck/Head/Jewel
    classID: 4
    script: {fileID: 0}
  - curve:
      serializedVersion: 2
      m_Curve: []
      m_PreInfinity: 2
      m_PostInfinity: 2
      m_RotationOrder: 4
    attribute: m_LocalEulerAngles.z
    path: Body/Torso/Neck/Head/Face/Right/RightEyebrown
    classID: 4
    script: {fileID: 0}
  - curve:
      serializedVersion: 2
      m_Curve: []
      m_PreInfinity: 2
      m_PostInfinity: 2
      m_RotationOrder: 4
    attribute: m_LocalEulerAngles.y
    path: Body/Torso/Neck/Head/Face/Right/RightEyebrown
    classID: 4
    script: {fileID: 0}
  - curve:
      serializedVersion: 2
      m_Curve: []
      m_PreInfinity: 2
      m_PostInfinity: 2
      m_RotationOrder: 4
    attribute: m_LocalEulerAngles.x
    path: Body/Torso/Neck/Head/Face/Right/RightEyebrown
    classID: 4
    script: {fileID: 0}
  - curve:
      serializedVersion: 2
      m_Curve: []
      m_PreInfinity: 2
      m_PostInfinity: 2
      m_RotationOrder: 4
    attribute: m_LocalEulerAngles.x
    path: Body/Torso/Neck/Head/Face/Left/LeftEyebrown
    classID: 4
    script: {fileID: 0}
  - curve:
      serializedVersion: 2
      m_Curve: []
      m_PreInfinity: 2
      m_PostInfinity: 2
      m_RotationOrder: 4
    attribute: m_LocalEulerAngles.y
    path: Body/Torso/Neck/Head/Face/Left/LeftEyebrown
    classID: 4
    script: {fileID: 0}
  - curve:
      serializedVersion: 2
      m_Curve: []
      m_PreInfinity: 2
      m_PostInfinity: 2
      m_RotationOrder: 4
    attribute: m_LocalEulerAngles.z
    path: Body/Torso/Neck/Head/Face/Left/LeftEyebrown
    classID: 4
    script: {fileID: 0}
  m_HasGenericRootTransform: 0
  m_HasMotionFloatCurves: 0
  m_GenerateMotionCurves: 0
  m_Events: []
