%YAML 1.1
%TAG !u! tag:unity3d.com,2011:
--- !u!74 &7400000
AnimationClip:
  m_ObjectHideFlags: 0
  m_PrefabParentObject: {fileID: 0}
  m_PrefabInternal: {fileID: 0}
  m_Name: FemaleHappiness
  serializedVersion: 6
  m_Legacy: 0
  m_Compressed: 0
  m_UseHighQualityCurve: 1
  m_RotationCurves: []
  m_CompressedRotationCurves: []
  m_EulerCurves:
  - curve:
      serializedVersion: 2
      m_Curve:
      - time: 0
        value: {x: 0, y: 0, z: -0.103455424}
        inSlope: {x: 0, y: 0, z: 0.012084987}
        outSlope: {x: 0, y: 0, z: 0.012084987}
        tangentMode: 0
      - time: 0.93333334
        value: {x: 0, y: 0, z: -0.8797058}
        inSlope: {x: 0, y: 0, z: -0.22036284}
        outSlope: {x: 0, y: 0, z: -0.22036284}
        tangentMode: 0
      - time: 2.35
        value: {x: 0, y: 0, z: -0.3258301}
        inSlope: {x: 0, y: 0, z: -0.019988954}
        outSlope: {x: 0, y: 0, z: -0.019988954}
        tangentMode: 0
      - time: 3.65
        value: {x: 0, y: 0, z: -0.88606393}
        inSlope: {x: 0, y: 0, z: 0.07438052}
        outSlope: {x: 0, y: 0, z: 0.07438052}
        tangentMode: 0
      - time: 5
        value: {x: 0, y: 0, z: -0.103455424}
        inSlope: {x: 0, y: 0, z: 0.014196476}
        outSlope: {x: 0, y: 0, z: 0.014196476}
        tangentMode: 0
      m_PreInfinity: 2
      m_PostInfinity: 2
      m_RotationOrder: 4
    path: Body/Torso
  - curve:
      serializedVersion: 2
      m_Curve:
      - time: 0
        value: {x: 0, y: 0, z: 0}
        inSlope: {x: 0, y: 0, z: -1.072138}
        outSlope: {x: 0, y: 0, z: -1.072138}
        tangentMode: 0
      - time: 2.4166667
        value: {x: 0, y: 0, z: -2.591}
        inSlope: {x: 0, y: 0, z: -0.03458506}
        outSlope: {x: 0, y: 0, z: -0.03458506}
        tangentMode: 0
      - time: 5
        value: {x: 0, y: 0, z: 0}
        inSlope: {x: 0, y: 0, z: 1.0029678}
        outSlope: {x: 0, y: 0, z: 1.0029678}
        tangentMode: 0
      m_PreInfinity: 2
      m_PostInfinity: 2
      m_RotationOrder: 4
    path: Body/UpperLegLeft
  - curve:
      serializedVersion: 2
      m_Curve:
      - time: 0
        value: {x: 0, y: 0, z: 0}
        inSlope: {x: 0, y: 0, z: -1.0344827}
        outSlope: {x: 0, y: 0, z: -1.0344827}
        tangentMode: 0
      - time: 2.4166667
        value: {x: 0, y: 0, z: -2.5}
        inSlope: {x: 0, y: 0, z: -0.033370376}
        outSlope: {x: 0, y: 0, z: -0.033370376}
        tangentMode: 0
      - time: 5
        value: {x: 0, y: 0, z: 0}
        inSlope: {x: 0, y: 0, z: 0.96774197}
        outSlope: {x: 0, y: 0, z: 0.96774197}
        tangentMode: 0
      m_PreInfinity: 2
      m_PostInfinity: 2
      m_RotationOrder: 4
    path: Body/UpperLegRight
  - curve:
      serializedVersion: 2
      m_Curve:
      - time: 0
        value: {x: 0, y: 0, z: 3.6540003}
        inSlope: {x: 0, y: 0, z: 1.4689283}
        outSlope: {x: 0, y: 0, z: 1.4689283}
        tangentMode: 0
      - time: 0.93333334
        value: {x: 0, y: 0, z: 5.025}
        inSlope: {x: 0, y: 0, z: 0.25058183}
        outSlope: {x: 0, y: 0, z: 0.25058183}
        tangentMode: 0
      - time: 2.35
        value: {x: 0, y: 0, z: 3.6540003}
        inSlope: {x: 0, y: 0, z: 0.043425232}
        outSlope: {x: 0, y: 0, z: 0.043425232}
        tangentMode: 0
      - time: 3.65
        value: {x: 0, y: 0, z: 5.025}
        inSlope: {x: 0, y: 0, z: 0.01952982}
        outSlope: {x: 0, y: 0, z: 0.01952982}
        tangentMode: 0
      - time: 5
        value: {x: 0, y: 0, z: 3.6540003}
        inSlope: {x: 0, y: 0, z: -1.0155555}
        outSlope: {x: 0, y: 0, z: -1.0155555}
        tangentMode: 0
      m_PreInfinity: 2
      m_PostInfinity: 2
      m_RotationOrder: 4
    path: Body/Torso/LeftShoulder
  - curve:
      serializedVersion: 2
      m_Curve:
      - time: 0
        value: {x: 0, y: 0, z: -31.536001}
        inSlope: {x: 0, y: 0, z: 0}
        outSlope: {x: 0, y: 0, z: 0}
        tangentMode: 0
      m_PreInfinity: 2
      m_PostInfinity: 2
      m_RotationOrder: 4
    path: Body/Torso/RightShoulder
  - curve:
      serializedVersion: 2
      m_Curve:
      - time: 0
        value: {x: 0, y: 0, z: 3.1121151}
        inSlope: {x: 0, y: 0, z: 0.5795196}
        outSlope: {x: 0, y: 0, z: 0.5795196}
        tangentMode: 0
      - time: 0.93333334
        value: {x: 0, y: 0, z: 3.653}
        inSlope: {x: 0, y: 0, z: -1.0189462}
        outSlope: {x: 0, y: 0, z: -1.0189462}
        tangentMode: 0
      - time: 2.35
        value: {x: 0, y: 0, z: -0.055000003}
        inSlope: {x: 0, y: 0, z: 0.38783228}
        outSlope: {x: 0, y: 0, z: 0.38783228}
        tangentMode: 0
      - time: 3.65
        value: {x: 0, y: 0, z: 4.3560004}
        inSlope: {x: 0, y: 0, z: 1.2358401}
        outSlope: {x: 0, y: 0, z: 1.2358401}
        tangentMode: 0
      - time: 5
        value: {x: 0, y: 0, z: 3.1121151}
        inSlope: {x: 0, y: 0, z: -0.92139655}
        outSlope: {x: 0, y: 0, z: -0.92139655}
        tangentMode: 0
      m_PreInfinity: 2
      m_PostInfinity: 2
      m_RotationOrder: 4
    path: Body/Torso/Skirt
  - curve:
      serializedVersion: 2
      m_Curve:
      - time: 0
        value: {x: 0, y: 0, z: 353.59598}
        inSlope: {x: 0, y: 0, z: 0.00022888184}
        outSlope: {x: 0, y: 0, z: 0.00022888184}
        tangentMode: 0
      - time: 0.93333334
        value: {x: 0, y: 0, z: 353.5962}
        inSlope: {x: 0, y: 0, z: -0.26303127}
        outSlope: {x: 0, y: 0, z: -0.26303127}
        tangentMode: 0
      - time: 2.3833334
        value: {x: 0, y: 0, z: 352.83307}
        inSlope: {x: 0, y: 0, z: 0.27961746}
        outSlope: {x: 0, y: 0, z: 0.27961746}
        tangentMode: 0
      - time: 3.65
        value: {x: 0, y: 0, z: 354.20807}
        inSlope: {x: 0, y: 0, z: 0.31606275}
        outSlope: {x: 0, y: 0, z: 0.31606275}
        tangentMode: 0
      - time: 5
        value: {x: 0, y: 0, z: 353.59598}
        inSlope: {x: 0, y: 0, z: -0.45340082}
        outSlope: {x: 0, y: 0, z: -0.45340082}
        tangentMode: 0
      m_PreInfinity: 2
      m_PostInfinity: 2
      m_RotationOrder: 4
    path: Body/Torso/Waist
  - curve:
      serializedVersion: 2
      m_Curve:
      - time: 0
        value: {x: 0, y: 0, z: -0.07149054}
        inSlope: {x: 0, y: 0, z: 0.021898808}
        outSlope: {x: 0, y: 0, z: 0.021898808}
        tangentMode: 0
      - time: 0.93333334
        value: {x: 0, y: 0, z: -0.97854507}
        inSlope: {x: 0, y: 0, z: -0.8563531}
        outSlope: {x: 0, y: 0, z: -0.8563531}
        tangentMode: 0
      - time: 2.35
        value: {x: 0, y: 0, z: -2.0280995}
        inSlope: {x: 0, y: 0, z: -0.012904167}
        outSlope: {x: 0, y: 0, z: -0.012904167}
        tangentMode: 0
      - time: 3.65
        value: {x: 0, y: 0, z: -1.0985296}
        inSlope: {x: 0, y: 0, z: 0.73108923}
        outSlope: {x: 0, y: 0, z: 0.73108923}
        tangentMode: 0
      - time: 5
        value: {x: 0, y: 0, z: -0.08991136}
        inSlope: {x: 0, y: 0, z: -0.018194975}
        outSlope: {x: 0, y: 0, z: -0.018194975}
        tangentMode: 0
      m_PreInfinity: 2
      m_PostInfinity: 2
      m_RotationOrder: 4
    path: Body/Torso/Wallet
  - curve:
      serializedVersion: 2
      m_Curve:
      - time: 0
        value: {x: 0, y: 0, z: 0}
        inSlope: {x: 0, y: 0, z: 1.4557241}
        outSlope: {x: 0, y: 0, z: 1.4557241}
        tangentMode: 0
      - time: 2.4166667
        value: {x: 0, y: 0, z: 3.5180001}
        inSlope: {x: 0, y: 0, z: 0.046958804}
        outSlope: {x: 0, y: 0, z: 0.046958804}
        tangentMode: 0
      - time: 5
        value: {x: 0, y: 0, z: 0}
        inSlope: {x: 0, y: 0, z: -1.3618065}
        outSlope: {x: 0, y: 0, z: -1.3618065}
        tangentMode: 0
      m_PreInfinity: 2
      m_PostInfinity: 2
      m_RotationOrder: 4
    path: Body/UpperLegLeft/LowerLegLeft
  - curve:
      serializedVersion: 2
      m_Curve:
      - time: 0
        value: {x: 0, y: 0, z: 0}
        inSlope: {x: 0, y: 0, z: 2.5617933}
        outSlope: {x: 0, y: 0, z: 2.5617933}
        tangentMode: 0
      - time: 2.4166667
        value: {x: 0, y: 0, z: 6.1910005}
        inSlope: {x: 0, y: 0, z: 0.0826385}
        outSlope: {x: 0, y: 0, z: 0.0826385}
        tangentMode: 0
      - time: 5
        value: {x: 0, y: 0, z: 0}
        inSlope: {x: 0, y: 0, z: -2.3965163}
        outSlope: {x: 0, y: 0, z: -2.3965163}
        tangentMode: 0
      m_PreInfinity: 2
      m_PostInfinity: 2
      m_RotationOrder: 4
    path: Body/UpperLegRight/LowerLegRight
  - curve:
      serializedVersion: 2
      m_Curve:
      - time: 0
        value: {x: 0, y: 0, z: -5}
        inSlope: {x: 0, y: 0, z: 0}
        outSlope: {x: 0, y: 0, z: 0}
        tangentMode: 0
      m_PreInfinity: 2
      m_PostInfinity: 2
      m_RotationOrder: 4
    path: Body/Torso/LeftShoulder/LeftArm
  - curve:
      serializedVersion: 2
      m_Curve:
      - time: 0
        value: {x: 0, y: 0, z: 92.090004}
        inSlope: {x: 0, y: 0, z: 0}
        outSlope: {x: 0, y: 0, z: 0}
        tangentMode: 0
      m_PreInfinity: 2
      m_PostInfinity: 2
      m_RotationOrder: 4
    path: Body/Torso/RightShoulder/RightArm
  - curve:
      serializedVersion: 2
      m_Curve:
      - time: 0
        value: {x: 0, y: 0, z: -0.12196295}
        inSlope: {x: 0, y: 0, z: 0.16634804}
        outSlope: {x: 0, y: 0, z: 0.16634804}
        tangentMode: 0
      - time: 0.93333334
        value: {x: 0, y: 0, z: -0.4718094}
        inSlope: {x: 0, y: 0, z: -0.063157134}
        outSlope: {x: 0, y: 0, z: -0.063157134}
        tangentMode: 0
      - time: 2.35
        value: {x: 0, y: 0, z: -0.119737744}
        inSlope: {x: 0, y: 0, z: -0.09007103}
        outSlope: {x: 0, y: 0, z: -0.09007103}
        tangentMode: 0
      - time: 3.65
        value: {x: 0, y: 0, z: -0.67700005}
        inSlope: {x: 0, y: 0, z: -0.0079381615}
        outSlope: {x: 0, y: 0, z: -0.0079381615}
        tangentMode: 0
      - time: 5
        value: {x: 0, y: 0, z: -0.119737744}
        inSlope: {x: 0, y: 0, z: 0.024276463}
        outSlope: {x: 0, y: 0, z: 0.024276463}
        tangentMode: 0
      m_PreInfinity: 2
      m_PostInfinity: 2
      m_RotationOrder: 4
    path: Body/Torso/Wallet/Wallet
  - curve:
      serializedVersion: 2
      m_Curve:
      - time: 0
        value: {x: 0, y: 0, z: 0}
        inSlope: {x: 0, y: 0, z: -1.7131035}
        outSlope: {x: 0, y: 0, z: -1.7131035}
        tangentMode: 0
      - time: 2.4166667
        value: {x: 0, y: 0, z: -4.1400003}
        inSlope: {x: 0, y: 0, z: -0.055261374}
        outSlope: {x: 0, y: 0, z: -0.055261374}
        tangentMode: 0
      - time: 5
        value: {x: 0, y: 0, z: 0}
        inSlope: {x: 0, y: 0, z: 1.6025808}
        outSlope: {x: 0, y: 0, z: 1.6025808}
        tangentMode: 0
      m_PreInfinity: 2
      m_PostInfinity: 2
      m_RotationOrder: 4
    path: Body/UpperLegLeft/LowerLegLeft/LeftShoe
  - curve:
      serializedVersion: 2
      m_Curve:
      - time: 0
        value: {x: 0, y: 0, z: 0}
        inSlope: {x: 0, y: 0, z: -2.2406898}
        outSlope: {x: 0, y: 0, z: -2.2406898}
        tangentMode: 0
      - time: 2.4166667
        value: {x: 0, y: 0, z: -5.4150004}
        inSlope: {x: 0, y: 0, z: -0.07228029}
        outSlope: {x: 0, y: 0, z: -0.07228029}
        tangentMode: 0
      - time: 5
        value: {x: 0, y: 0, z: 0}
        inSlope: {x: 0, y: 0, z: 2.0961292}
        outSlope: {x: 0, y: 0, z: 2.0961292}
        tangentMode: 0
      m_PreInfinity: 2
      m_PostInfinity: 2
      m_RotationOrder: 4
    path: Body/UpperLegRight/LowerLegRight/RightShoe
  - curve:
      serializedVersion: 2
      m_Curve:
      - time: 0
        value: {x: 0, y: 0, z: 2.6300292}
        inSlope: {x: 0, y: 0, z: 0.0942493}
        outSlope: {x: 0, y: 0, z: 0.0942493}
        tangentMode: 0
      - time: 0.93333334
        value: {x: 0, y: 0, z: -2.592}
        inSlope: {x: 0, y: 0, z: -0.9544463}
        outSlope: {x: 0, y: 0, z: -0.9544463}
        tangentMode: 0
      - time: 2.35
        value: {x: 0, y: 0, z: 2.6300292}
        inSlope: {x: 0, y: 0, z: -0.16540313}
        outSlope: {x: 0, y: 0, z: -0.16540313}
        tangentMode: 0
      - time: 3.65
        value: {x: 0, y: 0, z: -2.592}
        inSlope: {x: 0, y: 0, z: -0.07438743}
        outSlope: {x: 0, y: 0, z: -0.07438743}
        tangentMode: 0
      - time: 5
        value: {x: 0, y: 0, z: 2.6300292}
        inSlope: {x: 0, y: 0, z: 0.08411393}
        outSlope: {x: 0, y: 0, z: 0.08411393}
        tangentMode: 0
      m_PreInfinity: 2
      m_PostInfinity: 2
      m_RotationOrder: 4
    path: Body/Torso/LeftShoulder/LeftArm/LeftHand
  - curve:
      serializedVersion: 2
      m_Curve:
      - time: 0
        value: {x: 0, y: 0, z: 0}
        inSlope: {x: 0, y: 0, z: 3.1489286}
        outSlope: {x: 0, y: 0, z: 3.1489286}
        tangentMode: 0
      - time: 0.93333334
        value: {x: 0, y: 0, z: 2.9390001}
        inSlope: {x: 0, y: 0, z: 0.53717005}
        outSlope: {x: 0, y: 0, z: 0.53717005}
        tangentMode: 0
      - time: 2.35
        value: {x: 0, y: 0, z: 0}
        inSlope: {x: 0, y: 0, z: 0.09309018}
        outSlope: {x: 0, y: 0, z: 0.09309018}
        tangentMode: 0
      - time: 3.65
        value: {x: 0, y: 0, z: 2.9390001}
        inSlope: {x: 0, y: 0, z: 0.041865826}
        outSlope: {x: 0, y: 0, z: 0.041865826}
        tangentMode: 0
      - time: 5
        value: {x: 0, y: 0, z: 0}
        inSlope: {x: 0, y: 0, z: -2.1770372}
        outSlope: {x: 0, y: 0, z: -2.1770372}
        tangentMode: 0
      m_PreInfinity: 2
      m_PostInfinity: 2
      m_RotationOrder: 4
    path: Body/Torso/Neck/Head/Fringe
  - curve:
      serializedVersion: 2
      m_Curve:
      - time: 0
        value: {x: 0, y: 0, z: 0}
        inSlope: {x: 0, y: 0, z: 1.7292858}
        outSlope: {x: 0, y: 0, z: 1.7292858}
        tangentMode: 0
      - time: 0.93333334
        value: {x: 0, y: 0, z: 1.6140001}
        inSlope: {x: 0, y: 0, z: 0.29499578}
        outSlope: {x: 0, y: 0, z: 0.29499578}
        tangentMode: 0
      - time: 2.35
        value: {x: 0, y: 0, z: 0}
        inSlope: {x: 0, y: 0, z: 0.05112201}
        outSlope: {x: 0, y: 0, z: 0.05112201}
        tangentMode: 0
      - time: 3.65
        value: {x: 0, y: 0, z: 1.6140001}
        inSlope: {x: 0, y: 0, z: 0.0229913}
        outSlope: {x: 0, y: 0, z: 0.0229913}
        tangentMode: 0
      - time: 5
        value: {x: 0, y: 0, z: 0}
        inSlope: {x: 0, y: 0, z: -1.1955557}
        outSlope: {x: 0, y: 0, z: -1.1955557}
        tangentMode: 0
      m_PreInfinity: 2
      m_PostInfinity: 2
      m_RotationOrder: 4
    path: Body/Torso/Neck/Head/Hair
  - curve:
      serializedVersion: 2
      m_Curve:
      - time: 0
        value: {x: 0, y: 0, z: 1.4177257}
        inSlope: {x: 0, y: 0, z: 3.0485084}
        outSlope: {x: 0, y: 0, z: 3.0485084}
        tangentMode: 0
      - time: 0.93333334
        value: {x: 0, y: 0, z: 4.263}
        inSlope: {x: 0, y: 0, z: -1.272452}
        outSlope: {x: 0, y: 0, z: -1.272452}
        tangentMode: 0
      - time: 2.35
        value: {x: 0, y: 0, z: -3.6610003}
        inSlope: {x: 0, y: 0, z: 2.0532932}
        outSlope: {x: 0, y: 0, z: 2.0532932}
        tangentMode: 0
      - time: 3.65
        value: {x: 0, y: 0, z: 8.949}
        inSlope: {x: 0, y: 0, z: 2.0606382}
        outSlope: {x: 0, y: 0, z: 2.0606382}
        tangentMode: 0
      - time: 5
        value: {x: 0, y: 0, z: 1.4177257}
        inSlope: {x: 0, y: 0, z: -5.5787225}
        outSlope: {x: 0, y: 0, z: -5.5787225}
        tangentMode: 0
      m_PreInfinity: 2
      m_PostInfinity: 2
      m_RotationOrder: 4
    path: Body/Torso/Neck/Head/Jewel
  - curve:
      serializedVersion: 2
      m_Curve:
      - time: 0
        value: {x: 0, y: 0, z: -71.705}
        inSlope: {x: 0, y: 0, z: 0}
        outSlope: {x: 0, y: 0, z: 0}
        tangentMode: 0
      m_PreInfinity: 2
      m_PostInfinity: 2
      m_RotationOrder: 4
    path: Body/Torso/RightShoulder/RightArm/RightHand
  m_PositionCurves:
  - curve:
      serializedVersion: 2
      m_Curve:
      - time: 0
        value: {x: 0.039214134, y: 0.17695743, z: 0}
        inSlope: {x: -0.0015123752, y: 0, z: 0}
        outSlope: {x: -0.0015123752, y: 0, z: 0}
        tangentMode: 0
      m_PreInfinity: 2
      m_PostInfinity: 2
      m_RotationOrder: 4
    path: Body/Torso/Neck/Head/Face/Right/RightEyebrown
  - curve:
      serializedVersion: 2
      m_Curve:
      - time: 0
        value: {x: -0.01, y: 0.19362167, z: 0}
        inSlope: {x: -0.001007965, y: 0, z: 0}
        outSlope: {x: -0.001007965, y: 0, z: 0}
        tangentMode: 0
      m_PreInfinity: 2
      m_PostInfinity: 2
      m_RotationOrder: 4
    path: Body/Torso/Neck/Head/Face/Left/LeftEyebrown
  - curve:
      serializedVersion: 2
      m_Curve:
      - time: 0
        value: {x: 0, y: 0, z: 0}
        inSlope: {x: 0, y: 0.032142855, z: 0}
        outSlope: {x: 0, y: 0.032142855, z: 0}
        tangentMode: 0
      - time: 0.93333334
        value: {x: 0, y: 0.03, z: 0}
        inSlope: {x: 0, y: 0.0054831915, z: 0}
        outSlope: {x: 0, y: 0.0054831915, z: 0}
        tangentMode: 0
      - time: 2.35
        value: {x: 0, y: 0, z: 0}
        inSlope: {x: 0, y: 0.00095022377, z: 0}
        outSlope: {x: 0, y: 0.00095022377, z: 0}
        tangentMode: 0
      - time: 3.65
        value: {x: 0, y: 0.03, z: 0}
        inSlope: {x: 0, y: 0.00042734854, z: 0}
        outSlope: {x: 0, y: 0.00042734854, z: 0}
        tangentMode: 0
      - time: 5
        value: {x: 0, y: 0, z: 0}
        inSlope: {x: 0, y: -0.022222223, z: 0}
        outSlope: {x: 0, y: -0.022222223, z: 0}
        tangentMode: 0
      m_PreInfinity: 2
      m_PostInfinity: 2
      m_RotationOrder: 4
    path: Body/Torso
  m_ScaleCurves: []
  m_FloatCurves:
  - curve:
      serializedVersion: 2
      m_Curve:
      - time: 0
        value: 0
        inSlope: Infinity
        outSlope: Infinity
        tangentMode: 31
      - time: 0.6333333
        value: 1
        inSlope: Infinity
        outSlope: Infinity
        tangentMode: 31
      - time: 0.96666664
        value: 0
        inSlope: Infinity
        outSlope: Infinity
        tangentMode: 31
      m_PreInfinity: 2
      m_PostInfinity: 2
      m_RotationOrder: 4
    attribute: m_IsActive
    path: Body/Torso/Neck/Head/Face/Right/EyeRightClosed
    classID: 1
    script: {fileID: 0}
  - curve:
      serializedVersion: 2
      m_Curve:
      - time: 0
        value: 0
        inSlope: Infinity
        outSlope: Infinity
        tangentMode: 31
      - time: 0.6333333
        value: 1
        inSlope: Infinity
        outSlope: Infinity
        tangentMode: 31
      - time: 0.96666664
        value: 0
        inSlope: Infinity
        outSlope: Infinity
        tangentMode: 31
      m_PreInfinity: 2
      m_PostInfinity: 2
      m_RotationOrder: 4
    attribute: m_IsActive
    path: Body/Torso/Neck/Head/Face/Left/EyeLeft Closed
    classID: 1
    script: {fileID: 0}
  - curve:
      serializedVersion: 2
      m_Curve:
      - time: 0
        value: 1
        inSlope: Infinity
        outSlope: Infinity
        tangentMode: 31
      m_PreInfinity: 2
      m_PostInfinity: 2
      m_RotationOrder: 4
    attribute: m_IsActive
    path: Body/Torso/Neck/Head/Face/MouthSmile
    classID: 1
    script: {fileID: 0}
  - curve:
      serializedVersion: 2
      m_Curve:
      - time: 0
        value: 0
        inSlope: Infinity
        outSlope: Infinity
        tangentMode: 31
      m_PreInfinity: 2
      m_PostInfinity: 2
      m_RotationOrder: 4
    attribute: m_IsActive
    path: Body/Torso/Neck/Head/Face/Mouth
    classID: 1
    script: {fileID: 0}
  - curve:
      serializedVersion: 2
      m_Curve:
      - time: 0
        value: 1
        inSlope: Infinity
        outSlope: Infinity
        tangentMode: 31
      m_PreInfinity: 2
      m_PostInfinity: 2
      m_RotationOrder: 4
    attribute: m_IsActive
    path: Body/Torso/Neck/Head/Face/Left/LeftEyebrown/HappyLeft
    classID: 1
    script: {fileID: 0}
  - curve:
      serializedVersion: 2
      m_Curve:
      - time: 0
        value: 0
        inSlope: Infinity
        outSlope: Infinity
        tangentMode: 31
      m_PreInfinity: 2
      m_PostInfinity: 2
      m_RotationOrder: 4
    attribute: m_IsActive
    path: Body/Torso/Neck/Head/Face/Left/LeftEyebrown/LeftEyebrownIdle
    classID: 1
    script: {fileID: 0}
  - curve:
      serializedVersion: 2
      m_Curve:
      - time: 0
        value: 0
        inSlope: Infinity
        outSlope: Infinity
        tangentMode: 31
      m_PreInfinity: 2
      m_PostInfinity: 2
      m_RotationOrder: 4
    attribute: m_IsActive
    path: Body/Torso/Neck/Head/Face/Right/RightEyebrown/RightEyebrownIdle
    classID: 1
    script: {fileID: 0}
  - curve:
      serializedVersion: 2
      m_Curve:
      - time: 0
        value: 1
        inSlope: Infinity
        outSlope: Infinity
        tangentMode: 31
      m_PreInfinity: 2
      m_PostInfinity: 2
      m_RotationOrder: 4
    attribute: m_IsActive
    path: Body/Torso/Neck/Head/Face/Right/RightEyebrown/HappyRight
    classID: 1
    script: {fileID: 0}
  - curve:
      serializedVersion: 2
      m_Curve:
      - time: 0
        value: 1
        inSlope: Infinity
        outSlope: Infinity
        tangentMode: 31
      - time: 0.6333333
        value: 0
        inSlope: Infinity
        outSlope: Infinity
        tangentMode: 31
      - time: 0.96666664
        value: 1
        inSlope: Infinity
        outSlope: Infinity
        tangentMode: 31
      m_PreInfinity: 2
      m_PostInfinity: 2
      m_RotationOrder: 4
    attribute: m_IsActive
    path: Body/Torso/Neck/Head/Face/Right/EyeRight
    classID: 1
    script: {fileID: 0}
  - curve:
      serializedVersion: 2
      m_Curve:
      - time: 0
        value: 1
        inSlope: Infinity
        outSlope: Infinity
        tangentMode: 31
      - time: 0.6333333
        value: 0
        inSlope: Infinity
        outSlope: Infinity
        tangentMode: 31
      - time: 0.96666664
        value: 1
        inSlope: Infinity
        outSlope: Infinity
        tangentMode: 31
      m_PreInfinity: 2
      m_PostInfinity: 2
      m_RotationOrder: 4
    attribute: m_IsActive
    path: Body/Torso/Neck/Head/Face/Left/EyeLeft
    classID: 1
    script: {fileID: 0}
  - curve:
      serializedVersion: 2
      m_Curve:
      - time: 0
        value: 1
        inSlope: Infinity
        outSlope: Infinity
        tangentMode: 31
      m_PreInfinity: 2
      m_PostInfinity: 2
      m_RotationOrder: 4
    attribute: m_IsActive
    path: Body/Torso/BackHand
    classID: 1
    script: {fileID: 0}
  - curve:
      serializedVersion: 2
      m_Curve:
      - time: 0
        value: 0
        inSlope: Infinity
        outSlope: Infinity
        tangentMode: 31
      m_PreInfinity: 2
      m_PostInfinity: 2
      m_RotationOrder: 4
    attribute: m_IsActive
    path: Body/Torso/RightShoulder/RightArm/RightHand
    classID: 1
    script: {fileID: 0}
  m_PPtrCurves: []
  m_SampleRate: 60
  m_WrapMode: 0
  m_Bounds:
    m_Center: {x: 0, y: 0, z: 0}
    m_Extent: {x: 0, y: 0, z: 0}
  m_ClipBindingConstant:
    genericBindings:
    - path: 423951870
      attribute: 1
      script: {fileID: 0}
      classID: 4
      customType: 0
      isPPtrCurve: 0
    - path: 2700673122
      attribute: 1
      script: {fileID: 0}
      classID: 4
      customType: 0
      isPPtrCurve: 0
    - path: 17307992
      attribute: 1
      script: {fileID: 0}
      classID: 4
      customType: 0
      isPPtrCurve: 0
    - path: 17307992
      attribute: 4
      script: {fileID: 0}
      classID: 4
      customType: 14
      isPPtrCurve: 0
    - path: 2967996916
      attribute: 4
      script: {fileID: 0}
      classID: 4
      customType: 14
      isPPtrCurve: 0
    - path: 1303979413
      attribute: 4
      script: {fileID: 0}
      classID: 4
      customType: 14
      isPPtrCurve: 0
    - path: 1523632015
      attribute: 4
      script: {fileID: 0}
      classID: 4
      customType: 14
      isPPtrCurve: 0
    - path: 2425401366
      attribute: 4
      script: {fileID: 0}
      classID: 4
      customType: 14
      isPPtrCurve: 0
    - path: 330745843
      attribute: 4
      script: {fileID: 0}
      classID: 4
      customType: 14
      isPPtrCurve: 0
    - path: 3534780582
      attribute: 4
      script: {fileID: 0}
      classID: 4
      customType: 14
      isPPtrCurve: 0
    - path: 3728011670
      attribute: 4
      script: {fileID: 0}
      classID: 4
      customType: 14
      isPPtrCurve: 0
    - path: 871651648
      attribute: 4
      script: {fileID: 0}
      classID: 4
      customType: 14
      isPPtrCurve: 0
    - path: 823111807
      attribute: 4
      script: {fileID: 0}
      classID: 4
      customType: 14
      isPPtrCurve: 0
    - path: 1888832609
      attribute: 4
      script: {fileID: 0}
      classID: 4
      customType: 14
      isPPtrCurve: 0
    - path: 2316883585
      attribute: 4
      script: {fileID: 0}
      classID: 4
      customType: 14
      isPPtrCurve: 0
    - path: 3064011926
      attribute: 4
      script: {fileID: 0}
      classID: 4
      customType: 14
      isPPtrCurve: 0
    - path: 3698067212
      attribute: 4
      script: {fileID: 0}
      classID: 4
      customType: 14
      isPPtrCurve: 0
    - path: 1437080233
      attribute: 4
      script: {fileID: 0}
      classID: 4
      customType: 14
      isPPtrCurve: 0
    - path: 3753951091
      attribute: 4
      script: {fileID: 0}
      classID: 4
      customType: 14
      isPPtrCurve: 0
    - path: 2876630158
      attribute: 2086281974
      script: {fileID: 0}
      classID: 1
      customType: 0
      isPPtrCurve: 0
    - path: 2012160854
      attribute: 2086281974
      script: {fileID: 0}
      classID: 1
      customType: 0
      isPPtrCurve: 0
    - path: 3700295663
      attribute: 2086281974
      script: {fileID: 0}
      classID: 1
      customType: 0
      isPPtrCurve: 0
    - path: 92606017
      attribute: 2086281974
      script: {fileID: 0}
      classID: 1
      customType: 0
      isPPtrCurve: 0
    - path: 3201560909
      attribute: 2086281974
      script: {fileID: 0}
      classID: 1
      customType: 0
      isPPtrCurve: 0
    - path: 2518073549
      attribute: 2086281974
      script: {fileID: 0}
      classID: 1
      customType: 0
      isPPtrCurve: 0
    - path: 1178227809
      attribute: 2086281974
      script: {fileID: 0}
      classID: 1
      customType: 0
      isPPtrCurve: 0
    - path: 3106380729
      attribute: 2086281974
      script: {fileID: 0}
      classID: 1
      customType: 0
      isPPtrCurve: 0
    - path: 4156715415
      attribute: 2086281974
      script: {fileID: 0}
      classID: 1
      customType: 0
      isPPtrCurve: 0
    - path: 232031047
      attribute: 2086281974
      script: {fileID: 0}
      classID: 1
      customType: 0
      isPPtrCurve: 0
    - path: 1768130228
      attribute: 2086281974
      script: {fileID: 0}
      classID: 1
      customType: 0
      isPPtrCurve: 0
    - path: 3169952396
      attribute: 2086281974
      script: {fileID: 0}
      classID: 1
      customType: 0
      isPPtrCurve: 0
    - path: 1400595497
      attribute: 4
      script: {fileID: 0}
      classID: 4
      customType: 14
      isPPtrCurve: 0
    - path: 3500640001
      attribute: 4
      script: {fileID: 0}
      classID: 4
      customType: 14
      isPPtrCurve: 0
    - path: 2874545571
      attribute: 4
      script: {fileID: 0}
      classID: 4
      customType: 14
      isPPtrCurve: 0
    - path: 3169952396
      attribute: 4
      script: {fileID: 0}
      classID: 4
      customType: 14
      isPPtrCurve: 0
    pptrCurveMapping: []
  m_AnimationClipSettings:
    serializedVersion: 2
    m_AdditiveReferencePoseClip: {fileID: 0}
    m_AdditiveReferencePoseTime: 0
    m_StartTime: 0
    m_StopTime: 5
    m_OrientationOffsetY: 0
    m_Level: 0
    m_CycleOffset: 0
    m_HasAdditiveReferencePose: 0
    m_LoopTime: 0
    m_LoopBlend: 0
    m_LoopBlendOrientation: 0
    m_LoopBlendPositionY: 0
    m_LoopBlendPositionXZ: 0
    m_KeepOriginalOrientation: 0
    m_KeepOriginalPositionY: 1
    m_KeepOriginalPositionXZ: 0
    m_HeightFromFeet: 0
    m_Mirror: 0
  m_EditorCurves:
  - curve:
      serializedVersion: 2
      m_Curve:
      - time: 0
        value: 0.039214134
        inSlope: -0.0015123752
        outSlope: -0.0015123752
        tangentMode: 10
      m_PreInfinity: 2
      m_PostInfinity: 2
      m_RotationOrder: 4
    attribute: m_LocalPosition.x
    path: Body/Torso/Neck/Head/Face/Right/RightEyebrown
    classID: 4
    script: {fileID: 0}
  - curve:
      serializedVersion: 2
      m_Curve:
      - time: 0
        value: 0.17695743
        inSlope: -0.0139268255
        outSlope: -0.0139268255
        tangentMode: 10
      m_PreInfinity: 2
      m_PostInfinity: 2
      m_RotationOrder: 4
    attribute: m_LocalPosition.y
    path: Body/Torso/Neck/Head/Face/Right/RightEyebrown
    classID: 4
    script: {fileID: 0}
  - curve:
      serializedVersion: 2
      m_Curve:
      - time: 0
        value: 0
        inSlope: 0
        outSlope: 0
        tangentMode: 10
      m_PreInfinity: 2
      m_PostInfinity: 2
      m_RotationOrder: 4
    attribute: m_LocalPosition.z
    path: Body/Torso/Neck/Head/Face/Right/RightEyebrown
    classID: 4
    script: {fileID: 0}
  - curve:
      serializedVersion: 2
      m_Curve:
      - time: 0
        value: -0.01
        inSlope: -0.001007965
        outSlope: -0.001007965
        tangentMode: 10
      m_PreInfinity: 2
      m_PostInfinity: 2
      m_RotationOrder: 4
    attribute: m_LocalPosition.x
    path: Body/Torso/Neck/Head/Face/Left/LeftEyebrown
    classID: 4
    script: {fileID: 0}
  - curve:
      serializedVersion: 2
      m_Curve:
      - time: 0
        value: 0.19362167
        inSlope: 0.003720224
        outSlope: 0.003720224
        tangentMode: 10
      m_PreInfinity: 2
      m_PostInfinity: 2
      m_RotationOrder: 4
    attribute: m_LocalPosition.y
    path: Body/Torso/Neck/Head/Face/Left/LeftEyebrown
    classID: 4
    script: {fileID: 0}
  - curve:
      serializedVersion: 2
      m_Curve:
      - time: 0
        value: 0
        inSlope: 0
        outSlope: 0
        tangentMode: 10
      m_PreInfinity: 2
      m_PostInfinity: 2
      m_RotationOrder: 4
    attribute: m_LocalPosition.z
    path: Body/Torso/Neck/Head/Face/Left/LeftEyebrown
    classID: 4
    script: {fileID: 0}
  - curve:
      serializedVersion: 2
      m_Curve:
      - time: 0
        value: 0
        inSlope: Infinity
        outSlope: Infinity
        tangentMode: 31
      - time: 0.6333333
        value: 1
        inSlope: Infinity
        outSlope: Infinity
        tangentMode: 31
      - time: 0.96666664
        value: 0
        inSlope: Infinity
        outSlope: Infinity
        tangentMode: 31
      m_PreInfinity: 2
      m_PostInfinity: 2
      m_RotationOrder: 4
    attribute: m_IsActive
    path: Body/Torso/Neck/Head/Face/Right/EyeRightClosed
    classID: 1
    script: {fileID: 0}
  - curve:
      serializedVersion: 2
      m_Curve:
      - time: 0
        value: 0
        inSlope: Infinity
        outSlope: Infinity
        tangentMode: 31
      - time: 0.6333333
        value: 1
        inSlope: Infinity
        outSlope: Infinity
        tangentMode: 31
      - time: 0.96666664
        value: 0
        inSlope: Infinity
        outSlope: Infinity
        tangentMode: 31
      m_PreInfinity: 2
      m_PostInfinity: 2
      m_RotationOrder: 4
    attribute: m_IsActive
    path: Body/Torso/Neck/Head/Face/Left/EyeLeft Closed
    classID: 1
    script: {fileID: 0}
  - curve:
      serializedVersion: 2
      m_Curve:
      - time: 0
        value: 1
        inSlope: Infinity
        outSlope: Infinity
        tangentMode: 31
      m_PreInfinity: 2
      m_PostInfinity: 2
      m_RotationOrder: 4
    attribute: m_IsActive
    path: Body/Torso/Neck/Head/Face/MouthSmile
    classID: 1
    script: {fileID: 0}
  - curve:
      serializedVersion: 2
      m_Curve:
      - time: 0
        value: 0
        inSlope: Infinity
        outSlope: Infinity
        tangentMode: 31
      m_PreInfinity: 2
      m_PostInfinity: 2
      m_RotationOrder: 4
    attribute: m_IsActive
    path: Body/Torso/Neck/Head/Face/Mouth
    classID: 1
    script: {fileID: 0}
  - curve:
      serializedVersion: 2
      m_Curve:
      - time: 0
        value: 1
        inSlope: Infinity
        outSlope: Infinity
        tangentMode: 31
      m_PreInfinity: 2
      m_PostInfinity: 2
      m_RotationOrder: 4
    attribute: m_IsActive
    path: Body/Torso/Neck/Head/Face/Left/LeftEyebrown/HappyLeft
    classID: 1
    script: {fileID: 0}
  - curve:
      serializedVersion: 2
      m_Curve:
      - time: 0
        value: 0
        inSlope: Infinity
        outSlope: Infinity
        tangentMode: 31
      m_PreInfinity: 2
      m_PostInfinity: 2
      m_RotationOrder: 4
    attribute: m_IsActive
    path: Body/Torso/Neck/Head/Face/Left/LeftEyebrown/LeftEyebrownIdle
    classID: 1
    script: {fileID: 0}
  - curve:
      serializedVersion: 2
      m_Curve:
      - time: 0
        value: 0
        inSlope: Infinity
        outSlope: Infinity
        tangentMode: 31
      m_PreInfinity: 2
      m_PostInfinity: 2
      m_RotationOrder: 4
    attribute: m_IsActive
    path: Body/Torso/Neck/Head/Face/Right/RightEyebrown/RightEyebrownIdle
    classID: 1
    script: {fileID: 0}
  - curve:
      serializedVersion: 2
      m_Curve:
      - time: 0
        value: 1
        inSlope: Infinity
        outSlope: Infinity
        tangentMode: 31
      m_PreInfinity: 2
      m_PostInfinity: 2
      m_RotationOrder: 4
    attribute: m_IsActive
    path: Body/Torso/Neck/Head/Face/Right/RightEyebrown/HappyRight
    classID: 1
    script: {fileID: 0}
  - curve:
      serializedVersion: 2
      m_Curve:
      - time: 0
        value: 1
        inSlope: Infinity
        outSlope: Infinity
        tangentMode: 31
      - time: 0.6333333
        value: 0
        inSlope: Infinity
        outSlope: Infinity
        tangentMode: 31
      - time: 0.96666664
        value: 1
        inSlope: Infinity
        outSlope: Infinity
        tangentMode: 31
      m_PreInfinity: 2
      m_PostInfinity: 2
      m_RotationOrder: 4
    attribute: m_IsActive
    path: Body/Torso/Neck/Head/Face/Right/EyeRight
    classID: 1
    script: {fileID: 0}
  - curve:
      serializedVersion: 2
      m_Curve:
      - time: 0
        value: 1
        inSlope: Infinity
        outSlope: Infinity
        tangentMode: 31
      - time: 0.6333333
        value: 0
        inSlope: Infinity
        outSlope: Infinity
        tangentMode: 31
      - time: 0.96666664
        value: 1
        inSlope: Infinity
        outSlope: Infinity
        tangentMode: 31
      m_PreInfinity: 2
      m_PostInfinity: 2
      m_RotationOrder: 4
    attribute: m_IsActive
    path: Body/Torso/Neck/Head/Face/Left/EyeLeft
    classID: 1
    script: {fileID: 0}
  - curve:
      serializedVersion: 2
      m_Curve:
      - time: 0
        value: 0
        inSlope: 0
        outSlope: 0
        tangentMode: 10
      - time: 0.93333334
        value: 0
        inSlope: 0
        outSlope: 0
        tangentMode: 10
      - time: 2.35
        value: 0
        inSlope: 0
        outSlope: 0
        tangentMode: 10
      - time: 3.65
        value: 0
        inSlope: 0
        outSlope: 0
        tangentMode: 10
      - time: 5
        value: 0
        inSlope: 0
        outSlope: 0
        tangentMode: 10
      m_PreInfinity: 2
      m_PostInfinity: 2
      m_RotationOrder: 4
    attribute: m_LocalPosition.x
    path: Body/Torso
    classID: 4
    script: {fileID: 0}
  - curve:
      serializedVersion: 2
      m_Curve:
      - time: 0
        value: 0
        inSlope: 0.032142855
        outSlope: 0.032142855
        tangentMode: 10
      - time: 0.93333334
        value: 0.03
        inSlope: 0.0054831915
        outSlope: 0.0054831915
        tangentMode: 10
      - time: 2.35
        value: 0
        inSlope: 0.00095022377
        outSlope: 0.00095022377
        tangentMode: 10
      - time: 3.65
        value: 0.03
        inSlope: 0.00042734854
        outSlope: 0.00042734854
        tangentMode: 10
      - time: 5
        value: 0
        inSlope: -0.022222223
        outSlope: -0.022222223
        tangentMode: 10
      m_PreInfinity: 2
      m_PostInfinity: 2
      m_RotationOrder: 4
    attribute: m_LocalPosition.y
    path: Body/Torso
    classID: 4
    script: {fileID: 0}
  - curve:
      serializedVersion: 2
      m_Curve:
      - time: 0
        value: 0
        inSlope: 0
        outSlope: 0
        tangentMode: 10
      - time: 0.93333334
        value: 0
        inSlope: 0
        outSlope: 0
        tangentMode: 10
      - time: 2.35
        value: 0
        inSlope: 0
        outSlope: 0
        tangentMode: 10
      - time: 3.65
        value: 0
        inSlope: 0
        outSlope: 0
        tangentMode: 10
      - time: 5
        value: 0
        inSlope: 0
        outSlope: 0
        tangentMode: 10
      m_PreInfinity: 2
      m_PostInfinity: 2
      m_RotationOrder: 4
    attribute: m_LocalPosition.z
    path: Body/Torso
    classID: 4
    script: {fileID: 0}
  - curve:
      serializedVersion: 2
      m_Curve:
      - time: 0
        value: 0
        inSlope: 0
        outSlope: 0
        tangentMode: 10
      - time: 0.93333334
        value: 0
        inSlope: 0
        outSlope: 0
        tangentMode: 10
      - time: 2.35
        value: 0
        inSlope: 0
        outSlope: 0
        tangentMode: 10
      - time: 3.65
        value: 0
        inSlope: 0
        outSlope: 0
        tangentMode: 10
      - time: 5
        value: 0
        inSlope: 0
        outSlope: 0
        tangentMode: 10
      m_PreInfinity: 2
      m_PostInfinity: 2
      m_RotationOrder: 4
    attribute: localEulerAnglesRaw.x
    path: Body/Torso
    classID: 4
    script: {fileID: 0}
  - curve:
      serializedVersion: 2
      m_Curve:
      - time: 0
        value: 0
        inSlope: 0
        outSlope: 0
        tangentMode: 10
      - time: 0.93333334
        value: 0
        inSlope: 0
        outSlope: 0
        tangentMode: 10
      - time: 2.35
        value: 0
        inSlope: 0
        outSlope: 0
        tangentMode: 10
      - time: 3.65
        value: 0
        inSlope: 0
        outSlope: 0
        tangentMode: 10
      - time: 5
        value: 0
        inSlope: 0
        outSlope: 0
        tangentMode: 10
      m_PreInfinity: 2
      m_PostInfinity: 2
      m_RotationOrder: 4
    attribute: localEulerAnglesRaw.y
    path: Body/Torso
    classID: 4
    script: {fileID: 0}
  - curve:
      serializedVersion: 2
      m_Curve:
      - time: 0
        value: -0.103455424
        inSlope: 0.012084987
        outSlope: 0.012084987
        tangentMode: 0
      - time: 0.93333334
        value: -0.8797058
        inSlope: -0.22036284
        outSlope: -0.22036284
        tangentMode: 10
      - time: 2.35
        value: -0.3258301
        inSlope: -0.019988954
        outSlope: -0.019988954
        tangentMode: 10
      - time: 3.65
        value: -0.88606393
        inSlope: 0.07438052
        outSlope: 0.07438052
        tangentMode: 10
      - time: 5
        value: -0.103455424
        inSlope: 0.014196476
        outSlope: 0.014196476
        tangentMode: 0
      m_PreInfinity: 2
      m_PostInfinity: 2
      m_RotationOrder: 4
    attribute: localEulerAnglesRaw.z
    path: Body/Torso
    classID: 4
    script: {fileID: 0}
  - curve:
      serializedVersion: 2
      m_Curve:
      - time: 0
        value: 0
        inSlope: 0
        outSlope: 0
        tangentMode: 10
      - time: 2.4166667
        value: 0
        inSlope: 0
        outSlope: 0
        tangentMode: 10
      - time: 5
        value: 0
        inSlope: 0
        outSlope: 0
        tangentMode: 10
      m_PreInfinity: 2
      m_PostInfinity: 2
      m_RotationOrder: 4
    attribute: localEulerAnglesRaw.x
    path: Body/UpperLegLeft
    classID: 4
    script: {fileID: 0}
  - curve:
      serializedVersion: 2
      m_Curve:
      - time: 0
        value: 0
        inSlope: 0
        outSlope: 0
        tangentMode: 10
      - time: 2.4166667
        value: 0
        inSlope: 0
        outSlope: 0
        tangentMode: 10
      - time: 5
        value: 0
        inSlope: 0
        outSlope: 0
        tangentMode: 10
      m_PreInfinity: 2
      m_PostInfinity: 2
      m_RotationOrder: 4
    attribute: localEulerAnglesRaw.y
    path: Body/UpperLegLeft
    classID: 4
    script: {fileID: 0}
  - curve:
      serializedVersion: 2
      m_Curve:
      - time: 0
        value: 0
        inSlope: -1.072138
        outSlope: -1.072138
        tangentMode: 10
      - time: 2.4166667
        value: -2.591
        inSlope: -0.03458506
        outSlope: -0.03458506
        tangentMode: 10
      - time: 5
        value: 0
        inSlope: 1.0029678
        outSlope: 1.0029678
        tangentMode: 10
      m_PreInfinity: 2
      m_PostInfinity: 2
      m_RotationOrder: 4
    attribute: localEulerAnglesRaw.z
    path: Body/UpperLegLeft
    classID: 4
    script: {fileID: 0}
  - curve:
      serializedVersion: 2
      m_Curve:
      - time: 0
        value: 0
        inSlope: 0
        outSlope: 0
        tangentMode: 10
      - time: 2.4166667
        value: 0
        inSlope: 0
        outSlope: 0
        tangentMode: 10
      - time: 5
        value: 0
        inSlope: 0
        outSlope: 0
        tangentMode: 10
      m_PreInfinity: 2
      m_PostInfinity: 2
      m_RotationOrder: 4
    attribute: localEulerAnglesRaw.x
    path: Body/UpperLegRight
    classID: 4
    script: {fileID: 0}
  - curve:
      serializedVersion: 2
      m_Curve:
      - time: 0
        value: 0
        inSlope: 0
        outSlope: 0
        tangentMode: 10
      - time: 2.4166667
        value: 0
        inSlope: 0
        outSlope: 0
        tangentMode: 10
      - time: 5
        value: 0
        inSlope: 0
        outSlope: 0
        tangentMode: 10
      m_PreInfinity: 2
      m_PostInfinity: 2
      m_RotationOrder: 4
    attribute: localEulerAnglesRaw.y
    path: Body/UpperLegRight
    classID: 4
    script: {fileID: 0}
  - curve:
      serializedVersion: 2
      m_Curve:
      - time: 0
        value: 0
        inSlope: -1.0344827
        outSlope: -1.0344827
        tangentMode: 10
      - time: 2.4166667
        value: -2.5
        inSlope: -0.033370376
        outSlope: -0.033370376
        tangentMode: 10
      - time: 5
        value: 0
        inSlope: 0.96774197
        outSlope: 0.96774197
        tangentMode: 10
      m_PreInfinity: 2
      m_PostInfinity: 2
      m_RotationOrder: 4
    attribute: localEulerAnglesRaw.z
    path: Body/UpperLegRight
    classID: 4
    script: {fileID: 0}
  - curve:
      serializedVersion: 2
      m_Curve:
      - time: 0
        value: 1
        inSlope: Infinity
        outSlope: Infinity
        tangentMode: 31
      m_PreInfinity: 2
      m_PostInfinity: 2
      m_RotationOrder: 4
    attribute: m_IsActive
    path: Body/Torso/BackHand
    classID: 1
    script: {fileID: 0}
  - curve:
      serializedVersion: 2
      m_Curve:
      - time: 0
        value: 0
        inSlope: 0
        outSlope: 0
        tangentMode: 10
      - time: 0.93333334
        value: 0
        inSlope: 0
        outSlope: 0
        tangentMode: 10
      - time: 2.35
        value: 0
        inSlope: 0
        outSlope: 0
        tangentMode: 10
      - time: 3.65
        value: 0
        inSlope: 0
        outSlope: 0
        tangentMode: 10
      - time: 5
        value: 0
        inSlope: 0
        outSlope: 0
        tangentMode: 10
      m_PreInfinity: 2
      m_PostInfinity: 2
      m_RotationOrder: 4
    attribute: localEulerAnglesRaw.x
    path: Body/Torso/LeftShoulder
    classID: 4
    script: {fileID: 0}
  - curve:
      serializedVersion: 2
      m_Curve:
      - time: 0
        value: 0
        inSlope: 0
        outSlope: 0
        tangentMode: 10
      - time: 0.93333334
        value: 0
        inSlope: 0
        outSlope: 0
        tangentMode: 10
      - time: 2.35
        value: 0
        inSlope: 0
        outSlope: 0
        tangentMode: 10
      - time: 3.65
        value: 0
        inSlope: 0
        outSlope: 0
        tangentMode: 10
      - time: 5
        value: 0
        inSlope: 0
        outSlope: 0
        tangentMode: 10
      m_PreInfinity: 2
      m_PostInfinity: 2
      m_RotationOrder: 4
    attribute: localEulerAnglesRaw.y
    path: Body/Torso/LeftShoulder
    classID: 4
    script: {fileID: 0}
  - curve:
      serializedVersion: 2
      m_Curve:
      - time: 0
        value: 3.6540003
        inSlope: 1.4689283
        outSlope: 1.4689283
        tangentMode: 10
      - time: 0.93333334
        value: 5.025
        inSlope: 0.25058183
        outSlope: 0.25058183
        tangentMode: 10
      - time: 2.35
        value: 3.6540003
        inSlope: 0.043425232
        outSlope: 0.043425232
        tangentMode: 10
      - time: 3.65
        value: 5.025
        inSlope: 0.01952982
        outSlope: 0.01952982
        tangentMode: 10
      - time: 5
        value: 3.6540003
        inSlope: -1.0155555
        outSlope: -1.0155555
        tangentMode: 10
      m_PreInfinity: 2
      m_PostInfinity: 2
      m_RotationOrder: 4
    attribute: localEulerAnglesRaw.z
    path: Body/Torso/LeftShoulder
    classID: 4
    script: {fileID: 0}
  - curve:
      serializedVersion: 2
      m_Curve:
      - time: 0
        value: 0
        inSlope: 0
        outSlope: 0
        tangentMode: 10
      m_PreInfinity: 2
      m_PostInfinity: 2
      m_RotationOrder: 4
    attribute: localEulerAnglesRaw.x
    path: Body/Torso/RightShoulder
    classID: 4
    script: {fileID: 0}
  - curve:
      serializedVersion: 2
      m_Curve:
      - time: 0
        value: 0
        inSlope: 0
        outSlope: 0
        tangentMode: 10
      m_PreInfinity: 2
      m_PostInfinity: 2
      m_RotationOrder: 4
    attribute: localEulerAnglesRaw.y
    path: Body/Torso/RightShoulder
    classID: 4
    script: {fileID: 0}
  - curve:
      serializedVersion: 2
      m_Curve:
      - time: 0
        value: -31.536001
        inSlope: 0
        outSlope: 0
        tangentMode: 10
      m_PreInfinity: 2
      m_PostInfinity: 2
      m_RotationOrder: 4
    attribute: localEulerAnglesRaw.z
    path: Body/Torso/RightShoulder
    classID: 4
    script: {fileID: 0}
  - curve:
      serializedVersion: 2
      m_Curve:
      - time: 0
        value: 0
        inSlope: 0
        outSlope: 0
        tangentMode: 10
      - time: 0.93333334
        value: 0
        inSlope: 0
        outSlope: 0
        tangentMode: 10
      - time: 2.35
        value: 0
        inSlope: 0
        outSlope: 0
        tangentMode: 10
      - time: 3.65
        value: 0
        inSlope: 0
        outSlope: 0
        tangentMode: 10
      - time: 5
        value: 0
        inSlope: 0
        outSlope: 0
        tangentMode: 10
      m_PreInfinity: 2
      m_PostInfinity: 2
      m_RotationOrder: 4
    attribute: localEulerAnglesRaw.x
    path: Body/Torso/Skirt
    classID: 4
    script: {fileID: 0}
  - curve:
      serializedVersion: 2
      m_Curve:
      - time: 0
        value: 0
        inSlope: 0
        outSlope: 0
        tangentMode: 10
      - time: 0.93333334
        value: 0
        inSlope: 0
        outSlope: 0
        tangentMode: 10
      - time: 2.35
        value: 0
        inSlope: 0
        outSlope: 0
        tangentMode: 10
      - time: 3.65
        value: 0
        inSlope: 0
        outSlope: 0
        tangentMode: 10
      - time: 5
        value: 0
        inSlope: 0
        outSlope: 0
        tangentMode: 10
      m_PreInfinity: 2
      m_PostInfinity: 2
      m_RotationOrder: 4
    attribute: localEulerAnglesRaw.y
    path: Body/Torso/Skirt
    classID: 4
    script: {fileID: 0}
  - curve:
      serializedVersion: 2
      m_Curve:
      - time: 0
        value: 3.1121151
        inSlope: 0.5795196
        outSlope: 0.5795196
        tangentMode: 10
      - time: 0.93333334
        value: 3.653
        inSlope: -1.0189462
        outSlope: -1.0189462
        tangentMode: 10
      - time: 2.35
        value: -0.055000003
        inSlope: 0.38783228
        outSlope: 0.38783228
        tangentMode: 10
      - time: 3.65
        value: 4.3560004
        inSlope: 1.2358401
        outSlope: 1.2358401
        tangentMode: 10
      - time: 5
        value: 3.1121151
        inSlope: -0.92139655
        outSlope: -0.92139655
        tangentMode: 10
      m_PreInfinity: 2
      m_PostInfinity: 2
      m_RotationOrder: 4
    attribute: localEulerAnglesRaw.z
    path: Body/Torso/Skirt
    classID: 4
    script: {fileID: 0}
  - curve:
      serializedVersion: 2
      m_Curve:
      - time: 0
        value: 0
        inSlope: 0
        outSlope: 0
        tangentMode: 10
      - time: 0.93333334
        value: 0
        inSlope: 0
        outSlope: 0
        tangentMode: 10
      - time: 2.3833334
        value: 0
        inSlope: 0
        outSlope: 0
        tangentMode: 10
      - time: 3.65
        value: 0
        inSlope: 0
        outSlope: 0
        tangentMode: 10
      - time: 5
        value: 0
        inSlope: 0
        outSlope: 0
        tangentMode: 10
      m_PreInfinity: 2
      m_PostInfinity: 2
      m_RotationOrder: 4
    attribute: localEulerAnglesRaw.x
    path: Body/Torso/Waist
    classID: 4
    script: {fileID: 0}
  - curve:
      serializedVersion: 2
      m_Curve:
      - time: 0
        value: 0
        inSlope: 0
        outSlope: 0
        tangentMode: 10
      - time: 0.93333334
        value: 0
        inSlope: 0
        outSlope: 0
        tangentMode: 10
      - time: 2.3833334
        value: 0
        inSlope: 0
        outSlope: 0
        tangentMode: 10
      - time: 3.65
        value: 0
        inSlope: 0
        outSlope: 0
        tangentMode: 10
      - time: 5
        value: 0
        inSlope: 0
        outSlope: 0
        tangentMode: 10
      m_PreInfinity: 2
      m_PostInfinity: 2
      m_RotationOrder: 4
    attribute: localEulerAnglesRaw.y
    path: Body/Torso/Waist
    classID: 4
    script: {fileID: 0}
  - curve:
      serializedVersion: 2
      m_Curve:
      - time: 0
        value: 353.59598
        inSlope: 0.00022888184
        outSlope: 0.00022888184
        tangentMode: 10
      - time: 0.93333334
        value: 353.5962
        inSlope: -0.26303127
        outSlope: -0.26303127
        tangentMode: 10
      - time: 2.3833334
        value: 352.83307
        inSlope: 0.27961746
        outSlope: 0.27961746
        tangentMode: 10
      - time: 3.65
        value: 354.20807
        inSlope: 0.31606275
        outSlope: 0.31606275
        tangentMode: 10
      - time: 5
        value: 353.59598
        inSlope: -0.45340082
        outSlope: -0.45340082
        tangentMode: 10
      m_PreInfinity: 2
      m_PostInfinity: 2
      m_RotationOrder: 4
    attribute: localEulerAnglesRaw.z
    path: Body/Torso/Waist
    classID: 4
    script: {fileID: 0}
  - curve:
      serializedVersion: 2
      m_Curve:
      - time: 0
        value: 0
        inSlope: 0
        outSlope: 0
        tangentMode: 10
      - time: 0.93333334
        value: 0
        inSlope: 0
        outSlope: 0
        tangentMode: 10
      - time: 2.35
        value: 0
        inSlope: 0
        outSlope: 0
        tangentMode: 10
      - time: 3.65
        value: 0
        inSlope: 0
        outSlope: 0
        tangentMode: 10
      - time: 5
        value: 0
        inSlope: 0
        outSlope: 0
        tangentMode: 10
      m_PreInfinity: 2
      m_PostInfinity: 2
      m_RotationOrder: 4
    attribute: localEulerAnglesRaw.x
    path: Body/Torso/Wallet
    classID: 4
    script: {fileID: 0}
  - curve:
      serializedVersion: 2
      m_Curve:
      - time: 0
        value: 0
        inSlope: 0
        outSlope: 0
        tangentMode: 10
      - time: 0.93333334
        value: 0
        inSlope: 0
        outSlope: 0
        tangentMode: 10
      - time: 2.35
        value: 0
        inSlope: 0
        outSlope: 0
        tangentMode: 10
      - time: 3.65
        value: 0
        inSlope: 0
        outSlope: 0
        tangentMode: 10
      - time: 5
        value: 0
        inSlope: 0
        outSlope: 0
        tangentMode: 10
      m_PreInfinity: 2
      m_PostInfinity: 2
      m_RotationOrder: 4
    attribute: localEulerAnglesRaw.y
    path: Body/Torso/Wallet
    classID: 4
    script: {fileID: 0}
  - curve:
      serializedVersion: 2
      m_Curve:
      - time: 0
        value: -0.07149054
        inSlope: 0.021898808
        outSlope: 0.021898808
        tangentMode: 0
      - time: 0.93333334
        value: -0.97854507
        inSlope: -0.8563531
        outSlope: -0.8563531
        tangentMode: 10
      - time: 2.35
        value: -2.0280995
        inSlope: -0.012904167
        outSlope: -0.012904167
        tangentMode: 10
      - time: 3.65
        value: -1.0985296
        inSlope: 0.73108923
        outSlope: 0.73108923
        tangentMode: 10
      - time: 5
        value: -0.08991136
        inSlope: -0.018194975
        outSlope: -0.018194975
        tangentMode: 0
      m_PreInfinity: 2
      m_PostInfinity: 2
      m_RotationOrder: 4
    attribute: localEulerAnglesRaw.z
    path: Body/Torso/Wallet
    classID: 4
    script: {fileID: 0}
  - curve:
      serializedVersion: 2
      m_Curve:
      - time: 0
        value: 0
        inSlope: 0
        outSlope: 0
        tangentMode: 10
      - time: 2.4166667
        value: 0
        inSlope: 0
        outSlope: 0
        tangentMode: 10
      - time: 5
        value: 0
        inSlope: 0
        outSlope: 0
        tangentMode: 10
      m_PreInfinity: 2
      m_PostInfinity: 2
      m_RotationOrder: 4
    attribute: localEulerAnglesRaw.x
    path: Body/UpperLegLeft/LowerLegLeft
    classID: 4
    script: {fileID: 0}
  - curve:
      serializedVersion: 2
      m_Curve:
      - time: 0
        value: 0
        inSlope: 0
        outSlope: 0
        tangentMode: 10
      - time: 2.4166667
        value: 0
        inSlope: 0
        outSlope: 0
        tangentMode: 10
      - time: 5
        value: 0
        inSlope: 0
        outSlope: 0
        tangentMode: 10
      m_PreInfinity: 2
      m_PostInfinity: 2
      m_RotationOrder: 4
    attribute: localEulerAnglesRaw.y
    path: Body/UpperLegLeft/LowerLegLeft
    classID: 4
    script: {fileID: 0}
  - curve:
      serializedVersion: 2
      m_Curve:
      - time: 0
        value: 0
        inSlope: 1.4557241
        outSlope: 1.4557241
        tangentMode: 10
      - time: 2.4166667
        value: 3.5180001
        inSlope: 0.046958804
        outSlope: 0.046958804
        tangentMode: 10
      - time: 5
        value: 0
        inSlope: -1.3618065
        outSlope: -1.3618065
        tangentMode: 10
      m_PreInfinity: 2
      m_PostInfinity: 2
      m_RotationOrder: 4
    attribute: localEulerAnglesRaw.z
    path: Body/UpperLegLeft/LowerLegLeft
    classID: 4
    script: {fileID: 0}
  - curve:
      serializedVersion: 2
      m_Curve:
      - time: 0
        value: 0
        inSlope: 0
        outSlope: 0
        tangentMode: 10
      - time: 2.4166667
        value: 0
        inSlope: 0
        outSlope: 0
        tangentMode: 10
      - time: 5
        value: 0
        inSlope: 0
        outSlope: 0
        tangentMode: 10
      m_PreInfinity: 2
      m_PostInfinity: 2
      m_RotationOrder: 4
    attribute: localEulerAnglesRaw.x
    path: Body/UpperLegRight/LowerLegRight
    classID: 4
    script: {fileID: 0}
  - curve:
      serializedVersion: 2
      m_Curve:
      - time: 0
        value: 0
        inSlope: 0
        outSlope: 0
        tangentMode: 10
      - time: 2.4166667
        value: 0
        inSlope: 0
        outSlope: 0
        tangentMode: 10
      - time: 5
        value: 0
        inSlope: 0
        outSlope: 0
        tangentMode: 10
      m_PreInfinity: 2
      m_PostInfinity: 2
      m_RotationOrder: 4
    attribute: localEulerAnglesRaw.y
    path: Body/UpperLegRight/LowerLegRight
    classID: 4
    script: {fileID: 0}
  - curve:
      serializedVersion: 2
      m_Curve:
      - time: 0
        value: 0
        inSlope: 2.5617933
        outSlope: 2.5617933
        tangentMode: 10
      - time: 2.4166667
        value: 6.1910005
        inSlope: 0.0826385
        outSlope: 0.0826385
        tangentMode: 10
      - time: 5
        value: 0
        inSlope: -2.3965163
        outSlope: -2.3965163
        tangentMode: 10
      m_PreInfinity: 2
      m_PostInfinity: 2
      m_RotationOrder: 4
    attribute: localEulerAnglesRaw.z
    path: Body/UpperLegRight/LowerLegRight
    classID: 4
    script: {fileID: 0}
  - curve:
      serializedVersion: 2
      m_Curve:
      - time: 0
        value: 0
        inSlope: 0
        outSlope: 0
        tangentMode: 10
      m_PreInfinity: 2
      m_PostInfinity: 2
      m_RotationOrder: 4
    attribute: localEulerAnglesRaw.x
    path: Body/Torso/LeftShoulder/LeftArm
    classID: 4
    script: {fileID: 0}
  - curve:
      serializedVersion: 2
      m_Curve:
      - time: 0
        value: 0
        inSlope: 0
        outSlope: 0
        tangentMode: 10
      m_PreInfinity: 2
      m_PostInfinity: 2
      m_RotationOrder: 4
    attribute: localEulerAnglesRaw.y
    path: Body/Torso/LeftShoulder/LeftArm
    classID: 4
    script: {fileID: 0}
  - curve:
      serializedVersion: 2
      m_Curve:
      - time: 0
        value: -5
        inSlope: 0
        outSlope: 0
        tangentMode: 10
      m_PreInfinity: 2
      m_PostInfinity: 2
      m_RotationOrder: 4
    attribute: localEulerAnglesRaw.z
    path: Body/Torso/LeftShoulder/LeftArm
    classID: 4
    script: {fileID: 0}
  - curve:
      serializedVersion: 2
      m_Curve:
      - time: 0
        value: 0
        inSlope: 0
        outSlope: 0
        tangentMode: 10
      m_PreInfinity: 2
      m_PostInfinity: 2
      m_RotationOrder: 4
    attribute: localEulerAnglesRaw.x
    path: Body/Torso/RightShoulder/RightArm
    classID: 4
    script: {fileID: 0}
  - curve:
      serializedVersion: 2
      m_Curve:
      - time: 0
        value: 0
        inSlope: 0
        outSlope: 0
        tangentMode: 10
      m_PreInfinity: 2
      m_PostInfinity: 2
      m_RotationOrder: 4
    attribute: localEulerAnglesRaw.y
    path: Body/Torso/RightShoulder/RightArm
    classID: 4
    script: {fileID: 0}
  - curve:
      serializedVersion: 2
      m_Curve:
      - time: 0
        value: 92.090004
        inSlope: 0
        outSlope: 0
        tangentMode: 10
      m_PreInfinity: 2
      m_PostInfinity: 2
      m_RotationOrder: 4
    attribute: localEulerAnglesRaw.z
    path: Body/Torso/RightShoulder/RightArm
    classID: 4
    script: {fileID: 0}
  - curve:
      serializedVersion: 2
      m_Curve:
      - time: 0
        value: 0
        inSlope: 0
        outSlope: 0
        tangentMode: 10
      - time: 0.93333334
        value: 0
        inSlope: 0
        outSlope: 0
        tangentMode: 10
      - time: 2.35
        value: 0
        inSlope: 0
        outSlope: 0
        tangentMode: 10
      - time: 3.65
        value: 0
        inSlope: 0
        outSlope: 0
        tangentMode: 10
      - time: 5
        value: 0
        inSlope: 0
        outSlope: 0
        tangentMode: 10
      m_PreInfinity: 2
      m_PostInfinity: 2
      m_RotationOrder: 4
    attribute: localEulerAnglesRaw.x
    path: Body/Torso/Wallet/Wallet
    classID: 4
    script: {fileID: 0}
  - curve:
      serializedVersion: 2
      m_Curve:
      - time: 0
        value: 0
        inSlope: 0
        outSlope: 0
        tangentMode: 10
      - time: 0.93333334
        value: 0
        inSlope: 0
        outSlope: 0
        tangentMode: 10
      - time: 2.35
        value: 0
        inSlope: 0
        outSlope: 0
        tangentMode: 10
      - time: 3.65
        value: 0
        inSlope: 0
        outSlope: 0
        tangentMode: 10
      - time: 5
        value: 0
        inSlope: 0
        outSlope: 0
        tangentMode: 10
      m_PreInfinity: 2
      m_PostInfinity: 2
      m_RotationOrder: 4
    attribute: localEulerAnglesRaw.y
    path: Body/Torso/Wallet/Wallet
    classID: 4
    script: {fileID: 0}
  - curve:
      serializedVersion: 2
      m_Curve:
      - time: 0
        value: -0.12196295
        inSlope: 0.16634804
        outSlope: 0.16634804
        tangentMode: 0
      - time: 0.93333334
        value: -0.4718094
        inSlope: -0.063157134
        outSlope: -0.063157134
        tangentMode: 10
      - time: 2.35
        value: -0.119737744
        inSlope: -0.09007103
        outSlope: -0.09007103
        tangentMode: 10
      - time: 3.65
        value: -0.67700005
        inSlope: -0.0079381615
        outSlope: -0.0079381615
        tangentMode: 10
      - time: 5
        value: -0.119737744
        inSlope: 0.024276463
        outSlope: 0.024276463
        tangentMode: 0
      m_PreInfinity: 2
      m_PostInfinity: 2
      m_RotationOrder: 4
    attribute: localEulerAnglesRaw.z
    path: Body/Torso/Wallet/Wallet
    classID: 4
    script: {fileID: 0}
  - curve:
      serializedVersion: 2
      m_Curve:
      - time: 0
        value: 0
        inSlope: 0
        outSlope: 0
        tangentMode: 10
      - time: 2.4166667
        value: 0
        inSlope: 0
        outSlope: 0
        tangentMode: 10
      - time: 5
        value: 0
        inSlope: 0
        outSlope: 0
        tangentMode: 10
      m_PreInfinity: 2
      m_PostInfinity: 2
      m_RotationOrder: 4
    attribute: localEulerAnglesRaw.x
    path: Body/UpperLegLeft/LowerLegLeft/LeftShoe
    classID: 4
    script: {fileID: 0}
  - curve:
      serializedVersion: 2
      m_Curve:
      - time: 0
        value: 0
        inSlope: 0
        outSlope: 0
        tangentMode: 10
      - time: 2.4166667
        value: 0
        inSlope: 0
        outSlope: 0
        tangentMode: 10
      - time: 5
        value: 0
        inSlope: 0
        outSlope: 0
        tangentMode: 10
      m_PreInfinity: 2
      m_PostInfinity: 2
      m_RotationOrder: 4
    attribute: localEulerAnglesRaw.y
    path: Body/UpperLegLeft/LowerLegLeft/LeftShoe
    classID: 4
    script: {fileID: 0}
  - curve:
      serializedVersion: 2
      m_Curve:
      - time: 0
        value: 0
        inSlope: -1.7131035
        outSlope: -1.7131035
        tangentMode: 10
      - time: 2.4166667
        value: -4.1400003
        inSlope: -0.055261374
        outSlope: -0.055261374
        tangentMode: 10
      - time: 5
        value: 0
        inSlope: 1.6025808
        outSlope: 1.6025808
        tangentMode: 10
      m_PreInfinity: 2
      m_PostInfinity: 2
      m_RotationOrder: 4
    attribute: localEulerAnglesRaw.z
    path: Body/UpperLegLeft/LowerLegLeft/LeftShoe
    classID: 4
    script: {fileID: 0}
  - curve:
      serializedVersion: 2
      m_Curve:
      - time: 0
        value: 0
        inSlope: 0
        outSlope: 0
        tangentMode: 10
      - time: 2.4166667
        value: 0
        inSlope: 0
        outSlope: 0
        tangentMode: 10
      - time: 5
        value: 0
        inSlope: 0
        outSlope: 0
        tangentMode: 10
      m_PreInfinity: 2
      m_PostInfinity: 2
      m_RotationOrder: 4
    attribute: localEulerAnglesRaw.x
    path: Body/UpperLegRight/LowerLegRight/RightShoe
    classID: 4
    script: {fileID: 0}
  - curve:
      serializedVersion: 2
      m_Curve:
      - time: 0
        value: 0
        inSlope: 0
        outSlope: 0
        tangentMode: 10
      - time: 2.4166667
        value: 0
        inSlope: 0
        outSlope: 0
        tangentMode: 10
      - time: 5
        value: 0
        inSlope: 0
        outSlope: 0
        tangentMode: 10
      m_PreInfinity: 2
      m_PostInfinity: 2
      m_RotationOrder: 4
    attribute: localEulerAnglesRaw.y
    path: Body/UpperLegRight/LowerLegRight/RightShoe
    classID: 4
    script: {fileID: 0}
  - curve:
      serializedVersion: 2
      m_Curve:
      - time: 0
        value: 0
        inSlope: -2.2406898
        outSlope: -2.2406898
        tangentMode: 10
      - time: 2.4166667
        value: -5.4150004
        inSlope: -0.07228029
        outSlope: -0.07228029
        tangentMode: 10
      - time: 5
        value: 0
        inSlope: 2.0961292
        outSlope: 2.0961292
        tangentMode: 10
      m_PreInfinity: 2
      m_PostInfinity: 2
      m_RotationOrder: 4
    attribute: localEulerAnglesRaw.z
    path: Body/UpperLegRight/LowerLegRight/RightShoe
    classID: 4
    script: {fileID: 0}
  - curve:
      serializedVersion: 2
      m_Curve:
      - time: 0
        value: 0
        inSlope: 0
        outSlope: 0
        tangentMode: 10
      - time: 0.93333334
        value: 0
        inSlope: 0
        outSlope: 0
        tangentMode: 10
      - time: 2.35
        value: 0
        inSlope: 0
        outSlope: 0
        tangentMode: 10
      - time: 3.65
        value: 0
        inSlope: 0
        outSlope: 0
        tangentMode: 10
      - time: 5
        value: 0
        inSlope: 0
        outSlope: 0
        tangentMode: 10
      m_PreInfinity: 2
      m_PostInfinity: 2
      m_RotationOrder: 4
    attribute: localEulerAnglesRaw.x
    path: Body/Torso/LeftShoulder/LeftArm/LeftHand
    classID: 4
    script: {fileID: 0}
  - curve:
      serializedVersion: 2
      m_Curve:
      - time: 0
        value: 0
        inSlope: 0
        outSlope: 0
        tangentMode: 10
      - time: 0.93333334
        value: 0
        inSlope: 0
        outSlope: 0
        tangentMode: 10
      - time: 2.35
        value: 0
        inSlope: 0
        outSlope: 0
        tangentMode: 10
      - time: 3.65
        value: 0
        inSlope: 0
        outSlope: 0
        tangentMode: 10
      - time: 5
        value: 0
        inSlope: 0
        outSlope: 0
        tangentMode: 10
      m_PreInfinity: 2
      m_PostInfinity: 2
      m_RotationOrder: 4
    attribute: localEulerAnglesRaw.y
    path: Body/Torso/LeftShoulder/LeftArm/LeftHand
    classID: 4
    script: {fileID: 0}
  - curve:
      serializedVersion: 2
      m_Curve:
      - time: 0
        value: 2.6300292
        inSlope: 0.0942493
        outSlope: 0.0942493
        tangentMode: 0
      - time: 0.93333334
        value: -2.592
        inSlope: -0.9544463
        outSlope: -0.9544463
        tangentMode: 10
      - time: 2.35
        value: 2.6300292
        inSlope: -0.16540313
        outSlope: -0.16540313
        tangentMode: 10
      - time: 3.65
        value: -2.592
        inSlope: -0.07438743
        outSlope: -0.07438743
        tangentMode: 10
      - time: 5
        value: 2.6300292
        inSlope: 0.08411393
        outSlope: 0.08411393
        tangentMode: 0
      m_PreInfinity: 2
      m_PostInfinity: 2
      m_RotationOrder: 4
    attribute: localEulerAnglesRaw.z
    path: Body/Torso/LeftShoulder/LeftArm/LeftHand
    classID: 4
    script: {fileID: 0}
  - curve:
      serializedVersion: 2
      m_Curve:
      - time: 0
        value: 0
        inSlope: 0
        outSlope: 0
        tangentMode: 10
      - time: 0.93333334
        value: 0
        inSlope: 0
        outSlope: 0
        tangentMode: 10
      - time: 2.35
        value: 0
        inSlope: 0
        outSlope: 0
        tangentMode: 10
      - time: 3.65
        value: 0
        inSlope: 0
        outSlope: 0
        tangentMode: 10
      - time: 5
        value: 0
        inSlope: 0
        outSlope: 0
        tangentMode: 10
      m_PreInfinity: 2
      m_PostInfinity: 2
      m_RotationOrder: 4
    attribute: localEulerAnglesRaw.x
    path: Body/Torso/Neck/Head/Fringe
    classID: 4
    script: {fileID: 0}
  - curve:
      serializedVersion: 2
      m_Curve:
      - time: 0
        value: 0
        inSlope: 0
        outSlope: 0
        tangentMode: 10
      - time: 0.93333334
        value: 0
        inSlope: 0
        outSlope: 0
        tangentMode: 10
      - time: 2.35
        value: 0
        inSlope: 0
        outSlope: 0
        tangentMode: 10
      - time: 3.65
        value: 0
        inSlope: 0
        outSlope: 0
        tangentMode: 10
      - time: 5
        value: 0
        inSlope: 0
        outSlope: 0
        tangentMode: 10
      m_PreInfinity: 2
      m_PostInfinity: 2
      m_RotationOrder: 4
    attribute: localEulerAnglesRaw.y
    path: Body/Torso/Neck/Head/Fringe
    classID: 4
    script: {fileID: 0}
  - curve:
      serializedVersion: 2
      m_Curve:
      - time: 0
        value: 0
        inSlope: 3.1489286
        outSlope: 3.1489286
        tangentMode: 10
      - time: 0.93333334
        value: 2.9390001
        inSlope: 0.53717005
        outSlope: 0.53717005
        tangentMode: 10
      - time: 2.35
        value: 0
        inSlope: 0.09309018
        outSlope: 0.09309018
        tangentMode: 10
      - time: 3.65
        value: 2.9390001
        inSlope: 0.041865826
        outSlope: 0.041865826
        tangentMode: 10
      - time: 5
        value: 0
        inSlope: -2.1770372
        outSlope: -2.1770372
        tangentMode: 10
      m_PreInfinity: 2
      m_PostInfinity: 2
      m_RotationOrder: 4
    attribute: localEulerAnglesRaw.z
    path: Body/Torso/Neck/Head/Fringe
    classID: 4
    script: {fileID: 0}
  - curve:
      serializedVersion: 2
      m_Curve:
      - time: 0
        value: 0
        inSlope: 0
        outSlope: 0
        tangentMode: 10
      - time: 0.93333334
        value: 0
        inSlope: 0
        outSlope: 0
        tangentMode: 10
      - time: 2.35
        value: 0
        inSlope: 0
        outSlope: 0
        tangentMode: 10
      - time: 3.65
        value: 0
        inSlope: 0
        outSlope: 0
        tangentMode: 10
      - time: 5
        value: 0
        inSlope: 0
        outSlope: 0
        tangentMode: 10
      m_PreInfinity: 2
      m_PostInfinity: 2
      m_RotationOrder: 4
    attribute: localEulerAnglesRaw.x
    path: Body/Torso/Neck/Head/Hair
    classID: 4
    script: {fileID: 0}
  - curve:
      serializedVersion: 2
      m_Curve:
      - time: 0
        value: 0
        inSlope: 0
        outSlope: 0
        tangentMode: 10
      - time: 0.93333334
        value: 0
        inSlope: 0
        outSlope: 0
        tangentMode: 10
      - time: 2.35
        value: 0
        inSlope: 0
        outSlope: 0
        tangentMode: 10
      - time: 3.65
        value: 0
        inSlope: 0
        outSlope: 0
        tangentMode: 10
      - time: 5
        value: 0
        inSlope: 0
        outSlope: 0
        tangentMode: 10
      m_PreInfinity: 2
      m_PostInfinity: 2
      m_RotationOrder: 4
    attribute: localEulerAnglesRaw.y
    path: Body/Torso/Neck/Head/Hair
    classID: 4
    script: {fileID: 0}
  - curve:
      serializedVersion: 2
      m_Curve:
      - time: 0
        value: 0
        inSlope: 1.7292858
        outSlope: 1.7292858
        tangentMode: 10
      - time: 0.93333334
        value: 1.6140001
        inSlope: 0.29499578
        outSlope: 0.29499578
        tangentMode: 10
      - time: 2.35
        value: 0
        inSlope: 0.05112201
        outSlope: 0.05112201
        tangentMode: 10
      - time: 3.65
        value: 1.6140001
        inSlope: 0.0229913
        outSlope: 0.0229913
        tangentMode: 10
      - time: 5
        value: 0
        inSlope: -1.1955557
        outSlope: -1.1955557
        tangentMode: 10
      m_PreInfinity: 2
      m_PostInfinity: 2
      m_RotationOrder: 4
    attribute: localEulerAnglesRaw.z
    path: Body/Torso/Neck/Head/Hair
    classID: 4
    script: {fileID: 0}
  - curve:
      serializedVersion: 2
      m_Curve:
      - time: 0
        value: 0
        inSlope: 0
        outSlope: 0
        tangentMode: 10
      - time: 0.93333334
        value: 0
        inSlope: 0
        outSlope: 0
        tangentMode: 10
      - time: 2.35
        value: 0
        inSlope: 0
        outSlope: 0
        tangentMode: 10
      - time: 3.65
        value: 0
        inSlope: 0
        outSlope: 0
        tangentMode: 10
      - time: 5
        value: 0
        inSlope: 0
        outSlope: 0
        tangentMode: 10
      m_PreInfinity: 2
      m_PostInfinity: 2
      m_RotationOrder: 4
    attribute: localEulerAnglesRaw.x
    path: Body/Torso/Neck/Head/Jewel
    classID: 4
    script: {fileID: 0}
  - curve:
      serializedVersion: 2
      m_Curve:
      - time: 0
        value: 0
        inSlope: 0
        outSlope: 0
        tangentMode: 10
      - time: 0.93333334
        value: 0
        inSlope: 0
        outSlope: 0
        tangentMode: 10
      - time: 2.35
        value: 0
        inSlope: 0
        outSlope: 0
        tangentMode: 10
      - time: 3.65
        value: 0
        inSlope: 0
        outSlope: 0
        tangentMode: 10
      - time: 5
        value: 0
        inSlope: 0
        outSlope: 0
        tangentMode: 10
      m_PreInfinity: 2
      m_PostInfinity: 2
      m_RotationOrder: 4
    attribute: localEulerAnglesRaw.y
    path: Body/Torso/Neck/Head/Jewel
    classID: 4
    script: {fileID: 0}
  - curve:
      serializedVersion: 2
      m_Curve:
      - time: 0
        value: 1.4177257
        inSlope: 3.0485084
        outSlope: 3.0485084
        tangentMode: 10
      - time: 0.93333334
        value: 4.263
        inSlope: -1.272452
        outSlope: -1.272452
        tangentMode: 10
      - time: 2.35
        value: -3.6610003
        inSlope: 2.0532932
        outSlope: 2.0532932
        tangentMode: 10
      - time: 3.65
        value: 8.949
        inSlope: 2.0606382
        outSlope: 2.0606382
        tangentMode: 10
      - time: 5
        value: 1.4177257
        inSlope: -5.5787225
        outSlope: -5.5787225
        tangentMode: 10
      m_PreInfinity: 2
      m_PostInfinity: 2
      m_RotationOrder: 4
    attribute: localEulerAnglesRaw.z
    path: Body/Torso/Neck/Head/Jewel
    classID: 4
    script: {fileID: 0}
  - curve:
      serializedVersion: 2
      m_Curve:
      - time: 0
        value: 0
        inSlope: 0
        outSlope: 0
        tangentMode: 10
      m_PreInfinity: 2
      m_PostInfinity: 2
      m_RotationOrder: 4
    attribute: localEulerAnglesRaw.x
    path: Body/Torso/RightShoulder/RightArm/RightHand
    classID: 4
    script: {fileID: 0}
  - curve:
      serializedVersion: 2
      m_Curve:
      - time: 0
        value: 0
        inSlope: 0
        outSlope: 0
        tangentMode: 10
      m_PreInfinity: 2
      m_PostInfinity: 2
      m_RotationOrder: 4
    attribute: localEulerAnglesRaw.y
    path: Body/Torso/RightShoulder/RightArm/RightHand
    classID: 4
    script: {fileID: 0}
  - curve:
      serializedVersion: 2
      m_Curve:
      - time: 0
        value: -71.705
        inSlope: 0
        outSlope: 0
        tangentMode: 10
      m_PreInfinity: 2
      m_PostInfinity: 2
      m_RotationOrder: 4
    attribute: localEulerAnglesRaw.z
    path: Body/Torso/RightShoulder/RightArm/RightHand
    classID: 4
    script: {fileID: 0}
  - curve:
      serializedVersion: 2
      m_Curve:
      - time: 0
        value: 0
        inSlope: Infinity
        outSlope: Infinity
        tangentMode: 31
      m_PreInfinity: 2
      m_PostInfinity: 2
      m_RotationOrder: 4
    attribute: m_IsActive
    path: Body/Torso/RightShoulder/RightArm/RightHand
    classID: 1
    script: {fileID: 0}
  m_EulerEditorCurves:
  - curve:
      serializedVersion: 2
      m_Curve: []
      m_PreInfinity: 2
      m_PostInfinity: 2
      m_RotationOrder: 4
    attribute: m_LocalEulerAngles.x
    path: Body/Torso
    classID: 4
    script: {fileID: 0}
  - curve:
      serializedVersion: 2
      m_Curve: []
      m_PreInfinity: 2
      m_PostInfinity: 2
      m_RotationOrder: 4
    attribute: m_LocalEulerAngles.y
    path: Body/Torso
    classID: 4
    script: {fileID: 0}
  - curve:
      serializedVersion: 2
      m_Curve: []
      m_PreInfinity: 2
      m_PostInfinity: 2
      m_RotationOrder: 4
    attribute: m_LocalEulerAngles.z
    path: Body/Torso
    classID: 4
    script: {fileID: 0}
  - curve:
      serializedVersion: 2
      m_Curve: []
      m_PreInfinity: 2
      m_PostInfinity: 2
      m_RotationOrder: 4
    attribute: m_LocalEulerAngles.x
    path: Body/UpperLegLeft
    classID: 4
    script: {fileID: 0}
  - curve:
      serializedVersion: 2
      m_Curve: []
      m_PreInfinity: 2
      m_PostInfinity: 2
      m_RotationOrder: 4
    attribute: m_LocalEulerAngles.y
    path: Body/UpperLegLeft
    classID: 4
    script: {fileID: 0}
  - curve:
      serializedVersion: 2
      m_Curve: []
      m_PreInfinity: 2
      m_PostInfinity: 2
      m_RotationOrder: 4
    attribute: m_LocalEulerAngles.z
    path: Body/UpperLegLeft
    classID: 4
    script: {fileID: 0}
  - curve:
      serializedVersion: 2
      m_Curve: []
      m_PreInfinity: 2
      m_PostInfinity: 2
      m_RotationOrder: 4
    attribute: m_LocalEulerAngles.x
    path: Body/UpperLegRight
    classID: 4
    script: {fileID: 0}
  - curve:
      serializedVersion: 2
      m_Curve: []
      m_PreInfinity: 2
      m_PostInfinity: 2
      m_RotationOrder: 4
    attribute: m_LocalEulerAngles.y
    path: Body/UpperLegRight
    classID: 4
    script: {fileID: 0}
  - curve:
      serializedVersion: 2
      m_Curve: []
      m_PreInfinity: 2
      m_PostInfinity: 2
      m_RotationOrder: 4
    attribute: m_LocalEulerAngles.z
    path: Body/UpperLegRight
    classID: 4
    script: {fileID: 0}
  - curve:
      serializedVersion: 2
      m_Curve: []
      m_PreInfinity: 2
      m_PostInfinity: 2
      m_RotationOrder: 4
    attribute: m_LocalEulerAngles.x
    path: Body/Torso/LeftShoulder
    classID: 4
    script: {fileID: 0}
  - curve:
      serializedVersion: 2
      m_Curve: []
      m_PreInfinity: 2
      m_PostInfinity: 2
      m_RotationOrder: 4
    attribute: m_LocalEulerAngles.y
    path: Body/Torso/LeftShoulder
    classID: 4
    script: {fileID: 0}
  - curve:
      serializedVersion: 2
      m_Curve: []
      m_PreInfinity: 2
      m_PostInfinity: 2
      m_RotationOrder: 4
    attribute: m_LocalEulerAngles.z
    path: Body/Torso/LeftShoulder
    classID: 4
    script: {fileID: 0}
  - curve:
      serializedVersion: 2
      m_Curve: []
      m_PreInfinity: 2
      m_PostInfinity: 2
      m_RotationOrder: 4
    attribute: m_LocalEulerAngles.x
    path: Body/Torso/RightShoulder
    classID: 4
    script: {fileID: 0}
  - curve:
      serializedVersion: 2
      m_Curve: []
      m_PreInfinity: 2
      m_PostInfinity: 2
      m_RotationOrder: 4
    attribute: m_LocalEulerAngles.y
    path: Body/Torso/RightShoulder
    classID: 4
    script: {fileID: 0}
  - curve:
      serializedVersion: 2
      m_Curve: []
      m_PreInfinity: 2
      m_PostInfinity: 2
      m_RotationOrder: 4
    attribute: m_LocalEulerAngles.z
    path: Body/Torso/RightShoulder
    classID: 4
    script: {fileID: 0}
  - curve:
      serializedVersion: 2
      m_Curve: []
      m_PreInfinity: 2
      m_PostInfinity: 2
      m_RotationOrder: 4
    attribute: m_LocalEulerAngles.x
    path: Body/Torso/Skirt
    classID: 4
    script: {fileID: 0}
  - curve:
      serializedVersion: 2
      m_Curve: []
      m_PreInfinity: 2
      m_PostInfinity: 2
      m_RotationOrder: 4
    attribute: m_LocalEulerAngles.y
    path: Body/Torso/Skirt
    classID: 4
    script: {fileID: 0}
  - curve:
      serializedVersion: 2
      m_Curve: []
      m_PreInfinity: 2
      m_PostInfinity: 2
      m_RotationOrder: 4
    attribute: m_LocalEulerAngles.z
    path: Body/Torso/Skirt
    classID: 4
    script: {fileID: 0}
  - curve:
      serializedVersion: 2
      m_Curve: []
      m_PreInfinity: 2
      m_PostInfinity: 2
      m_RotationOrder: 4
    attribute: m_LocalEulerAngles.z
    path: Body/Torso/RightShoulder/RightArm/RightHand
    classID: 4
    script: {fileID: 0}
  - curve:
      serializedVersion: 2
      m_Curve: []
      m_PreInfinity: 2
      m_PostInfinity: 2
      m_RotationOrder: 4
    attribute: m_LocalEulerAngles.y
    path: Body/Torso/RightShoulder/RightArm/RightHand
    classID: 4
    script: {fileID: 0}
  - curve:
      serializedVersion: 2
      m_Curve: []
      m_PreInfinity: 2
      m_PostInfinity: 2
      m_RotationOrder: 4
    attribute: m_LocalEulerAngles.x
    path: Body/Torso/RightShoulder/RightArm/RightHand
    classID: 4
    script: {fileID: 0}
  - curve:
      serializedVersion: 2
      m_Curve: []
      m_PreInfinity: 2
      m_PostInfinity: 2
      m_RotationOrder: 4
    attribute: m_LocalEulerAngles.z
    path: Body/Torso/Waist
    classID: 4
    script: {fileID: 0}
  - curve:
      serializedVersion: 2
      m_Curve: []
      m_PreInfinity: 2
      m_PostInfinity: 2
      m_RotationOrder: 4
    attribute: m_LocalEulerAngles.y
    path: Body/Torso/Waist
    classID: 4
    script: {fileID: 0}
  - curve:
      serializedVersion: 2
      m_Curve: []
      m_PreInfinity: 2
      m_PostInfinity: 2
      m_RotationOrder: 4
    attribute: m_LocalEulerAngles.x
    path: Body/Torso/Waist
    classID: 4
    script: {fileID: 0}
  - curve:
      serializedVersion: 2
      m_Curve: []
      m_PreInfinity: 2
      m_PostInfinity: 2
      m_RotationOrder: 4
    attribute: m_LocalEulerAngles.x
    path: Body/UpperLegLeft/LowerLegLeft
    classID: 4
    script: {fileID: 0}
  - curve:
      serializedVersion: 2
      m_Curve: []
      m_PreInfinity: 2
      m_PostInfinity: 2
      m_RotationOrder: 4
    attribute: m_LocalEulerAngles.y
    path: Body/UpperLegLeft/LowerLegLeft
    classID: 4
    script: {fileID: 0}
  - curve:
      serializedVersion: 2
      m_Curve: []
      m_PreInfinity: 2
      m_PostInfinity: 2
      m_RotationOrder: 4
    attribute: m_LocalEulerAngles.z
    path: Body/UpperLegLeft/LowerLegLeft
    classID: 4
    script: {fileID: 0}
  - curve:
      serializedVersion: 2
      m_Curve: []
      m_PreInfinity: 2
      m_PostInfinity: 2
      m_RotationOrder: 4
    attribute: m_LocalEulerAngles.x
    path: Body/UpperLegRight/LowerLegRight
    classID: 4
    script: {fileID: 0}
  - curve:
      serializedVersion: 2
      m_Curve: []
      m_PreInfinity: 2
      m_PostInfinity: 2
      m_RotationOrder: 4
    attribute: m_LocalEulerAngles.y
    path: Body/UpperLegRight/LowerLegRight
    classID: 4
    script: {fileID: 0}
  - curve:
      serializedVersion: 2
      m_Curve: []
      m_PreInfinity: 2
      m_PostInfinity: 2
      m_RotationOrder: 4
    attribute: m_LocalEulerAngles.z
    path: Body/UpperLegRight/LowerLegRight
    classID: 4
    script: {fileID: 0}
  - curve:
      serializedVersion: 2
      m_Curve: []
      m_PreInfinity: 2
      m_PostInfinity: 2
      m_RotationOrder: 4
    attribute: m_LocalEulerAngles.x
    path: Body/Torso/LeftShoulder/LeftArm
    classID: 4
    script: {fileID: 0}
  - curve:
      serializedVersion: 2
      m_Curve: []
      m_PreInfinity: 2
      m_PostInfinity: 2
      m_RotationOrder: 4
    attribute: m_LocalEulerAngles.y
    path: Body/Torso/LeftShoulder/LeftArm
    classID: 4
    script: {fileID: 0}
  - curve:
      serializedVersion: 2
      m_Curve: []
      m_PreInfinity: 2
      m_PostInfinity: 2
      m_RotationOrder: 4
    attribute: m_LocalEulerAngles.z
    path: Body/Torso/LeftShoulder/LeftArm
    classID: 4
    script: {fileID: 0}
  - curve:
      serializedVersion: 2
      m_Curve: []
      m_PreInfinity: 2
      m_PostInfinity: 2
      m_RotationOrder: 4
    attribute: m_LocalEulerAngles.x
    path: Body/Torso/RightShoulder/RightArm
    classID: 4
    script: {fileID: 0}
  - curve:
      serializedVersion: 2
      m_Curve: []
      m_PreInfinity: 2
      m_PostInfinity: 2
      m_RotationOrder: 4
    attribute: m_LocalEulerAngles.y
    path: Body/Torso/RightShoulder/RightArm
    classID: 4
    script: {fileID: 0}
  - curve:
      serializedVersion: 2
      m_Curve: []
      m_PreInfinity: 2
      m_PostInfinity: 2
      m_RotationOrder: 4
    attribute: m_LocalEulerAngles.z
    path: Body/Torso/RightShoulder/RightArm
    classID: 4
    script: {fileID: 0}
  - curve:
      serializedVersion: 2
      m_Curve: []
      m_PreInfinity: 2
      m_PostInfinity: 2
      m_RotationOrder: 4
    attribute: m_LocalEulerAngles.z
    path: Body/Torso/Wallet
    classID: 4
    script: {fileID: 0}
  - curve:
      serializedVersion: 2
      m_Curve: []
      m_PreInfinity: 2
      m_PostInfinity: 2
      m_RotationOrder: 4
    attribute: m_LocalEulerAngles.y
    path: Body/Torso/Wallet
    classID: 4
    script: {fileID: 0}
  - curve:
      serializedVersion: 2
      m_Curve: []
      m_PreInfinity: 2
      m_PostInfinity: 2
      m_RotationOrder: 4
    attribute: m_LocalEulerAngles.x
    path: Body/Torso/Wallet
    classID: 4
    script: {fileID: 0}
  - curve:
      serializedVersion: 2
      m_Curve: []
      m_PreInfinity: 2
      m_PostInfinity: 2
      m_RotationOrder: 4
    attribute: m_LocalEulerAngles.x
    path: Body/UpperLegLeft/LowerLegLeft/LeftShoe
    classID: 4
    script: {fileID: 0}
  - curve:
      serializedVersion: 2
      m_Curve: []
      m_PreInfinity: 2
      m_PostInfinity: 2
      m_RotationOrder: 4
    attribute: m_LocalEulerAngles.y
    path: Body/UpperLegLeft/LowerLegLeft/LeftShoe
    classID: 4
    script: {fileID: 0}
  - curve:
      serializedVersion: 2
      m_Curve: []
      m_PreInfinity: 2
      m_PostInfinity: 2
      m_RotationOrder: 4
    attribute: m_LocalEulerAngles.z
    path: Body/UpperLegLeft/LowerLegLeft/LeftShoe
    classID: 4
    script: {fileID: 0}
  - curve:
      serializedVersion: 2
      m_Curve: []
      m_PreInfinity: 2
      m_PostInfinity: 2
      m_RotationOrder: 4
    attribute: m_LocalEulerAngles.x
    path: Body/UpperLegRight/LowerLegRight/RightShoe
    classID: 4
    script: {fileID: 0}
  - curve:
      serializedVersion: 2
      m_Curve: []
      m_PreInfinity: 2
      m_PostInfinity: 2
      m_RotationOrder: 4
    attribute: m_LocalEulerAngles.y
    path: Body/UpperLegRight/LowerLegRight/RightShoe
    classID: 4
    script: {fileID: 0}
  - curve:
      serializedVersion: 2
      m_Curve: []
      m_PreInfinity: 2
      m_PostInfinity: 2
      m_RotationOrder: 4
    attribute: m_LocalEulerAngles.z
    path: Body/UpperLegRight/LowerLegRight/RightShoe
    classID: 4
    script: {fileID: 0}
  - curve:
      serializedVersion: 2
      m_Curve: []
      m_PreInfinity: 2
      m_PostInfinity: 2
      m_RotationOrder: 4
    attribute: m_LocalEulerAngles.x
    path: Body/Torso/LeftShoulder/LeftArm/LeftHand
    classID: 4
    script: {fileID: 0}
  - curve:
      serializedVersion: 2
      m_Curve: []
      m_PreInfinity: 2
      m_PostInfinity: 2
      m_RotationOrder: 4
    attribute: m_LocalEulerAngles.y
    path: Body/Torso/LeftShoulder/LeftArm/LeftHand
    classID: 4
    script: {fileID: 0}
  - curve:
      serializedVersion: 2
      m_Curve: []
      m_PreInfinity: 2
      m_PostInfinity: 2
      m_RotationOrder: 4
    attribute: m_LocalEulerAngles.z
    path: Body/Torso/LeftShoulder/LeftArm/LeftHand
    classID: 4
    script: {fileID: 0}
  - curve:
      serializedVersion: 2
      m_Curve: []
      m_PreInfinity: 2
      m_PostInfinity: 2
      m_RotationOrder: 4
    attribute: m_LocalEulerAngles.x
    path: Body/Torso/Neck/Head/Fringe
    classID: 4
    script: {fileID: 0}
  - curve:
      serializedVersion: 2
      m_Curve: []
      m_PreInfinity: 2
      m_PostInfinity: 2
      m_RotationOrder: 4
    attribute: m_LocalEulerAngles.y
    path: Body/Torso/Neck/Head/Fringe
    classID: 4
    script: {fileID: 0}
  - curve:
      serializedVersion: 2
      m_Curve: []
      m_PreInfinity: 2
      m_PostInfinity: 2
      m_RotationOrder: 4
    attribute: m_LocalEulerAngles.z
    path: Body/Torso/Neck/Head/Fringe
    classID: 4
    script: {fileID: 0}
  - curve:
      serializedVersion: 2
      m_Curve: []
      m_PreInfinity: 2
      m_PostInfinity: 2
      m_RotationOrder: 4
    attribute: m_LocalEulerAngles.x
    path: Body/Torso/Neck/Head/Hair
    classID: 4
    script: {fileID: 0}
  - curve:
      serializedVersion: 2
      m_Curve: []
      m_PreInfinity: 2
      m_PostInfinity: 2
      m_RotationOrder: 4
    attribute: m_LocalEulerAngles.y
    path: Body/Torso/Neck/Head/Hair
    classID: 4
    script: {fileID: 0}
  - curve:
      serializedVersion: 2
      m_Curve: []
      m_PreInfinity: 2
      m_PostInfinity: 2
      m_RotationOrder: 4
    attribute: m_LocalEulerAngles.z
    path: Body/Torso/Neck/Head/Hair
    classID: 4
    script: {fileID: 0}
  - curve:
      serializedVersion: 2
      m_Curve: []
      m_PreInfinity: 2
      m_PostInfinity: 2
      m_RotationOrder: 4
    attribute: m_LocalEulerAngles.x
    path: Body/Torso/Neck/Head/Jewel
    classID: 4
    script: {fileID: 0}
  - curve:
      serializedVersion: 2
      m_Curve: []
      m_PreInfinity: 2
      m_PostInfinity: 2
      m_RotationOrder: 4
    attribute: m_LocalEulerAngles.y
    path: Body/Torso/Neck/Head/Jewel
    classID: 4
    script: {fileID: 0}
  - curve:
      serializedVersion: 2
      m_Curve: []
      m_PreInfinity: 2
      m_PostInfinity: 2
      m_RotationOrder: 4
    attribute: m_LocalEulerAngles.z
    path: Body/Torso/Neck/Head/Jewel
    classID: 4
    script: {fileID: 0}
  - curve:
      serializedVersion: 2
      m_Curve: []
      m_PreInfinity: 2
      m_PostInfinity: 2
      m_RotationOrder: 4
    attribute: m_LocalEulerAngles.x
    path: Body/Torso/Wallet/Wallet
    classID: 4
    script: {fileID: 0}
  - curve:
      serializedVersion: 2
      m_Curve: []
      m_PreInfinity: 2
      m_PostInfinity: 2
      m_RotationOrder: 4
    attribute: m_LocalEulerAngles.y
    path: Body/Torso/Wallet/Wallet
    classID: 4
    script: {fileID: 0}
  - curve:
      serializedVersion: 2
      m_Curve: []
      m_PreInfinity: 2
      m_PostInfinity: 2
      m_RotationOrder: 4
    attribute: m_LocalEulerAngles.z
    path: Body/Torso/Wallet/Wallet
    classID: 4
    script: {fileID: 0}
  m_HasGenericRootTransform: 0
  m_HasMotionFloatCurves: 0
  m_GenerateMotionCurves: 0
  m_Events: []
