%YAML 1.1
%TAG !u! tag:unity3d.com,2011:
--- !u!78 &1
TagManager:
  serializedVersion: 2
  tags:
  - HiddenObject
  layers:
  - Default
  - TransparentFX
  - Ignore Raycast
  - 
  - Water
  - UI
  - 
  - 
  - 
  - 
  - 
  - 
  - 
  - 
  - 
  - 
  - 
  - 
  - 
  - 
  - 
  - 
  - 
  - 
  - 
  - 
  - 
  - 
  - 
  - 
  - 
  - 
  m_SortingLayers:
  - name: Default
    uniqueID: 0
    locked: 0
  - name: Layer_1_Top
    uniqueID: 1954006353
    locked: 0
  - name: Layer_2
    uniqueID: 1748006567
    locked: 0
  - name: Layer_3
    uniqueID: 1644382971
    locked: 0
  - name: Layer_4
    uniqueID: 2828721269
    locked: 0
  - name: Layer_5
    uniqueID: 1444380745
    locked: 0
  - name: Layer_6
    uniqueID: 740245013
    locked: 0
