%YAML 1.1
%TAG !u! tag:unity3d.com,2011:
--- !u!74 &7400000
AnimationClip:
  m_ObjectHideFlags: 0
  m_PrefabParentObject: {fileID: 0}
  m_PrefabInternal: {fileID: 0}
  m_Name: FemaleConfusion
  serializedVersion: 6
  m_Legacy: 0
  m_Compressed: 0
  m_UseHighQualityCurve: 1
  m_RotationCurves: []
  m_CompressedRotationCurves: []
  m_EulerCurves:
  - curve:
      serializedVersion: 2
      m_Curve:
      - time: 0
        value: {x: 0, y: 0, z: 0}
        inSlope: {x: 0, y: 0, z: 95.187004}
        outSlope: {x: 0, y: 0, z: 95.187004}
        tangentMode: 0
      - time: 0.33333334
        value: {x: 0, y: 0, z: 31.729002}
        inSlope: {x: 0, y: 0, z: 47.593502}
        outSlope: {x: 0, y: 0, z: 47.593502}
        tangentMode: 0
      - time: 0.48333332
        value: {x: 0, y: 0, z: 31.729002}
        inSlope: {x: 0, y: 0, z: -7.0508895}
        outSlope: {x: 0, y: 0, z: -7.0508895}
        tangentMode: 0
      - time: 2.7333333
        value: {x: 0, y: 0, z: 0}
        inSlope: {x: 0, y: 0, z: -14.101779}
        outSlope: {x: 0, y: 0, z: -14.101779}
        tangentMode: 0
      m_PreInfinity: 2
      m_PostInfinity: 2
      m_RotationOrder: 4
    path: Body/Torso/Neck/Head/Face/Right/RightEyebrown
  - curve:
      serializedVersion: 2
      m_Curve:
      - time: 0
        value: {x: 0, y: 0, z: 0}
        inSlope: {x: 0, y: 0, z: -182.04716}
        outSlope: {x: 0, y: 0, z: -182.04716}
        tangentMode: 0
      - time: 0.33333334
        value: {x: 0, y: 0, z: -75.51648}
        inSlope: {x: 0, y: 0, z: -238.08705}
        outSlope: {x: 0, y: 0, z: -238.08705}
        tangentMode: 0
      - time: 0.48333332
        value: {x: 0, y: 0, z: -108.781906}
        inSlope: {x: 0, y: 0, z: -198.77667}
        outSlope: {x: 0, y: 0, z: -198.77667}
        tangentMode: 0
      - time: 0.78333336
        value: {x: 0, y: 0, z: -142.60362}
        inSlope: {x: 0, y: 0, z: 0}
        outSlope: {x: 0, y: 0, z: 0}
        tangentMode: 0
      - time: 1
        value: {x: 0, y: 0, z: -142.60362}
        inSlope: {x: 0, y: 0, z: 0}
        outSlope: {x: 0, y: 0, z: 0}
        tangentMode: 0
      - time: 1.2666667
        value: {x: 0, y: 0, z: -142.60362}
        inSlope: {x: 0, y: 0, z: 0}
        outSlope: {x: 0, y: 0, z: 0}
        tangentMode: 0
      - time: 1.4833333
        value: {x: 0, y: 0, z: -142.60362}
        inSlope: {x: 0, y: 0, z: 0}
        outSlope: {x: 0, y: 0, z: 0}
        tangentMode: 0
      - time: 1.7666667
        value: {x: 0, y: 0, z: -142.60362}
        inSlope: {x: 0, y: 0, z: 0}
        outSlope: {x: 0, y: 0, z: 0}
        tangentMode: 0
      - time: 1.9833333
        value: {x: 0, y: 0, z: -129.88118}
        inSlope: {x: 0, y: 0, z: 110.026794}
        outSlope: {x: 0, y: 0, z: 110.026794}
        tangentMode: 0
      - time: 2.7333333
        value: {x: 0, y: 0, z: 0}
        inSlope: {x: 0, y: 0, z: 147.52098}
        outSlope: {x: 0, y: 0, z: 147.52098}
        tangentMode: 0
      m_PreInfinity: 2
      m_PostInfinity: 2
      m_RotationOrder: 4
    path: Body/Torso/RightShoulder/RightArm
  - curve:
      serializedVersion: 2
      m_Curve:
      - time: 0
        value: {x: 0, y: 0, z: 0}
        inSlope: {x: 0, y: 0, z: 18.702}
        outSlope: {x: 0, y: 0, z: 18.702}
        tangentMode: 0
      - time: 0.33333334
        value: {x: 0, y: 0, z: 6.234}
        inSlope: {x: 0, y: 0, z: 9.351}
        outSlope: {x: 0, y: 0, z: 9.351}
        tangentMode: 0
      - time: 0.48333332
        value: {x: 0, y: 0, z: 6.234}
        inSlope: {x: 0, y: 0, z: -107.97044}
        outSlope: {x: 0, y: 0, z: -107.97044}
        tangentMode: 0
      - time: 0.73333335
        value: {x: 0, y: 0, z: -47.75123}
        inSlope: {x: 0, y: 0, z: -131.44543}
        outSlope: {x: 0, y: 0, z: -131.44543}
        tangentMode: 0
      - time: 1
        value: {x: 0, y: 0, z: -60.271225}
        inSlope: {x: 0, y: 0, z: 0}
        outSlope: {x: 0, y: 0, z: 0}
        tangentMode: 0
      - time: 1.4833333
        value: {x: 0, y: 0, z: -60.271225}
        inSlope: {x: 0, y: 0, z: 0}
        outSlope: {x: 0, y: 0, z: 0}
        tangentMode: 0
      - time: 1.9833333
        value: {x: 0, y: 0, z: -60.271225}
        inSlope: {x: 0, y: 0, z: 0}
        outSlope: {x: 0, y: 0, z: 0}
        tangentMode: 0
      - time: 2.7333333
        value: {x: 0, y: 0, z: 0}
        inSlope: {x: 0, y: 0, z: 80.36163}
        outSlope: {x: 0, y: 0, z: 80.36163}
        tangentMode: 0
      m_PreInfinity: 2
      m_PostInfinity: 2
      m_RotationOrder: 4
    path: Body/Torso/RightShoulder
  - curve:
      serializedVersion: 2
      m_Curve:
      - time: 0
        value: {x: 0, y: 0, z: 0}
        inSlope: {x: 0, y: 0, z: -32.024998}
        outSlope: {x: 0, y: 0, z: -32.024998}
        tangentMode: 0
      - time: 0.33333334
        value: {x: 0, y: 0, z: -10.675}
        inSlope: {x: 0, y: 0, z: -22.539558}
        outSlope: {x: 0, y: 0, z: -22.539558}
        tangentMode: 0
      - time: 0.48333332
        value: {x: 0, y: 0, z: -12.633118}
        inSlope: {x: 0, y: 0, z: -7.5209813}
        outSlope: {x: 0, y: 0, z: -7.5209813}
        tangentMode: 0
      - time: 1.2333333
        value: {x: 0, y: 0, z: -14.124001}
        inSlope: {x: 0, y: 0, z: 3.7140782}
        outSlope: {x: 0, y: 0, z: 3.7140782}
        tangentMode: 0
      - time: 2.7333333
        value: {x: 0, y: 0, z: 0}
        inSlope: {x: 0, y: 0, z: 9.416}
        outSlope: {x: 0, y: 0, z: 9.416}
        tangentMode: 0
      m_PreInfinity: 2
      m_PostInfinity: 2
      m_RotationOrder: 4
    path: Body/Torso/LeftShoulder
  - curve:
      serializedVersion: 2
      m_Curve:
      - time: 0
        value: {x: 0, y: 0, z: 0}
        inSlope: {x: 0, y: 0, z: -411.92325}
        outSlope: {x: 0, y: 0, z: -411.92325}
        tangentMode: 0
      - time: 0.33333334
        value: {x: 0, y: 0, z: -137.30775}
        inSlope: {x: 0, y: 0, z: 2.2087996}
        outSlope: {x: 0, y: 0, z: 2.2087996}
        tangentMode: 0
      - time: 0.48333332
        value: {x: 0, y: 0, z: -135.97736}
        inSlope: {x: 0, y: 0, z: 15.314925}
        outSlope: {x: 0, y: 0, z: 15.314925}
        tangentMode: 0
      - time: 1.2333333
        value: {x: 0, y: 0, z: -105.15426}
        inSlope: {x: 0, y: 0, z: 61.508648}
        outSlope: {x: 0, y: 0, z: 61.508648}
        tangentMode: 0
      - time: 1.6833333
        value: {x: 0, y: 0, z: -74.284775}
        inSlope: {x: 0, y: 0, z: 73.75535}
        outSlope: {x: 0, y: 0, z: 73.75535}
        tangentMode: 0
      - time: 2.7333333
        value: {x: 0, y: 0, z: 0}
        inSlope: {x: 0, y: 0, z: 57.211563}
        outSlope: {x: 0, y: 0, z: 57.211563}
        tangentMode: 0
      m_PreInfinity: 2
      m_PostInfinity: 2
      m_RotationOrder: 4
    path: Body/Torso/LeftShoulder/LeftArm
  - curve:
      serializedVersion: 2
      m_Curve:
      - time: 0
        value: {x: 0, y: 0, z: 0}
        inSlope: {x: 0, y: 0, z: 7.863}
        outSlope: {x: 0, y: 0, z: 7.863}
        tangentMode: 0
      - time: 0.33333334
        value: {x: 0, y: 0, z: 2.621}
        inSlope: {x: 0, y: 0, z: 3.9315}
        outSlope: {x: 0, y: 0, z: 3.9315}
        tangentMode: 0
      - time: 0.48333332
        value: {x: 0, y: 0, z: 2.621}
        inSlope: {x: 0, y: 0, z: 1.4913335}
        outSlope: {x: 0, y: 0, z: 1.4913335}
        tangentMode: 0
      - time: 1.2333333
        value: {x: 0, y: 0, z: 4.8580003}
        inSlope: {x: 0, y: 0, z: -0.1279999}
        outSlope: {x: 0, y: 0, z: -0.1279999}
        tangentMode: 0
      - time: 2.7333333
        value: {x: 0, y: 0, z: 0}
        inSlope: {x: 0, y: 0, z: -3.2386668}
        outSlope: {x: 0, y: 0, z: -3.2386668}
        tangentMode: 0
      m_PreInfinity: 2
      m_PostInfinity: 2
      m_RotationOrder: 4
    path: Body/Torso/Neck/Head
  - curve:
      serializedVersion: 2
      m_Curve:
      - time: 0
        value: {x: 0, y: 0, z: 0}
        inSlope: {x: 0, y: 0, z: 12.084001}
        outSlope: {x: 0, y: 0, z: 12.084001}
        tangentMode: 0
      - time: 0.33333334
        value: {x: 0, y: 0, z: 4.0280004}
        inSlope: {x: 0, y: 0, z: 6.0420003}
        outSlope: {x: 0, y: 0, z: 6.0420003}
        tangentMode: 0
      - time: 0.48333332
        value: {x: 0, y: 0, z: 4.0280004}
        inSlope: {x: 0, y: 0, z: -0.8951112}
        outSlope: {x: 0, y: 0, z: -0.8951112}
        tangentMode: 0
      - time: 2.7333333
        value: {x: 0, y: 0, z: 0}
        inSlope: {x: 0, y: 0, z: -1.7902224}
        outSlope: {x: 0, y: 0, z: -1.7902224}
        tangentMode: 0
      m_PreInfinity: 2
      m_PostInfinity: 2
      m_RotationOrder: 4
    path: Body/Torso/Neck
  - curve:
      serializedVersion: 2
      m_Curve:
      - time: 0
        value: {x: 0, y: 0, z: 0}
        inSlope: {x: 0, y: 0, z: 82.764}
        outSlope: {x: 0, y: 0, z: 82.764}
        tangentMode: 0
      - time: 0.33333334
        value: {x: 0, y: 0, z: 27.588001}
        inSlope: {x: 0, y: 0, z: 60.390335}
        outSlope: {x: 0, y: 0, z: 60.390335}
        tangentMode: 0
      - time: 0.48333332
        value: {x: 0, y: 0, z: 33.2905}
        inSlope: {x: 0, y: 0, z: 23.03867}
        outSlope: {x: 0, y: 0, z: 23.03867}
        tangentMode: 0
      - time: 1.2333333
        value: {x: 0, y: 0, z: 39.336002}
        inSlope: {x: 0, y: 0, z: -9.081666}
        outSlope: {x: 0, y: 0, z: -9.081666}
        tangentMode: 0
      - time: 2.7333333
        value: {x: 0, y: 0, z: 0}
        inSlope: {x: 0, y: 0, z: -26.224}
        outSlope: {x: 0, y: 0, z: -26.224}
        tangentMode: 0
      m_PreInfinity: 2
      m_PostInfinity: 2
      m_RotationOrder: 4
    path: Body/Torso/LeftShoulder/LeftArm/LeftHand
  - curve:
      serializedVersion: 2
      m_Curve:
      - time: 0
        value: {x: 0, y: 0, z: 0}
        inSlope: {x: 0, y: 0, z: -10.92}
        outSlope: {x: 0, y: 0, z: -10.92}
        tangentMode: 0
      - time: 0.33333334
        value: {x: 0, y: 0, z: -3.64}
        inSlope: {x: 0, y: 0, z: -7.747491}
        outSlope: {x: 0, y: 0, z: -7.747491}
        tangentMode: 0
      - time: 0.48333332
        value: {x: 0, y: 0, z: -4.326247}
        inSlope: {x: 0, y: 0, z: -2.6686594}
        outSlope: {x: 0, y: 0, z: -2.6686594}
        tangentMode: 0
      - time: 1.2333333
        value: {x: 0, y: 0, z: -4.8980002}
        inSlope: {x: 0, y: 0, z: 1.251498}
        outSlope: {x: 0, y: 0, z: 1.251498}
        tangentMode: 0
      - time: 2.7333333
        value: {x: 0, y: 0, z: 0}
        inSlope: {x: 0, y: 0, z: 3.2653334}
        outSlope: {x: 0, y: 0, z: 3.2653334}
        tangentMode: 0
      m_PreInfinity: 2
      m_PostInfinity: 2
      m_RotationOrder: 4
    path: Body/Torso
  - curve:
      serializedVersion: 2
      m_Curve:
      - time: 0
        value: {x: 0, y: 0, z: 0}
        inSlope: {x: 0, y: 0, z: 16.944}
        outSlope: {x: 0, y: 0, z: 16.944}
        tangentMode: 0
      - time: 0.33333334
        value: {x: 0, y: 0, z: 5.6480002}
        inSlope: {x: 0, y: 0, z: 11.440051}
        outSlope: {x: 0, y: 0, z: 11.440051}
        tangentMode: 0
      - time: 0.48333332
        value: {x: 0, y: 0, z: 6.5384154}
        inSlope: {x: 0, y: 0, z: 3.1624413}
        outSlope: {x: 0, y: 0, z: 3.1624413}
        tangentMode: 0
      - time: 1.2333333
        value: {x: 0, y: 0, z: 6.8300004}
        inSlope: {x: 0, y: 0, z: -2.0822768}
        outSlope: {x: 0, y: 0, z: -2.0822768}
        tangentMode: 0
      - time: 2.7333333
        value: {x: 0, y: 0, z: 0}
        inSlope: {x: 0, y: 0, z: -4.5533338}
        outSlope: {x: 0, y: 0, z: -4.5533338}
        tangentMode: 0
      m_PreInfinity: 2
      m_PostInfinity: 2
      m_RotationOrder: 4
    path: Body/Torso/Skirt
  - curve:
      serializedVersion: 2
      m_Curve:
      - time: 0
        value: {x: 0, y: 0, z: 0}
        inSlope: {x: 0, y: 0, z: -13.38}
        outSlope: {x: 0, y: 0, z: -13.38}
        tangentMode: 0
      - time: 0.33333334
        value: {x: 0, y: 0, z: -4.46}
        inSlope: {x: 0, y: 0, z: -11.515385}
        outSlope: {x: 0, y: 0, z: -11.515385}
        tangentMode: 0
      - time: 0.55
        value: {x: 0, y: 0, z: -6.551}
        inSlope: {x: 0, y: 0, z: -3.5737667}
        outSlope: {x: 0, y: 0, z: -3.5737667}
        tangentMode: 0
      - time: 1.6833333
        value: {x: 0, y: 0, z: -3.7140002}
        inSlope: {x: 0, y: 0, z: 2.5032356}
        outSlope: {x: 0, y: 0, z: 2.5032356}
        tangentMode: 0
      m_PreInfinity: 2
      m_PostInfinity: 2
      m_RotationOrder: 4
    path: Body/Torso/Neck/Head/Fringe
  - curve:
      serializedVersion: 2
      m_Curve:
      - time: 0
        value: {x: 0, y: 0, z: 0}
        inSlope: {x: 0, y: 0, z: -10.971}
        outSlope: {x: 0, y: 0, z: -10.971}
        tangentMode: 0
      - time: 0.33333334
        value: {x: 0, y: 0, z: -3.657}
        inSlope: {x: 0, y: 0, z: -1.4312143}
        outSlope: {x: 0, y: 0, z: -1.4312143}
        tangentMode: 0
      - time: 0.9166667
        value: {x: 0, y: 0, z: 1.0730001}
        inSlope: {x: 0, y: 0, z: 1.9214008}
        outSlope: {x: 0, y: 0, z: 1.9214008}
        tangentMode: 0
      - time: 1.7833333
        value: {x: 0, y: 0, z: -2.624}
        inSlope: {x: 0, y: 0, z: -4.2657695}
        outSlope: {x: 0, y: 0, z: -4.2657695}
        tangentMode: 0
      m_PreInfinity: 2
      m_PostInfinity: 2
      m_RotationOrder: 4
    path: Body/Torso/Neck/Head/Hair
  - curve:
      serializedVersion: 2
      m_Curve:
      - time: 0
        value: {x: 0, y: 0, z: 0}
        inSlope: {x: 0, y: 0, z: -35.943}
        outSlope: {x: 0, y: 0, z: -35.943}
        tangentMode: 0
      - time: 0.33333334
        value: {x: 0, y: 0, z: -11.981001}
        inSlope: {x: 0, y: 0, z: -8.198167}
        outSlope: {x: 0, y: 0, z: -8.198167}
        tangentMode: 0
      - time: 0.93333334
        value: {x: 0, y: 0, z: -0.25300002}
        inSlope: {x: 0, y: 0, z: 6.0897617}
        outSlope: {x: 0, y: 0, z: 6.0897617}
        tangentMode: 0
      - time: 1.4
        value: {x: 0, y: 0, z: -3.6910002}
        inSlope: {x: 0, y: 0, z: -7.3671436}
        outSlope: {x: 0, y: 0, z: -7.3671436}
        tangentMode: 0
      m_PreInfinity: 2
      m_PostInfinity: 2
      m_RotationOrder: 4
    path: Body/Torso/Neck/Head/Jewel
  - curve:
      serializedVersion: 2
      m_Curve:
      - time: 0
        value: {x: 0, y: 0, z: 0}
        inSlope: {x: 0, y: 0, z: -0.652623}
        outSlope: {x: 0, y: 0, z: -0.652623}
        tangentMode: 0
      - time: 2.0333333
        value: {x: 0, y: 0, z: -1.327}
        inSlope: {x: 0, y: 0, z: -0.652623}
        outSlope: {x: 0, y: 0, z: -0.652623}
        tangentMode: 0
      m_PreInfinity: 2
      m_PostInfinity: 2
      m_RotationOrder: 4
    path: Body/Torso/Wallet
  - curve:
      serializedVersion: 2
      m_Curve:
      - time: 0
        value: {x: 0, y: 0, z: 0}
        inSlope: {x: 0, y: 0, z: -4.410984}
        outSlope: {x: 0, y: 0, z: -4.410984}
        tangentMode: 0
      - time: 2.0333333
        value: {x: 0, y: 0, z: -8.969001}
        inSlope: {x: 0, y: 0, z: -4.410984}
        outSlope: {x: 0, y: 0, z: -4.410984}
        tangentMode: 0
      m_PreInfinity: 2
      m_PostInfinity: 2
      m_RotationOrder: 4
    path: Body/Torso/Wallet/Wallet
  - curve:
      serializedVersion: 2
      m_Curve:
      - time: 0
        value: {x: 0, y: 0, z: 351.56665}
        inSlope: {x: 0, y: 0, z: 3.4359872}
        outSlope: {x: 0, y: 0, z: 3.4359872}
        tangentMode: 0
      - time: 0.33333334
        value: {x: 0, y: 0, z: 352.91632}
        inSlope: {x: 0, y: 0, z: 4.4215846}
        outSlope: {x: 0, y: 0, z: 4.4215846}
        tangentMode: 0
      - time: 1.1833333
        value: {x: 0, y: 0, z: 355.63257}
        inSlope: {x: 0, y: 0, z: 0.40640724}
        outSlope: {x: 0, y: 0, z: 0.40640724}
        tangentMode: 0
      - time: 2.0333333
        value: {x: 0, y: 0, z: 353.9281}
        inSlope: {x: 0, y: 0, z: -3.5058591}
        outSlope: {x: 0, y: 0, z: -3.5058591}
        tangentMode: 0
      - time: 2.7333333
        value: {x: 0, y: 0, z: 351.56665}
        inSlope: {x: 0, y: 0, z: -2.6231728}
        outSlope: {x: 0, y: 0, z: -2.6231728}
        tangentMode: 0
      m_PreInfinity: 2
      m_PostInfinity: 2
      m_RotationOrder: 4
    path: Body/Torso/Waist
  - curve:
      serializedVersion: 2
      m_Curve:
      - time: 0
        value: {x: 0, y: 0, z: -9.281559}
        inSlope: {x: 0, y: 0, z: -24.92575}
        outSlope: {x: 0, y: 0, z: -24.92575}
        tangentMode: 0
      - time: 0.36666667
        value: {x: 0, y: 0, z: -18.421001}
        inSlope: {x: 0, y: 0, z: -5.404384}
        outSlope: {x: 0, y: 0, z: -5.404384}
        tangentMode: 0
      - time: 1.25
        value: {x: 0, y: 0, z: -5.951}
        inSlope: {x: 0, y: 0, z: 7.058491}
        outSlope: {x: 0, y: 0, z: 7.058491}
        tangentMode: 0
      - time: 1.75
        value: {x: 0, y: 0, z: -5.951}
        inSlope: {x: 0, y: 0, z: 0}
        outSlope: {x: 0, y: 0, z: 0}
        tangentMode: 0
      m_PreInfinity: 2
      m_PostInfinity: 2
      m_RotationOrder: 4
    path: Body/Torso/RightShoulder/RightArm/RightHand
  m_PositionCurves:
  - curve:
      serializedVersion: 2
      m_Curve:
      - time: 0
        value: {x: 0.0029477477, y: 0.1815617, z: 0}
        inSlope: {x: -0.041999817, y: -0.08399999, z: 0}
        outSlope: {x: -0.041999817, y: -0.08399999, z: 0}
        tangentMode: 0
      - time: 0.33333334
        value: {x: -0.011052191, y: 0.1535617, z: 0}
        inSlope: {x: -0.020999908, y: -0.041999996, z: 0}
        outSlope: {x: -0.020999908, y: -0.041999996, z: 0}
        tangentMode: 0
      - time: 0.48333332
        value: {x: -0.011052191, y: 0.1535617, z: 0}
        inSlope: {x: 0.0031110975, y: 0.0062222215, z: 0}
        outSlope: {x: 0.0031110975, y: 0.0062222215, z: 0}
        tangentMode: 0
      - time: 2.7333333
        value: {x: 0.0029477477, y: 0.1815617, z: 0}
        inSlope: {x: 0.006222195, y: 0.012444443, z: 0}
        outSlope: {x: 0.006222195, y: 0.012444443, z: 0}
        tangentMode: 0
      m_PreInfinity: 2
      m_PostInfinity: 2
      m_RotationOrder: 4
    path: Body/Torso/Neck/Head/Face/Right/RightEyebrown
  - curve:
      serializedVersion: 2
      m_Curve:
      - time: 0
        value: {x: -0.6300001, y: 2.85, z: 0}
        inSlope: {x: 0, y: -0.27788043, z: 0}
        outSlope: {x: 0, y: -0.27788043, z: 0}
        tangentMode: 0
      - time: 0.33333334
        value: {x: -0.6300001, y: 2.757373, z: 0}
        inSlope: {x: 0, y: -0.13894022, z: 0}
        outSlope: {x: 0, y: -0.13894022, z: 0}
        tangentMode: 0
      - time: 0.48333332
        value: {x: -0.6300001, y: 2.757373, z: 0}
        inSlope: {x: 0, y: 0.029770926, z: 0}
        outSlope: {x: 0, y: 0.029770926, z: 0}
        tangentMode: 0
      - time: 0.78333336
        value: {x: -0.6300001, y: 2.7752357, z: 0}
        inSlope: {x: 0, y: -0.029934548, z: 0}
        outSlope: {x: 0, y: -0.029934548, z: 0}
        tangentMode: 0
      - time: 1.0166667
        value: {x: -0.6300001, y: 2.747373, z: 0}
        inSlope: {x: 0, y: 0.070828654, z: 0}
        outSlope: {x: 0, y: 0.070828654, z: 0}
        tangentMode: 0
      - time: 1.2
        value: {x: -0.6300001, y: 2.7952356, z: 0}
        inSlope: {x: 0, y: 0.14839204, z: 0}
        outSlope: {x: 0, y: 0.14839204, z: 0}
        tangentMode: 0
      - time: 2.7333333
        value: {x: -0.6300001, y: 2.85, z: 0}
        inSlope: {x: 0, y: 0.03571583, z: 0}
        outSlope: {x: 0, y: 0.03571583, z: 0}
        tangentMode: 0
      m_PreInfinity: 2
      m_PostInfinity: 2
      m_RotationOrder: 4
    path: Body/Torso/RightShoulder
  - curve:
      serializedVersion: 2
      m_Curve:
      - time: 0
        value: {x: 1.3409996, y: 2.8200002, z: 0}
        inSlope: {x: 0, y: 0.1720891, z: 0}
        outSlope: {x: 0, y: 0.1720891, z: 0}
        tangentMode: 0
      - time: 0.33333334
        value: {x: 1.3409996, y: 2.8773632, z: 0}
        inSlope: {x: 0, y: 0.08604455, z: 0}
        outSlope: {x: 0, y: 0.08604455, z: 0}
        tangentMode: 0
      - time: 0.48333332
        value: {x: 1.3409996, y: 2.8773632, z: 0}
        inSlope: {x: 0, y: -0.012747341, z: 0}
        outSlope: {x: 0, y: -0.012747341, z: 0}
        tangentMode: 0
      - time: 2.7333333
        value: {x: 1.3409996, y: 2.8200002, z: 0}
        inSlope: {x: 0, y: -0.025494682, z: 0}
        outSlope: {x: 0, y: -0.025494682, z: 0}
        tangentMode: 0
      m_PreInfinity: 2
      m_PostInfinity: 2
      m_RotationOrder: 4
    path: Body/Torso/LeftShoulder
  - curve:
      serializedVersion: 2
      m_Curve:
      - time: 0
        value: {x: -0.10000038, y: 0.8100004, z: 0}
        inSlope: {x: 0, y: -0.6000012, z: 0}
        outSlope: {x: 0, y: -0.6000012, z: 0}
        tangentMode: 0
      - time: 0.33333334
        value: {x: -0.10000038, y: 0.61, z: 0}
        inSlope: {x: 0, y: -0.3000006, z: 0}
        outSlope: {x: 0, y: -0.3000006, z: 0}
        tangentMode: 0
      - time: 0.48333332
        value: {x: -0.10000038, y: 0.61, z: 0}
        inSlope: {x: 0, y: 0.044444535, z: 0}
        outSlope: {x: 0, y: 0.044444535, z: 0}
        tangentMode: 0
      - time: 2.7333333
        value: {x: -0.10000038, y: 0.8100004, z: 0}
        inSlope: {x: 0, y: 0.08888907, z: 0}
        outSlope: {x: 0, y: 0.08888907, z: 0}
        tangentMode: 0
      m_PreInfinity: 2
      m_PostInfinity: 2
      m_RotationOrder: 4
    path: Body/Torso/Neck/Head
  m_ScaleCurves: []
  m_FloatCurves:
  - curve:
      serializedVersion: 2
      m_Curve:
      - time: 0
        value: 1
        inSlope: Infinity
        outSlope: Infinity
        tangentMode: 31
      - time: 0.33333334
        value: 0
        inSlope: Infinity
        outSlope: Infinity
        tangentMode: 31
      - time: 2.7333333
        value: 1
        inSlope: Infinity
        outSlope: Infinity
        tangentMode: 31
      m_PreInfinity: 2
      m_PostInfinity: 2
      m_RotationOrder: 4
    attribute: m_IsActive
    path: Body/Torso/Neck/Head/Face/Left/LeftEyebrown/LeftEyebrownIdle
    classID: 1
    script: {fileID: 0}
  - curve:
      serializedVersion: 2
      m_Curve:
      - time: 0
        value: 0
        inSlope: Infinity
        outSlope: Infinity
        tangentMode: 31
      - time: 0.33333334
        value: 1
        inSlope: Infinity
        outSlope: Infinity
        tangentMode: 31
      - time: 2.7333333
        value: 0
        inSlope: Infinity
        outSlope: Infinity
        tangentMode: 31
      m_PreInfinity: 2
      m_PostInfinity: 2
      m_RotationOrder: 4
    attribute: m_IsActive
    path: Body/Torso/Neck/Head/Face/Left/LeftEyebrown/HappyLeft
    classID: 1
    script: {fileID: 0}
  - curve:
      serializedVersion: 2
      m_Curve:
      - time: 0
        value: 1
        inSlope: Infinity
        outSlope: Infinity
        tangentMode: 31
      - time: 0.33333334
        value: 0
        inSlope: Infinity
        outSlope: Infinity
        tangentMode: 31
      - time: 2.7333333
        value: 1
        inSlope: Infinity
        outSlope: Infinity
        tangentMode: 31
      m_PreInfinity: 2
      m_PostInfinity: 2
      m_RotationOrder: 4
    attribute: m_IsActive
    path: Body/Torso/Neck/Head/Face/Right/RightEyebrown/RightEyebrownIdle
    classID: 1
    script: {fileID: 0}
  - curve:
      serializedVersion: 2
      m_Curve:
      - time: 0
        value: 0
        inSlope: Infinity
        outSlope: Infinity
        tangentMode: 31
      - time: 0.33333334
        value: 1
        inSlope: Infinity
        outSlope: Infinity
        tangentMode: 31
      - time: 2.7333333
        value: 0
        inSlope: Infinity
        outSlope: Infinity
        tangentMode: 31
      m_PreInfinity: 2
      m_PostInfinity: 2
      m_RotationOrder: 4
    attribute: m_IsActive
    path: Body/Torso/Neck/Head/Face/Right/RightEyebrown/HappyRight
    classID: 1
    script: {fileID: 0}
  - curve:
      serializedVersion: 2
      m_Curve:
      - time: 0
        value: 1
        inSlope: Infinity
        outSlope: Infinity
        tangentMode: 31
      - time: 0.71666664
        value: 0
        inSlope: Infinity
        outSlope: Infinity
        tangentMode: 31
      - time: 1.9666667
        value: 1
        inSlope: Infinity
        outSlope: Infinity
        tangentMode: 31
      m_PreInfinity: 2
      m_PostInfinity: 2
      m_RotationOrder: 4
    attribute: m_IsActive
    path: Body/Torso/RightShoulder/RightArm/RightHand/HandRight
    classID: 1
    script: {fileID: 0}
  - curve:
      serializedVersion: 2
      m_Curve:
      - time: 0
        value: 0
        inSlope: Infinity
        outSlope: Infinity
        tangentMode: 31
      - time: 0.71666664
        value: 1
        inSlope: Infinity
        outSlope: Infinity
        tangentMode: 31
      - time: 1.9666667
        value: 0
        inSlope: Infinity
        outSlope: Infinity
        tangentMode: 31
      m_PreInfinity: 2
      m_PostInfinity: 2
      m_RotationOrder: 4
    attribute: m_IsActive
    path: Body/Torso/RightShoulder/RightArm/RightHand/HandRightClosedHand
    classID: 1
    script: {fileID: 0}
  m_PPtrCurves: []
  m_SampleRate: 60
  m_WrapMode: 0
  m_Bounds:
    m_Center: {x: 0, y: 0, z: 0}
    m_Extent: {x: 0, y: 0, z: 0}
  m_ClipBindingConstant:
    genericBindings:
    - path: 423951870
      attribute: 1
      script: {fileID: 0}
      classID: 4
      customType: 0
      isPPtrCurve: 0
    - path: 1400595497
      attribute: 1
      script: {fileID: 0}
      classID: 4
      customType: 0
      isPPtrCurve: 0
    - path: 1523632015
      attribute: 1
      script: {fileID: 0}
      classID: 4
      customType: 0
      isPPtrCurve: 0
    - path: 2982998908
      attribute: 1
      script: {fileID: 0}
      classID: 4
      customType: 0
      isPPtrCurve: 0
    - path: 423951870
      attribute: 4
      script: {fileID: 0}
      classID: 4
      customType: 14
      isPPtrCurve: 0
    - path: 2874545571
      attribute: 4
      script: {fileID: 0}
      classID: 4
      customType: 14
      isPPtrCurve: 0
    - path: 1400595497
      attribute: 4
      script: {fileID: 0}
      classID: 4
      customType: 14
      isPPtrCurve: 0
    - path: 1523632015
      attribute: 4
      script: {fileID: 0}
      classID: 4
      customType: 14
      isPPtrCurve: 0
    - path: 3500640001
      attribute: 4
      script: {fileID: 0}
      classID: 4
      customType: 14
      isPPtrCurve: 0
    - path: 2982998908
      attribute: 4
      script: {fileID: 0}
      classID: 4
      customType: 14
      isPPtrCurve: 0
    - path: 380507487
      attribute: 4
      script: {fileID: 0}
      classID: 4
      customType: 14
      isPPtrCurve: 0
    - path: 3064011926
      attribute: 4
      script: {fileID: 0}
      classID: 4
      customType: 14
      isPPtrCurve: 0
    - path: 17307992
      attribute: 4
      script: {fileID: 0}
      classID: 4
      customType: 14
      isPPtrCurve: 0
    - path: 2425401366
      attribute: 4
      script: {fileID: 0}
      classID: 4
      customType: 14
      isPPtrCurve: 0
    - path: 3698067212
      attribute: 4
      script: {fileID: 0}
      classID: 4
      customType: 14
      isPPtrCurve: 0
    - path: 1437080233
      attribute: 4
      script: {fileID: 0}
      classID: 4
      customType: 14
      isPPtrCurve: 0
    - path: 3753951091
      attribute: 4
      script: {fileID: 0}
      classID: 4
      customType: 14
      isPPtrCurve: 0
    - path: 3534780582
      attribute: 4
      script: {fileID: 0}
      classID: 4
      customType: 14
      isPPtrCurve: 0
    - path: 823111807
      attribute: 4
      script: {fileID: 0}
      classID: 4
      customType: 14
      isPPtrCurve: 0
    - path: 330745843
      attribute: 4
      script: {fileID: 0}
      classID: 4
      customType: 14
      isPPtrCurve: 0
    - path: 3169952396
      attribute: 4
      script: {fileID: 0}
      classID: 4
      customType: 14
      isPPtrCurve: 0
    - path: 2518073549
      attribute: 2086281974
      script: {fileID: 0}
      classID: 1
      customType: 0
      isPPtrCurve: 0
    - path: 3201560909
      attribute: 2086281974
      script: {fileID: 0}
      classID: 1
      customType: 0
      isPPtrCurve: 0
    - path: 1178227809
      attribute: 2086281974
      script: {fileID: 0}
      classID: 1
      customType: 0
      isPPtrCurve: 0
    - path: 3106380729
      attribute: 2086281974
      script: {fileID: 0}
      classID: 1
      customType: 0
      isPPtrCurve: 0
    - path: 1030591501
      attribute: 2086281974
      script: {fileID: 0}
      classID: 1
      customType: 0
      isPPtrCurve: 0
    - path: 2321107575
      attribute: 2086281974
      script: {fileID: 0}
      classID: 1
      customType: 0
      isPPtrCurve: 0
    pptrCurveMapping: []
  m_AnimationClipSettings:
    serializedVersion: 2
    m_AdditiveReferencePoseClip: {fileID: 0}
    m_AdditiveReferencePoseTime: 0
    m_StartTime: 0
    m_StopTime: 2.7333333
    m_OrientationOffsetY: 0
    m_Level: 0
    m_CycleOffset: 0
    m_HasAdditiveReferencePose: 0
    m_LoopTime: 0
    m_LoopBlend: 0
    m_LoopBlendOrientation: 0
    m_LoopBlendPositionY: 0
    m_LoopBlendPositionXZ: 0
    m_KeepOriginalOrientation: 0
    m_KeepOriginalPositionY: 1
    m_KeepOriginalPositionXZ: 0
    m_HeightFromFeet: 0
    m_Mirror: 0
  m_EditorCurves:
  - curve:
      serializedVersion: 2
      m_Curve:
      - time: 0
        value: 0
        inSlope: 0
        outSlope: 0
        tangentMode: 10
      - time: 0.33333334
        value: 0
        inSlope: 0
        outSlope: 0
        tangentMode: 10
      - time: 0.48333332
        value: 0
        inSlope: 0
        outSlope: 0
        tangentMode: 10
      - time: 2.7333333
        value: 0
        inSlope: 0
        outSlope: 0
        tangentMode: 10
      m_PreInfinity: 2
      m_PostInfinity: 2
      m_RotationOrder: 4
    attribute: localEulerAnglesRaw.x
    path: Body/Torso/Neck/Head/Face/Right/RightEyebrown
    classID: 4
    script: {fileID: 0}
  - curve:
      serializedVersion: 2
      m_Curve:
      - time: 0
        value: 0
        inSlope: 0
        outSlope: 0
        tangentMode: 10
      - time: 0.33333334
        value: 0
        inSlope: 0
        outSlope: 0
        tangentMode: 10
      - time: 0.48333332
        value: 0
        inSlope: 0
        outSlope: 0
        tangentMode: 10
      - time: 2.7333333
        value: 0
        inSlope: 0
        outSlope: 0
        tangentMode: 10
      m_PreInfinity: 2
      m_PostInfinity: 2
      m_RotationOrder: 4
    attribute: localEulerAnglesRaw.y
    path: Body/Torso/Neck/Head/Face/Right/RightEyebrown
    classID: 4
    script: {fileID: 0}
  - curve:
      serializedVersion: 2
      m_Curve:
      - time: 0
        value: 0
        inSlope: 95.187004
        outSlope: 95.187004
        tangentMode: 10
      - time: 0.33333334
        value: 31.729002
        inSlope: 47.593502
        outSlope: 47.593502
        tangentMode: 10
      - time: 0.48333332
        value: 31.729002
        inSlope: -7.0508895
        outSlope: -7.0508895
        tangentMode: 10
      - time: 2.7333333
        value: 0
        inSlope: -14.101779
        outSlope: -14.101779
        tangentMode: 10
      m_PreInfinity: 2
      m_PostInfinity: 2
      m_RotationOrder: 4
    attribute: localEulerAnglesRaw.z
    path: Body/Torso/Neck/Head/Face/Right/RightEyebrown
    classID: 4
    script: {fileID: 0}
  - curve:
      serializedVersion: 2
      m_Curve:
      - time: 0
        value: 0.0029477477
        inSlope: -0.041999817
        outSlope: -0.041999817
        tangentMode: 10
      - time: 0.33333334
        value: -0.011052191
        inSlope: -0.020999908
        outSlope: -0.020999908
        tangentMode: 10
      - time: 0.48333332
        value: -0.011052191
        inSlope: 0.0031110975
        outSlope: 0.0031110975
        tangentMode: 10
      - time: 2.7333333
        value: 0.0029477477
        inSlope: 0.006222195
        outSlope: 0.006222195
        tangentMode: 10
      m_PreInfinity: 2
      m_PostInfinity: 2
      m_RotationOrder: 4
    attribute: m_LocalPosition.x
    path: Body/Torso/Neck/Head/Face/Right/RightEyebrown
    classID: 4
    script: {fileID: 0}
  - curve:
      serializedVersion: 2
      m_Curve:
      - time: 0
        value: 0.1815617
        inSlope: -0.08399999
        outSlope: -0.08399999
        tangentMode: 10
      - time: 0.33333334
        value: 0.1535617
        inSlope: -0.041999996
        outSlope: -0.041999996
        tangentMode: 10
      - time: 0.48333332
        value: 0.1535617
        inSlope: 0.0062222215
        outSlope: 0.0062222215
        tangentMode: 10
      - time: 2.7333333
        value: 0.1815617
        inSlope: 0.012444443
        outSlope: 0.012444443
        tangentMode: 10
      m_PreInfinity: 2
      m_PostInfinity: 2
      m_RotationOrder: 4
    attribute: m_LocalPosition.y
    path: Body/Torso/Neck/Head/Face/Right/RightEyebrown
    classID: 4
    script: {fileID: 0}
  - curve:
      serializedVersion: 2
      m_Curve:
      - time: 0
        value: 0
        inSlope: 0
        outSlope: 0
        tangentMode: 10
      - time: 0.33333334
        value: 0
        inSlope: 0
        outSlope: 0
        tangentMode: 10
      - time: 0.48333332
        value: 0
        inSlope: 0
        outSlope: 0
        tangentMode: 10
      - time: 2.7333333
        value: 0
        inSlope: 0
        outSlope: 0
        tangentMode: 10
      m_PreInfinity: 2
      m_PostInfinity: 2
      m_RotationOrder: 4
    attribute: m_LocalPosition.z
    path: Body/Torso/Neck/Head/Face/Right/RightEyebrown
    classID: 4
    script: {fileID: 0}
  - curve:
      serializedVersion: 2
      m_Curve:
      - time: 0
        value: 0
        inSlope: 0
        outSlope: 0
        tangentMode: 10
      - time: 0.33333334
        value: 0
        inSlope: 0
        outSlope: 0
        tangentMode: 10
      - time: 0.48333332
        value: 0
        inSlope: 0
        outSlope: 0
        tangentMode: 10
      - time: 1
        value: 0
        inSlope: 0
        outSlope: 0
        tangentMode: 10
      - time: 1.4833333
        value: 0
        inSlope: 0
        outSlope: 0
        tangentMode: 10
      - time: 1.9833333
        value: 0
        inSlope: 0
        outSlope: 0
        tangentMode: 10
      - time: 2.7333333
        value: 0
        inSlope: 0
        outSlope: 0
        tangentMode: 10
      m_PreInfinity: 2
      m_PostInfinity: 2
      m_RotationOrder: 4
    attribute: localEulerAnglesRaw.x
    path: Body/Torso/RightShoulder/RightArm
    classID: 4
    script: {fileID: 0}
  - curve:
      serializedVersion: 2
      m_Curve:
      - time: 0
        value: 0
        inSlope: 0
        outSlope: 0
        tangentMode: 10
      - time: 0.33333334
        value: 0
        inSlope: 0
        outSlope: 0
        tangentMode: 10
      - time: 0.48333332
        value: 0
        inSlope: 0
        outSlope: 0
        tangentMode: 10
      - time: 1
        value: 0
        inSlope: 0
        outSlope: 0
        tangentMode: 10
      - time: 1.4833333
        value: 0
        inSlope: 0
        outSlope: 0
        tangentMode: 10
      - time: 1.9833333
        value: 0
        inSlope: 0
        outSlope: 0
        tangentMode: 10
      - time: 2.7333333
        value: 0
        inSlope: 0
        outSlope: 0
        tangentMode: 10
      m_PreInfinity: 2
      m_PostInfinity: 2
      m_RotationOrder: 4
    attribute: localEulerAnglesRaw.y
    path: Body/Torso/RightShoulder/RightArm
    classID: 4
    script: {fileID: 0}
  - curve:
      serializedVersion: 2
      m_Curve:
      - time: 0
        value: 0
        inSlope: -182.04716
        outSlope: -182.04716
        tangentMode: 10
      - time: 0.78333336
        value: -142.60362
        inSlope: 0
        outSlope: 0
        tangentMode: 0
      - time: 1.2666667
        value: -142.60362
        inSlope: 0
        outSlope: 0
        tangentMode: 0
      - time: 1.7666667
        value: -142.60362
        inSlope: 0
        outSlope: 0
        tangentMode: 0
      - time: 2.7333333
        value: 0
        inSlope: 147.52098
        outSlope: 147.52098
        tangentMode: 10
      m_PreInfinity: 2
      m_PostInfinity: 2
      m_RotationOrder: 4
    attribute: localEulerAnglesRaw.z
    path: Body/Torso/RightShoulder/RightArm
    classID: 4
    script: {fileID: 0}
  - curve:
      serializedVersion: 2
      m_Curve:
      - time: 0
        value: 0
        inSlope: 0
        outSlope: 0
        tangentMode: 10
      - time: 0.33333334
        value: 0
        inSlope: 0
        outSlope: 0
        tangentMode: 10
      - time: 0.48333332
        value: 0
        inSlope: 0
        outSlope: 0
        tangentMode: 10
      - time: 0.73333335
        value: 0
        inSlope: 0
        outSlope: 0
        tangentMode: 10
      - time: 1
        value: 0
        inSlope: 0
        outSlope: 0
        tangentMode: 10
      - time: 1.4833333
        value: 0
        inSlope: 0
        outSlope: 0
        tangentMode: 10
      - time: 1.9833333
        value: 0
        inSlope: 0
        outSlope: 0
        tangentMode: 10
      - time: 2.7333333
        value: 0
        inSlope: 0
        outSlope: 0
        tangentMode: 10
      m_PreInfinity: 2
      m_PostInfinity: 2
      m_RotationOrder: 4
    attribute: localEulerAnglesRaw.x
    path: Body/Torso/RightShoulder
    classID: 4
    script: {fileID: 0}
  - curve:
      serializedVersion: 2
      m_Curve:
      - time: 0
        value: 0
        inSlope: 0
        outSlope: 0
        tangentMode: 10
      - time: 0.33333334
        value: 0
        inSlope: 0
        outSlope: 0
        tangentMode: 10
      - time: 0.48333332
        value: 0
        inSlope: 0
        outSlope: 0
        tangentMode: 10
      - time: 0.73333335
        value: 0
        inSlope: 0
        outSlope: 0
        tangentMode: 10
      - time: 1
        value: 0
        inSlope: 0
        outSlope: 0
        tangentMode: 10
      - time: 1.4833333
        value: 0
        inSlope: 0
        outSlope: 0
        tangentMode: 10
      - time: 1.9833333
        value: 0
        inSlope: 0
        outSlope: 0
        tangentMode: 10
      - time: 2.7333333
        value: 0
        inSlope: 0
        outSlope: 0
        tangentMode: 10
      m_PreInfinity: 2
      m_PostInfinity: 2
      m_RotationOrder: 4
    attribute: localEulerAnglesRaw.y
    path: Body/Torso/RightShoulder
    classID: 4
    script: {fileID: 0}
  - curve:
      serializedVersion: 2
      m_Curve:
      - time: 0
        value: 0
        inSlope: 18.702
        outSlope: 18.702
        tangentMode: 10
      - time: 0.33333334
        value: 6.234
        inSlope: 9.351
        outSlope: 9.351
        tangentMode: 10
      - time: 0.48333332
        value: 6.234
        inSlope: -107.97044
        outSlope: -107.97044
        tangentMode: 10
      - time: 0.73333335
        value: -47.75123
        inSlope: -131.44543
        outSlope: -131.44543
        tangentMode: 10
      - time: 1
        value: -60.271225
        inSlope: 0
        outSlope: 0
        tangentMode: 0
      - time: 1.4833333
        value: -60.271225
        inSlope: 0
        outSlope: 0
        tangentMode: 0
      - time: 1.9833333
        value: -60.271225
        inSlope: 0
        outSlope: 0
        tangentMode: 0
      - time: 2.7333333
        value: 0
        inSlope: 80.36163
        outSlope: 80.36163
        tangentMode: 10
      m_PreInfinity: 2
      m_PostInfinity: 2
      m_RotationOrder: 4
    attribute: localEulerAnglesRaw.z
    path: Body/Torso/RightShoulder
    classID: 4
    script: {fileID: 0}
  - curve:
      serializedVersion: 2
      m_Curve:
      - time: 0
        value: -0.6300001
        inSlope: 0
        outSlope: 0
        tangentMode: 10
      - time: 2.7333333
        value: -0.6300001
        inSlope: 0
        outSlope: 0
        tangentMode: 10
      m_PreInfinity: 2
      m_PostInfinity: 2
      m_RotationOrder: 4
    attribute: m_LocalPosition.x
    path: Body/Torso/RightShoulder
    classID: 4
    script: {fileID: 0}
  - curve:
      serializedVersion: 2
      m_Curve:
      - time: 0
        value: 2.85
        inSlope: -0.27788043
        outSlope: -0.27788043
        tangentMode: 10
      - time: 0.33333334
        value: 2.757373
        inSlope: -0.13894022
        outSlope: -0.13894022
        tangentMode: 10
      - time: 0.48333332
        value: 2.757373
        inSlope: 0.029770926
        outSlope: 0.029770926
        tangentMode: 10
      - time: 0.78333336
        value: 2.7752357
        inSlope: -0.029934548
        outSlope: -0.029934548
        tangentMode: 10
      - time: 1.0166667
        value: 2.747373
        inSlope: 0.070828654
        outSlope: 0.070828654
        tangentMode: 10
      - time: 1.2
        value: 2.7952356
        inSlope: 0.14839204
        outSlope: 0.14839204
        tangentMode: 10
      - time: 2.7333333
        value: 2.85
        inSlope: 0.03571583
        outSlope: 0.03571583
        tangentMode: 10
      m_PreInfinity: 2
      m_PostInfinity: 2
      m_RotationOrder: 4
    attribute: m_LocalPosition.y
    path: Body/Torso/RightShoulder
    classID: 4
    script: {fileID: 0}
  - curve:
      serializedVersion: 2
      m_Curve:
      - time: 0
        value: 0
        inSlope: 0
        outSlope: 0
        tangentMode: 10
      - time: 0.33333334
        value: 0
        inSlope: 0
        outSlope: 0
        tangentMode: 10
      - time: 0.48333332
        value: 0
        inSlope: 0
        outSlope: 0
        tangentMode: 10
      - time: 0.78333336
        value: 0
        inSlope: 0
        outSlope: 0
        tangentMode: 10
      - time: 1.0166667
        value: 0
        inSlope: 0
        outSlope: 0
        tangentMode: 10
      - time: 1.2
        value: 0
        inSlope: 0
        outSlope: 0
        tangentMode: 10
      - time: 2.7333333
        value: 0
        inSlope: 0
        outSlope: 0
        tangentMode: 10
      m_PreInfinity: 2
      m_PostInfinity: 2
      m_RotationOrder: 4
    attribute: m_LocalPosition.z
    path: Body/Torso/RightShoulder
    classID: 4
    script: {fileID: 0}
  - curve:
      serializedVersion: 2
      m_Curve:
      - time: 0
        value: 0
        inSlope: 0
        outSlope: 0
        tangentMode: 10
      - time: 0.33333334
        value: 0
        inSlope: 0
        outSlope: 0
        tangentMode: 10
      - time: 0.48333332
        value: 0
        inSlope: 0
        outSlope: 0
        tangentMode: 10
      - time: 1.2333333
        value: 0
        inSlope: 0
        outSlope: 0
        tangentMode: 10
      - time: 2.7333333
        value: 0
        inSlope: 0
        outSlope: 0
        tangentMode: 10
      m_PreInfinity: 2
      m_PostInfinity: 2
      m_RotationOrder: 4
    attribute: localEulerAnglesRaw.x
    path: Body/Torso/LeftShoulder
    classID: 4
    script: {fileID: 0}
  - curve:
      serializedVersion: 2
      m_Curve:
      - time: 0
        value: 0
        inSlope: 0
        outSlope: 0
        tangentMode: 10
      - time: 0.33333334
        value: 0
        inSlope: 0
        outSlope: 0
        tangentMode: 10
      - time: 0.48333332
        value: 0
        inSlope: 0
        outSlope: 0
        tangentMode: 10
      - time: 1.2333333
        value: 0
        inSlope: 0
        outSlope: 0
        tangentMode: 10
      - time: 2.7333333
        value: 0
        inSlope: 0
        outSlope: 0
        tangentMode: 10
      m_PreInfinity: 2
      m_PostInfinity: 2
      m_RotationOrder: 4
    attribute: localEulerAnglesRaw.y
    path: Body/Torso/LeftShoulder
    classID: 4
    script: {fileID: 0}
  - curve:
      serializedVersion: 2
      m_Curve:
      - time: 0
        value: 0
        inSlope: -32.024998
        outSlope: -32.024998
        tangentMode: 10
      - time: 0.33333334
        value: -10.675
        inSlope: -22.539558
        outSlope: -22.539558
        tangentMode: 10
      - time: 0.48333332
        value: -12.633118
        inSlope: -7.5209813
        outSlope: -7.5209813
        tangentMode: 10
      - time: 1.2333333
        value: -14.124001
        inSlope: 3.7140782
        outSlope: 3.7140782
        tangentMode: 10
      - time: 2.7333333
        value: 0
        inSlope: 9.416
        outSlope: 9.416
        tangentMode: 10
      m_PreInfinity: 2
      m_PostInfinity: 2
      m_RotationOrder: 4
    attribute: localEulerAnglesRaw.z
    path: Body/Torso/LeftShoulder
    classID: 4
    script: {fileID: 0}
  - curve:
      serializedVersion: 2
      m_Curve:
      - time: 0
        value: 1.3409996
        inSlope: 0
        outSlope: 0
        tangentMode: 10
      - time: 2.7333333
        value: 1.3409996
        inSlope: 0
        outSlope: 0
        tangentMode: 10
      m_PreInfinity: 2
      m_PostInfinity: 2
      m_RotationOrder: 4
    attribute: m_LocalPosition.x
    path: Body/Torso/LeftShoulder
    classID: 4
    script: {fileID: 0}
  - curve:
      serializedVersion: 2
      m_Curve:
      - time: 0
        value: 2.8200002
        inSlope: 0.1720891
        outSlope: 0.1720891
        tangentMode: 10
      - time: 0.33333334
        value: 2.8773632
        inSlope: 0.08604455
        outSlope: 0.08604455
        tangentMode: 10
      - time: 0.48333332
        value: 2.8773632
        inSlope: -0.012747341
        outSlope: -0.012747341
        tangentMode: 10
      - time: 2.7333333
        value: 2.8200002
        inSlope: -0.025494682
        outSlope: -0.025494682
        tangentMode: 10
      m_PreInfinity: 2
      m_PostInfinity: 2
      m_RotationOrder: 4
    attribute: m_LocalPosition.y
    path: Body/Torso/LeftShoulder
    classID: 4
    script: {fileID: 0}
  - curve:
      serializedVersion: 2
      m_Curve:
      - time: 0
        value: 0
        inSlope: 0
        outSlope: 0
        tangentMode: 10
      - time: 0.33333334
        value: 0
        inSlope: 0
        outSlope: 0
        tangentMode: 10
      - time: 0.48333332
        value: 0
        inSlope: 0
        outSlope: 0
        tangentMode: 10
      - time: 2.7333333
        value: 0
        inSlope: 0
        outSlope: 0
        tangentMode: 10
      m_PreInfinity: 2
      m_PostInfinity: 2
      m_RotationOrder: 4
    attribute: m_LocalPosition.z
    path: Body/Torso/LeftShoulder
    classID: 4
    script: {fileID: 0}
  - curve:
      serializedVersion: 2
      m_Curve:
      - time: 0
        value: 0
        inSlope: 0
        outSlope: 0
        tangentMode: 10
      - time: 0.33333334
        value: 0
        inSlope: 0
        outSlope: 0
        tangentMode: 10
      - time: 0.48333332
        value: 0
        inSlope: 0
        outSlope: 0
        tangentMode: 10
      - time: 1.2333333
        value: 0
        inSlope: 0
        outSlope: 0
        tangentMode: 10
      - time: 1.6833333
        value: 0
        inSlope: 0
        outSlope: 0
        tangentMode: 10
      - time: 2.7333333
        value: 0
        inSlope: 0
        outSlope: 0
        tangentMode: 10
      m_PreInfinity: 2
      m_PostInfinity: 2
      m_RotationOrder: 4
    attribute: localEulerAnglesRaw.x
    path: Body/Torso/LeftShoulder/LeftArm
    classID: 4
    script: {fileID: 0}
  - curve:
      serializedVersion: 2
      m_Curve:
      - time: 0
        value: 0
        inSlope: 0
        outSlope: 0
        tangentMode: 10
      - time: 0.33333334
        value: 0
        inSlope: 0
        outSlope: 0
        tangentMode: 10
      - time: 0.48333332
        value: 0
        inSlope: 0
        outSlope: 0
        tangentMode: 10
      - time: 1.2333333
        value: 0
        inSlope: 0
        outSlope: 0
        tangentMode: 10
      - time: 1.6833333
        value: 0
        inSlope: 0
        outSlope: 0
        tangentMode: 10
      - time: 2.7333333
        value: 0
        inSlope: 0
        outSlope: 0
        tangentMode: 10
      m_PreInfinity: 2
      m_PostInfinity: 2
      m_RotationOrder: 4
    attribute: localEulerAnglesRaw.y
    path: Body/Torso/LeftShoulder/LeftArm
    classID: 4
    script: {fileID: 0}
  - curve:
      serializedVersion: 2
      m_Curve:
      - time: 0
        value: 0
        inSlope: -411.92325
        outSlope: -411.92325
        tangentMode: 10
      - time: 0.33333334
        value: -137.30775
        inSlope: 2.2087996
        outSlope: 2.2087996
        tangentMode: 0
      - time: 2.7333333
        value: 0
        inSlope: 57.211563
        outSlope: 57.211563
        tangentMode: 10
      m_PreInfinity: 2
      m_PostInfinity: 2
      m_RotationOrder: 4
    attribute: localEulerAnglesRaw.z
    path: Body/Torso/LeftShoulder/LeftArm
    classID: 4
    script: {fileID: 0}
  - curve:
      serializedVersion: 2
      m_Curve:
      - time: 0
        value: -0.10000038
        inSlope: 0
        outSlope: 0
        tangentMode: 10
      - time: 0.33333334
        value: -0.10000038
        inSlope: 0
        outSlope: 0
        tangentMode: 10
      - time: 0.48333332
        value: -0.10000038
        inSlope: 0
        outSlope: 0
        tangentMode: 10
      - time: 2.7333333
        value: -0.10000038
        inSlope: 0
        outSlope: 0
        tangentMode: 10
      m_PreInfinity: 2
      m_PostInfinity: 2
      m_RotationOrder: 4
    attribute: m_LocalPosition.x
    path: Body/Torso/Neck/Head
    classID: 4
    script: {fileID: 0}
  - curve:
      serializedVersion: 2
      m_Curve:
      - time: 0
        value: 0.8100004
        inSlope: -0.6000012
        outSlope: -0.6000012
        tangentMode: 10
      - time: 0.33333334
        value: 0.61
        inSlope: -0.3000006
        outSlope: -0.3000006
        tangentMode: 10
      - time: 0.48333332
        value: 0.61
        inSlope: 0.044444535
        outSlope: 0.044444535
        tangentMode: 10
      - time: 2.7333333
        value: 0.8100004
        inSlope: 0.08888907
        outSlope: 0.08888907
        tangentMode: 10
      m_PreInfinity: 2
      m_PostInfinity: 2
      m_RotationOrder: 4
    attribute: m_LocalPosition.y
    path: Body/Torso/Neck/Head
    classID: 4
    script: {fileID: 0}
  - curve:
      serializedVersion: 2
      m_Curve:
      - time: 0
        value: 0
        inSlope: 0
        outSlope: 0
        tangentMode: 10
      - time: 0.33333334
        value: 0
        inSlope: 0
        outSlope: 0
        tangentMode: 10
      - time: 0.48333332
        value: 0
        inSlope: 0
        outSlope: 0
        tangentMode: 10
      - time: 2.7333333
        value: 0
        inSlope: 0
        outSlope: 0
        tangentMode: 10
      m_PreInfinity: 2
      m_PostInfinity: 2
      m_RotationOrder: 4
    attribute: m_LocalPosition.z
    path: Body/Torso/Neck/Head
    classID: 4
    script: {fileID: 0}
  - curve:
      serializedVersion: 2
      m_Curve:
      - time: 0
        value: 0
        inSlope: 0
        outSlope: 0
        tangentMode: 10
      - time: 0.33333334
        value: 0
        inSlope: 0
        outSlope: 0
        tangentMode: 10
      - time: 0.48333332
        value: 0
        inSlope: 0
        outSlope: 0
        tangentMode: 10
      - time: 1.2333333
        value: 0
        inSlope: 0
        outSlope: 0
        tangentMode: 10
      - time: 2.7333333
        value: 0
        inSlope: 0
        outSlope: 0
        tangentMode: 10
      m_PreInfinity: 2
      m_PostInfinity: 2
      m_RotationOrder: 4
    attribute: localEulerAnglesRaw.x
    path: Body/Torso/Neck/Head
    classID: 4
    script: {fileID: 0}
  - curve:
      serializedVersion: 2
      m_Curve:
      - time: 0
        value: 0
        inSlope: 0
        outSlope: 0
        tangentMode: 10
      - time: 0.33333334
        value: 0
        inSlope: 0
        outSlope: 0
        tangentMode: 10
      - time: 0.48333332
        value: 0
        inSlope: 0
        outSlope: 0
        tangentMode: 10
      - time: 1.2333333
        value: 0
        inSlope: 0
        outSlope: 0
        tangentMode: 10
      - time: 2.7333333
        value: 0
        inSlope: 0
        outSlope: 0
        tangentMode: 10
      m_PreInfinity: 2
      m_PostInfinity: 2
      m_RotationOrder: 4
    attribute: localEulerAnglesRaw.y
    path: Body/Torso/Neck/Head
    classID: 4
    script: {fileID: 0}
  - curve:
      serializedVersion: 2
      m_Curve:
      - time: 0
        value: 0
        inSlope: 7.863
        outSlope: 7.863
        tangentMode: 10
      - time: 0.33333334
        value: 2.621
        inSlope: 3.9315
        outSlope: 3.9315
        tangentMode: 10
      - time: 0.48333332
        value: 2.621
        inSlope: 1.4913335
        outSlope: 1.4913335
        tangentMode: 10
      - time: 1.2333333
        value: 4.8580003
        inSlope: -0.1279999
        outSlope: -0.1279999
        tangentMode: 10
      - time: 2.7333333
        value: 0
        inSlope: -3.2386668
        outSlope: -3.2386668
        tangentMode: 10
      m_PreInfinity: 2
      m_PostInfinity: 2
      m_RotationOrder: 4
    attribute: localEulerAnglesRaw.z
    path: Body/Torso/Neck/Head
    classID: 4
    script: {fileID: 0}
  - curve:
      serializedVersion: 2
      m_Curve:
      - time: 0
        value: 0
        inSlope: 0
        outSlope: 0
        tangentMode: 10
      - time: 0.33333334
        value: 0
        inSlope: 0
        outSlope: 0
        tangentMode: 10
      - time: 0.48333332
        value: 0
        inSlope: 0
        outSlope: 0
        tangentMode: 10
      - time: 2.7333333
        value: 0
        inSlope: 0
        outSlope: 0
        tangentMode: 10
      m_PreInfinity: 2
      m_PostInfinity: 2
      m_RotationOrder: 4
    attribute: localEulerAnglesRaw.x
    path: Body/Torso/Neck
    classID: 4
    script: {fileID: 0}
  - curve:
      serializedVersion: 2
      m_Curve:
      - time: 0
        value: 0
        inSlope: 0
        outSlope: 0
        tangentMode: 10
      - time: 0.33333334
        value: 0
        inSlope: 0
        outSlope: 0
        tangentMode: 10
      - time: 0.48333332
        value: 0
        inSlope: 0
        outSlope: 0
        tangentMode: 10
      - time: 2.7333333
        value: 0
        inSlope: 0
        outSlope: 0
        tangentMode: 10
      m_PreInfinity: 2
      m_PostInfinity: 2
      m_RotationOrder: 4
    attribute: localEulerAnglesRaw.y
    path: Body/Torso/Neck
    classID: 4
    script: {fileID: 0}
  - curve:
      serializedVersion: 2
      m_Curve:
      - time: 0
        value: 0
        inSlope: 12.084001
        outSlope: 12.084001
        tangentMode: 10
      - time: 0.33333334
        value: 4.0280004
        inSlope: 6.0420003
        outSlope: 6.0420003
        tangentMode: 10
      - time: 0.48333332
        value: 4.0280004
        inSlope: -0.8951112
        outSlope: -0.8951112
        tangentMode: 10
      - time: 2.7333333
        value: 0
        inSlope: -1.7902224
        outSlope: -1.7902224
        tangentMode: 10
      m_PreInfinity: 2
      m_PostInfinity: 2
      m_RotationOrder: 4
    attribute: localEulerAnglesRaw.z
    path: Body/Torso/Neck
    classID: 4
    script: {fileID: 0}
  - curve:
      serializedVersion: 2
      m_Curve:
      - time: 0
        value: 0
        inSlope: 0
        outSlope: 0
        tangentMode: 10
      - time: 0.33333334
        value: 0
        inSlope: 0
        outSlope: 0
        tangentMode: 10
      - time: 0.48333332
        value: 0
        inSlope: 0
        outSlope: 0
        tangentMode: 10
      - time: 1.2333333
        value: 0
        inSlope: 0
        outSlope: 0
        tangentMode: 10
      - time: 2.7333333
        value: 0
        inSlope: 0
        outSlope: 0
        tangentMode: 10
      m_PreInfinity: 2
      m_PostInfinity: 2
      m_RotationOrder: 4
    attribute: localEulerAnglesRaw.x
    path: Body/Torso/LeftShoulder/LeftArm/LeftHand
    classID: 4
    script: {fileID: 0}
  - curve:
      serializedVersion: 2
      m_Curve:
      - time: 0
        value: 0
        inSlope: 0
        outSlope: 0
        tangentMode: 10
      - time: 0.33333334
        value: 0
        inSlope: 0
        outSlope: 0
        tangentMode: 10
      - time: 0.48333332
        value: 0
        inSlope: 0
        outSlope: 0
        tangentMode: 10
      - time: 1.2333333
        value: 0
        inSlope: 0
        outSlope: 0
        tangentMode: 10
      - time: 2.7333333
        value: 0
        inSlope: 0
        outSlope: 0
        tangentMode: 10
      m_PreInfinity: 2
      m_PostInfinity: 2
      m_RotationOrder: 4
    attribute: localEulerAnglesRaw.y
    path: Body/Torso/LeftShoulder/LeftArm/LeftHand
    classID: 4
    script: {fileID: 0}
  - curve:
      serializedVersion: 2
      m_Curve:
      - time: 0
        value: 0
        inSlope: 82.764
        outSlope: 82.764
        tangentMode: 10
      - time: 0.33333334
        value: 27.588001
        inSlope: 60.390335
        outSlope: 60.390335
        tangentMode: 10
      - time: 0.48333332
        value: 33.2905
        inSlope: 23.03867
        outSlope: 23.03867
        tangentMode: 10
      - time: 1.2333333
        value: 39.336002
        inSlope: -9.081666
        outSlope: -9.081666
        tangentMode: 10
      - time: 2.7333333
        value: 0
        inSlope: -26.224
        outSlope: -26.224
        tangentMode: 10
      m_PreInfinity: 2
      m_PostInfinity: 2
      m_RotationOrder: 4
    attribute: localEulerAnglesRaw.z
    path: Body/Torso/LeftShoulder/LeftArm/LeftHand
    classID: 4
    script: {fileID: 0}
  - curve:
      serializedVersion: 2
      m_Curve:
      - time: 0
        value: 0
        inSlope: 0
        outSlope: 0
        tangentMode: 10
      - time: 0.33333334
        value: 0
        inSlope: 0
        outSlope: 0
        tangentMode: 10
      - time: 0.48333332
        value: 0
        inSlope: 0
        outSlope: 0
        tangentMode: 10
      - time: 1.2333333
        value: 0
        inSlope: 0
        outSlope: 0
        tangentMode: 10
      - time: 2.7333333
        value: 0
        inSlope: 0
        outSlope: 0
        tangentMode: 10
      m_PreInfinity: 2
      m_PostInfinity: 2
      m_RotationOrder: 4
    attribute: localEulerAnglesRaw.x
    path: Body/Torso
    classID: 4
    script: {fileID: 0}
  - curve:
      serializedVersion: 2
      m_Curve:
      - time: 0
        value: 0
        inSlope: 0
        outSlope: 0
        tangentMode: 10
      - time: 0.33333334
        value: 0
        inSlope: 0
        outSlope: 0
        tangentMode: 10
      - time: 0.48333332
        value: 0
        inSlope: 0
        outSlope: 0
        tangentMode: 10
      - time: 1.2333333
        value: 0
        inSlope: 0
        outSlope: 0
        tangentMode: 10
      - time: 2.7333333
        value: 0
        inSlope: 0
        outSlope: 0
        tangentMode: 10
      m_PreInfinity: 2
      m_PostInfinity: 2
      m_RotationOrder: 4
    attribute: localEulerAnglesRaw.y
    path: Body/Torso
    classID: 4
    script: {fileID: 0}
  - curve:
      serializedVersion: 2
      m_Curve:
      - time: 0
        value: 0
        inSlope: -10.92
        outSlope: -10.92
        tangentMode: 10
      - time: 0.33333334
        value: -3.64
        inSlope: -7.747491
        outSlope: -7.747491
        tangentMode: 10
      - time: 0.48333332
        value: -4.326247
        inSlope: -2.6686594
        outSlope: -2.6686594
        tangentMode: 10
      - time: 1.2333333
        value: -4.8980002
        inSlope: 1.251498
        outSlope: 1.251498
        tangentMode: 10
      - time: 2.7333333
        value: 0
        inSlope: 3.2653334
        outSlope: 3.2653334
        tangentMode: 10
      m_PreInfinity: 2
      m_PostInfinity: 2
      m_RotationOrder: 4
    attribute: localEulerAnglesRaw.z
    path: Body/Torso
    classID: 4
    script: {fileID: 0}
  - curve:
      serializedVersion: 2
      m_Curve:
      - time: 0
        value: 0
        inSlope: 0
        outSlope: 0
        tangentMode: 10
      - time: 0.33333334
        value: 0
        inSlope: 0
        outSlope: 0
        tangentMode: 10
      - time: 0.48333332
        value: 0
        inSlope: 0
        outSlope: 0
        tangentMode: 10
      - time: 1.2333333
        value: 0
        inSlope: 0
        outSlope: 0
        tangentMode: 10
      - time: 2.7333333
        value: 0
        inSlope: 0
        outSlope: 0
        tangentMode: 10
      m_PreInfinity: 2
      m_PostInfinity: 2
      m_RotationOrder: 4
    attribute: localEulerAnglesRaw.x
    path: Body/Torso/Skirt
    classID: 4
    script: {fileID: 0}
  - curve:
      serializedVersion: 2
      m_Curve:
      - time: 0
        value: 0
        inSlope: 0
        outSlope: 0
        tangentMode: 10
      - time: 0.33333334
        value: 0
        inSlope: 0
        outSlope: 0
        tangentMode: 10
      - time: 0.48333332
        value: 0
        inSlope: 0
        outSlope: 0
        tangentMode: 10
      - time: 1.2333333
        value: 0
        inSlope: 0
        outSlope: 0
        tangentMode: 10
      - time: 2.7333333
        value: 0
        inSlope: 0
        outSlope: 0
        tangentMode: 10
      m_PreInfinity: 2
      m_PostInfinity: 2
      m_RotationOrder: 4
    attribute: localEulerAnglesRaw.y
    path: Body/Torso/Skirt
    classID: 4
    script: {fileID: 0}
  - curve:
      serializedVersion: 2
      m_Curve:
      - time: 0
        value: 0
        inSlope: 16.944
        outSlope: 16.944
        tangentMode: 10
      - time: 0.33333334
        value: 5.6480002
        inSlope: 11.440051
        outSlope: 11.440051
        tangentMode: 10
      - time: 0.48333332
        value: 6.5384154
        inSlope: 3.1624413
        outSlope: 3.1624413
        tangentMode: 10
      - time: 1.2333333
        value: 6.8300004
        inSlope: -2.0822768
        outSlope: -2.0822768
        tangentMode: 10
      - time: 2.7333333
        value: 0
        inSlope: -4.5533338
        outSlope: -4.5533338
        tangentMode: 10
      m_PreInfinity: 2
      m_PostInfinity: 2
      m_RotationOrder: 4
    attribute: localEulerAnglesRaw.z
    path: Body/Torso/Skirt
    classID: 4
    script: {fileID: 0}
  - curve:
      serializedVersion: 2
      m_Curve:
      - time: 0
        value: 0
        inSlope: 0
        outSlope: 0
        tangentMode: 10
      - time: 0.33333334
        value: 0
        inSlope: 0
        outSlope: 0
        tangentMode: 10
      - time: 0.55
        value: 0
        inSlope: 0
        outSlope: 0
        tangentMode: 10
      - time: 1.6833333
        value: 0
        inSlope: 0
        outSlope: 0
        tangentMode: 10
      m_PreInfinity: 2
      m_PostInfinity: 2
      m_RotationOrder: 4
    attribute: localEulerAnglesRaw.x
    path: Body/Torso/Neck/Head/Fringe
    classID: 4
    script: {fileID: 0}
  - curve:
      serializedVersion: 2
      m_Curve:
      - time: 0
        value: 0
        inSlope: 0
        outSlope: 0
        tangentMode: 10
      - time: 0.33333334
        value: 0
        inSlope: 0
        outSlope: 0
        tangentMode: 10
      - time: 0.55
        value: 0
        inSlope: 0
        outSlope: 0
        tangentMode: 10
      - time: 1.6833333
        value: 0
        inSlope: 0
        outSlope: 0
        tangentMode: 10
      m_PreInfinity: 2
      m_PostInfinity: 2
      m_RotationOrder: 4
    attribute: localEulerAnglesRaw.y
    path: Body/Torso/Neck/Head/Fringe
    classID: 4
    script: {fileID: 0}
  - curve:
      serializedVersion: 2
      m_Curve:
      - time: 0
        value: 0
        inSlope: -13.38
        outSlope: -13.38
        tangentMode: 10
      - time: 0.33333334
        value: -4.46
        inSlope: -11.515385
        outSlope: -11.515385
        tangentMode: 10
      - time: 0.55
        value: -6.551
        inSlope: -3.5737667
        outSlope: -3.5737667
        tangentMode: 10
      - time: 1.6833333
        value: -3.7140002
        inSlope: 2.5032356
        outSlope: 2.5032356
        tangentMode: 10
      m_PreInfinity: 2
      m_PostInfinity: 2
      m_RotationOrder: 4
    attribute: localEulerAnglesRaw.z
    path: Body/Torso/Neck/Head/Fringe
    classID: 4
    script: {fileID: 0}
  - curve:
      serializedVersion: 2
      m_Curve:
      - time: 0
        value: 0
        inSlope: 0
        outSlope: 0
        tangentMode: 10
      - time: 0.33333334
        value: 0
        inSlope: 0
        outSlope: 0
        tangentMode: 10
      - time: 0.9166667
        value: 0
        inSlope: 0
        outSlope: 0
        tangentMode: 10
      - time: 1.7833333
        value: 0
        inSlope: 0
        outSlope: 0
        tangentMode: 10
      m_PreInfinity: 2
      m_PostInfinity: 2
      m_RotationOrder: 4
    attribute: localEulerAnglesRaw.x
    path: Body/Torso/Neck/Head/Hair
    classID: 4
    script: {fileID: 0}
  - curve:
      serializedVersion: 2
      m_Curve:
      - time: 0
        value: 0
        inSlope: 0
        outSlope: 0
        tangentMode: 10
      - time: 0.33333334
        value: 0
        inSlope: 0
        outSlope: 0
        tangentMode: 10
      - time: 0.9166667
        value: 0
        inSlope: 0
        outSlope: 0
        tangentMode: 10
      - time: 1.7833333
        value: 0
        inSlope: 0
        outSlope: 0
        tangentMode: 10
      m_PreInfinity: 2
      m_PostInfinity: 2
      m_RotationOrder: 4
    attribute: localEulerAnglesRaw.y
    path: Body/Torso/Neck/Head/Hair
    classID: 4
    script: {fileID: 0}
  - curve:
      serializedVersion: 2
      m_Curve:
      - time: 0
        value: 0
        inSlope: -10.971
        outSlope: -10.971
        tangentMode: 10
      - time: 0.33333334
        value: -3.657
        inSlope: -1.4312143
        outSlope: -1.4312143
        tangentMode: 10
      - time: 0.9166667
        value: 1.0730001
        inSlope: 1.9214008
        outSlope: 1.9214008
        tangentMode: 10
      - time: 1.7833333
        value: -2.624
        inSlope: -4.2657695
        outSlope: -4.2657695
        tangentMode: 10
      m_PreInfinity: 2
      m_PostInfinity: 2
      m_RotationOrder: 4
    attribute: localEulerAnglesRaw.z
    path: Body/Torso/Neck/Head/Hair
    classID: 4
    script: {fileID: 0}
  - curve:
      serializedVersion: 2
      m_Curve:
      - time: 0
        value: 0
        inSlope: 0
        outSlope: 0
        tangentMode: 10
      - time: 0.33333334
        value: 0
        inSlope: 0
        outSlope: 0
        tangentMode: 10
      - time: 0.93333334
        value: 0
        inSlope: 0
        outSlope: 0
        tangentMode: 10
      - time: 1.4
        value: 0
        inSlope: 0
        outSlope: 0
        tangentMode: 10
      m_PreInfinity: 2
      m_PostInfinity: 2
      m_RotationOrder: 4
    attribute: localEulerAnglesRaw.x
    path: Body/Torso/Neck/Head/Jewel
    classID: 4
    script: {fileID: 0}
  - curve:
      serializedVersion: 2
      m_Curve:
      - time: 0
        value: 0
        inSlope: 0
        outSlope: 0
        tangentMode: 10
      - time: 0.33333334
        value: 0
        inSlope: 0
        outSlope: 0
        tangentMode: 10
      - time: 0.93333334
        value: 0
        inSlope: 0
        outSlope: 0
        tangentMode: 10
      - time: 1.4
        value: 0
        inSlope: 0
        outSlope: 0
        tangentMode: 10
      m_PreInfinity: 2
      m_PostInfinity: 2
      m_RotationOrder: 4
    attribute: localEulerAnglesRaw.y
    path: Body/Torso/Neck/Head/Jewel
    classID: 4
    script: {fileID: 0}
  - curve:
      serializedVersion: 2
      m_Curve:
      - time: 0
        value: 0
        inSlope: -35.943
        outSlope: -35.943
        tangentMode: 10
      - time: 0.33333334
        value: -11.981001
        inSlope: -8.198167
        outSlope: -8.198167
        tangentMode: 10
      - time: 0.93333334
        value: -0.25300002
        inSlope: 6.0897617
        outSlope: 6.0897617
        tangentMode: 10
      - time: 1.4
        value: -3.6910002
        inSlope: -7.3671436
        outSlope: -7.3671436
        tangentMode: 10
      m_PreInfinity: 2
      m_PostInfinity: 2
      m_RotationOrder: 4
    attribute: localEulerAnglesRaw.z
    path: Body/Torso/Neck/Head/Jewel
    classID: 4
    script: {fileID: 0}
  - curve:
      serializedVersion: 2
      m_Curve:
      - time: 0
        value: 0
        inSlope: 0
        outSlope: 0
        tangentMode: 10
      - time: 2.0333333
        value: 0
        inSlope: 0
        outSlope: 0
        tangentMode: 10
      m_PreInfinity: 2
      m_PostInfinity: 2
      m_RotationOrder: 4
    attribute: localEulerAnglesRaw.x
    path: Body/Torso/Wallet
    classID: 4
    script: {fileID: 0}
  - curve:
      serializedVersion: 2
      m_Curve:
      - time: 0
        value: 0
        inSlope: 0
        outSlope: 0
        tangentMode: 10
      - time: 2.0333333
        value: 0
        inSlope: 0
        outSlope: 0
        tangentMode: 10
      m_PreInfinity: 2
      m_PostInfinity: 2
      m_RotationOrder: 4
    attribute: localEulerAnglesRaw.y
    path: Body/Torso/Wallet
    classID: 4
    script: {fileID: 0}
  - curve:
      serializedVersion: 2
      m_Curve:
      - time: 0
        value: 0
        inSlope: -0.652623
        outSlope: -0.652623
        tangentMode: 10
      - time: 2.0333333
        value: -1.327
        inSlope: -0.652623
        outSlope: -0.652623
        tangentMode: 10
      m_PreInfinity: 2
      m_PostInfinity: 2
      m_RotationOrder: 4
    attribute: localEulerAnglesRaw.z
    path: Body/Torso/Wallet
    classID: 4
    script: {fileID: 0}
  - curve:
      serializedVersion: 2
      m_Curve:
      - time: 0
        value: 0
        inSlope: 0
        outSlope: 0
        tangentMode: 10
      - time: 2.0333333
        value: 0
        inSlope: 0
        outSlope: 0
        tangentMode: 10
      m_PreInfinity: 2
      m_PostInfinity: 2
      m_RotationOrder: 4
    attribute: localEulerAnglesRaw.x
    path: Body/Torso/Wallet/Wallet
    classID: 4
    script: {fileID: 0}
  - curve:
      serializedVersion: 2
      m_Curve:
      - time: 0
        value: 0
        inSlope: 0
        outSlope: 0
        tangentMode: 10
      - time: 2.0333333
        value: 0
        inSlope: 0
        outSlope: 0
        tangentMode: 10
      m_PreInfinity: 2
      m_PostInfinity: 2
      m_RotationOrder: 4
    attribute: localEulerAnglesRaw.y
    path: Body/Torso/Wallet/Wallet
    classID: 4
    script: {fileID: 0}
  - curve:
      serializedVersion: 2
      m_Curve:
      - time: 0
        value: 0
        inSlope: -4.410984
        outSlope: -4.410984
        tangentMode: 10
      - time: 2.0333333
        value: -8.969001
        inSlope: -4.410984
        outSlope: -4.410984
        tangentMode: 10
      m_PreInfinity: 2
      m_PostInfinity: 2
      m_RotationOrder: 4
    attribute: localEulerAnglesRaw.z
    path: Body/Torso/Wallet/Wallet
    classID: 4
    script: {fileID: 0}
  - curve:
      serializedVersion: 2
      m_Curve:
      - time: 0
        value: 1
        inSlope: Infinity
        outSlope: Infinity
        tangentMode: 31
      - time: 0.33333334
        value: 0
        inSlope: Infinity
        outSlope: Infinity
        tangentMode: 31
      - time: 2.7333333
        value: 1
        inSlope: Infinity
        outSlope: Infinity
        tangentMode: 31
      m_PreInfinity: 2
      m_PostInfinity: 2
      m_RotationOrder: 4
    attribute: m_IsActive
    path: Body/Torso/Neck/Head/Face/Left/LeftEyebrown/LeftEyebrownIdle
    classID: 1
    script: {fileID: 0}
  - curve:
      serializedVersion: 2
      m_Curve:
      - time: 0
        value: 0
        inSlope: Infinity
        outSlope: Infinity
        tangentMode: 31
      - time: 0.33333334
        value: 1
        inSlope: Infinity
        outSlope: Infinity
        tangentMode: 31
      - time: 2.7333333
        value: 0
        inSlope: Infinity
        outSlope: Infinity
        tangentMode: 31
      m_PreInfinity: 2
      m_PostInfinity: 2
      m_RotationOrder: 4
    attribute: m_IsActive
    path: Body/Torso/Neck/Head/Face/Left/LeftEyebrown/HappyLeft
    classID: 1
    script: {fileID: 0}
  - curve:
      serializedVersion: 2
      m_Curve:
      - time: 0
        value: 1
        inSlope: Infinity
        outSlope: Infinity
        tangentMode: 31
      - time: 0.33333334
        value: 0
        inSlope: Infinity
        outSlope: Infinity
        tangentMode: 31
      - time: 2.7333333
        value: 1
        inSlope: Infinity
        outSlope: Infinity
        tangentMode: 31
      m_PreInfinity: 2
      m_PostInfinity: 2
      m_RotationOrder: 4
    attribute: m_IsActive
    path: Body/Torso/Neck/Head/Face/Right/RightEyebrown/RightEyebrownIdle
    classID: 1
    script: {fileID: 0}
  - curve:
      serializedVersion: 2
      m_Curve:
      - time: 0
        value: 0
        inSlope: 0
        outSlope: 0
        tangentMode: 10
      - time: 0.33333334
        value: 0
        inSlope: 0
        outSlope: 0
        tangentMode: 10
      - time: 2.0333333
        value: 0
        inSlope: 0
        outSlope: 0
        tangentMode: 10
      - time: 2.7333333
        value: 0
        inSlope: 0
        outSlope: 0
        tangentMode: 10
      m_PreInfinity: 2
      m_PostInfinity: 2
      m_RotationOrder: 4
    attribute: localEulerAnglesRaw.x
    path: Body/Torso/Waist
    classID: 4
    script: {fileID: 0}
  - curve:
      serializedVersion: 2
      m_Curve:
      - time: 0
        value: 0
        inSlope: 0
        outSlope: 0
        tangentMode: 10
      - time: 0.33333334
        value: 0
        inSlope: 0
        outSlope: 0
        tangentMode: 10
      - time: 2.0333333
        value: 0
        inSlope: 0
        outSlope: 0
        tangentMode: 10
      - time: 2.7333333
        value: 0
        inSlope: 0
        outSlope: 0
        tangentMode: 10
      m_PreInfinity: 2
      m_PostInfinity: 2
      m_RotationOrder: 4
    attribute: localEulerAnglesRaw.y
    path: Body/Torso/Waist
    classID: 4
    script: {fileID: 0}
  - curve:
      serializedVersion: 2
      m_Curve:
      - time: 0
        value: 351.56665
        inSlope: 3.4359872
        outSlope: 3.4359872
        tangentMode: 10
      - time: 1.1833333
        value: 355.63257
        inSlope: 0.40640724
        outSlope: 0.40640724
        tangentMode: 10
      - time: 2.7333333
        value: 351.56665
        inSlope: -2.6231728
        outSlope: -2.6231728
        tangentMode: 10
      m_PreInfinity: 2
      m_PostInfinity: 2
      m_RotationOrder: 4
    attribute: localEulerAnglesRaw.z
    path: Body/Torso/Waist
    classID: 4
    script: {fileID: 0}
  - curve:
      serializedVersion: 2
      m_Curve:
      - time: 0
        value: 0
        inSlope: Infinity
        outSlope: Infinity
        tangentMode: 31
      - time: 0.33333334
        value: 1
        inSlope: Infinity
        outSlope: Infinity
        tangentMode: 31
      - time: 2.7333333
        value: 0
        inSlope: Infinity
        outSlope: Infinity
        tangentMode: 31
      m_PreInfinity: 2
      m_PostInfinity: 2
      m_RotationOrder: 4
    attribute: m_IsActive
    path: Body/Torso/Neck/Head/Face/Right/RightEyebrown/HappyRight
    classID: 1
    script: {fileID: 0}
  - curve:
      serializedVersion: 2
      m_Curve:
      - time: 0
        value: 1
        inSlope: Infinity
        outSlope: Infinity
        tangentMode: 31
      - time: 0.71666664
        value: 0
        inSlope: Infinity
        outSlope: Infinity
        tangentMode: 31
      - time: 1.9666667
        value: 1
        inSlope: Infinity
        outSlope: Infinity
        tangentMode: 31
      m_PreInfinity: 2
      m_PostInfinity: 2
      m_RotationOrder: 4
    attribute: m_IsActive
    path: Body/Torso/RightShoulder/RightArm/RightHand/HandRight
    classID: 1
    script: {fileID: 0}
  - curve:
      serializedVersion: 2
      m_Curve:
      - time: 0
        value: 0
        inSlope: Infinity
        outSlope: Infinity
        tangentMode: 31
      - time: 0.71666664
        value: 1
        inSlope: Infinity
        outSlope: Infinity
        tangentMode: 31
      - time: 1.9666667
        value: 0
        inSlope: Infinity
        outSlope: Infinity
        tangentMode: 31
      m_PreInfinity: 2
      m_PostInfinity: 2
      m_RotationOrder: 4
    attribute: m_IsActive
    path: Body/Torso/RightShoulder/RightArm/RightHand/HandRightClosedHand
    classID: 1
    script: {fileID: 0}
  - curve:
      serializedVersion: 2
      m_Curve:
      - time: 0
        value: 0
        inSlope: 0
        outSlope: 0
        tangentMode: 10
      - time: 0.36666667
        value: 0
        inSlope: 0
        outSlope: 0
        tangentMode: 10
      - time: 1.25
        value: 0
        inSlope: 0
        outSlope: 0
        tangentMode: 10
      - time: 1.75
        value: 0
        inSlope: 0
        outSlope: 0
        tangentMode: 10
      m_PreInfinity: 2
      m_PostInfinity: 2
      m_RotationOrder: 4
    attribute: localEulerAnglesRaw.x
    path: Body/Torso/RightShoulder/RightArm/RightHand
    classID: 4
    script: {fileID: 0}
  - curve:
      serializedVersion: 2
      m_Curve:
      - time: 0
        value: 0
        inSlope: 0
        outSlope: 0
        tangentMode: 10
      - time: 0.36666667
        value: 0
        inSlope: 0
        outSlope: 0
        tangentMode: 10
      - time: 1.25
        value: 0
        inSlope: 0
        outSlope: 0
        tangentMode: 10
      - time: 1.75
        value: 0
        inSlope: 0
        outSlope: 0
        tangentMode: 10
      m_PreInfinity: 2
      m_PostInfinity: 2
      m_RotationOrder: 4
    attribute: localEulerAnglesRaw.y
    path: Body/Torso/RightShoulder/RightArm/RightHand
    classID: 4
    script: {fileID: 0}
  - curve:
      serializedVersion: 2
      m_Curve:
      - time: 0
        value: -9.281559
        inSlope: -24.92575
        outSlope: -24.92575
        tangentMode: 10
      - time: 0.36666667
        value: -18.421001
        inSlope: -5.404384
        outSlope: -5.404384
        tangentMode: 10
      - time: 1.25
        value: -5.951
        inSlope: 7.058491
        outSlope: 7.058491
        tangentMode: 10
      - time: 1.75
        value: -5.951
        inSlope: 0
        outSlope: 0
        tangentMode: 10
      m_PreInfinity: 2
      m_PostInfinity: 2
      m_RotationOrder: 4
    attribute: localEulerAnglesRaw.z
    path: Body/Torso/RightShoulder/RightArm/RightHand
    classID: 4
    script: {fileID: 0}
  m_EulerEditorCurves:
  - curve:
      serializedVersion: 2
      m_Curve: []
      m_PreInfinity: 2
      m_PostInfinity: 2
      m_RotationOrder: 4
    attribute: m_LocalEulerAngles.z
    path: Body/Torso/RightShoulder/RightArm/RightHand
    classID: 4
    script: {fileID: 0}
  - curve:
      serializedVersion: 2
      m_Curve: []
      m_PreInfinity: 2
      m_PostInfinity: 2
      m_RotationOrder: 4
    attribute: m_LocalEulerAngles.y
    path: Body/Torso/RightShoulder/RightArm/RightHand
    classID: 4
    script: {fileID: 0}
  - curve:
      serializedVersion: 2
      m_Curve: []
      m_PreInfinity: 2
      m_PostInfinity: 2
      m_RotationOrder: 4
    attribute: m_LocalEulerAngles.x
    path: Body/Torso/RightShoulder/RightArm/RightHand
    classID: 4
    script: {fileID: 0}
  - curve:
      serializedVersion: 2
      m_Curve: []
      m_PreInfinity: 2
      m_PostInfinity: 2
      m_RotationOrder: 4
    attribute: m_LocalEulerAngles.z
    path: Body/Torso/Neck/Head/Face/Right/RightEyebrown
    classID: 4
    script: {fileID: 0}
  - curve:
      serializedVersion: 2
      m_Curve: []
      m_PreInfinity: 2
      m_PostInfinity: 2
      m_RotationOrder: 4
    attribute: m_LocalEulerAngles.y
    path: Body/Torso/Neck/Head/Face/Right/RightEyebrown
    classID: 4
    script: {fileID: 0}
  - curve:
      serializedVersion: 2
      m_Curve: []
      m_PreInfinity: 2
      m_PostInfinity: 2
      m_RotationOrder: 4
    attribute: m_LocalEulerAngles.x
    path: Body/Torso/Neck/Head/Face/Right/RightEyebrown
    classID: 4
    script: {fileID: 0}
  - curve:
      serializedVersion: 2
      m_Curve: []
      m_PreInfinity: 2
      m_PostInfinity: 2
      m_RotationOrder: 4
    attribute: m_LocalEulerAngles.z
    path: Body/Torso/RightShoulder
    classID: 4
    script: {fileID: 0}
  - curve:
      serializedVersion: 2
      m_Curve: []
      m_PreInfinity: 2
      m_PostInfinity: 2
      m_RotationOrder: 4
    attribute: m_LocalEulerAngles.y
    path: Body/Torso/RightShoulder
    classID: 4
    script: {fileID: 0}
  - curve:
      serializedVersion: 2
      m_Curve: []
      m_PreInfinity: 2
      m_PostInfinity: 2
      m_RotationOrder: 4
    attribute: m_LocalEulerAngles.x
    path: Body/Torso/RightShoulder
    classID: 4
    script: {fileID: 0}
  - curve:
      serializedVersion: 2
      m_Curve: []
      m_PreInfinity: 2
      m_PostInfinity: 2
      m_RotationOrder: 4
    attribute: m_LocalEulerAngles.z
    path: Body/Torso/LeftShoulder
    classID: 4
    script: {fileID: 0}
  - curve:
      serializedVersion: 2
      m_Curve: []
      m_PreInfinity: 2
      m_PostInfinity: 2
      m_RotationOrder: 4
    attribute: m_LocalEulerAngles.y
    path: Body/Torso/LeftShoulder
    classID: 4
    script: {fileID: 0}
  - curve:
      serializedVersion: 2
      m_Curve: []
      m_PreInfinity: 2
      m_PostInfinity: 2
      m_RotationOrder: 4
    attribute: m_LocalEulerAngles.x
    path: Body/Torso/LeftShoulder
    classID: 4
    script: {fileID: 0}
  - curve:
      serializedVersion: 2
      m_Curve: []
      m_PreInfinity: 2
      m_PostInfinity: 2
      m_RotationOrder: 4
    attribute: m_LocalEulerAngles.z
    path: Body/Torso/Wallet
    classID: 4
    script: {fileID: 0}
  - curve:
      serializedVersion: 2
      m_Curve: []
      m_PreInfinity: 2
      m_PostInfinity: 2
      m_RotationOrder: 4
    attribute: m_LocalEulerAngles.y
    path: Body/Torso/Wallet
    classID: 4
    script: {fileID: 0}
  - curve:
      serializedVersion: 2
      m_Curve: []
      m_PreInfinity: 2
      m_PostInfinity: 2
      m_RotationOrder: 4
    attribute: m_LocalEulerAngles.x
    path: Body/Torso/Wallet
    classID: 4
    script: {fileID: 0}
  - curve:
      serializedVersion: 2
      m_Curve: []
      m_PreInfinity: 2
      m_PostInfinity: 2
      m_RotationOrder: 4
    attribute: m_LocalEulerAngles.z
    path: Body/Torso/LeftShoulder/LeftArm
    classID: 4
    script: {fileID: 0}
  - curve:
      serializedVersion: 2
      m_Curve: []
      m_PreInfinity: 2
      m_PostInfinity: 2
      m_RotationOrder: 4
    attribute: m_LocalEulerAngles.y
    path: Body/Torso/LeftShoulder/LeftArm
    classID: 4
    script: {fileID: 0}
  - curve:
      serializedVersion: 2
      m_Curve: []
      m_PreInfinity: 2
      m_PostInfinity: 2
      m_RotationOrder: 4
    attribute: m_LocalEulerAngles.x
    path: Body/Torso/LeftShoulder/LeftArm
    classID: 4
    script: {fileID: 0}
  - curve:
      serializedVersion: 2
      m_Curve: []
      m_PreInfinity: 2
      m_PostInfinity: 2
      m_RotationOrder: 4
    attribute: m_LocalEulerAngles.z
    path: Body/Torso/Neck/Head/Fringe
    classID: 4
    script: {fileID: 0}
  - curve:
      serializedVersion: 2
      m_Curve: []
      m_PreInfinity: 2
      m_PostInfinity: 2
      m_RotationOrder: 4
    attribute: m_LocalEulerAngles.y
    path: Body/Torso/Neck/Head/Fringe
    classID: 4
    script: {fileID: 0}
  - curve:
      serializedVersion: 2
      m_Curve: []
      m_PreInfinity: 2
      m_PostInfinity: 2
      m_RotationOrder: 4
    attribute: m_LocalEulerAngles.x
    path: Body/Torso/Neck/Head/Fringe
    classID: 4
    script: {fileID: 0}
  - curve:
      serializedVersion: 2
      m_Curve: []
      m_PreInfinity: 2
      m_PostInfinity: 2
      m_RotationOrder: 4
    attribute: m_LocalEulerAngles.z
    path: Body/Torso/Neck/Head/Jewel
    classID: 4
    script: {fileID: 0}
  - curve:
      serializedVersion: 2
      m_Curve: []
      m_PreInfinity: 2
      m_PostInfinity: 2
      m_RotationOrder: 4
    attribute: m_LocalEulerAngles.y
    path: Body/Torso/Neck/Head/Jewel
    classID: 4
    script: {fileID: 0}
  - curve:
      serializedVersion: 2
      m_Curve: []
      m_PreInfinity: 2
      m_PostInfinity: 2
      m_RotationOrder: 4
    attribute: m_LocalEulerAngles.x
    path: Body/Torso/Neck/Head/Jewel
    classID: 4
    script: {fileID: 0}
  - curve:
      serializedVersion: 2
      m_Curve: []
      m_PreInfinity: 2
      m_PostInfinity: 2
      m_RotationOrder: 4
    attribute: m_LocalEulerAngles.z
    path: Body/Torso/Neck
    classID: 4
    script: {fileID: 0}
  - curve:
      serializedVersion: 2
      m_Curve: []
      m_PreInfinity: 2
      m_PostInfinity: 2
      m_RotationOrder: 4
    attribute: m_LocalEulerAngles.y
    path: Body/Torso/Neck
    classID: 4
    script: {fileID: 0}
  - curve:
      serializedVersion: 2
      m_Curve: []
      m_PreInfinity: 2
      m_PostInfinity: 2
      m_RotationOrder: 4
    attribute: m_LocalEulerAngles.x
    path: Body/Torso/Neck
    classID: 4
    script: {fileID: 0}
  - curve:
      serializedVersion: 2
      m_Curve: []
      m_PreInfinity: 2
      m_PostInfinity: 2
      m_RotationOrder: 4
    attribute: m_LocalEulerAngles.z
    path: Body/Torso
    classID: 4
    script: {fileID: 0}
  - curve:
      serializedVersion: 2
      m_Curve: []
      m_PreInfinity: 2
      m_PostInfinity: 2
      m_RotationOrder: 4
    attribute: m_LocalEulerAngles.y
    path: Body/Torso
    classID: 4
    script: {fileID: 0}
  - curve:
      serializedVersion: 2
      m_Curve: []
      m_PreInfinity: 2
      m_PostInfinity: 2
      m_RotationOrder: 4
    attribute: m_LocalEulerAngles.x
    path: Body/Torso
    classID: 4
    script: {fileID: 0}
  - curve:
      serializedVersion: 2
      m_Curve: []
      m_PreInfinity: 2
      m_PostInfinity: 2
      m_RotationOrder: 4
    attribute: m_LocalEulerAngles.z
    path: Body/Torso/Neck/Head/Hair
    classID: 4
    script: {fileID: 0}
  - curve:
      serializedVersion: 2
      m_Curve: []
      m_PreInfinity: 2
      m_PostInfinity: 2
      m_RotationOrder: 4
    attribute: m_LocalEulerAngles.y
    path: Body/Torso/Neck/Head/Hair
    classID: 4
    script: {fileID: 0}
  - curve:
      serializedVersion: 2
      m_Curve: []
      m_PreInfinity: 2
      m_PostInfinity: 2
      m_RotationOrder: 4
    attribute: m_LocalEulerAngles.x
    path: Body/Torso/Neck/Head/Hair
    classID: 4
    script: {fileID: 0}
  - curve:
      serializedVersion: 2
      m_Curve: []
      m_PreInfinity: 2
      m_PostInfinity: 2
      m_RotationOrder: 4
    attribute: m_LocalEulerAngles.z
    path: Body/Torso/Wallet/Wallet
    classID: 4
    script: {fileID: 0}
  - curve:
      serializedVersion: 2
      m_Curve: []
      m_PreInfinity: 2
      m_PostInfinity: 2
      m_RotationOrder: 4
    attribute: m_LocalEulerAngles.y
    path: Body/Torso/Wallet/Wallet
    classID: 4
    script: {fileID: 0}
  - curve:
      serializedVersion: 2
      m_Curve: []
      m_PreInfinity: 2
      m_PostInfinity: 2
      m_RotationOrder: 4
    attribute: m_LocalEulerAngles.x
    path: Body/Torso/Wallet/Wallet
    classID: 4
    script: {fileID: 0}
  - curve:
      serializedVersion: 2
      m_Curve: []
      m_PreInfinity: 2
      m_PostInfinity: 2
      m_RotationOrder: 4
    attribute: m_LocalEulerAngles.z
    path: Body/Torso/Neck/Head
    classID: 4
    script: {fileID: 0}
  - curve:
      serializedVersion: 2
      m_Curve: []
      m_PreInfinity: 2
      m_PostInfinity: 2
      m_RotationOrder: 4
    attribute: m_LocalEulerAngles.y
    path: Body/Torso/Neck/Head
    classID: 4
    script: {fileID: 0}
  - curve:
      serializedVersion: 2
      m_Curve: []
      m_PreInfinity: 2
      m_PostInfinity: 2
      m_RotationOrder: 4
    attribute: m_LocalEulerAngles.x
    path: Body/Torso/Neck/Head
    classID: 4
    script: {fileID: 0}
  - curve:
      serializedVersion: 2
      m_Curve: []
      m_PreInfinity: 2
      m_PostInfinity: 2
      m_RotationOrder: 4
    attribute: m_LocalEulerAngles.z
    path: Body/Torso/LeftShoulder/LeftArm/LeftHand
    classID: 4
    script: {fileID: 0}
  - curve:
      serializedVersion: 2
      m_Curve: []
      m_PreInfinity: 2
      m_PostInfinity: 2
      m_RotationOrder: 4
    attribute: m_LocalEulerAngles.y
    path: Body/Torso/LeftShoulder/LeftArm/LeftHand
    classID: 4
    script: {fileID: 0}
  - curve:
      serializedVersion: 2
      m_Curve: []
      m_PreInfinity: 2
      m_PostInfinity: 2
      m_RotationOrder: 4
    attribute: m_LocalEulerAngles.x
    path: Body/Torso/LeftShoulder/LeftArm/LeftHand
    classID: 4
    script: {fileID: 0}
  - curve:
      serializedVersion: 2
      m_Curve: []
      m_PreInfinity: 2
      m_PostInfinity: 2
      m_RotationOrder: 4
    attribute: m_LocalEulerAngles.z
    path: Body/Torso/Skirt
    classID: 4
    script: {fileID: 0}
  - curve:
      serializedVersion: 2
      m_Curve: []
      m_PreInfinity: 2
      m_PostInfinity: 2
      m_RotationOrder: 4
    attribute: m_LocalEulerAngles.y
    path: Body/Torso/Skirt
    classID: 4
    script: {fileID: 0}
  - curve:
      serializedVersion: 2
      m_Curve: []
      m_PreInfinity: 2
      m_PostInfinity: 2
      m_RotationOrder: 4
    attribute: m_LocalEulerAngles.x
    path: Body/Torso/Skirt
    classID: 4
    script: {fileID: 0}
  - curve:
      serializedVersion: 2
      m_Curve: []
      m_PreInfinity: 2
      m_PostInfinity: 2
      m_RotationOrder: 4
    attribute: m_LocalEulerAngles.z
    path: Body/Torso/RightShoulder/RightArm
    classID: 4
    script: {fileID: 0}
  - curve:
      serializedVersion: 2
      m_Curve: []
      m_PreInfinity: 2
      m_PostInfinity: 2
      m_RotationOrder: 4
    attribute: m_LocalEulerAngles.y
    path: Body/Torso/RightShoulder/RightArm
    classID: 4
    script: {fileID: 0}
  - curve:
      serializedVersion: 2
      m_Curve: []
      m_PreInfinity: 2
      m_PostInfinity: 2
      m_RotationOrder: 4
    attribute: m_LocalEulerAngles.x
    path: Body/Torso/RightShoulder/RightArm
    classID: 4
    script: {fileID: 0}
  - curve:
      serializedVersion: 2
      m_Curve: []
      m_PreInfinity: 2
      m_PostInfinity: 2
      m_RotationOrder: 4
    attribute: m_LocalEulerAngles.x
    path: Body/Torso/Waist
    classID: 4
    script: {fileID: 0}
  - curve:
      serializedVersion: 2
      m_Curve: []
      m_PreInfinity: 2
      m_PostInfinity: 2
      m_RotationOrder: 4
    attribute: m_LocalEulerAngles.y
    path: Body/Torso/Waist
    classID: 4
    script: {fileID: 0}
  - curve:
      serializedVersion: 2
      m_Curve: []
      m_PreInfinity: 2
      m_PostInfinity: 2
      m_RotationOrder: 4
    attribute: m_LocalEulerAngles.z
    path: Body/Torso/Waist
    classID: 4
    script: {fileID: 0}
  m_HasGenericRootTransform: 0
  m_HasMotionFloatCurves: 0
  m_GenerateMotionCurves: 0
  m_Events: []
