%YAML 1.1
%TAG !u! tag:unity3d.com,2011:
--- !u!74 &7400000
AnimationClip:
  m_ObjectHideFlags: 0
  m_PrefabParentObject: {fileID: 0}
  m_PrefabInternal: {fileID: 0}
  m_Name: FemaleIrritated
  serializedVersion: 6
  m_Legacy: 0
  m_Compressed: 0
  m_UseHighQualityCurve: 1
  m_RotationCurves: []
  m_CompressedRotationCurves: []
  m_EulerCurves:
  - curve:
      serializedVersion: 2
      m_Curve:
      - time: 0
        value: {x: 0, y: 0, z: 0}
        inSlope: {x: 0, y: 0, z: 32.92306}
        outSlope: {x: 0, y: 0, z: 32.92306}
        tangentMode: 0
      - time: 0.5
        value: {x: 0, y: 0, z: 16.46153}
        inSlope: {x: 0, y: 0, z: -4.8025346}
        outSlope: {x: 0, y: 0, z: -4.8025346}
        tangentMode: 0
      - time: 0.95
        value: {x: 24.607733, y: -10.022421, z: -20.163471}
        inSlope: {x: 10.9367695, y: -4.454409, z: -0.32048658}
        outSlope: {x: 10.9367695, y: -4.454409, z: -0.32048658}
        tangentMode: 0
      - time: 0.96666664
        value: {x: 24.7, y: -10.06, z: -20.170448}
        inSlope: {x: 0, y: 0, z: -0.5151374}
        outSlope: {x: 0, y: 0, z: -0.5151374}
        tangentMode: 0
      - time: 1.8833333
        value: {x: 24.7, y: -10.06, z: -20.938627}
        inSlope: {x: 0, y: 0, z: 3.7355952}
        outSlope: {x: 0, y: 0, z: 3.7355952}
        tangentMode: 0
      - time: 1.9
        value: {x: 24.453655, y: -9.959667, z: -20.87347}
        inSlope: {x: -28.958233, y: 11.794325, z: 4.0848174}
        outSlope: {x: -28.958233, y: 11.794325, z: 4.0848174}
        tangentMode: 0
      - time: 2.1666667
        value: {x: 0, y: 0, z: 0}
        inSlope: {x: 0, y: 0, z: 78.27548}
        outSlope: {x: 0, y: 0, z: 78.27548}
        tangentMode: 0
      m_PreInfinity: 2
      m_PostInfinity: 2
      m_RotationOrder: 4
    path: Body/Torso/LeftShoulder
  - curve:
      serializedVersion: 2
      m_Curve:
      - time: 0
        value: {x: 0, y: 0, z: 0}
        inSlope: {x: 0, y: 0, z: -77.626785}
        outSlope: {x: 0, y: 0, z: -77.626785}
        tangentMode: 0
      - time: 0.5
        value: {x: 0, y: 0, z: -48.38244}
        inSlope: {x: 0, y: 0, z: -100.793945}
        outSlope: {x: 0, y: 0, z: -100.793945}
        tangentMode: 0
      - time: 1.1333333
        value: {x: 0, y: 25.919, z: -87.97702}
        inSlope: {x: 0, y: 0, z: 0}
        outSlope: {x: 0, y: 0, z: 0}
        tangentMode: 0
      - time: 1.6333333
        value: {x: 0, y: 25.919, z: -89.00519}
        inSlope: {x: 0, y: 0, z: 0}
        outSlope: {x: 0, y: 0, z: 0}
        tangentMode: 0
      - time: 1.6833333
        value: {x: 0, y: 25.919, z: -87.513985}
        inSlope: {x: 0, y: 0, z: 58.181423}
        outSlope: {x: 0, y: 0, z: 58.181423}
        tangentMode: 0
      - time: 2.1666667
        value: {x: 0, y: 0, z: 0}
        inSlope: {x: 0, y: 0, z: 166.8847}
        outSlope: {x: 0, y: 0, z: 166.8847}
        tangentMode: 0
      m_PreInfinity: 2
      m_PostInfinity: 2
      m_RotationOrder: 4
    path: Body/Torso/LeftShoulder/LeftArm
  - curve:
      serializedVersion: 2
      m_Curve:
      - time: 0
        value: {x: 0, y: 0, z: 0}
        inSlope: {x: 0, y: 0, z: -59.543545}
        outSlope: {x: 0, y: 0, z: -59.543545}
        tangentMode: 0
      - time: 0.18333334
        value: {x: 0, y: 0, z: -12.548506}
        inSlope: {x: 0, y: 0, z: -66.46799}
        outSlope: {x: 0, y: 0, z: -66.46799}
        tangentMode: 0
      - time: 0.33333334
        value: {x: 0, y: 0, z: -19.847849}
        inSlope: {x: 0, y: 0, z: -23.572445}
        outSlope: {x: 0, y: 0, z: -23.572445}
        tangentMode: 0
      - time: 0.5
        value: {x: 0, y: 0, z: -21.024324}
        inSlope: {x: 0, y: 0, z: 6.1841555}
        outSlope: {x: 0, y: 0, z: 6.1841555}
        tangentMode: 0
      - time: 0.9
        value: {x: 0, y: 0, z: -16.512527}
        inSlope: {x: 0, y: 0, z: -2.4636757}
        outSlope: {x: 0, y: 0, z: -2.4636757}
        tangentMode: 0
      - time: 1.9
        value: {x: 0, y: 0, z: -17.373528}
        inSlope: {x: 0, y: 0, z: 0.8497912}
        outSlope: {x: 0, y: 0, z: 0.8497912}
        tangentMode: 0
      - time: 2.1666667
        value: {x: 0, y: 0, z: 0}
        inSlope: {x: 0, y: 0, z: 65.1507}
        outSlope: {x: 0, y: 0, z: 65.1507}
        tangentMode: 0
      m_PreInfinity: 2
      m_PostInfinity: 2
      m_RotationOrder: 4
    path: Body/Torso/RightShoulder
  - curve:
      serializedVersion: 2
      m_Curve:
      - time: 0
        value: {x: 0, y: 0, z: 0}
        inSlope: {x: 0, y: 0, z: 44.760002}
        outSlope: {x: 0, y: 0, z: 44.760002}
        tangentMode: 0
      - time: 0.18333334
        value: {x: 0, y: 0, z: 8.206}
        inSlope: {x: 0, y: 0, z: 81.42278}
        outSlope: {x: 0, y: 0, z: 81.42278}
        tangentMode: 0
      - time: 0.5
        value: {x: 0, y: 0, z: 48.58732}
        inSlope: {x: 0, y: 0, z: 157.01068}
        outSlope: {x: 0, y: 0, z: 157.01068}
        tangentMode: 0
      - time: 1.15
        value: {x: 0, y: 25.132582, z: 122.35538}
        inSlope: {x: 0, y: 5.523635, z: 0}
        outSlope: {x: 0, y: 5.523635, z: 0}
        tangentMode: 0
      - time: 1.1666666
        value: {x: 0, y: 25.179, z: 122.359985}
        inSlope: {x: 0, y: 0, z: 0.5471344}
        outSlope: {x: 0, y: 0, z: 0.5471344}
        tangentMode: 0
      - time: 1.65
        value: {x: 0, y: 25.179, z: 123.77038}
        inSlope: {x: 0, y: 0, z: 0}
        outSlope: {x: 0, y: 0, z: 0}
        tangentMode: 0
      - time: 1.9
        value: {x: 0, y: 0, z: 79.83526}
        inSlope: {x: 0, y: 0, z: -295.39362}
        outSlope: {x: 0, y: 0, z: -295.39362}
        tangentMode: 0
      - time: 2.1666667
        value: {x: 0, y: 0, z: 0}
        inSlope: {x: 0, y: 0, z: -239.55553}
        outSlope: {x: 0, y: 0, z: -239.55553}
        tangentMode: 0
      m_PreInfinity: 2
      m_PostInfinity: 2
      m_RotationOrder: 4
    path: Body/Torso/RightShoulder/RightArm
  - curve:
      serializedVersion: 2
      m_Curve:
      - time: 0
        value: {x: 0, y: 0, z: 0}
        inSlope: {x: 0, y: 0, z: -7.5920005}
        outSlope: {x: 0, y: 0, z: -7.5920005}
        tangentMode: 0
      - time: 0.5
        value: {x: 0, y: 0, z: -3.7960002}
        inSlope: {x: 0, y: 0, z: -3.8742146}
        outSlope: {x: 0, y: 0, z: -3.8742146}
        tangentMode: 0
      - time: 1.9
        value: {x: 0, y: 0, z: -4.0150003}
        inSlope: {x: 0, y: 0, z: 7.4499087}
        outSlope: {x: 0, y: 0, z: 7.4499087}
        tangentMode: 0
      - time: 2.1666667
        value: {x: 0, y: 0, z: 0}
        inSlope: {x: 0, y: 0, z: 15.056246}
        outSlope: {x: 0, y: 0, z: 15.056246}
        tangentMode: 0
      m_PreInfinity: 2
      m_PostInfinity: 2
      m_RotationOrder: 4
    path: Body/Torso/Neck
  - curve:
      serializedVersion: 2
      m_Curve:
      - time: 0
        value: {x: 0, y: 0, z: 0}
        inSlope: {x: 0, y: 0, z: 15.45306}
        outSlope: {x: 0, y: 0, z: 15.45306}
        tangentMode: 0
      - time: 0.5
        value: {x: 0, y: 0, z: 7.72653}
        inSlope: {x: 0, y: 0, z: 7.70903}
        outSlope: {x: 0, y: 0, z: 7.70903}
        tangentMode: 0
      - time: 1.9
        value: {x: 0, y: 0, z: 7.6775303}
        inSlope: {x: 0, y: 0, z: -14.412864}
        outSlope: {x: 0, y: 0, z: -14.412864}
        tangentMode: 0
      - time: 2.1666667
        value: {x: 0, y: 0, z: 0}
        inSlope: {x: 0, y: 0, z: -28.790728}
        outSlope: {x: 0, y: 0, z: -28.790728}
        tangentMode: 0
      m_PreInfinity: 2
      m_PostInfinity: 2
      m_RotationOrder: 4
    path: Body/Torso/Neck/Head
  - curve:
      serializedVersion: 2
      m_Curve:
      - time: 0
        value: {x: 0, y: 0, z: 0}
        inSlope: {x: 0, y: 0, z: -13.803693}
        outSlope: {x: 0, y: 0, z: -13.803693}
        tangentMode: 0
      - time: 0.5
        value: {x: 0, y: 0, z: -6.9018464}
        inSlope: {x: 0, y: 0, z: -4.550151}
        outSlope: {x: 0, y: 0, z: -4.550151}
        tangentMode: 0
      - time: 1.9
        value: {x: 0, y: 0, z: -0.31709957}
        inSlope: {x: 0, y: 0, z: 2.9462566}
        outSlope: {x: 0, y: 0, z: 2.9462566}
        tangentMode: 0
      - time: 2.1666667
        value: {x: 0, y: 0, z: 0}
        inSlope: {x: 0, y: 0, z: 1.1891229}
        outSlope: {x: 0, y: 0, z: 1.1891229}
        tangentMode: 0
      m_PreInfinity: 2
      m_PostInfinity: 2
      m_RotationOrder: 4
    path: Body/Torso/Neck/Head/Face/Left/LeftEyebrown
  - curve:
      serializedVersion: 2
      m_Curve:
      - time: 0
        value: {x: 0, y: 0, z: 0}
        inSlope: {x: 0, y: 0, z: 7.8197803}
        outSlope: {x: 0, y: 0, z: 7.8197803}
        tangentMode: 0
      - time: 0.5
        value: {x: 0, y: 0, z: 3.9098902}
        inSlope: {x: 0, y: 0, z: 4.3916755}
        outSlope: {x: 0, y: 0, z: 4.3916755}
        tangentMode: 0
      - time: 1.9
        value: {x: 0, y: 0, z: 5.258889}
        inSlope: {x: 0, y: 0, z: -9.378628}
        outSlope: {x: 0, y: 0, z: -9.378628}
        tangentMode: 0
      - time: 2.1666667
        value: {x: 0, y: 0, z: 0}
        inSlope: {x: 0, y: 0, z: -19.720827}
        outSlope: {x: 0, y: 0, z: -19.720827}
        tangentMode: 0
      m_PreInfinity: 2
      m_PostInfinity: 2
      m_RotationOrder: 4
    path: Body/Torso/Neck/Head/Face/Right/RightEyebrown
  - curve:
      serializedVersion: 2
      m_Curve:
      - time: 0
        value: {x: 0, y: 0, z: 0}
        inSlope: {x: 0, y: 0, z: -3.6218972}
        outSlope: {x: 0, y: 0, z: -3.6218972}
        tangentMode: 0
      - time: 0.5
        value: {x: 0, y: 0, z: -1.8109486}
        inSlope: {x: 0, y: 0, z: -1.2002344}
        outSlope: {x: 0, y: 0, z: -1.2002344}
        tangentMode: 0
      - time: 1.9
        value: {x: 0, y: 0, z: -0.10094881}
        inSlope: {x: 0, y: 0, z: 0.79999316}
        outSlope: {x: 0, y: 0, z: 0.79999316}
        tangentMode: 0
      - time: 2.1666667
        value: {x: 0, y: 0, z: 0}
        inSlope: {x: 0, y: 0, z: 0.3785579}
        outSlope: {x: 0, y: 0, z: 0.3785579}
        tangentMode: 0
      m_PreInfinity: 2
      m_PostInfinity: 2
      m_RotationOrder: 4
    path: Body/Torso
  - curve:
      serializedVersion: 2
      m_Curve:
      - time: 0
        value: {x: 0, y: 0, z: 0}
        inSlope: {x: 0, y: 0, z: 6.8780003}
        outSlope: {x: 0, y: 0, z: 6.8780003}
        tangentMode: 0
      - time: 0.5
        value: {x: 0, y: 0, z: 3.4390001}
        inSlope: {x: 0, y: 0, z: 1.7315}
        outSlope: {x: 0, y: 0, z: 1.7315}
        tangentMode: 0
      - time: 1.9
        value: {x: 0, y: 0, z: -1.342}
        inSlope: {x: 0, y: 0, z: 0.80874884}
        outSlope: {x: 0, y: 0, z: 0.80874884}
        tangentMode: 0
      - time: 2.1666667
        value: {x: 0, y: 0, z: 0}
        inSlope: {x: 0, y: 0, z: 5.032498}
        outSlope: {x: 0, y: 0, z: 5.032498}
        tangentMode: 0
      m_PreInfinity: 2
      m_PostInfinity: 2
      m_RotationOrder: 4
    path: Body/Torso/Skirt
  - curve:
      serializedVersion: 2
      m_Curve:
      - time: 0
        value: {x: 0, y: 0, z: 350.29727}
        inSlope: {x: 0, y: 0, z: 3.9387715}
        outSlope: {x: 0, y: 0, z: 3.9387715}
        tangentMode: 0
      - time: 0.8833333
        value: {x: 0, y: 0, z: 353.77652}
        inSlope: {x: 0, y: 0, z: 0.6138346}
        outSlope: {x: 0, y: 0, z: 0.6138346}
        tangentMode: 0
      - time: 2.1666667
        value: {x: 0, y: 0, z: 350.29727}
        inSlope: {x: 0, y: 0, z: -2.7111022}
        outSlope: {x: 0, y: 0, z: -2.7111022}
        tangentMode: 0
      m_PreInfinity: 2
      m_PostInfinity: 2
      m_RotationOrder: 4
    path: Body/Torso/Waist
  - curve:
      serializedVersion: 2
      m_Curve:
      - time: 0
        value: {x: 0, y: 0, z: 1.7763071}
        inSlope: {x: 0, y: 0, z: -62.28288}
        outSlope: {x: 0, y: 0, z: -62.28288}
        tangentMode: 0
      - time: 1.1
        value: {x: 0, y: 0, z: -66.73486}
        inSlope: {x: 0, y: 0, z: 0}
        outSlope: {x: 0, y: 0, z: 0}
        tangentMode: 0
      - time: 1.8166667
        value: {x: 0, y: 0, z: -66.73486}
        inSlope: {x: 0, y: 0, z: 0}
        outSlope: {x: 0, y: 0, z: 0}
        tangentMode: 0
      - time: 2.1833334
        value: {x: 0, y: 0, z: 1.7763071}
        inSlope: {x: 0, y: 0, z: 186.84863}
        outSlope: {x: 0, y: 0, z: 186.84863}
        tangentMode: 0
      m_PreInfinity: 2
      m_PostInfinity: 2
      m_RotationOrder: 4
    path: Body/Torso/LeftShoulder/LeftArm/LeftHand
  - curve:
      serializedVersion: 2
      m_Curve:
      - time: 0
        value: {x: 0, y: 0, z: -7.4261255}
        inSlope: {x: 3.2059462, y: 13.50973, z: -20.922874}
        outSlope: {x: 3.2059462, y: 13.50973, z: -20.922874}
        tangentMode: 0
      - time: 1.2333333
        value: {x: 3.9540002, y: 16.662, z: -33.231003}
        inSlope: {x: 1.6029731, y: 6.754865, z: 0}
        outSlope: {x: 1.6029731, y: 6.754865, z: 0}
        tangentMode: 0
      - time: 1.8166667
        value: {x: 3.9540002, y: 16.662, z: -33.231003}
        inSlope: {x: -5.3918185, y: -22.72091, z: 0}
        outSlope: {x: -5.3918185, y: -22.72091, z: 0}
        tangentMode: 0
      - time: 2.1833334
        value: {x: 0, y: 0, z: -7.4261255}
        inSlope: {x: -10.783637, y: -45.44182, z: 70.37694}
        outSlope: {x: -10.783637, y: -45.44182, z: 70.37694}
        tangentMode: 0
      m_PreInfinity: 2
      m_PostInfinity: 2
      m_RotationOrder: 4
    path: Body/Torso/RightShoulder/RightArm/RightArmFront/RightHand
  m_PositionCurves:
  - curve:
      serializedVersion: 2
      m_Curve:
      - time: 0
        value: {x: -0.6300001, y: 2.85, z: 0}
        inSlope: {x: 0.08000028, y: 0.2800002, z: 0}
        outSlope: {x: 0.08000028, y: 0.2800002, z: 0}
        tangentMode: 0
      - time: 0.5
        value: {x: -0.59, y: 2.99, z: 0}
        inSlope: {x: 0.043571565, y: 0.1542858, z: 0}
        outSlope: {x: 0.043571565, y: 0.1542858, z: 0}
        tangentMode: 0
      - time: 1.9
        value: {x: -0.58, y: 3.03, z: 0}
        inSlope: {x: -0.09017878, y: -0.3232143, z: 0}
        outSlope: {x: -0.09017878, y: -0.3232143, z: 0}
        tangentMode: 0
      - time: 2.1666667
        value: {x: -0.6300001, y: 2.85, z: 0}
        inSlope: {x: -0.18750042, y: -0.675, z: 0}
        outSlope: {x: -0.18750042, y: -0.675, z: 0}
        tangentMode: 0
      m_PreInfinity: 2
      m_PostInfinity: 2
      m_RotationOrder: 4
    path: Body/Torso/RightShoulder
  - curve:
      serializedVersion: 2
      m_Curve:
      - time: 0
        value: {x: 1.3409996, y: 2.8200002, z: 0}
        inSlope: {x: -0.02199912, y: -0.0800004, z: 0}
        outSlope: {x: -0.02199912, y: -0.0800004, z: 0}
        tangentMode: 0
      - time: 0.5
        value: {x: 1.33, y: 2.78, z: 0}
        inSlope: {x: -0.007428135, y: -0.036428776, z: 0}
        outSlope: {x: -0.007428135, y: -0.036428776, z: 0}
        tangentMode: 0
      - time: 1.9
        value: {x: 1.34, y: 2.79, z: 0}
        inSlope: {x: 0.005445618, y: 0.059821796, z: 0}
        outSlope: {x: 0.005445618, y: 0.059821796, z: 0}
        tangentMode: 0
      - time: 2.1666667
        value: {x: 1.3409996, y: 2.8200002, z: 0}
        inSlope: {x: 0.0037483857, y: 0.11250074, z: 0}
        outSlope: {x: 0.0037483857, y: 0.11250074, z: 0}
        tangentMode: 0
      m_PreInfinity: 2
      m_PostInfinity: 2
      m_RotationOrder: 4
    path: Body/Torso/LeftShoulder
  - curve:
      serializedVersion: 2
      m_Curve:
      - time: 0
        value: {x: -0.10000038, y: 0.8100004, z: 0}
        inSlope: {x: -0.019999236, y: -0.4200008, z: 0}
        outSlope: {x: -0.019999236, y: -0.4200008, z: 0}
        tangentMode: 0
      - time: 0.5
        value: {x: -0.11, y: 0.6, z: 0}
        inSlope: {x: -0.009999618, y: -0.22071469, z: 0}
        outSlope: {x: -0.009999618, y: -0.22071469, z: 0}
        tangentMode: 0
      - time: 1.9
        value: {x: -0.11, y: 0.57, z: 0}
        inSlope: {x: 0.018749276, y: 0.43928632, z: 0}
        outSlope: {x: 0.018749276, y: 0.43928632, z: 0}
        tangentMode: 0
      - time: 2.1666667
        value: {x: -0.10000038, y: 0.8100004, z: 0}
        inSlope: {x: 0.037498552, y: 0.9000012, z: 0}
        outSlope: {x: 0.037498552, y: 0.9000012, z: 0}
        tangentMode: 0
      m_PreInfinity: 2
      m_PostInfinity: 2
      m_RotationOrder: 4
    path: Body/Torso/Neck/Head
  - curve:
      serializedVersion: 2
      m_Curve:
      - time: 0
        value: {x: -0.070999146, y: 0.22100067, z: 0}
        inSlope: {x: 0.07399829, y: -0.09600136, z: 0}
        outSlope: {x: 0.07399829, y: -0.09600136, z: 0}
        tangentMode: 0
      - time: 0.5
        value: {x: -0.034, y: 0.173, z: 0}
        inSlope: {x: 0.036642, y: -0.049072105, z: 0}
        outSlope: {x: 0.036642, y: -0.049072105, z: 0}
        tangentMode: 0
      - time: 1.9
        value: {x: -0.035, y: 0.17, z: 0}
        inSlope: {x: -0.067855515, y: 0.0945548, z: 0}
        outSlope: {x: -0.067855515, y: 0.0945548, z: 0}
        tangentMode: 0
      - time: 2.1666667
        value: {x: -0.070999146, y: 0.22100067, z: 0}
        inSlope: {x: -0.13499674, y: 0.19125244, z: 0}
        outSlope: {x: -0.13499674, y: 0.19125244, z: 0}
        tangentMode: 0
      m_PreInfinity: 2
      m_PostInfinity: 2
      m_RotationOrder: 4
    path: Body/Torso/Neck/Head/Face/Left/LeftEyebrown
  - curve:
      serializedVersion: 2
      m_Curve:
      - time: 0
        value: {x: 0, y: 0, z: 0}
        inSlope: {x: -0.02, y: -0.22, z: 0}
        outSlope: {x: -0.02, y: -0.22, z: 0}
        tangentMode: 0
      - time: 0.5
        value: {x: -0.01, y: -0.11, z: 0}
        inSlope: {x: -0.01, y: -0.12428571, z: 0}
        outSlope: {x: -0.01, y: -0.12428571, z: 0}
        tangentMode: 0
      - time: 1.9
        value: {x: -0.01, y: -0.15, z: 0}
        inSlope: {x: 0.018749991, y: 0.2669642, z: 0}
        outSlope: {x: 0.018749991, y: 0.2669642, z: 0}
        tangentMode: 0
      - time: 2.1666667
        value: {x: 0, y: 0, z: 0}
        inSlope: {x: 0.037499983, y: 0.5624998, z: 0}
        outSlope: {x: 0.037499983, y: 0.5624998, z: 0}
        tangentMode: 0
      m_PreInfinity: 2
      m_PostInfinity: 2
      m_RotationOrder: 4
    path: Body/Torso
  - curve:
      serializedVersion: 2
      m_Curve:
      - time: 0
        value: {x: 0.023002625, y: 0.12699986, z: 0}
        inSlope: {x: -0.0000013812985, y: -0.0005262384, z: 0}
        outSlope: {x: -0.0000013812985, y: -0.0005262384, z: 0}
        tangentMode: 0
      - time: 1.9
        value: {x: 0.023, y: 0.126, z: 0}
        inSlope: {x: 0.0000042302245, y: 0.0016116045, z: 0}
        outSlope: {x: 0.0000042302245, y: 0.0016116045, z: 0}
        tangentMode: 0
      - time: 2.1666667
        value: {x: 0.023002625, y: 0.12699986, z: 0}
        inSlope: {x: 0.000009841748, y: 0.0037494474, z: 0}
        outSlope: {x: 0.000009841748, y: 0.0037494474, z: 0}
        tangentMode: 0
      m_PreInfinity: 2
      m_PostInfinity: 2
      m_RotationOrder: 4
    path: Body/Torso/Neck/Head/Face/Right/RightEyebrown
  - curve:
      serializedVersion: 2
      m_Curve:
      - time: 0
        value: {x: -0.86, y: -2.141, z: 0}
        inSlope: {x: -0.04054055, y: 0.008918853, z: -0.15405405}
        outSlope: {x: -0.04054055, y: 0.008918853, z: -0.15405405}
        tangentMode: 0
      - time: 1.2333333
        value: {x: -0.91, y: -2.13, z: -0.19}
        inSlope: {x: -0.04054055, y: 0.008918853, z: -0.15405405}
        outSlope: {x: -0.04054055, y: 0.008918853, z: -0.15405405}
        tangentMode: 0
      m_PreInfinity: 2
      m_PostInfinity: 2
      m_RotationOrder: 4
    path: Body/Torso/RightShoulder/RightArm/RightArmFront/RightHand
  m_ScaleCurves: []
  m_FloatCurves:
  - curve:
      serializedVersion: 2
      m_Curve:
      - time: 0
        value: 0
        inSlope: Infinity
        outSlope: Infinity
        tangentMode: 31
      - time: 0.18333334
        value: 1
        inSlope: Infinity
        outSlope: Infinity
        tangentMode: 31
      - time: 2.1833334
        value: 0
        inSlope: Infinity
        outSlope: Infinity
        tangentMode: 31
      m_PreInfinity: 2
      m_PostInfinity: 2
      m_RotationOrder: 4
    attribute: m_IsActive
    path: Body/Torso/RightShoulder/RightArm/RightArmFront
    classID: 1
    script: {fileID: 0}
  - curve:
      serializedVersion: 2
      m_Curve:
      - time: 0
        value: 1
        inSlope: Infinity
        outSlope: Infinity
        tangentMode: 31
      - time: 0.18333334
        value: 0
        inSlope: Infinity
        outSlope: Infinity
        tangentMode: 31
      - time: 2.1666667
        value: 1
        inSlope: Infinity
        outSlope: Infinity
        tangentMode: 31
      m_PreInfinity: 2
      m_PostInfinity: 2
      m_RotationOrder: 4
    attribute: m_IsActive
    path: Body/Torso/RightShoulder/RightArm/RightHand
    classID: 1
    script: {fileID: 0}
  - curve:
      serializedVersion: 2
      m_Curve:
      - time: 0
        value: 0
        inSlope: Infinity
        outSlope: Infinity
        tangentMode: 31
      - time: 0.45
        value: 1
        inSlope: Infinity
        outSlope: Infinity
        tangentMode: 31
      - time: 1.85
        value: 0
        inSlope: Infinity
        outSlope: Infinity
        tangentMode: 31
      m_PreInfinity: 2
      m_PostInfinity: 2
      m_RotationOrder: 4
    attribute: m_IsActive
    path: Body/Torso/RightShoulder/RightArm/RightArmFront/RightHand/HandClosedRightFront
    classID: 1
    script: {fileID: 0}
  - curve:
      serializedVersion: 2
      m_Curve:
      - time: 0
        value: 1
        inSlope: Infinity
        outSlope: Infinity
        tangentMode: 31
      - time: 0.45
        value: 0
        inSlope: Infinity
        outSlope: Infinity
        tangentMode: 31
      - time: 1.85
        value: 1
        inSlope: Infinity
        outSlope: Infinity
        tangentMode: 31
      - time: 2.1666667
        value: 0
        inSlope: Infinity
        outSlope: Infinity
        tangentMode: 31
      m_PreInfinity: 2
      m_PostInfinity: 2
      m_RotationOrder: 4
    attribute: m_IsActive
    path: Body/Torso/RightShoulder/RightArm/RightArmFront/RightHand/HandRight
    classID: 1
    script: {fileID: 0}
  - curve:
      serializedVersion: 2
      m_Curve:
      - time: 0
        value: 0
        inSlope: Infinity
        outSlope: Infinity
        tangentMode: 31
      - time: 0.45
        value: 1
        inSlope: Infinity
        outSlope: Infinity
        tangentMode: 31
      - time: 0.8
        value: 0
        inSlope: Infinity
        outSlope: Infinity
        tangentMode: 31
      - time: 1.85
        value: 1
        inSlope: Infinity
        outSlope: Infinity
        tangentMode: 31
      - time: 1.9833333
        value: 0
        inSlope: Infinity
        outSlope: Infinity
        tangentMode: 31
      m_PreInfinity: 2
      m_PostInfinity: 2
      m_RotationOrder: 4
    attribute: m_IsActive
    path: Body/Torso/LeftShoulder/LeftArm/LeftHand/ClosedHandLeft
    classID: 1
    script: {fileID: 0}
  - curve:
      serializedVersion: 2
      m_Curve:
      - time: 0
        value: 1
        inSlope: Infinity
        outSlope: Infinity
        tangentMode: 31
      - time: 0.45
        value: 0
        inSlope: Infinity
        outSlope: Infinity
        tangentMode: 31
      - time: 1.9833333
        value: 1
        inSlope: Infinity
        outSlope: Infinity
        tangentMode: 31
      m_PreInfinity: 2
      m_PostInfinity: 2
      m_RotationOrder: 4
    attribute: m_IsActive
    path: Body/Torso/LeftShoulder/LeftArm/LeftHand/HandLeft
    classID: 1
    script: {fileID: 0}
  - curve:
      serializedVersion: 2
      m_Curve:
      - time: 0
        value: 1
        inSlope: Infinity
        outSlope: Infinity
        tangentMode: 31
      - time: 0.21666667
        value: 0
        inSlope: Infinity
        outSlope: Infinity
        tangentMode: 31
      - time: 1.9833333
        value: 1
        inSlope: Infinity
        outSlope: Infinity
        tangentMode: 31
      m_PreInfinity: 2
      m_PostInfinity: 2
      m_RotationOrder: 4
    attribute: m_IsActive
    path: Body/Torso/Neck/Head/Face/Mouth
    classID: 1
    script: {fileID: 0}
  - curve:
      serializedVersion: 2
      m_Curve:
      - time: 0
        value: 0
        inSlope: Infinity
        outSlope: Infinity
        tangentMode: 31
      - time: 0.21666667
        value: 1
        inSlope: Infinity
        outSlope: Infinity
        tangentMode: 31
      - time: 1.9833333
        value: 0
        inSlope: Infinity
        outSlope: Infinity
        tangentMode: 31
      m_PreInfinity: 2
      m_PostInfinity: 2
      m_RotationOrder: 4
    attribute: m_IsActive
    path: Body/Torso/Neck/Head/Face/MouthIrritated
    classID: 1
    script: {fileID: 0}
  - curve:
      serializedVersion: 2
      m_Curve:
      - time: 0
        value: 0
        inSlope: Infinity
        outSlope: Infinity
        tangentMode: 31
      - time: 0.8
        value: 1
        inSlope: Infinity
        outSlope: Infinity
        tangentMode: 31
      - time: 1.85
        value: 0
        inSlope: Infinity
        outSlope: Infinity
        tangentMode: 31
      m_PreInfinity: 2
      m_PostInfinity: 2
      m_RotationOrder: 4
    attribute: m_IsActive
    path: Body/Torso/LeftShoulder/LeftArm/LeftHand/HandLeftIrritated
    classID: 1
    script: {fileID: 0}
  - curve:
      serializedVersion: 2
      m_Curve:
      - time: 0
        value: 0
        inSlope: Infinity
        outSlope: Infinity
        tangentMode: 31
      - time: 0.8
        value: 1
        inSlope: Infinity
        outSlope: Infinity
        tangentMode: 31
      - time: 1.85
        value: 0
        inSlope: Infinity
        outSlope: Infinity
        tangentMode: 31
      m_PreInfinity: 2
      m_PostInfinity: 2
      m_RotationOrder: 4
    attribute: m_IsActive
    path: Body/Torso/LeftShoulder/LeftArm/LeftHand/ClothLeftBack
    classID: 1
    script: {fileID: 0}
  - curve:
      serializedVersion: 2
      m_Curve:
      - time: 0
        value: 1
        inSlope: Infinity
        outSlope: Infinity
        tangentMode: 31
      - time: 0.8
        value: 0
        inSlope: Infinity
        outSlope: Infinity
        tangentMode: 31
      - time: 1.85
        value: 1
        inSlope: Infinity
        outSlope: Infinity
        tangentMode: 31
      m_PreInfinity: 2
      m_PostInfinity: 2
      m_RotationOrder: 4
    attribute: m_IsActive
    path: Body/Torso/LeftShoulder/LeftArm/LeftHand/ClothLeft
    classID: 1
    script: {fileID: 0}
  m_PPtrCurves: []
  m_SampleRate: 60
  m_WrapMode: 0
  m_Bounds:
    m_Center: {x: 0, y: 0, z: 0}
    m_Extent: {x: 0, y: 0, z: 0}
  m_ClipBindingConstant:
    genericBindings:
    - path: 1400595497
      attribute: 1
      script: {fileID: 0}
      classID: 4
      customType: 0
      isPPtrCurve: 0
    - path: 1523632015
      attribute: 1
      script: {fileID: 0}
      classID: 4
      customType: 0
      isPPtrCurve: 0
    - path: 2982998908
      attribute: 1
      script: {fileID: 0}
      classID: 4
      customType: 0
      isPPtrCurve: 0
    - path: 2700673122
      attribute: 1
      script: {fileID: 0}
      classID: 4
      customType: 0
      isPPtrCurve: 0
    - path: 17307992
      attribute: 1
      script: {fileID: 0}
      classID: 4
      customType: 0
      isPPtrCurve: 0
    - path: 423951870
      attribute: 1
      script: {fileID: 0}
      classID: 4
      customType: 0
      isPPtrCurve: 0
    - path: 3023279184
      attribute: 1
      script: {fileID: 0}
      classID: 4
      customType: 0
      isPPtrCurve: 0
    - path: 1523632015
      attribute: 4
      script: {fileID: 0}
      classID: 4
      customType: 14
      isPPtrCurve: 0
    - path: 3500640001
      attribute: 4
      script: {fileID: 0}
      classID: 4
      customType: 14
      isPPtrCurve: 0
    - path: 1400595497
      attribute: 4
      script: {fileID: 0}
      classID: 4
      customType: 14
      isPPtrCurve: 0
    - path: 2874545571
      attribute: 4
      script: {fileID: 0}
      classID: 4
      customType: 14
      isPPtrCurve: 0
    - path: 380507487
      attribute: 4
      script: {fileID: 0}
      classID: 4
      customType: 14
      isPPtrCurve: 0
    - path: 2982998908
      attribute: 4
      script: {fileID: 0}
      classID: 4
      customType: 14
      isPPtrCurve: 0
    - path: 2700673122
      attribute: 4
      script: {fileID: 0}
      classID: 4
      customType: 14
      isPPtrCurve: 0
    - path: 423951870
      attribute: 4
      script: {fileID: 0}
      classID: 4
      customType: 14
      isPPtrCurve: 0
    - path: 17307992
      attribute: 4
      script: {fileID: 0}
      classID: 4
      customType: 14
      isPPtrCurve: 0
    - path: 2425401366
      attribute: 4
      script: {fileID: 0}
      classID: 4
      customType: 14
      isPPtrCurve: 0
    - path: 330745843
      attribute: 4
      script: {fileID: 0}
      classID: 4
      customType: 14
      isPPtrCurve: 0
    - path: 3064011926
      attribute: 4
      script: {fileID: 0}
      classID: 4
      customType: 14
      isPPtrCurve: 0
    - path: 3023279184
      attribute: 4
      script: {fileID: 0}
      classID: 4
      customType: 14
      isPPtrCurve: 0
    - path: 3372283006
      attribute: 2086281974
      script: {fileID: 0}
      classID: 1
      customType: 0
      isPPtrCurve: 0
    - path: 3169952396
      attribute: 2086281974
      script: {fileID: 0}
      classID: 1
      customType: 0
      isPPtrCurve: 0
    - path: 2180885594
      attribute: 2086281974
      script: {fileID: 0}
      classID: 1
      customType: 0
      isPPtrCurve: 0
    - path: 772230335
      attribute: 2086281974
      script: {fileID: 0}
      classID: 1
      customType: 0
      isPPtrCurve: 0
    - path: 3936713916
      attribute: 2086281974
      script: {fileID: 0}
      classID: 1
      customType: 0
      isPPtrCurve: 0
    - path: 1987172442
      attribute: 2086281974
      script: {fileID: 0}
      classID: 1
      customType: 0
      isPPtrCurve: 0
    - path: 92606017
      attribute: 2086281974
      script: {fileID: 0}
      classID: 1
      customType: 0
      isPPtrCurve: 0
    - path: 4137997657
      attribute: 2086281974
      script: {fileID: 0}
      classID: 1
      customType: 0
      isPPtrCurve: 0
    - path: 96737227
      attribute: 2086281974
      script: {fileID: 0}
      classID: 1
      customType: 0
      isPPtrCurve: 0
    - path: 1112107446
      attribute: 2086281974
      script: {fileID: 0}
      classID: 1
      customType: 0
      isPPtrCurve: 0
    - path: 563787331
      attribute: 2086281974
      script: {fileID: 0}
      classID: 1
      customType: 0
      isPPtrCurve: 0
    pptrCurveMapping: []
  m_AnimationClipSettings:
    serializedVersion: 2
    m_AdditiveReferencePoseClip: {fileID: 0}
    m_AdditiveReferencePoseTime: 0
    m_StartTime: 0
    m_StopTime: 2.1833334
    m_OrientationOffsetY: 0
    m_Level: 0
    m_CycleOffset: 0
    m_HasAdditiveReferencePose: 0
    m_LoopTime: 0
    m_LoopBlend: 0
    m_LoopBlendOrientation: 0
    m_LoopBlendPositionY: 0
    m_LoopBlendPositionXZ: 0
    m_KeepOriginalOrientation: 0
    m_KeepOriginalPositionY: 1
    m_KeepOriginalPositionXZ: 0
    m_HeightFromFeet: 0
    m_Mirror: 0
  m_EditorCurves:
  - curve:
      serializedVersion: 2
      m_Curve:
      - time: 0
        value: 0
        inSlope: 0
        outSlope: 0
        tangentMode: 0
      - time: 0.5
        value: 0
        inSlope: 0
        outSlope: 0
        tangentMode: 0
      - time: 0.96666664
        value: 24.7
        inSlope: 0
        outSlope: 0
        tangentMode: 0
      - time: 1.8833333
        value: 24.7
        inSlope: 0
        outSlope: 0
        tangentMode: 0
      - time: 2.1666667
        value: 0
        inSlope: 0
        outSlope: 0
        tangentMode: 0
      m_PreInfinity: 2
      m_PostInfinity: 2
      m_RotationOrder: 4
    attribute: localEulerAnglesRaw.x
    path: Body/Torso/LeftShoulder
    classID: 4
    script: {fileID: 0}
  - curve:
      serializedVersion: 2
      m_Curve:
      - time: 0
        value: 0
        inSlope: 0
        outSlope: 0
        tangentMode: 0
      - time: 0.5
        value: 0
        inSlope: 0
        outSlope: 0
        tangentMode: 0
      - time: 0.96666664
        value: -10.06
        inSlope: 0
        outSlope: 0
        tangentMode: 0
      - time: 1.8833333
        value: -10.06
        inSlope: 0
        outSlope: 0
        tangentMode: 0
      - time: 2.1666667
        value: 0
        inSlope: 0
        outSlope: 0
        tangentMode: 0
      m_PreInfinity: 2
      m_PostInfinity: 2
      m_RotationOrder: 4
    attribute: localEulerAnglesRaw.y
    path: Body/Torso/LeftShoulder
    classID: 4
    script: {fileID: 0}
  - curve:
      serializedVersion: 2
      m_Curve:
      - time: 0
        value: 0
        inSlope: 32.92306
        outSlope: 32.92306
        tangentMode: 10
      - time: 0.5
        value: 16.46153
        inSlope: -4.8025346
        outSlope: -4.8025346
        tangentMode: 0
      - time: 0.95
        value: -20.163471
        inSlope: -0.32048658
        outSlope: -0.32048658
        tangentMode: 0
      - time: 1.9
        value: -20.87347
        inSlope: 4.0848174
        outSlope: 4.0848174
        tangentMode: 0
      - time: 2.1666667
        value: 0
        inSlope: 78.27548
        outSlope: 78.27548
        tangentMode: 10
      m_PreInfinity: 2
      m_PostInfinity: 2
      m_RotationOrder: 4
    attribute: localEulerAnglesRaw.z
    path: Body/Torso/LeftShoulder
    classID: 4
    script: {fileID: 0}
  - curve:
      serializedVersion: 2
      m_Curve: []
      m_PreInfinity: 2
      m_PostInfinity: 2
      m_RotationOrder: 4
    attribute: localEulerAnglesRaw.x
    path: Body/Torso/LeftShoulder/LeftArm
    classID: 4
    script: {fileID: 0}
  - curve:
      serializedVersion: 2
      m_Curve:
      - time: 0
        value: 0
        inSlope: 0
        outSlope: 0
        tangentMode: 0
      - time: 0.5
        value: 0
        inSlope: 0
        outSlope: 0
        tangentMode: 0
      - time: 1.1333333
        value: 25.919
        inSlope: 0
        outSlope: 0
        tangentMode: 0
      - time: 1.6833333
        value: 25.919
        inSlope: 0
        outSlope: 0
        tangentMode: 0
      - time: 2.1666667
        value: 0
        inSlope: 0
        outSlope: 0
        tangentMode: 0
      m_PreInfinity: 2
      m_PostInfinity: 2
      m_RotationOrder: 4
    attribute: localEulerAnglesRaw.y
    path: Body/Torso/LeftShoulder/LeftArm
    classID: 4
    script: {fileID: 0}
  - curve:
      serializedVersion: 2
      m_Curve:
      - time: 0
        value: 0
        inSlope: -77.626785
        outSlope: -77.626785
        tangentMode: 10
      - time: 1.1333333
        value: -87.97702
        inSlope: 0
        outSlope: 0
        tangentMode: 0
      - time: 1.6333333
        value: -89.00519
        inSlope: 0
        outSlope: 0
        tangentMode: 0
      - time: 2.1666667
        value: 0
        inSlope: 166.8847
        outSlope: 166.8847
        tangentMode: 10
      m_PreInfinity: 2
      m_PostInfinity: 2
      m_RotationOrder: 4
    attribute: localEulerAnglesRaw.z
    path: Body/Torso/LeftShoulder/LeftArm
    classID: 4
    script: {fileID: 0}
  - curve:
      serializedVersion: 2
      m_Curve:
      - time: 0
        value: 0
        inSlope: 0
        outSlope: 0
        tangentMode: 10
      - time: 0.18333334
        value: 0
        inSlope: 0
        outSlope: 0
        tangentMode: 10
      - time: 0.5
        value: 0
        inSlope: 0
        outSlope: 0
        tangentMode: 10
      - time: 1.9
        value: 0
        inSlope: 0
        outSlope: 0
        tangentMode: 10
      - time: 2.1666667
        value: 0
        inSlope: 0
        outSlope: 0
        tangentMode: 10
      m_PreInfinity: 2
      m_PostInfinity: 2
      m_RotationOrder: 4
    attribute: localEulerAnglesRaw.x
    path: Body/Torso/RightShoulder
    classID: 4
    script: {fileID: 0}
  - curve:
      serializedVersion: 2
      m_Curve:
      - time: 0
        value: 0
        inSlope: 0
        outSlope: 0
        tangentMode: 10
      - time: 0.18333334
        value: 0
        inSlope: 0
        outSlope: 0
        tangentMode: 10
      - time: 0.5
        value: 0
        inSlope: 0
        outSlope: 0
        tangentMode: 10
      - time: 1.9
        value: 0
        inSlope: 0
        outSlope: 0
        tangentMode: 10
      - time: 2.1666667
        value: 0
        inSlope: 0
        outSlope: 0
        tangentMode: 10
      m_PreInfinity: 2
      m_PostInfinity: 2
      m_RotationOrder: 4
    attribute: localEulerAnglesRaw.y
    path: Body/Torso/RightShoulder
    classID: 4
    script: {fileID: 0}
  - curve:
      serializedVersion: 2
      m_Curve:
      - time: 0
        value: 0
        inSlope: -59.543545
        outSlope: -59.543545
        tangentMode: 10
      - time: 0.33333334
        value: -19.847849
        inSlope: -23.572445
        outSlope: -23.572445
        tangentMode: 0
      - time: 0.9
        value: -16.512527
        inSlope: -2.4636757
        outSlope: -2.4636757
        tangentMode: 0
      - time: 1.9
        value: -17.373528
        inSlope: 0.8497912
        outSlope: 0.8497912
        tangentMode: 0
      - time: 2.1666667
        value: 0
        inSlope: 65.1507
        outSlope: 65.1507
        tangentMode: 10
      m_PreInfinity: 2
      m_PostInfinity: 2
      m_RotationOrder: 4
    attribute: localEulerAnglesRaw.z
    path: Body/Torso/RightShoulder
    classID: 4
    script: {fileID: 0}
  - curve:
      serializedVersion: 2
      m_Curve: []
      m_PreInfinity: 2
      m_PostInfinity: 2
      m_RotationOrder: 4
    attribute: localEulerAnglesRaw.x
    path: Body/Torso/RightShoulder/RightArm
    classID: 4
    script: {fileID: 0}
  - curve:
      serializedVersion: 2
      m_Curve:
      - time: 0
        value: 0
        inSlope: 0
        outSlope: 0
        tangentMode: 0
      - time: 0.18333334
        value: 0
        inSlope: 0
        outSlope: 0
        tangentMode: 0
      - time: 0.5
        value: 0
        inSlope: 0
        outSlope: 0
        tangentMode: 0
      - time: 1.1666666
        value: 25.179
        inSlope: 0
        outSlope: 0
        tangentMode: 0
      - time: 1.65
        value: 25.179
        inSlope: 0
        outSlope: 0
        tangentMode: 0
      - time: 1.9
        value: 0
        inSlope: 0
        outSlope: 0
        tangentMode: 0
      - time: 2.1666667
        value: 0
        inSlope: 0
        outSlope: 0
        tangentMode: 0
      m_PreInfinity: 2
      m_PostInfinity: 2
      m_RotationOrder: 4
    attribute: localEulerAnglesRaw.y
    path: Body/Torso/RightShoulder/RightArm
    classID: 4
    script: {fileID: 0}
  - curve:
      serializedVersion: 2
      m_Curve:
      - time: 0
        value: 0
        inSlope: 44.760002
        outSlope: 44.760002
        tangentMode: 10
      - time: 0.18333334
        value: 8.206
        inSlope: 81.42278
        outSlope: 81.42278
        tangentMode: 10
      - time: 1.15
        value: 122.35538
        inSlope: 0
        outSlope: 0
        tangentMode: 0
      - time: 1.65
        value: 123.77038
        inSlope: 0
        outSlope: 0
        tangentMode: 0
      - time: 2.1666667
        value: 0
        inSlope: -239.55553
        outSlope: -239.55553
        tangentMode: 10
      m_PreInfinity: 2
      m_PostInfinity: 2
      m_RotationOrder: 4
    attribute: localEulerAnglesRaw.z
    path: Body/Torso/RightShoulder/RightArm
    classID: 4
    script: {fileID: 0}
  - curve:
      serializedVersion: 2
      m_Curve:
      - time: 0
        value: 0
        inSlope: Infinity
        outSlope: Infinity
        tangentMode: 31
      - time: 0.18333334
        value: 1
        inSlope: Infinity
        outSlope: Infinity
        tangentMode: 31
      - time: 2.1833334
        value: 0
        inSlope: Infinity
        outSlope: Infinity
        tangentMode: 31
      m_PreInfinity: 2
      m_PostInfinity: 2
      m_RotationOrder: 4
    attribute: m_IsActive
    path: Body/Torso/RightShoulder/RightArm/RightArmFront
    classID: 1
    script: {fileID: 0}
  - curve:
      serializedVersion: 2
      m_Curve:
      - time: 0
        value: 1
        inSlope: Infinity
        outSlope: Infinity
        tangentMode: 31
      - time: 0.18333334
        value: 0
        inSlope: Infinity
        outSlope: Infinity
        tangentMode: 31
      - time: 2.1666667
        value: 1
        inSlope: Infinity
        outSlope: Infinity
        tangentMode: 31
      m_PreInfinity: 2
      m_PostInfinity: 2
      m_RotationOrder: 4
    attribute: m_IsActive
    path: Body/Torso/RightShoulder/RightArm/RightHand
    classID: 1
    script: {fileID: 0}
  - curve:
      serializedVersion: 2
      m_Curve:
      - time: 0
        value: 0
        inSlope: Infinity
        outSlope: Infinity
        tangentMode: 31
      - time: 0.45
        value: 1
        inSlope: Infinity
        outSlope: Infinity
        tangentMode: 31
      - time: 1.85
        value: 0
        inSlope: Infinity
        outSlope: Infinity
        tangentMode: 31
      m_PreInfinity: 2
      m_PostInfinity: 2
      m_RotationOrder: 4
    attribute: m_IsActive
    path: Body/Torso/RightShoulder/RightArm/RightArmFront/RightHand/HandClosedRightFront
    classID: 1
    script: {fileID: 0}
  - curve:
      serializedVersion: 2
      m_Curve:
      - time: 0
        value: 1
        inSlope: Infinity
        outSlope: Infinity
        tangentMode: 31
      - time: 0.45
        value: 0
        inSlope: Infinity
        outSlope: Infinity
        tangentMode: 31
      - time: 1.85
        value: 1
        inSlope: Infinity
        outSlope: Infinity
        tangentMode: 31
      - time: 2.1666667
        value: 0
        inSlope: Infinity
        outSlope: Infinity
        tangentMode: 31
      m_PreInfinity: 2
      m_PostInfinity: 2
      m_RotationOrder: 4
    attribute: m_IsActive
    path: Body/Torso/RightShoulder/RightArm/RightArmFront/RightHand/HandRight
    classID: 1
    script: {fileID: 0}
  - curve:
      serializedVersion: 2
      m_Curve:
      - time: 0
        value: 0
        inSlope: Infinity
        outSlope: Infinity
        tangentMode: 31
      - time: 0.45
        value: 1
        inSlope: Infinity
        outSlope: Infinity
        tangentMode: 31
      - time: 0.8
        value: 0
        inSlope: Infinity
        outSlope: Infinity
        tangentMode: 31
      - time: 1.85
        value: 1
        inSlope: Infinity
        outSlope: Infinity
        tangentMode: 31
      - time: 1.9833333
        value: 0
        inSlope: Infinity
        outSlope: Infinity
        tangentMode: 31
      m_PreInfinity: 2
      m_PostInfinity: 2
      m_RotationOrder: 4
    attribute: m_IsActive
    path: Body/Torso/LeftShoulder/LeftArm/LeftHand/ClosedHandLeft
    classID: 1
    script: {fileID: 0}
  - curve:
      serializedVersion: 2
      m_Curve:
      - time: 0
        value: 1
        inSlope: Infinity
        outSlope: Infinity
        tangentMode: 31
      - time: 0.45
        value: 0
        inSlope: Infinity
        outSlope: Infinity
        tangentMode: 31
      - time: 1.9833333
        value: 1
        inSlope: Infinity
        outSlope: Infinity
        tangentMode: 31
      m_PreInfinity: 2
      m_PostInfinity: 2
      m_RotationOrder: 4
    attribute: m_IsActive
    path: Body/Torso/LeftShoulder/LeftArm/LeftHand/HandLeft
    classID: 1
    script: {fileID: 0}
  - curve:
      serializedVersion: 2
      m_Curve:
      - time: 0
        value: -0.6300001
        inSlope: 0.08000028
        outSlope: 0.08000028
        tangentMode: 10
      - time: 0.5
        value: -0.59
        inSlope: 0.043571565
        outSlope: 0.043571565
        tangentMode: 10
      - time: 1.9
        value: -0.58
        inSlope: -0.09017878
        outSlope: -0.09017878
        tangentMode: 10
      - time: 2.1666667
        value: -0.6300001
        inSlope: -0.18750042
        outSlope: -0.18750042
        tangentMode: 10
      m_PreInfinity: 2
      m_PostInfinity: 2
      m_RotationOrder: 4
    attribute: m_LocalPosition.x
    path: Body/Torso/RightShoulder
    classID: 4
    script: {fileID: 0}
  - curve:
      serializedVersion: 2
      m_Curve:
      - time: 0
        value: 2.85
        inSlope: 0.2800002
        outSlope: 0.2800002
        tangentMode: 10
      - time: 0.5
        value: 2.99
        inSlope: 0.1542858
        outSlope: 0.1542858
        tangentMode: 10
      - time: 1.9
        value: 3.03
        inSlope: -0.3232143
        outSlope: -0.3232143
        tangentMode: 10
      - time: 2.1666667
        value: 2.85
        inSlope: -0.675
        outSlope: -0.675
        tangentMode: 10
      m_PreInfinity: 2
      m_PostInfinity: 2
      m_RotationOrder: 4
    attribute: m_LocalPosition.y
    path: Body/Torso/RightShoulder
    classID: 4
    script: {fileID: 0}
  - curve:
      serializedVersion: 2
      m_Curve:
      - time: 0
        value: 0
        inSlope: 0
        outSlope: 0
        tangentMode: 10
      - time: 0.5
        value: 0
        inSlope: 0
        outSlope: 0
        tangentMode: 10
      - time: 1.9
        value: 0
        inSlope: 0
        outSlope: 0
        tangentMode: 10
      - time: 2.1666667
        value: 0
        inSlope: 0
        outSlope: 0
        tangentMode: 10
      m_PreInfinity: 2
      m_PostInfinity: 2
      m_RotationOrder: 4
    attribute: m_LocalPosition.z
    path: Body/Torso/RightShoulder
    classID: 4
    script: {fileID: 0}
  - curve:
      serializedVersion: 2
      m_Curve:
      - time: 0
        value: 1.3409996
        inSlope: -0.02199912
        outSlope: -0.02199912
        tangentMode: 10
      - time: 0.5
        value: 1.33
        inSlope: -0.007428135
        outSlope: -0.007428135
        tangentMode: 10
      - time: 1.9
        value: 1.34
        inSlope: 0.005445618
        outSlope: 0.005445618
        tangentMode: 10
      - time: 2.1666667
        value: 1.3409996
        inSlope: 0.0037483857
        outSlope: 0.0037483857
        tangentMode: 10
      m_PreInfinity: 2
      m_PostInfinity: 2
      m_RotationOrder: 4
    attribute: m_LocalPosition.x
    path: Body/Torso/LeftShoulder
    classID: 4
    script: {fileID: 0}
  - curve:
      serializedVersion: 2
      m_Curve:
      - time: 0
        value: 2.8200002
        inSlope: -0.0800004
        outSlope: -0.0800004
        tangentMode: 10
      - time: 0.5
        value: 2.78
        inSlope: -0.036428776
        outSlope: -0.036428776
        tangentMode: 10
      - time: 1.9
        value: 2.79
        inSlope: 0.059821796
        outSlope: 0.059821796
        tangentMode: 10
      - time: 2.1666667
        value: 2.8200002
        inSlope: 0.11250074
        outSlope: 0.11250074
        tangentMode: 10
      m_PreInfinity: 2
      m_PostInfinity: 2
      m_RotationOrder: 4
    attribute: m_LocalPosition.y
    path: Body/Torso/LeftShoulder
    classID: 4
    script: {fileID: 0}
  - curve:
      serializedVersion: 2
      m_Curve:
      - time: 0
        value: 0
        inSlope: 0
        outSlope: 0
        tangentMode: 10
      - time: 0.5
        value: 0
        inSlope: 0
        outSlope: 0
        tangentMode: 10
      - time: 1.9
        value: 0
        inSlope: 0
        outSlope: 0
        tangentMode: 10
      - time: 2.1666667
        value: 0
        inSlope: 0
        outSlope: 0
        tangentMode: 10
      m_PreInfinity: 2
      m_PostInfinity: 2
      m_RotationOrder: 4
    attribute: m_LocalPosition.z
    path: Body/Torso/LeftShoulder
    classID: 4
    script: {fileID: 0}
  - curve:
      serializedVersion: 2
      m_Curve:
      - time: 0
        value: 0
        inSlope: 0
        outSlope: 0
        tangentMode: 10
      - time: 0.5
        value: 0
        inSlope: 0
        outSlope: 0
        tangentMode: 10
      - time: 1.9
        value: 0
        inSlope: 0
        outSlope: 0
        tangentMode: 10
      - time: 2.1666667
        value: 0
        inSlope: 0
        outSlope: 0
        tangentMode: 10
      m_PreInfinity: 2
      m_PostInfinity: 2
      m_RotationOrder: 4
    attribute: localEulerAnglesRaw.x
    path: Body/Torso/Neck
    classID: 4
    script: {fileID: 0}
  - curve:
      serializedVersion: 2
      m_Curve:
      - time: 0
        value: 0
        inSlope: 0
        outSlope: 0
        tangentMode: 10
      - time: 0.5
        value: 0
        inSlope: 0
        outSlope: 0
        tangentMode: 10
      - time: 1.9
        value: 0
        inSlope: 0
        outSlope: 0
        tangentMode: 10
      - time: 2.1666667
        value: 0
        inSlope: 0
        outSlope: 0
        tangentMode: 10
      m_PreInfinity: 2
      m_PostInfinity: 2
      m_RotationOrder: 4
    attribute: localEulerAnglesRaw.y
    path: Body/Torso/Neck
    classID: 4
    script: {fileID: 0}
  - curve:
      serializedVersion: 2
      m_Curve:
      - time: 0
        value: 0
        inSlope: -7.5920005
        outSlope: -7.5920005
        tangentMode: 10
      - time: 0.5
        value: -3.7960002
        inSlope: -3.8742146
        outSlope: -3.8742146
        tangentMode: 10
      - time: 1.9
        value: -4.0150003
        inSlope: 7.4499087
        outSlope: 7.4499087
        tangentMode: 10
      - time: 2.1666667
        value: 0
        inSlope: 15.056246
        outSlope: 15.056246
        tangentMode: 10
      m_PreInfinity: 2
      m_PostInfinity: 2
      m_RotationOrder: 4
    attribute: localEulerAnglesRaw.z
    path: Body/Torso/Neck
    classID: 4
    script: {fileID: 0}
  - curve:
      serializedVersion: 2
      m_Curve:
      - time: 0
        value: 0
        inSlope: 0
        outSlope: 0
        tangentMode: 10
      - time: 0.5
        value: 0
        inSlope: 0
        outSlope: 0
        tangentMode: 10
      - time: 1.9
        value: 0
        inSlope: 0
        outSlope: 0
        tangentMode: 10
      - time: 2.1666667
        value: 0
        inSlope: 0
        outSlope: 0
        tangentMode: 10
      m_PreInfinity: 2
      m_PostInfinity: 2
      m_RotationOrder: 4
    attribute: localEulerAnglesRaw.x
    path: Body/Torso/Neck/Head
    classID: 4
    script: {fileID: 0}
  - curve:
      serializedVersion: 2
      m_Curve:
      - time: 0
        value: 0
        inSlope: 0
        outSlope: 0
        tangentMode: 10
      - time: 0.5
        value: 0
        inSlope: 0
        outSlope: 0
        tangentMode: 10
      - time: 1.9
        value: 0
        inSlope: 0
        outSlope: 0
        tangentMode: 10
      - time: 2.1666667
        value: 0
        inSlope: 0
        outSlope: 0
        tangentMode: 10
      m_PreInfinity: 2
      m_PostInfinity: 2
      m_RotationOrder: 4
    attribute: localEulerAnglesRaw.y
    path: Body/Torso/Neck/Head
    classID: 4
    script: {fileID: 0}
  - curve:
      serializedVersion: 2
      m_Curve:
      - time: 0
        value: 0
        inSlope: 15.45306
        outSlope: 15.45306
        tangentMode: 10
      - time: 0.5
        value: 7.72653
        inSlope: 7.70903
        outSlope: 7.70903
        tangentMode: 10
      - time: 1.9
        value: 7.6775303
        inSlope: -14.412864
        outSlope: -14.412864
        tangentMode: 10
      - time: 2.1666667
        value: 0
        inSlope: -28.790728
        outSlope: -28.790728
        tangentMode: 10
      m_PreInfinity: 2
      m_PostInfinity: 2
      m_RotationOrder: 4
    attribute: localEulerAnglesRaw.z
    path: Body/Torso/Neck/Head
    classID: 4
    script: {fileID: 0}
  - curve:
      serializedVersion: 2
      m_Curve:
      - time: 0
        value: -0.10000038
        inSlope: -0.019999236
        outSlope: -0.019999236
        tangentMode: 10
      - time: 0.5
        value: -0.11
        inSlope: -0.009999618
        outSlope: -0.009999618
        tangentMode: 10
      - time: 1.9
        value: -0.11
        inSlope: 0.018749276
        outSlope: 0.018749276
        tangentMode: 10
      - time: 2.1666667
        value: -0.10000038
        inSlope: 0.037498552
        outSlope: 0.037498552
        tangentMode: 10
      m_PreInfinity: 2
      m_PostInfinity: 2
      m_RotationOrder: 4
    attribute: m_LocalPosition.x
    path: Body/Torso/Neck/Head
    classID: 4
    script: {fileID: 0}
  - curve:
      serializedVersion: 2
      m_Curve:
      - time: 0
        value: 0.8100004
        inSlope: -0.4200008
        outSlope: -0.4200008
        tangentMode: 10
      - time: 0.5
        value: 0.6
        inSlope: -0.22071469
        outSlope: -0.22071469
        tangentMode: 10
      - time: 1.9
        value: 0.57
        inSlope: 0.43928632
        outSlope: 0.43928632
        tangentMode: 10
      - time: 2.1666667
        value: 0.8100004
        inSlope: 0.9000012
        outSlope: 0.9000012
        tangentMode: 10
      m_PreInfinity: 2
      m_PostInfinity: 2
      m_RotationOrder: 4
    attribute: m_LocalPosition.y
    path: Body/Torso/Neck/Head
    classID: 4
    script: {fileID: 0}
  - curve:
      serializedVersion: 2
      m_Curve:
      - time: 0
        value: 0
        inSlope: 0
        outSlope: 0
        tangentMode: 10
      - time: 0.5
        value: 0
        inSlope: 0
        outSlope: 0
        tangentMode: 10
      - time: 1.9
        value: 0
        inSlope: 0
        outSlope: 0
        tangentMode: 10
      - time: 2.1666667
        value: 0
        inSlope: 0
        outSlope: 0
        tangentMode: 10
      m_PreInfinity: 2
      m_PostInfinity: 2
      m_RotationOrder: 4
    attribute: m_LocalPosition.z
    path: Body/Torso/Neck/Head
    classID: 4
    script: {fileID: 0}
  - curve:
      serializedVersion: 2
      m_Curve:
      - time: 0
        value: 0
        inSlope: 0
        outSlope: 0
        tangentMode: 10
      - time: 0.5
        value: 0
        inSlope: 0
        outSlope: 0
        tangentMode: 10
      - time: 1.9
        value: 0
        inSlope: 0
        outSlope: 0
        tangentMode: 10
      - time: 2.1666667
        value: 0
        inSlope: 0
        outSlope: 0
        tangentMode: 10
      m_PreInfinity: 2
      m_PostInfinity: 2
      m_RotationOrder: 4
    attribute: localEulerAnglesRaw.x
    path: Body/Torso/Neck/Head/Face/Left/LeftEyebrown
    classID: 4
    script: {fileID: 0}
  - curve:
      serializedVersion: 2
      m_Curve:
      - time: 0
        value: 0
        inSlope: 0
        outSlope: 0
        tangentMode: 10
      - time: 0.5
        value: 0
        inSlope: 0
        outSlope: 0
        tangentMode: 10
      - time: 1.9
        value: 0
        inSlope: 0
        outSlope: 0
        tangentMode: 10
      - time: 2.1666667
        value: 0
        inSlope: 0
        outSlope: 0
        tangentMode: 10
      m_PreInfinity: 2
      m_PostInfinity: 2
      m_RotationOrder: 4
    attribute: localEulerAnglesRaw.y
    path: Body/Torso/Neck/Head/Face/Left/LeftEyebrown
    classID: 4
    script: {fileID: 0}
  - curve:
      serializedVersion: 2
      m_Curve:
      - time: 0
        value: 0
        inSlope: -13.803693
        outSlope: -13.803693
        tangentMode: 10
      - time: 0.5
        value: -6.9018464
        inSlope: -4.550151
        outSlope: -4.550151
        tangentMode: 10
      - time: 1.9
        value: -0.31709957
        inSlope: 2.9462566
        outSlope: 2.9462566
        tangentMode: 10
      - time: 2.1666667
        value: 0
        inSlope: 1.1891229
        outSlope: 1.1891229
        tangentMode: 10
      m_PreInfinity: 2
      m_PostInfinity: 2
      m_RotationOrder: 4
    attribute: localEulerAnglesRaw.z
    path: Body/Torso/Neck/Head/Face/Left/LeftEyebrown
    classID: 4
    script: {fileID: 0}
  - curve:
      serializedVersion: 2
      m_Curve:
      - time: 0
        value: -0.070999146
        inSlope: 0.07399829
        outSlope: 0.07399829
        tangentMode: 10
      - time: 0.5
        value: -0.034
        inSlope: 0.036642
        outSlope: 0.036642
        tangentMode: 10
      - time: 1.9
        value: -0.035
        inSlope: -0.067855515
        outSlope: -0.067855515
        tangentMode: 10
      - time: 2.1666667
        value: -0.070999146
        inSlope: -0.13499674
        outSlope: -0.13499674
        tangentMode: 10
      m_PreInfinity: 2
      m_PostInfinity: 2
      m_RotationOrder: 4
    attribute: m_LocalPosition.x
    path: Body/Torso/Neck/Head/Face/Left/LeftEyebrown
    classID: 4
    script: {fileID: 0}
  - curve:
      serializedVersion: 2
      m_Curve:
      - time: 0
        value: 0.22100067
        inSlope: -0.09600136
        outSlope: -0.09600136
        tangentMode: 10
      - time: 0.5
        value: 0.173
        inSlope: -0.049072105
        outSlope: -0.049072105
        tangentMode: 10
      - time: 1.9
        value: 0.17
        inSlope: 0.0945548
        outSlope: 0.0945548
        tangentMode: 10
      - time: 2.1666667
        value: 0.22100067
        inSlope: 0.19125244
        outSlope: 0.19125244
        tangentMode: 10
      m_PreInfinity: 2
      m_PostInfinity: 2
      m_RotationOrder: 4
    attribute: m_LocalPosition.y
    path: Body/Torso/Neck/Head/Face/Left/LeftEyebrown
    classID: 4
    script: {fileID: 0}
  - curve:
      serializedVersion: 2
      m_Curve:
      - time: 0
        value: 0
        inSlope: 0
        outSlope: 0
        tangentMode: 10
      - time: 0.5
        value: 0
        inSlope: 0
        outSlope: 0
        tangentMode: 10
      - time: 1.9
        value: 0
        inSlope: 0
        outSlope: 0
        tangentMode: 10
      - time: 2.1666667
        value: 0
        inSlope: 0
        outSlope: 0
        tangentMode: 10
      m_PreInfinity: 2
      m_PostInfinity: 2
      m_RotationOrder: 4
    attribute: m_LocalPosition.z
    path: Body/Torso/Neck/Head/Face/Left/LeftEyebrown
    classID: 4
    script: {fileID: 0}
  - curve:
      serializedVersion: 2
      m_Curve:
      - time: 0
        value: 0
        inSlope: 0
        outSlope: 0
        tangentMode: 10
      - time: 0.5
        value: 0
        inSlope: 0
        outSlope: 0
        tangentMode: 10
      - time: 1.9
        value: 0
        inSlope: 0
        outSlope: 0
        tangentMode: 10
      - time: 2.1666667
        value: 0
        inSlope: 0
        outSlope: 0
        tangentMode: 10
      m_PreInfinity: 2
      m_PostInfinity: 2
      m_RotationOrder: 4
    attribute: localEulerAnglesRaw.x
    path: Body/Torso/Neck/Head/Face/Right/RightEyebrown
    classID: 4
    script: {fileID: 0}
  - curve:
      serializedVersion: 2
      m_Curve:
      - time: 0
        value: 0
        inSlope: 0
        outSlope: 0
        tangentMode: 10
      - time: 0.5
        value: 0
        inSlope: 0
        outSlope: 0
        tangentMode: 10
      - time: 1.9
        value: 0
        inSlope: 0
        outSlope: 0
        tangentMode: 10
      - time: 2.1666667
        value: 0
        inSlope: 0
        outSlope: 0
        tangentMode: 10
      m_PreInfinity: 2
      m_PostInfinity: 2
      m_RotationOrder: 4
    attribute: localEulerAnglesRaw.y
    path: Body/Torso/Neck/Head/Face/Right/RightEyebrown
    classID: 4
    script: {fileID: 0}
  - curve:
      serializedVersion: 2
      m_Curve:
      - time: 0
        value: 0
        inSlope: 7.8197803
        outSlope: 7.8197803
        tangentMode: 10
      - time: 0.5
        value: 3.9098902
        inSlope: 4.3916755
        outSlope: 4.3916755
        tangentMode: 10
      - time: 1.9
        value: 5.258889
        inSlope: -9.378628
        outSlope: -9.378628
        tangentMode: 10
      - time: 2.1666667
        value: 0
        inSlope: -19.720827
        outSlope: -19.720827
        tangentMode: 10
      m_PreInfinity: 2
      m_PostInfinity: 2
      m_RotationOrder: 4
    attribute: localEulerAnglesRaw.z
    path: Body/Torso/Neck/Head/Face/Right/RightEyebrown
    classID: 4
    script: {fileID: 0}
  - curve:
      serializedVersion: 2
      m_Curve:
      - time: 0
        value: 1
        inSlope: Infinity
        outSlope: Infinity
        tangentMode: 31
      - time: 0.21666667
        value: 0
        inSlope: Infinity
        outSlope: Infinity
        tangentMode: 31
      - time: 1.9833333
        value: 1
        inSlope: Infinity
        outSlope: Infinity
        tangentMode: 31
      m_PreInfinity: 2
      m_PostInfinity: 2
      m_RotationOrder: 4
    attribute: m_IsActive
    path: Body/Torso/Neck/Head/Face/Mouth
    classID: 1
    script: {fileID: 0}
  - curve:
      serializedVersion: 2
      m_Curve:
      - time: 0
        value: 0
        inSlope: 0
        outSlope: 0
        tangentMode: 10
      - time: 0.5
        value: 0
        inSlope: 0
        outSlope: 0
        tangentMode: 10
      - time: 1.9
        value: 0
        inSlope: 0
        outSlope: 0
        tangentMode: 10
      - time: 2.1666667
        value: 0
        inSlope: 0
        outSlope: 0
        tangentMode: 10
      m_PreInfinity: 2
      m_PostInfinity: 2
      m_RotationOrder: 4
    attribute: localEulerAnglesRaw.x
    path: Body/Torso
    classID: 4
    script: {fileID: 0}
  - curve:
      serializedVersion: 2
      m_Curve:
      - time: 0
        value: 0
        inSlope: 0
        outSlope: 0
        tangentMode: 10
      - time: 0.5
        value: 0
        inSlope: 0
        outSlope: 0
        tangentMode: 10
      - time: 1.9
        value: 0
        inSlope: 0
        outSlope: 0
        tangentMode: 10
      - time: 2.1666667
        value: 0
        inSlope: 0
        outSlope: 0
        tangentMode: 10
      m_PreInfinity: 2
      m_PostInfinity: 2
      m_RotationOrder: 4
    attribute: localEulerAnglesRaw.y
    path: Body/Torso
    classID: 4
    script: {fileID: 0}
  - curve:
      serializedVersion: 2
      m_Curve:
      - time: 0
        value: 0
        inSlope: -3.6218972
        outSlope: -3.6218972
        tangentMode: 10
      - time: 0.5
        value: -1.8109486
        inSlope: -1.2002344
        outSlope: -1.2002344
        tangentMode: 10
      - time: 1.9
        value: -0.10094881
        inSlope: 0.79999316
        outSlope: 0.79999316
        tangentMode: 10
      - time: 2.1666667
        value: 0
        inSlope: 0.3785579
        outSlope: 0.3785579
        tangentMode: 10
      m_PreInfinity: 2
      m_PostInfinity: 2
      m_RotationOrder: 4
    attribute: localEulerAnglesRaw.z
    path: Body/Torso
    classID: 4
    script: {fileID: 0}
  - curve:
      serializedVersion: 2
      m_Curve:
      - time: 0
        value: 0
        inSlope: 0
        outSlope: 0
        tangentMode: 10
      - time: 0.5
        value: 0
        inSlope: 0
        outSlope: 0
        tangentMode: 10
      - time: 1.9
        value: 0
        inSlope: 0
        outSlope: 0
        tangentMode: 10
      - time: 2.1666667
        value: 0
        inSlope: 0
        outSlope: 0
        tangentMode: 10
      m_PreInfinity: 2
      m_PostInfinity: 2
      m_RotationOrder: 4
    attribute: localEulerAnglesRaw.x
    path: Body/Torso/Skirt
    classID: 4
    script: {fileID: 0}
  - curve:
      serializedVersion: 2
      m_Curve:
      - time: 0
        value: 0
        inSlope: 0
        outSlope: 0
        tangentMode: 10
      - time: 0.5
        value: 0
        inSlope: 0
        outSlope: 0
        tangentMode: 10
      - time: 1.9
        value: 0
        inSlope: 0
        outSlope: 0
        tangentMode: 10
      - time: 2.1666667
        value: 0
        inSlope: 0
        outSlope: 0
        tangentMode: 10
      m_PreInfinity: 2
      m_PostInfinity: 2
      m_RotationOrder: 4
    attribute: localEulerAnglesRaw.y
    path: Body/Torso/Skirt
    classID: 4
    script: {fileID: 0}
  - curve:
      serializedVersion: 2
      m_Curve:
      - time: 0
        value: 0
        inSlope: 6.8780003
        outSlope: 6.8780003
        tangentMode: 10
      - time: 0.5
        value: 3.4390001
        inSlope: 1.7315
        outSlope: 1.7315
        tangentMode: 10
      - time: 1.9
        value: -1.342
        inSlope: 0.80874884
        outSlope: 0.80874884
        tangentMode: 10
      - time: 2.1666667
        value: 0
        inSlope: 5.032498
        outSlope: 5.032498
        tangentMode: 10
      m_PreInfinity: 2
      m_PostInfinity: 2
      m_RotationOrder: 4
    attribute: localEulerAnglesRaw.z
    path: Body/Torso/Skirt
    classID: 4
    script: {fileID: 0}
  - curve:
      serializedVersion: 2
      m_Curve:
      - time: 0
        value: 0
        inSlope: -0.02
        outSlope: -0.02
        tangentMode: 10
      - time: 0.5
        value: -0.01
        inSlope: -0.01
        outSlope: -0.01
        tangentMode: 10
      - time: 1.9
        value: -0.01
        inSlope: 0.018749991
        outSlope: 0.018749991
        tangentMode: 10
      - time: 2.1666667
        value: 0
        inSlope: 0.037499983
        outSlope: 0.037499983
        tangentMode: 10
      m_PreInfinity: 2
      m_PostInfinity: 2
      m_RotationOrder: 4
    attribute: m_LocalPosition.x
    path: Body/Torso
    classID: 4
    script: {fileID: 0}
  - curve:
      serializedVersion: 2
      m_Curve:
      - time: 0
        value: 0
        inSlope: -0.22
        outSlope: -0.22
        tangentMode: 10
      - time: 0.5
        value: -0.11
        inSlope: -0.12428571
        outSlope: -0.12428571
        tangentMode: 10
      - time: 1.9
        value: -0.15
        inSlope: 0.2669642
        outSlope: 0.2669642
        tangentMode: 10
      - time: 2.1666667
        value: 0
        inSlope: 0.5624998
        outSlope: 0.5624998
        tangentMode: 10
      m_PreInfinity: 2
      m_PostInfinity: 2
      m_RotationOrder: 4
    attribute: m_LocalPosition.y
    path: Body/Torso
    classID: 4
    script: {fileID: 0}
  - curve:
      serializedVersion: 2
      m_Curve:
      - time: 0
        value: 0
        inSlope: 0
        outSlope: 0
        tangentMode: 10
      - time: 0.5
        value: 0
        inSlope: 0
        outSlope: 0
        tangentMode: 10
      - time: 1.9
        value: 0
        inSlope: 0
        outSlope: 0
        tangentMode: 10
      - time: 2.1666667
        value: 0
        inSlope: 0
        outSlope: 0
        tangentMode: 10
      m_PreInfinity: 2
      m_PostInfinity: 2
      m_RotationOrder: 4
    attribute: m_LocalPosition.z
    path: Body/Torso
    classID: 4
    script: {fileID: 0}
  - curve:
      serializedVersion: 2
      m_Curve:
      - time: 0
        value: 0.023002625
        inSlope: -0.0000013812985
        outSlope: -0.0000013812985
        tangentMode: 10
      - time: 1.9
        value: 0.023
        inSlope: 0.0000042302245
        outSlope: 0.0000042302245
        tangentMode: 10
      - time: 2.1666667
        value: 0.023002625
        inSlope: 0.000009841748
        outSlope: 0.000009841748
        tangentMode: 10
      m_PreInfinity: 2
      m_PostInfinity: 2
      m_RotationOrder: 4
    attribute: m_LocalPosition.x
    path: Body/Torso/Neck/Head/Face/Right/RightEyebrown
    classID: 4
    script: {fileID: 0}
  - curve:
      serializedVersion: 2
      m_Curve:
      - time: 0
        value: 0.12699986
        inSlope: -0.0005262384
        outSlope: -0.0005262384
        tangentMode: 10
      - time: 1.9
        value: 0.126
        inSlope: 0.0016116045
        outSlope: 0.0016116045
        tangentMode: 10
      - time: 2.1666667
        value: 0.12699986
        inSlope: 0.0037494474
        outSlope: 0.0037494474
        tangentMode: 10
      m_PreInfinity: 2
      m_PostInfinity: 2
      m_RotationOrder: 4
    attribute: m_LocalPosition.y
    path: Body/Torso/Neck/Head/Face/Right/RightEyebrown
    classID: 4
    script: {fileID: 0}
  - curve:
      serializedVersion: 2
      m_Curve:
      - time: 0
        value: 0
        inSlope: 0
        outSlope: 0
        tangentMode: 10
      - time: 1.9
        value: 0
        inSlope: 0
        outSlope: 0
        tangentMode: 10
      - time: 2.1666667
        value: 0
        inSlope: 0
        outSlope: 0
        tangentMode: 10
      m_PreInfinity: 2
      m_PostInfinity: 2
      m_RotationOrder: 4
    attribute: m_LocalPosition.z
    path: Body/Torso/Neck/Head/Face/Right/RightEyebrown
    classID: 4
    script: {fileID: 0}
  - curve:
      serializedVersion: 2
      m_Curve:
      - time: 0
        value: 0
        inSlope: 0
        outSlope: 0
        tangentMode: 10
      - time: 0.8833333
        value: 0
        inSlope: 0
        outSlope: 0
        tangentMode: 10
      - time: 2.1666667
        value: 0
        inSlope: 0
        outSlope: 0
        tangentMode: 10
      m_PreInfinity: 2
      m_PostInfinity: 2
      m_RotationOrder: 4
    attribute: localEulerAnglesRaw.x
    path: Body/Torso/Waist
    classID: 4
    script: {fileID: 0}
  - curve:
      serializedVersion: 2
      m_Curve:
      - time: 0
        value: 0
        inSlope: 0
        outSlope: 0
        tangentMode: 10
      - time: 0.8833333
        value: 0
        inSlope: 0
        outSlope: 0
        tangentMode: 10
      - time: 2.1666667
        value: 0
        inSlope: 0
        outSlope: 0
        tangentMode: 10
      m_PreInfinity: 2
      m_PostInfinity: 2
      m_RotationOrder: 4
    attribute: localEulerAnglesRaw.y
    path: Body/Torso/Waist
    classID: 4
    script: {fileID: 0}
  - curve:
      serializedVersion: 2
      m_Curve:
      - time: 0
        value: 350.29727
        inSlope: 3.9387715
        outSlope: 3.9387715
        tangentMode: 10
      - time: 0.8833333
        value: 353.77652
        inSlope: 0.6138346
        outSlope: 0.6138346
        tangentMode: 10
      - time: 2.1666667
        value: 350.29727
        inSlope: -2.7111022
        outSlope: -2.7111022
        tangentMode: 10
      m_PreInfinity: 2
      m_PostInfinity: 2
      m_RotationOrder: 4
    attribute: localEulerAnglesRaw.z
    path: Body/Torso/Waist
    classID: 4
    script: {fileID: 0}
  - curve:
      serializedVersion: 2
      m_Curve:
      - time: 0
        value: 0
        inSlope: Infinity
        outSlope: Infinity
        tangentMode: 31
      - time: 0.21666667
        value: 1
        inSlope: Infinity
        outSlope: Infinity
        tangentMode: 31
      - time: 1.9833333
        value: 0
        inSlope: Infinity
        outSlope: Infinity
        tangentMode: 31
      m_PreInfinity: 2
      m_PostInfinity: 2
      m_RotationOrder: 4
    attribute: m_IsActive
    path: Body/Torso/Neck/Head/Face/MouthIrritated
    classID: 1
    script: {fileID: 0}
  - curve:
      serializedVersion: 2
      m_Curve:
      - time: 0
        value: 0
        inSlope: Infinity
        outSlope: Infinity
        tangentMode: 31
      - time: 0.8
        value: 1
        inSlope: Infinity
        outSlope: Infinity
        tangentMode: 31
      - time: 1.85
        value: 0
        inSlope: Infinity
        outSlope: Infinity
        tangentMode: 31
      m_PreInfinity: 2
      m_PostInfinity: 2
      m_RotationOrder: 4
    attribute: m_IsActive
    path: Body/Torso/LeftShoulder/LeftArm/LeftHand/HandLeftIrritated
    classID: 1
    script: {fileID: 0}
  - curve:
      serializedVersion: 2
      m_Curve:
      - time: 0
        value: 0
        inSlope: 0
        outSlope: 0
        tangentMode: 10
      - time: 1.1
        value: 0
        inSlope: 0
        outSlope: 0
        tangentMode: 10
      - time: 2.1833334
        value: 0
        inSlope: 0
        outSlope: 0
        tangentMode: 10
      m_PreInfinity: 2
      m_PostInfinity: 2
      m_RotationOrder: 4
    attribute: localEulerAnglesRaw.x
    path: Body/Torso/LeftShoulder/LeftArm/LeftHand
    classID: 4
    script: {fileID: 0}
  - curve:
      serializedVersion: 2
      m_Curve:
      - time: 0
        value: 0
        inSlope: 0
        outSlope: 0
        tangentMode: 10
      - time: 1.1
        value: 0
        inSlope: 0
        outSlope: 0
        tangentMode: 10
      - time: 2.1833334
        value: 0
        inSlope: 0
        outSlope: 0
        tangentMode: 10
      m_PreInfinity: 2
      m_PostInfinity: 2
      m_RotationOrder: 4
    attribute: localEulerAnglesRaw.y
    path: Body/Torso/LeftShoulder/LeftArm/LeftHand
    classID: 4
    script: {fileID: 0}
  - curve:
      serializedVersion: 2
      m_Curve:
      - time: 0
        value: 1.7763071
        inSlope: -62.28288
        outSlope: -62.28288
        tangentMode: 10
      - time: 1.1
        value: -66.73486
        inSlope: 0
        outSlope: 0
        tangentMode: 0
      - time: 1.8166667
        value: -66.73486
        inSlope: 0
        outSlope: 0
        tangentMode: 0
      - time: 2.1833334
        value: 1.7763071
        inSlope: 186.84863
        outSlope: 186.84863
        tangentMode: 10
      m_PreInfinity: 2
      m_PostInfinity: 2
      m_RotationOrder: 4
    attribute: localEulerAnglesRaw.z
    path: Body/Torso/LeftShoulder/LeftArm/LeftHand
    classID: 4
    script: {fileID: 0}
  - curve:
      serializedVersion: 2
      m_Curve:
      - time: 0
        value: 0
        inSlope: 3.2059462
        outSlope: 3.2059462
        tangentMode: 10
      - time: 1.2333333
        value: 3.9540002
        inSlope: 1.6029731
        outSlope: 1.6029731
        tangentMode: 10
      - time: 1.8166667
        value: 3.9540002
        inSlope: -5.3918185
        outSlope: -5.3918185
        tangentMode: 10
      - time: 2.1833334
        value: 0
        inSlope: -10.783637
        outSlope: -10.783637
        tangentMode: 10
      m_PreInfinity: 2
      m_PostInfinity: 2
      m_RotationOrder: 4
    attribute: localEulerAnglesRaw.x
    path: Body/Torso/RightShoulder/RightArm/RightArmFront/RightHand
    classID: 4
    script: {fileID: 0}
  - curve:
      serializedVersion: 2
      m_Curve:
      - time: 0
        value: 0
        inSlope: 13.50973
        outSlope: 13.50973
        tangentMode: 10
      - time: 1.2333333
        value: 16.662
        inSlope: 6.754865
        outSlope: 6.754865
        tangentMode: 10
      - time: 1.8166667
        value: 16.662
        inSlope: -22.72091
        outSlope: -22.72091
        tangentMode: 10
      - time: 2.1833334
        value: 0
        inSlope: -45.44182
        outSlope: -45.44182
        tangentMode: 10
      m_PreInfinity: 2
      m_PostInfinity: 2
      m_RotationOrder: 4
    attribute: localEulerAnglesRaw.y
    path: Body/Torso/RightShoulder/RightArm/RightArmFront/RightHand
    classID: 4
    script: {fileID: 0}
  - curve:
      serializedVersion: 2
      m_Curve:
      - time: 0
        value: -7.4261255
        inSlope: -20.922874
        outSlope: -20.922874
        tangentMode: 10
      - time: 1.2333333
        value: -33.231003
        inSlope: 0
        outSlope: 0
        tangentMode: 0
      - time: 1.8166667
        value: -33.231003
        inSlope: 0
        outSlope: 0
        tangentMode: 0
      - time: 2.1833334
        value: -7.4261255
        inSlope: 70.37694
        outSlope: 70.37694
        tangentMode: 10
      m_PreInfinity: 2
      m_PostInfinity: 2
      m_RotationOrder: 4
    attribute: localEulerAnglesRaw.z
    path: Body/Torso/RightShoulder/RightArm/RightArmFront/RightHand
    classID: 4
    script: {fileID: 0}
  - curve:
      serializedVersion: 2
      m_Curve:
      - time: 0
        value: 0
        inSlope: Infinity
        outSlope: Infinity
        tangentMode: 31
      - time: 0.8
        value: 1
        inSlope: Infinity
        outSlope: Infinity
        tangentMode: 31
      - time: 1.85
        value: 0
        inSlope: Infinity
        outSlope: Infinity
        tangentMode: 31
      m_PreInfinity: 2
      m_PostInfinity: 2
      m_RotationOrder: 4
    attribute: m_IsActive
    path: Body/Torso/LeftShoulder/LeftArm/LeftHand/ClothLeftBack
    classID: 1
    script: {fileID: 0}
  - curve:
      serializedVersion: 2
      m_Curve:
      - time: 0
        value: 1
        inSlope: Infinity
        outSlope: Infinity
        tangentMode: 31
      - time: 0.8
        value: 0
        inSlope: Infinity
        outSlope: Infinity
        tangentMode: 31
      - time: 1.85
        value: 1
        inSlope: Infinity
        outSlope: Infinity
        tangentMode: 31
      m_PreInfinity: 2
      m_PostInfinity: 2
      m_RotationOrder: 4
    attribute: m_IsActive
    path: Body/Torso/LeftShoulder/LeftArm/LeftHand/ClothLeft
    classID: 1
    script: {fileID: 0}
  - curve:
      serializedVersion: 2
      m_Curve:
      - time: 0
        value: -0.86
        inSlope: -0.04054055
        outSlope: -0.04054055
        tangentMode: 10
      - time: 1.2333333
        value: -0.91
        inSlope: -0.04054055
        outSlope: -0.04054055
        tangentMode: 10
      m_PreInfinity: 2
      m_PostInfinity: 2
      m_RotationOrder: 4
    attribute: m_LocalPosition.x
    path: Body/Torso/RightShoulder/RightArm/RightArmFront/RightHand
    classID: 4
    script: {fileID: 0}
  - curve:
      serializedVersion: 2
      m_Curve:
      - time: 0
        value: -2.141
        inSlope: 0.008918853
        outSlope: 0.008918853
        tangentMode: 10
      - time: 1.2333333
        value: -2.13
        inSlope: 0.008918853
        outSlope: 0.008918853
        tangentMode: 10
      m_PreInfinity: 2
      m_PostInfinity: 2
      m_RotationOrder: 4
    attribute: m_LocalPosition.y
    path: Body/Torso/RightShoulder/RightArm/RightArmFront/RightHand
    classID: 4
    script: {fileID: 0}
  - curve:
      serializedVersion: 2
      m_Curve:
      - time: 0
        value: 0
        inSlope: -0.15405405
        outSlope: -0.15405405
        tangentMode: 10
      - time: 1.2333333
        value: -0.19
        inSlope: -0.15405405
        outSlope: -0.15405405
        tangentMode: 10
      m_PreInfinity: 2
      m_PostInfinity: 2
      m_RotationOrder: 4
    attribute: m_LocalPosition.z
    path: Body/Torso/RightShoulder/RightArm/RightArmFront/RightHand
    classID: 4
    script: {fileID: 0}
  m_EulerEditorCurves:
  - curve:
      serializedVersion: 2
      m_Curve: []
      m_PreInfinity: 2
      m_PostInfinity: 2
      m_RotationOrder: 4
    attribute: m_LocalEulerAngles.z
    path: Body/Torso/Neck/Head
    classID: 4
    script: {fileID: 0}
  - curve:
      serializedVersion: 2
      m_Curve: []
      m_PreInfinity: 2
      m_PostInfinity: 2
      m_RotationOrder: 4
    attribute: m_LocalEulerAngles.y
    path: Body/Torso/Neck/Head
    classID: 4
    script: {fileID: 0}
  - curve:
      serializedVersion: 2
      m_Curve: []
      m_PreInfinity: 2
      m_PostInfinity: 2
      m_RotationOrder: 4
    attribute: m_LocalEulerAngles.x
    path: Body/Torso/Neck/Head
    classID: 4
    script: {fileID: 0}
  - curve:
      serializedVersion: 2
      m_Curve: []
      m_PreInfinity: 2
      m_PostInfinity: 2
      m_RotationOrder: 4
    attribute: m_LocalEulerAngles.z
    path: Body/Torso/LeftShoulder
    classID: 4
    script: {fileID: 0}
  - curve:
      serializedVersion: 2
      m_Curve: []
      m_PreInfinity: 2
      m_PostInfinity: 2
      m_RotationOrder: 4
    attribute: m_LocalEulerAngles.y
    path: Body/Torso/LeftShoulder
    classID: 4
    script: {fileID: 0}
  - curve:
      serializedVersion: 2
      m_Curve: []
      m_PreInfinity: 2
      m_PostInfinity: 2
      m_RotationOrder: 4
    attribute: m_LocalEulerAngles.x
    path: Body/Torso/LeftShoulder
    classID: 4
    script: {fileID: 0}
  - curve:
      serializedVersion: 2
      m_Curve: []
      m_PreInfinity: 2
      m_PostInfinity: 2
      m_RotationOrder: 4
    attribute: m_LocalEulerAngles.z
    path: Body/Torso/Neck/Head/Face/Right/RightEyebrown
    classID: 4
    script: {fileID: 0}
  - curve:
      serializedVersion: 2
      m_Curve: []
      m_PreInfinity: 2
      m_PostInfinity: 2
      m_RotationOrder: 4
    attribute: m_LocalEulerAngles.y
    path: Body/Torso/Neck/Head/Face/Right/RightEyebrown
    classID: 4
    script: {fileID: 0}
  - curve:
      serializedVersion: 2
      m_Curve: []
      m_PreInfinity: 2
      m_PostInfinity: 2
      m_RotationOrder: 4
    attribute: m_LocalEulerAngles.x
    path: Body/Torso/Neck/Head/Face/Right/RightEyebrown
    classID: 4
    script: {fileID: 0}
  - curve:
      serializedVersion: 2
      m_Curve: []
      m_PreInfinity: 2
      m_PostInfinity: 2
      m_RotationOrder: 4
    attribute: m_LocalEulerAngles.z
    path: Body/Torso/Neck/Head/Face/Left/LeftEyebrown
    classID: 4
    script: {fileID: 0}
  - curve:
      serializedVersion: 2
      m_Curve: []
      m_PreInfinity: 2
      m_PostInfinity: 2
      m_RotationOrder: 4
    attribute: m_LocalEulerAngles.y
    path: Body/Torso/Neck/Head/Face/Left/LeftEyebrown
    classID: 4
    script: {fileID: 0}
  - curve:
      serializedVersion: 2
      m_Curve: []
      m_PreInfinity: 2
      m_PostInfinity: 2
      m_RotationOrder: 4
    attribute: m_LocalEulerAngles.x
    path: Body/Torso/Neck/Head/Face/Left/LeftEyebrown
    classID: 4
    script: {fileID: 0}
  - curve:
      serializedVersion: 2
      m_Curve: []
      m_PreInfinity: 2
      m_PostInfinity: 2
      m_RotationOrder: 4
    attribute: m_LocalEulerAngles.z
    path: Body/Torso/RightShoulder
    classID: 4
    script: {fileID: 0}
  - curve:
      serializedVersion: 2
      m_Curve: []
      m_PreInfinity: 2
      m_PostInfinity: 2
      m_RotationOrder: 4
    attribute: m_LocalEulerAngles.y
    path: Body/Torso/RightShoulder
    classID: 4
    script: {fileID: 0}
  - curve:
      serializedVersion: 2
      m_Curve: []
      m_PreInfinity: 2
      m_PostInfinity: 2
      m_RotationOrder: 4
    attribute: m_LocalEulerAngles.x
    path: Body/Torso/RightShoulder
    classID: 4
    script: {fileID: 0}
  - curve:
      serializedVersion: 2
      m_Curve: []
      m_PreInfinity: 2
      m_PostInfinity: 2
      m_RotationOrder: 4
    attribute: m_LocalEulerAngles.z
    path: Body/Torso/RightShoulder/RightArm
    classID: 4
    script: {fileID: 0}
  - curve:
      serializedVersion: 2
      m_Curve: []
      m_PreInfinity: 2
      m_PostInfinity: 2
      m_RotationOrder: 4
    attribute: m_LocalEulerAngles.y
    path: Body/Torso/RightShoulder/RightArm
    classID: 4
    script: {fileID: 0}
  - curve:
      serializedVersion: 2
      m_Curve: []
      m_PreInfinity: 2
      m_PostInfinity: 2
      m_RotationOrder: 4
    attribute: m_LocalEulerAngles.x
    path: Body/Torso/RightShoulder/RightArm
    classID: 4
    script: {fileID: 0}
  - curve:
      serializedVersion: 2
      m_Curve: []
      m_PreInfinity: 2
      m_PostInfinity: 2
      m_RotationOrder: 4
    attribute: m_LocalEulerAngles.z
    path: Body/Torso
    classID: 4
    script: {fileID: 0}
  - curve:
      serializedVersion: 2
      m_Curve: []
      m_PreInfinity: 2
      m_PostInfinity: 2
      m_RotationOrder: 4
    attribute: m_LocalEulerAngles.y
    path: Body/Torso
    classID: 4
    script: {fileID: 0}
  - curve:
      serializedVersion: 2
      m_Curve: []
      m_PreInfinity: 2
      m_PostInfinity: 2
      m_RotationOrder: 4
    attribute: m_LocalEulerAngles.x
    path: Body/Torso
    classID: 4
    script: {fileID: 0}
  - curve:
      serializedVersion: 2
      m_Curve: []
      m_PreInfinity: 2
      m_PostInfinity: 2
      m_RotationOrder: 4
    attribute: m_LocalEulerAngles.z
    path: Body/Torso/Skirt
    classID: 4
    script: {fileID: 0}
  - curve:
      serializedVersion: 2
      m_Curve: []
      m_PreInfinity: 2
      m_PostInfinity: 2
      m_RotationOrder: 4
    attribute: m_LocalEulerAngles.y
    path: Body/Torso/Skirt
    classID: 4
    script: {fileID: 0}
  - curve:
      serializedVersion: 2
      m_Curve: []
      m_PreInfinity: 2
      m_PostInfinity: 2
      m_RotationOrder: 4
    attribute: m_LocalEulerAngles.x
    path: Body/Torso/Skirt
    classID: 4
    script: {fileID: 0}
  - curve:
      serializedVersion: 2
      m_Curve: []
      m_PreInfinity: 2
      m_PostInfinity: 2
      m_RotationOrder: 4
    attribute: m_LocalEulerAngles.z
    path: Body/Torso/Neck
    classID: 4
    script: {fileID: 0}
  - curve:
      serializedVersion: 2
      m_Curve: []
      m_PreInfinity: 2
      m_PostInfinity: 2
      m_RotationOrder: 4
    attribute: m_LocalEulerAngles.y
    path: Body/Torso/Neck
    classID: 4
    script: {fileID: 0}
  - curve:
      serializedVersion: 2
      m_Curve: []
      m_PreInfinity: 2
      m_PostInfinity: 2
      m_RotationOrder: 4
    attribute: m_LocalEulerAngles.x
    path: Body/Torso/Neck
    classID: 4
    script: {fileID: 0}
  - curve:
      serializedVersion: 2
      m_Curve: []
      m_PreInfinity: 2
      m_PostInfinity: 2
      m_RotationOrder: 4
    attribute: m_LocalEulerAngles.z
    path: Body/Torso/LeftShoulder/LeftArm/LeftHand
    classID: 4
    script: {fileID: 0}
  - curve:
      serializedVersion: 2
      m_Curve: []
      m_PreInfinity: 2
      m_PostInfinity: 2
      m_RotationOrder: 4
    attribute: m_LocalEulerAngles.y
    path: Body/Torso/LeftShoulder/LeftArm/LeftHand
    classID: 4
    script: {fileID: 0}
  - curve:
      serializedVersion: 2
      m_Curve: []
      m_PreInfinity: 2
      m_PostInfinity: 2
      m_RotationOrder: 4
    attribute: m_LocalEulerAngles.x
    path: Body/Torso/LeftShoulder/LeftArm/LeftHand
    classID: 4
    script: {fileID: 0}
  - curve:
      serializedVersion: 2
      m_Curve: []
      m_PreInfinity: 2
      m_PostInfinity: 2
      m_RotationOrder: 4
    attribute: m_LocalEulerAngles.x
    path: Body/Torso/Waist
    classID: 4
    script: {fileID: 0}
  - curve:
      serializedVersion: 2
      m_Curve: []
      m_PreInfinity: 2
      m_PostInfinity: 2
      m_RotationOrder: 4
    attribute: m_LocalEulerAngles.y
    path: Body/Torso/Waist
    classID: 4
    script: {fileID: 0}
  - curve:
      serializedVersion: 2
      m_Curve: []
      m_PreInfinity: 2
      m_PostInfinity: 2
      m_RotationOrder: 4
    attribute: m_LocalEulerAngles.z
    path: Body/Torso/Waist
    classID: 4
    script: {fileID: 0}
  - curve:
      serializedVersion: 2
      m_Curve: []
      m_PreInfinity: 2
      m_PostInfinity: 2
      m_RotationOrder: 4
    attribute: m_LocalEulerAngles.z
    path: Body/Torso/LeftShoulder/LeftArm
    classID: 4
    script: {fileID: 0}
  - curve:
      serializedVersion: 2
      m_Curve: []
      m_PreInfinity: 2
      m_PostInfinity: 2
      m_RotationOrder: 4
    attribute: m_LocalEulerAngles.y
    path: Body/Torso/LeftShoulder/LeftArm
    classID: 4
    script: {fileID: 0}
  - curve:
      serializedVersion: 2
      m_Curve: []
      m_PreInfinity: 2
      m_PostInfinity: 2
      m_RotationOrder: 4
    attribute: m_LocalEulerAngles.x
    path: Body/Torso/LeftShoulder/LeftArm
    classID: 4
    script: {fileID: 0}
  - curve:
      serializedVersion: 2
      m_Curve: []
      m_PreInfinity: 2
      m_PostInfinity: 2
      m_RotationOrder: 4
    attribute: m_LocalEulerAngles.x
    path: Body/Torso/RightShoulder/RightArm/RightArmFront/RightHand
    classID: 4
    script: {fileID: 0}
  - curve:
      serializedVersion: 2
      m_Curve: []
      m_PreInfinity: 2
      m_PostInfinity: 2
      m_RotationOrder: 4
    attribute: m_LocalEulerAngles.y
    path: Body/Torso/RightShoulder/RightArm/RightArmFront/RightHand
    classID: 4
    script: {fileID: 0}
  - curve:
      serializedVersion: 2
      m_Curve: []
      m_PreInfinity: 2
      m_PostInfinity: 2
      m_RotationOrder: 4
    attribute: m_LocalEulerAngles.z
    path: Body/Torso/RightShoulder/RightArm/RightArmFront/RightHand
    classID: 4
    script: {fileID: 0}
  m_HasGenericRootTransform: 0
  m_HasMotionFloatCurves: 0
  m_GenerateMotionCurves: 0
  m_Events: []
