%YAML 1.1
%TAG !u! tag:unity3d.com,2011:
--- !u!74 &7400000
AnimationClip:
  m_ObjectHideFlags: 0
  m_PrefabParentObject: {fileID: 0}
  m_PrefabInternal: {fileID: 0}
  m_Name: MaleTalking
  serializedVersion: 6
  m_Legacy: 0
  m_Compressed: 0
  m_UseHighQualityCurve: 1
  m_RotationCurves: []
  m_CompressedRotationCurves: []
  m_EulerCurves:
  - curve:
      serializedVersion: 2
      m_Curve:
      - time: 0
        value: {x: 0, y: 0, z: -4.602}
        inSlope: {x: 0, y: 0, z: 0.5984117}
        outSlope: {x: 0, y: 0, z: 0.5984117}
        tangentMode: 0
      - time: 0.25
        value: {x: 0, y: 0, z: -4.425974}
        inSlope: {x: 0, y: 0, z: 0.8010393}
        outSlope: {x: 0, y: 0, z: 0.8010393}
        tangentMode: 0
      - time: 3.2666667
        value: {x: 0, y: 0, z: -2.6471887}
        inSlope: {x: 0, y: 0, z: -0.8971013}
        outSlope: {x: 0, y: 0, z: -0.8971013}
        tangentMode: 0
      - time: 3.9666667
        value: {x: 0, y: 0, z: -4.491}
        inSlope: {x: 0, y: 0, z: 0.021991849}
        outSlope: {x: 0, y: 0, z: 0.021991849}
        tangentMode: 0
      - time: 4.9666667
        value: {x: 0, y: 0, z: -1.8130001}
        inSlope: {x: 0, y: 0, z: -0.20599973}
        outSlope: {x: 0, y: 0, z: -0.20599973}
        tangentMode: 0
      - time: 5.8333335
        value: {x: 0, y: 0, z: -4.491}
        inSlope: {x: 0, y: 0, z: -1.6559998}
        outSlope: {x: 0, y: 0, z: -1.6559998}
        tangentMode: 0
      - time: 6.3333335
        value: {x: 0, y: 0, z: -4.602}
        inSlope: {x: 0, y: 0, z: -0.11100006}
        outSlope: {x: 0, y: 0, z: -0.11100006}
        tangentMode: 0
      - time: 6.366667
        value: {x: 0, y: 0, z: -4.602}
        inSlope: {x: 0, y: 0, z: 0}
        outSlope: {x: 0, y: 0, z: 0}
        tangentMode: 0
      m_PreInfinity: 2
      m_PostInfinity: 2
      m_RotationOrder: 4
    path: Body/Torso/TorsoUpper
  - curve:
      serializedVersion: 2
      m_Curve:
      - time: 0
        value: {x: 0, y: 0, z: 0}
        inSlope: {x: 0, y: 0, z: 0.123870976}
        outSlope: {x: 0, y: 0, z: 0.123870976}
        tangentMode: 0
      - time: 0.25
        value: {x: 0, y: 0, z: 0.035156928}
        inSlope: {x: 0, y: 0, z: 0.154162}
        outSlope: {x: 0, y: 0, z: 0.154162}
        tangentMode: 0
      - time: 1.55
        value: {x: 0, y: 0, z: 0.192}
        inSlope: {x: 0, y: 0, z: 0}
        outSlope: {x: 0, y: 0, z: 0}
        tangentMode: 0
      - time: 3.6166666
        value: {x: 0, y: 0, z: 4.519}
        inSlope: {x: 0, y: 0, z: 0}
        outSlope: {x: 0, y: 0, z: 0}
        tangentMode: 0
      - time: 5.1
        value: {x: 0, y: 0, z: -2.196}
        inSlope: {x: 0, y: 0, z: 0}
        outSlope: {x: 0, y: 0, z: 0}
        tangentMode: 0
      - time: 6.3333335
        value: {x: 0, y: 0, z: 0}
        inSlope: {x: 0, y: 0, z: 1.7805402}
        outSlope: {x: 0, y: 0, z: 1.7805402}
        tangentMode: 0
      m_PreInfinity: 2
      m_PostInfinity: 2
      m_RotationOrder: 4
    path: Body/Torso/TorsoUpper/Neck
  - curve:
      serializedVersion: 2
      m_Curve:
      - time: 0
        value: {x: 0, y: 0, z: 0}
        inSlope: {x: 0, y: 0, z: -1.5624324}
        outSlope: {x: 0, y: 0, z: -1.5624324}
        tangentMode: 0
      - time: 0.25
        value: {x: 0, y: 0, z: -0.459387}
        inSlope: {x: 0, y: 0, z: -2.042719}
        outSlope: {x: 0, y: 0, z: -2.042719}
        tangentMode: 0
      - time: 1.2333333
        value: {x: 0, y: 0, z: -1.927}
        inSlope: {x: 0, y: 0, z: 0.13986492}
        outSlope: {x: 0, y: 0, z: 0.13986492}
        tangentMode: 0
      - time: 2.4666667
        value: {x: 0, y: 0, z: 0.34500003}
        inSlope: {x: 0, y: 0, z: 0.66361535}
        outSlope: {x: 0, y: 0, z: 0.66361535}
        tangentMode: 0
      - time: 4.9
        value: {x: 0, y: 0, z: -0.90800005}
        inSlope: {x: 0, y: 0, z: 0.05927843}
        outSlope: {x: 0, y: 0, z: 0.05927843}
        tangentMode: 0
      - time: 6.3333335
        value: {x: 0, y: 0, z: 0}
        inSlope: {x: 0, y: 0, z: 0.63348836}
        outSlope: {x: 0, y: 0, z: 0.63348836}
        tangentMode: 0
      m_PreInfinity: 2
      m_PostInfinity: 2
      m_RotationOrder: 4
    path: Body/Torso/TorsoUpper/Neck/Head
  - curve:
      serializedVersion: 2
      m_Curve:
      - time: 0
        value: {x: 0, y: 0, z: 0}
        inSlope: {x: 0, y: 0, z: 2.7275689}
        outSlope: {x: 0, y: 0, z: 2.7275689}
        tangentMode: 0
      - time: 0.25
        value: {x: 0, y: 0, z: 0.7313955}
        inSlope: {x: 0, y: 0, z: 3.10526}
        outSlope: {x: 0, y: 0, z: 3.10526}
        tangentMode: 0
      - time: 0.8
        value: {x: 0, y: 0, z: 2.585708}
        inSlope: {x: 0, y: 0, z: 3.5489547}
        outSlope: {x: 0, y: 0, z: 3.5489547}
        tangentMode: 0
      - time: 1.4
        value: {x: 0, y: 0, z: 4.7098002}
        inSlope: {x: 0, y: 0, z: 3.4257472}
        outSlope: {x: 0, y: 0, z: 3.4257472}
        tangentMode: 0
      - time: 1.85
        value: {x: 0, y: 0, z: 6.1504}
        inSlope: {x: 0, y: 0, z: 2.917515}
        outSlope: {x: 0, y: 0, z: 2.917515}
        tangentMode: 0
      - time: 2.3
        value: {x: 0, y: 0, z: 7.2821}
        inSlope: {x: 0, y: 0, z: 2.0528593}
        outSlope: {x: 0, y: 0, z: 2.0528593}
        tangentMode: 0
      - time: 2.95
        value: {x: 0, y: 0, z: 8.046329}
        inSlope: {x: 0, y: 0, z: 0.17467189}
        outSlope: {x: 0, y: 0, z: 0.17467189}
        tangentMode: 0
      - time: 3.9833333
        value: {x: 0, y: 0, z: 6.861511}
        inSlope: {x: 0, y: 0, z: -2.2297306}
        outSlope: {x: 0, y: 0, z: -2.2297306}
        tangentMode: 0
      - time: 5.85
        value: {x: 0, y: 0, z: 1.3005663}
        inSlope: {x: 0, y: 0, z: -2.951324}
        outSlope: {x: 0, y: 0, z: -2.951324}
        tangentMode: 0
      - time: 6.3333335
        value: {x: 0, y: 0, z: 0}
        inSlope: {x: 0, y: 0, z: -2.378225}
        outSlope: {x: 0, y: 0, z: -2.378225}
        tangentMode: 0
      m_PreInfinity: 2
      m_PostInfinity: 2
      m_RotationOrder: 4
    path: Body/Torso/TorsoUpper/LeftArm
  - curve:
      serializedVersion: 2
      m_Curve:
      - time: 0
        value: {x: 0, y: 0, z: 0}
        inSlope: {x: 0, y: 0, z: -3.43678}
        outSlope: {x: 0, y: 0, z: -3.43678}
        tangentMode: 0
      - time: 0.25
        value: {x: 0, y: 0, z: -0.92868626}
        inSlope: {x: 0, y: 0, z: -3.9656355}
        outSlope: {x: 0, y: 0, z: -3.9656355}
        tangentMode: 0
      - time: 0.8
        value: {x: 0, y: 0, z: -3.3085308}
        inSlope: {x: 0, y: 0, z: -4.5573044}
        outSlope: {x: 0, y: 0, z: -4.5573044}
        tangentMode: 0
      - time: 1.4
        value: {x: 0, y: 0, z: -6.0143228}
        inSlope: {x: 0, y: 0, z: -4.306052}
        outSlope: {x: 0, y: 0, z: -4.306052}
        tangentMode: 0
      - time: 1.85
        value: {x: 0, y: 0, z: -7.7912245}
        inSlope: {x: 0, y: 0, z: -3.5035634}
        outSlope: {x: 0, y: 0, z: -3.5035634}
        tangentMode: 0
      - time: 2.3
        value: {x: 0, y: 0, z: -9.088582}
        inSlope: {x: 0, y: 0, z: -2.1747446}
        outSlope: {x: 0, y: 0, z: -2.1747446}
        tangentMode: 0
      - time: 2.6333334
        value: {x: 0, y: 0, z: -9.600911}
        inSlope: {x: 0, y: 0, z: -0.8511027}
        outSlope: {x: 0, y: 0, z: -0.8511027}
        tangentMode: 0
      - time: 2.8166666
        value: {x: 0, y: 0, z: -9.6802635}
        inSlope: {x: 0, y: 0, z: 0}
        outSlope: {x: 0, y: 0, z: 0}
        tangentMode: 0
      - time: 2.9333334
        value: {x: 0, y: 0, z: -9.659308}
        inSlope: {x: 0, y: 0, z: 0.35619625}
        outSlope: {x: 0, y: 0, z: 0.35619625}
        tangentMode: 0
      - time: 3.25
        value: {x: 0, y: 0, z: -9.4044075}
        inSlope: {x: 0, y: 0, z: 1.2313831}
        outSlope: {x: 0, y: 0, z: 1.2313831}
        tangentMode: 0
      - time: 3.5833333
        value: {x: 0, y: 0, z: -8.860397}
        inSlope: {x: 0, y: 0, z: 2.007953}
        outSlope: {x: 0, y: 0, z: 2.007953}
        tangentMode: 0
      - time: 3.9833333
        value: {x: 0, y: 0, z: -7.9028907}
        inSlope: {x: 0, y: 0, z: 2.7439637}
        outSlope: {x: 0, y: 0, z: 2.7439637}
        tangentMode: 0
      - time: 4.3333335
        value: {x: 0, y: 0, z: -6.8557043}
        inSlope: {x: 0, y: 0, z: 3.212688}
        outSlope: {x: 0, y: 0, z: 3.212688}
        tangentMode: 0
      - time: 4.633333
        value: {x: 0, y: 0, z: -5.8481617}
        inSlope: {x: 0, y: 0, z: 3.48424}
        outSlope: {x: 0, y: 0, z: 3.48424}
        tangentMode: 0
      - time: 4.95
        value: {x: 0, y: 0, z: -4.716547}
        inSlope: {x: 0, y: 0, z: 3.6404817}
        outSlope: {x: 0, y: 0, z: 3.6404817}
        tangentMode: 0
      - time: 5.2833333
        value: {x: 0, y: 0, z: -3.4956336}
        inSlope: {x: 0, y: 0, z: 3.6602669}
        outSlope: {x: 0, y: 0, z: 3.6602669}
        tangentMode: 0
      - time: 5.85
        value: {x: 0, y: 0, z: -1.4881899}
        inSlope: {x: 0, y: 0, z: 3.353348}
        outSlope: {x: 0, y: 0, z: 3.353348}
        tangentMode: 0
      - time: 6.3333335
        value: {x: 0, y: 0, z: 0}
        inSlope: {x: 0, y: 0, z: 2.7526815}
        outSlope: {x: 0, y: 0, z: 2.7526815}
        tangentMode: 0
      m_PreInfinity: 2
      m_PostInfinity: 2
      m_RotationOrder: 4
    path: Body/Torso/TorsoUpper/LeftArm/LeftForearm
  - curve:
      serializedVersion: 2
      m_Curve:
      - time: 0
        value: {x: 0, y: 0, z: 0}
        inSlope: {x: 0, y: 0, z: -2.492996}
        outSlope: {x: 0, y: 0, z: -2.492996}
        tangentMode: 0
      - time: 0.25
        value: {x: 0, y: 0, z: -0.6686401}
        inSlope: {x: 0, y: 0, z: -2.8408241}
        outSlope: {x: 0, y: 0, z: -2.8408241}
        tangentMode: 0
      - time: 0.8
        value: {x: 0, y: 0, z: -2.3730297}
        inSlope: {x: 0, y: 0, z: -3.2829022}
        outSlope: {x: 0, y: 0, z: -3.2829022}
        tangentMode: 0
      - time: 1.4
        value: {x: 0, y: 0, z: -4.361866}
        inSlope: {x: 0, y: 0, z: -3.2584217}
        outSlope: {x: 0, y: 0, z: -3.2584217}
        tangentMode: 0
      - time: 2.3
        value: {x: 0, y: 0, z: -6.9209948}
        inSlope: {x: 0, y: 0, z: -2.230238}
        outSlope: {x: 0, y: 0, z: -2.230238}
        tangentMode: 0
      - time: 2.6333334
        value: {x: 0, y: 0, z: -7.555152}
        inSlope: {x: 0, y: 0, z: -1.5475018}
        outSlope: {x: 0, y: 0, z: -1.5475018}
        tangentMode: 0
      - time: 2.9333334
        value: {x: 0, y: 0, z: -7.9096065}
        inSlope: {x: 0, y: 0, z: -0.7935001}
        outSlope: {x: 0, y: 0, z: -0.7935001}
        tangentMode: 0
      - time: 3.2166667
        value: {x: 0, y: 0, z: -8.019137}
        inSlope: {x: 0, y: 0, z: 0.039994597}
        outSlope: {x: 0, y: 0, z: 0.039994597}
        tangentMode: 0
      - time: 3.25
        value: {x: 0, y: 0, z: -8.016008}
        inSlope: {x: 0, y: 0, z: 0.14748852}
        outSlope: {x: 0, y: 0, z: 0.14748852}
        tangentMode: 0
      - time: 3.5833333
        value: {x: 0, y: 0, z: -7.798795}
        inSlope: {x: 0, y: 0, z: 1.1268139}
        outSlope: {x: 0, y: 0, z: 1.1268139}
        tangentMode: 0
      - time: 3.9833333
        value: {x: 0, y: 0, z: -7.1505814}
        inSlope: {x: 0, y: 0, z: 2.0725293}
        outSlope: {x: 0, y: 0, z: 2.0725293}
        tangentMode: 0
      - time: 4.3333335
        value: {x: 0, y: 0, z: -6.31073}
        inSlope: {x: 0, y: 0, z: 2.694677}
        outSlope: {x: 0, y: 0, z: 2.694677}
        tangentMode: 0
      - time: 4.633333
        value: {x: 0, y: 0, z: -5.4417}
        inSlope: {x: 0, y: 0, z: 3.0753963}
        outSlope: {x: 0, y: 0, z: 3.0753963}
        tangentMode: 0
      - time: 4.95
        value: {x: 0, y: 0, z: -4.4242425}
        inSlope: {x: 0, y: 0, z: 3.3245013}
        outSlope: {x: 0, y: 0, z: 3.3245013}
        tangentMode: 0
      - time: 5.2833333
        value: {x: 0, y: 0, z: -3.295793}
        inSlope: {x: 0, y: 0, z: 3.4172192}
        outSlope: {x: 0, y: 0, z: 3.4172192}
        tangentMode: 0
      - time: 5.85
        value: {x: 0, y: 0, z: -1.4040277}
        inSlope: {x: 0, y: 0, z: 3.1758645}
        outSlope: {x: 0, y: 0, z: 3.1758645}
        tangentMode: 0
      - time: 6.3333335
        value: {x: 0, y: 0, z: 0}
        inSlope: {x: 0, y: 0, z: 2.5729852}
        outSlope: {x: 0, y: 0, z: 2.5729852}
        tangentMode: 0
      m_PreInfinity: 2
      m_PostInfinity: 2
      m_RotationOrder: 4
    path: Body/Torso/TorsoUpper/LeftArm/LeftForearm/LeftHand
  - curve:
      serializedVersion: 2
      m_Curve:
      - time: 0
        value: {x: 0, y: 0, z: 0}
        inSlope: {x: -0, y: -0, z: -6.3052177}
        outSlope: {x: -0, y: -0, z: -6.3052177}
        tangentMode: 0
      - time: 0.25
        value: {x: -0, y: -0, z: -1.922704}
        inSlope: {x: 0, y: 0, z: -8.405964}
        outSlope: {x: 0, y: 0, z: -8.405964}
        tangentMode: 0
      - time: 0.76666665
        value: {x: 0, y: 0, z: -4.834}
        inSlope: {x: 0, y: 0, z: 0}
        outSlope: {x: 0, y: 0, z: 0}
        tangentMode: 0
      - time: 1.0333333
        value: {x: 0, y: 0, z: -3.407227}
        inSlope: {x: 0, y: 0, z: 9.27403}
        outSlope: {x: 0, y: 0, z: 9.27403}
        tangentMode: 0
      - time: 1.4
        value: {x: 0, y: 0, z: 0.263}
        inSlope: {x: 0, y: 0, z: 8.047895}
        outSlope: {x: 0, y: 0, z: 8.047895}
        tangentMode: 0
      m_PreInfinity: 2
      m_PostInfinity: 2
      m_RotationOrder: 4
    path: Body/Torso/TorsoUpper/RightArm
  - curve:
      serializedVersion: 2
      m_Curve:
      - time: 0
        value: {x: 0, y: 0, z: 0}
        inSlope: {x: 0, y: 0, z: -3.2613256}
        outSlope: {x: 0, y: 0, z: -3.2613256}
        tangentMode: 0
      - time: 0.25
        value: {x: 0, y: 0, z: -0.86957}
        inSlope: {x: 0, y: 0, z: -3.6783729}
        outSlope: {x: 0, y: 0, z: -3.6783729}
        tangentMode: 0
      - time: 0.76666665
        value: {x: 0, y: 0, z: -2.9285033}
        inSlope: {x: 0, y: 0, z: -4.2196727}
        outSlope: {x: 0, y: 0, z: -4.2196727}
        tangentMode: 0
      - time: 1.0333333
        value: {x: 0, y: 0, z: -4.0710154}
        inSlope: {x: 0, y: 0, z: -4.3299866}
        outSlope: {x: 0, y: 0, z: -4.3299866}
        tangentMode: 0
      - time: 1.4
        value: {x: 0, y: 0, z: -5.6586766}
        inSlope: {x: 0, y: 0, z: -4.293715}
        outSlope: {x: 0, y: 0, z: -4.293715}
        tangentMode: 0
      - time: 1.6666666
        value: {x: 0, y: 0, z: -6.784482}
        inSlope: {x: 0, y: 0, z: -4.1306434}
        outSlope: {x: 0, y: 0, z: -4.1306434}
        tangentMode: 0
      - time: 2.3
        value: {x: 0, y: 0, z: -9.16609}
        inSlope: {x: 0, y: 0, z: -3.28201}
        outSlope: {x: 0, y: 0, z: -3.28201}
        tangentMode: 0
      - time: 3.4666667
        value: {x: 0, y: 0, z: -11.305929}
        inSlope: {x: 0, y: 0, z: -0.019072976}
        outSlope: {x: 0, y: 0, z: -0.019072976}
        tangentMode: 0
      - time: 3.9833333
        value: {x: 0, y: 0, z: -10.644225}
        inSlope: {x: 0, y: 0, z: 2.4517746}
        outSlope: {x: 0, y: 0, z: 2.4517746}
        tangentMode: 0
      - time: 5.85
        value: {x: 0, y: 0, z: -2.1747365}
        inSlope: {x: 0, y: 0, z: 4.942316}
        outSlope: {x: 0, y: 0, z: 4.942316}
        tangentMode: 0
      - time: 6.3333335
        value: {x: 0, y: 0, z: 0}
        inSlope: {x: 0, y: 0, z: 3.9439287}
        outSlope: {x: 0, y: 0, z: 3.9439287}
        tangentMode: 0
      m_PreInfinity: 2
      m_PostInfinity: 2
      m_RotationOrder: 4
    path: Body/Torso/TorsoUpper/RightArm/RightForearm
  - curve:
      serializedVersion: 2
      m_Curve:
      - time: 0
        value: {x: 0, y: 0, z: 0}
        inSlope: {x: 0, y: 0, z: -2.2151523}
        outSlope: {x: 0, y: 0, z: -2.2151523}
        tangentMode: 0
      - time: 0.76666665
        value: {x: 0, y: 0, z: -2.0273483}
        inSlope: {x: 0, y: 0, z: -2.920529}
        outSlope: {x: 0, y: 0, z: -2.920529}
        tangentMode: 0
      - time: 1.0333333
        value: {x: 0, y: 0, z: -2.8126369}
        inSlope: {x: 0, y: 0, z: -2.950619}
        outSlope: {x: 0, y: 0, z: -2.950619}
        tangentMode: 0
      - time: 1.85
        value: {x: 0, y: 0, z: -5.048641}
        inSlope: {x: 0, y: 0, z: -2.3516424}
        outSlope: {x: 0, y: 0, z: -2.3516424}
        tangentMode: 0
      - time: 2.9166667
        value: {x: 0, y: 0, z: -6.460861}
        inSlope: {x: 0, y: 0, z: 0}
        outSlope: {x: 0, y: 0, z: 0}
        tangentMode: 0
      - time: 6.3333335
        value: {x: 0, y: 0, z: 0}
        inSlope: {x: 0, y: 0, z: 1.8909837}
        outSlope: {x: 0, y: 0, z: 1.8909837}
        tangentMode: 0
      m_PreInfinity: 2
      m_PostInfinity: 2
      m_RotationOrder: 4
    path: Body/Torso/TorsoUpper/RightArm/RightForearm/RightHand
  - curve:
      serializedVersion: 2
      m_Curve:
      - time: 0
        value: {x: 0, y: 0, z: 0}
        inSlope: {x: 0, y: 0, z: 9.481305}
        outSlope: {x: 0, y: 0, z: 9.481305}
        tangentMode: 0
      - time: 0.76666665
        value: {x: 0, y: 0, z: 7.2690005}
        inSlope: {x: 0, y: 0, z: 0}
        outSlope: {x: 0, y: 0, z: 0}
        tangentMode: 0
      - time: 5.5666666
        value: {x: 0, y: 0, z: 7.2690005}
        inSlope: {x: 0, y: 0, z: 0}
        outSlope: {x: 0, y: 0, z: 0}
        tangentMode: 0
      - time: 6.3333335
        value: {x: 0, y: 0, z: 0}
        inSlope: {x: 0, y: 0, z: -9.481302}
        outSlope: {x: 0, y: 0, z: -9.481302}
        tangentMode: 0
      m_PreInfinity: 2
      m_PostInfinity: 2
      m_RotationOrder: 4
    path: Body/RightLeg
  - curve:
      serializedVersion: 2
      m_Curve:
      - time: 0
        value: {x: 0, y: 0, z: 0}
        inSlope: {x: 0, y: 0, z: -33.310276}
        outSlope: {x: 0, y: 0, z: -33.310276}
        tangentMode: 0
      - time: 0.25
        value: {x: 0, y: 0, z: -10.398838}
        inSlope: {x: 0, y: 0, z: -40.320732}
        outSlope: {x: 0, y: 0, z: -40.320732}
        tangentMode: 0
      - time: 0.46666667
        value: {x: 0, y: 0, z: -15.544795}
        inSlope: {x: 0, y: 0, z: 0}
        outSlope: {x: 0, y: 0, z: 0}
        tangentMode: 0
      - time: 0.76666665
        value: {x: 0, y: 0, z: -15.544796}
        inSlope: {x: 0, y: 0, z: 0}
        outSlope: {x: 0, y: 0, z: 0}
        tangentMode: 0
      - time: 5.5666666
        value: {x: 0, y: 0, z: -15.544795}
        inSlope: {x: 0, y: 0, z: 0}
        outSlope: {x: 0, y: 0, z: 0}
        tangentMode: 0
      - time: 6.3333335
        value: {x: 0, y: 0, z: 0}
        inSlope: {x: 0, y: 0, z: 20.275814}
        outSlope: {x: 0, y: 0, z: 20.275814}
        tangentMode: 0
      m_PreInfinity: 2
      m_PostInfinity: 2
      m_RotationOrder: 4
    path: Body/RightLeg/RightLegLower
  - curve:
      serializedVersion: 2
      m_Curve:
      - time: 0
        value: {x: 0, y: 0, z: 0}
        inSlope: {x: 0, y: 0, z: -39.196003}
        outSlope: {x: 0, y: 0, z: -39.196003}
        tangentMode: 0
      - time: 0.25
        value: {x: 0, y: 0, z: -9.799001}
        inSlope: {x: 0, y: 0, z: -14.664453}
        outSlope: {x: 0, y: 0, z: -14.664453}
        tangentMode: 0
      - time: 0.76666665
        value: {x: 0, y: 0, z: -4.701}
        inSlope: {x: 0, y: 0, z: 0}
        outSlope: {x: 0, y: 0, z: 0}
        tangentMode: 0
      - time: 5.5666666
        value: {x: 0, y: 0, z: -4.701}
        inSlope: {x: 0, y: 0, z: 0}
        outSlope: {x: 0, y: 0, z: 0}
        tangentMode: 0
      - time: 6.3333335
        value: {x: 0, y: 0, z: 0}
        inSlope: {x: 0, y: 0, z: 6.1317377}
        outSlope: {x: 0, y: 0, z: 6.1317377}
        tangentMode: 0
      m_PreInfinity: 2
      m_PostInfinity: 2
      m_RotationOrder: 4
    path: Body/RightLeg/RightLegLower/RightShoe
  m_PositionCurves: []
  m_ScaleCurves: []
  m_FloatCurves:
  - curve:
      serializedVersion: 2
      m_Curve:
      - time: 0
        value: 0
        inSlope: Infinity
        outSlope: Infinity
        tangentMode: 31
      - time: 2.3166666
        value: 1
        inSlope: Infinity
        outSlope: Infinity
        tangentMode: 31
      - time: 2.4166667
        value: 0
        inSlope: Infinity
        outSlope: Infinity
        tangentMode: 31
      - time: 4.5833335
        value: 1
        inSlope: Infinity
        outSlope: Infinity
        tangentMode: 31
      - time: 4.6833334
        value: 0
        inSlope: Infinity
        outSlope: Infinity
        tangentMode: 31
      m_PreInfinity: 2
      m_PostInfinity: 2
      m_RotationOrder: 4
    attribute: m_IsActive
    path: Body/Torso/TorsoUpper/Neck/Head/Face/Right/EyeRightClosed
    classID: 1
    script: {fileID: 0}
  - curve:
      serializedVersion: 2
      m_Curve:
      - time: 0
        value: 0
        inSlope: Infinity
        outSlope: Infinity
        tangentMode: 31
      - time: 2.3166666
        value: 1
        inSlope: Infinity
        outSlope: Infinity
        tangentMode: 31
      - time: 2.4166667
        value: 0
        inSlope: Infinity
        outSlope: Infinity
        tangentMode: 31
      - time: 4.5833335
        value: 1
        inSlope: Infinity
        outSlope: Infinity
        tangentMode: 31
      - time: 4.6833334
        value: 0
        inSlope: Infinity
        outSlope: Infinity
        tangentMode: 31
      m_PreInfinity: 2
      m_PostInfinity: 2
      m_RotationOrder: 4
    attribute: m_IsActive
    path: Body/Torso/TorsoUpper/Neck/Head/Face/Left/EyeLeftClosed
    classID: 1
    script: {fileID: 0}
  - curve:
      serializedVersion: 2
      m_Curve:
      - time: 0
        value: 1
        inSlope: Infinity
        outSlope: Infinity
        tangentMode: 31
      - time: 0.15
        value: 0
        inSlope: Infinity
        outSlope: Infinity
        tangentMode: 31
      - time: 0.55
        value: 1
        inSlope: Infinity
        outSlope: Infinity
        tangentMode: 31
      - time: 0.8833333
        value: 0
        inSlope: Infinity
        outSlope: Infinity
        tangentMode: 31
      - time: 1.2833333
        value: 1
        inSlope: Infinity
        outSlope: Infinity
        tangentMode: 31
      - time: 1.3833333
        value: 0
        inSlope: Infinity
        outSlope: Infinity
        tangentMode: 31
      - time: 1.7833333
        value: 1
        inSlope: Infinity
        outSlope: Infinity
        tangentMode: 31
      - time: 2.1666667
        value: 1
        inSlope: Infinity
        outSlope: Infinity
        tangentMode: 31
      - time: 2.2666667
        value: 0
        inSlope: Infinity
        outSlope: Infinity
        tangentMode: 31
      - time: 2.3666666
        value: 1
        inSlope: Infinity
        outSlope: Infinity
        tangentMode: 31
      - time: 2.4666667
        value: 0
        inSlope: Infinity
        outSlope: Infinity
        tangentMode: 31
      - time: 2.6666667
        value: 1
        inSlope: Infinity
        outSlope: Infinity
        tangentMode: 31
      - time: 2.7666667
        value: 0
        inSlope: Infinity
        outSlope: Infinity
        tangentMode: 31
      - time: 2.8666666
        value: 1
        inSlope: Infinity
        outSlope: Infinity
        tangentMode: 31
      - time: 2.9666667
        value: 0
        inSlope: Infinity
        outSlope: Infinity
        tangentMode: 31
      - time: 3.2166667
        value: 1
        inSlope: Infinity
        outSlope: Infinity
        tangentMode: 31
      - time: 3.3166666
        value: 0
        inSlope: Infinity
        outSlope: Infinity
        tangentMode: 31
      - time: 3.4166667
        value: 1
        inSlope: Infinity
        outSlope: Infinity
        tangentMode: 31
      - time: 3.5166667
        value: 0
        inSlope: Infinity
        outSlope: Infinity
        tangentMode: 31
      - time: 3.7166667
        value: 1
        inSlope: Infinity
        outSlope: Infinity
        tangentMode: 31
      - time: 3.8166666
        value: 0
        inSlope: Infinity
        outSlope: Infinity
        tangentMode: 31
      - time: 3.9166667
        value: 1
        inSlope: Infinity
        outSlope: Infinity
        tangentMode: 31
      - time: 4.016667
        value: 0
        inSlope: Infinity
        outSlope: Infinity
        tangentMode: 31
      - time: 4.266667
        value: 1
        inSlope: Infinity
        outSlope: Infinity
        tangentMode: 31
      - time: 4.366667
        value: 0
        inSlope: Infinity
        outSlope: Infinity
        tangentMode: 31
      - time: 4.4666667
        value: 1
        inSlope: Infinity
        outSlope: Infinity
        tangentMode: 31
      - time: 4.5666666
        value: 0
        inSlope: Infinity
        outSlope: Infinity
        tangentMode: 31
      - time: 4.766667
        value: 1
        inSlope: Infinity
        outSlope: Infinity
        tangentMode: 31
      - time: 4.866667
        value: 0
        inSlope: Infinity
        outSlope: Infinity
        tangentMode: 31
      - time: 4.9666667
        value: 1
        inSlope: Infinity
        outSlope: Infinity
        tangentMode: 31
      - time: 5.0666666
        value: 0
        inSlope: Infinity
        outSlope: Infinity
        tangentMode: 31
      - time: 5.1666665
        value: 1
        inSlope: Infinity
        outSlope: Infinity
        tangentMode: 31
      m_PreInfinity: 2
      m_PostInfinity: 2
      m_RotationOrder: 4
    attribute: m_IsActive
    path: Body/Torso/TorsoUpper/Neck/Head/Face/MouthClosed
    classID: 1
    script: {fileID: 0}
  - curve:
      serializedVersion: 2
      m_Curve:
      - time: 0
        value: 0
        inSlope: Infinity
        outSlope: Infinity
        tangentMode: 31
      - time: 0.15
        value: 1
        inSlope: Infinity
        outSlope: Infinity
        tangentMode: 31
      - time: 0.25
        value: 0
        inSlope: Infinity
        outSlope: Infinity
        tangentMode: 31
      - time: 0.35
        value: 1
        inSlope: Infinity
        outSlope: Infinity
        tangentMode: 31
      - time: 0.45
        value: 0
        inSlope: Infinity
        outSlope: Infinity
        tangentMode: 31
      - time: 0.8833333
        value: 1
        inSlope: Infinity
        outSlope: Infinity
        tangentMode: 31
      - time: 0.98333335
        value: 0
        inSlope: Infinity
        outSlope: Infinity
        tangentMode: 31
      - time: 1.0833334
        value: 1
        inSlope: Infinity
        outSlope: Infinity
        tangentMode: 31
      - time: 1.1833333
        value: 0
        inSlope: Infinity
        outSlope: Infinity
        tangentMode: 31
      - time: 1.3833333
        value: 1
        inSlope: Infinity
        outSlope: Infinity
        tangentMode: 31
      - time: 1.4833333
        value: 0
        inSlope: Infinity
        outSlope: Infinity
        tangentMode: 31
      - time: 1.5833334
        value: 1
        inSlope: Infinity
        outSlope: Infinity
        tangentMode: 31
      - time: 1.6833333
        value: 0
        inSlope: Infinity
        outSlope: Infinity
        tangentMode: 31
      - time: 2.0666666
        value: 0
        inSlope: Infinity
        outSlope: Infinity
        tangentMode: 31
      - time: 2.4666667
        value: 1
        inSlope: Infinity
        outSlope: Infinity
        tangentMode: 31
      - time: 2.5666666
        value: 0
        inSlope: Infinity
        outSlope: Infinity
        tangentMode: 31
      - time: 2.9666667
        value: 1
        inSlope: Infinity
        outSlope: Infinity
        tangentMode: 31
      - time: 3.1166666
        value: 0
        inSlope: Infinity
        outSlope: Infinity
        tangentMode: 31
      - time: 3.5166667
        value: 1
        inSlope: Infinity
        outSlope: Infinity
        tangentMode: 31
      - time: 3.6166666
        value: 0
        inSlope: Infinity
        outSlope: Infinity
        tangentMode: 31
      - time: 4.016667
        value: 1
        inSlope: Infinity
        outSlope: Infinity
        tangentMode: 31
      - time: 4.1666665
        value: 0
        inSlope: Infinity
        outSlope: Infinity
        tangentMode: 31
      - time: 4.5666666
        value: 1
        inSlope: Infinity
        outSlope: Infinity
        tangentMode: 31
      - time: 4.6666665
        value: 0
        inSlope: Infinity
        outSlope: Infinity
        tangentMode: 31
      - time: 5.0666666
        value: 1
        inSlope: Infinity
        outSlope: Infinity
        tangentMode: 31
      - time: 5.1666665
        value: 0
        inSlope: Infinity
        outSlope: Infinity
        tangentMode: 31
      m_PreInfinity: 2
      m_PostInfinity: 2
      m_RotationOrder: 4
    attribute: m_IsActive
    path: Body/Torso/TorsoUpper/Neck/Head/Face/MouthOpen1
    classID: 1
    script: {fileID: 0}
  - curve:
      serializedVersion: 2
      m_Curve:
      - time: 0
        value: 0
        inSlope: Infinity
        outSlope: Infinity
        tangentMode: 31
      - time: 0.25
        value: 1
        inSlope: Infinity
        outSlope: Infinity
        tangentMode: 31
      - time: 0.35
        value: 0
        inSlope: Infinity
        outSlope: Infinity
        tangentMode: 31
      - time: 0.45
        value: 1
        inSlope: Infinity
        outSlope: Infinity
        tangentMode: 31
      - time: 0.55
        value: 0
        inSlope: Infinity
        outSlope: Infinity
        tangentMode: 31
      - time: 0.98333335
        value: 1
        inSlope: Infinity
        outSlope: Infinity
        tangentMode: 31
      - time: 1.0833334
        value: 0
        inSlope: Infinity
        outSlope: Infinity
        tangentMode: 31
      - time: 1.1833333
        value: 1
        inSlope: Infinity
        outSlope: Infinity
        tangentMode: 31
      - time: 1.2833333
        value: 0
        inSlope: Infinity
        outSlope: Infinity
        tangentMode: 31
      - time: 1.4833333
        value: 1
        inSlope: Infinity
        outSlope: Infinity
        tangentMode: 31
      - time: 1.5833334
        value: 0
        inSlope: Infinity
        outSlope: Infinity
        tangentMode: 31
      - time: 1.6833333
        value: 1
        inSlope: Infinity
        outSlope: Infinity
        tangentMode: 31
      - time: 1.7833333
        value: 0
        inSlope: Infinity
        outSlope: Infinity
        tangentMode: 31
      - time: 1.8833333
        value: 0
        inSlope: Infinity
        outSlope: Infinity
        tangentMode: 31
      - time: 2.0666666
        value: 1
        inSlope: Infinity
        outSlope: Infinity
        tangentMode: 31
      - time: 2.1666667
        value: 0
        inSlope: Infinity
        outSlope: Infinity
        tangentMode: 31
      - time: 2.2666667
        value: 1
        inSlope: Infinity
        outSlope: Infinity
        tangentMode: 31
      - time: 2.3666666
        value: 0
        inSlope: Infinity
        outSlope: Infinity
        tangentMode: 31
      - time: 2.5666666
        value: 1
        inSlope: Infinity
        outSlope: Infinity
        tangentMode: 31
      - time: 2.6666667
        value: 0
        inSlope: Infinity
        outSlope: Infinity
        tangentMode: 31
      - time: 2.7666667
        value: 1
        inSlope: Infinity
        outSlope: Infinity
        tangentMode: 31
      - time: 2.8666666
        value: 0
        inSlope: Infinity
        outSlope: Infinity
        tangentMode: 31
      - time: 3.1166666
        value: 1
        inSlope: Infinity
        outSlope: Infinity
        tangentMode: 31
      - time: 3.2166667
        value: 0
        inSlope: Infinity
        outSlope: Infinity
        tangentMode: 31
      - time: 3.3166666
        value: 1
        inSlope: Infinity
        outSlope: Infinity
        tangentMode: 31
      - time: 3.4166667
        value: 0
        inSlope: Infinity
        outSlope: Infinity
        tangentMode: 31
      - time: 3.6166666
        value: 1
        inSlope: Infinity
        outSlope: Infinity
        tangentMode: 31
      - time: 3.7166667
        value: 0
        inSlope: Infinity
        outSlope: Infinity
        tangentMode: 31
      - time: 3.8166666
        value: 1
        inSlope: Infinity
        outSlope: Infinity
        tangentMode: 31
      - time: 3.9166667
        value: 0
        inSlope: Infinity
        outSlope: Infinity
        tangentMode: 31
      - time: 4.1666665
        value: 1
        inSlope: Infinity
        outSlope: Infinity
        tangentMode: 31
      - time: 4.266667
        value: 0
        inSlope: Infinity
        outSlope: Infinity
        tangentMode: 31
      - time: 4.366667
        value: 1
        inSlope: Infinity
        outSlope: Infinity
        tangentMode: 31
      - time: 4.4666667
        value: 0
        inSlope: Infinity
        outSlope: Infinity
        tangentMode: 31
      - time: 4.6666665
        value: 1
        inSlope: Infinity
        outSlope: Infinity
        tangentMode: 31
      - time: 4.766667
        value: 0
        inSlope: Infinity
        outSlope: Infinity
        tangentMode: 31
      - time: 4.866667
        value: 1
        inSlope: Infinity
        outSlope: Infinity
        tangentMode: 31
      - time: 4.9666667
        value: 0
        inSlope: Infinity
        outSlope: Infinity
        tangentMode: 31
      m_PreInfinity: 2
      m_PostInfinity: 2
      m_RotationOrder: 4
    attribute: m_IsActive
    path: Body/Torso/TorsoUpper/Neck/Head/Face/MouthOpen2
    classID: 1
    script: {fileID: 0}
  - curve:
      serializedVersion: 2
      m_Curve:
      - time: 0
        value: 0
        inSlope: Infinity
        outSlope: Infinity
        tangentMode: 31
      - time: 1.8333334
        value: 1
        inSlope: Infinity
        outSlope: Infinity
        tangentMode: 31
      - time: 6.3333335
        value: 0
        inSlope: Infinity
        outSlope: Infinity
        tangentMode: 31
      m_PreInfinity: 2
      m_PostInfinity: 2
      m_RotationOrder: 4
    attribute: m_IsActive
    path: Body/Torso/TorsoUpper/RightArm/RightForearm/RightHand/ArmletRightFront
    classID: 1
    script: {fileID: 0}
  - curve:
      serializedVersion: 2
      m_Curve:
      - time: 0
        value: 1
        inSlope: Infinity
        outSlope: Infinity
        tangentMode: 31
      - time: 1.85
        value: 0
        inSlope: Infinity
        outSlope: Infinity
        tangentMode: 31
      - time: 6.3333335
        value: 1
        inSlope: Infinity
        outSlope: Infinity
        tangentMode: 31
      m_PreInfinity: 2
      m_PostInfinity: 2
      m_RotationOrder: 4
    attribute: m_IsActive
    path: Body/Torso/TorsoUpper/RightArm/RightForearm/RightHand/ArmletRight
    classID: 1
    script: {fileID: 0}
  m_PPtrCurves: []
  m_SampleRate: 60
  m_WrapMode: 0
  m_Bounds:
    m_Center: {x: 0, y: 0, z: 0}
    m_Extent: {x: 0, y: 0, z: 0}
  m_ClipBindingConstant:
    genericBindings:
    - path: 2157539374
      attribute: 4
      script: {fileID: 0}
      classID: 4
      customType: 14
      isPPtrCurve: 0
    - path: 4166763380
      attribute: 4
      script: {fileID: 0}
      classID: 4
      customType: 14
      isPPtrCurve: 0
    - path: 1997562997
      attribute: 4
      script: {fileID: 0}
      classID: 4
      customType: 14
      isPPtrCurve: 0
    - path: 3095407969
      attribute: 4
      script: {fileID: 0}
      classID: 4
      customType: 14
      isPPtrCurve: 0
    - path: 541443673
      attribute: 4
      script: {fileID: 0}
      classID: 4
      customType: 14
      isPPtrCurve: 0
    - path: 464622508
      attribute: 4
      script: {fileID: 0}
      classID: 4
      customType: 14
      isPPtrCurve: 0
    - path: 928226820
      attribute: 4
      script: {fileID: 0}
      classID: 4
      customType: 14
      isPPtrCurve: 0
    - path: 2224152727
      attribute: 4
      script: {fileID: 0}
      classID: 4
      customType: 14
      isPPtrCurve: 0
    - path: 1209925952
      attribute: 4
      script: {fileID: 0}
      classID: 4
      customType: 14
      isPPtrCurve: 0
    - path: 3697623316
      attribute: 4
      script: {fileID: 0}
      classID: 4
      customType: 14
      isPPtrCurve: 0
    - path: 2440267433
      attribute: 4
      script: {fileID: 0}
      classID: 4
      customType: 14
      isPPtrCurve: 0
    - path: 60502102
      attribute: 4
      script: {fileID: 0}
      classID: 4
      customType: 14
      isPPtrCurve: 0
    - path: 1857883897
      attribute: 2086281974
      script: {fileID: 0}
      classID: 1
      customType: 0
      isPPtrCurve: 0
    - path: 2419079199
      attribute: 2086281974
      script: {fileID: 0}
      classID: 1
      customType: 0
      isPPtrCurve: 0
    - path: 1030089362
      attribute: 2086281974
      script: {fileID: 0}
      classID: 1
      customType: 0
      isPPtrCurve: 0
    - path: 4090973222
      attribute: 2086281974
      script: {fileID: 0}
      classID: 1
      customType: 0
      isPPtrCurve: 0
    - path: 1792941468
      attribute: 2086281974
      script: {fileID: 0}
      classID: 1
      customType: 0
      isPPtrCurve: 0
    - path: 809828208
      attribute: 2086281974
      script: {fileID: 0}
      classID: 1
      customType: 0
      isPPtrCurve: 0
    - path: 2310421383
      attribute: 2086281974
      script: {fileID: 0}
      classID: 1
      customType: 0
      isPPtrCurve: 0
    pptrCurveMapping: []
  m_AnimationClipSettings:
    serializedVersion: 2
    m_AdditiveReferencePoseClip: {fileID: 0}
    m_AdditiveReferencePoseTime: 0
    m_StartTime: 0
    m_StopTime: 6.366667
    m_OrientationOffsetY: 0
    m_Level: 0
    m_CycleOffset: 0
    m_HasAdditiveReferencePose: 0
    m_LoopTime: 0
    m_LoopBlend: 0
    m_LoopBlendOrientation: 0
    m_LoopBlendPositionY: 0
    m_LoopBlendPositionXZ: 0
    m_KeepOriginalOrientation: 0
    m_KeepOriginalPositionY: 1
    m_KeepOriginalPositionXZ: 0
    m_HeightFromFeet: 0
    m_Mirror: 0
  m_EditorCurves:
  - curve:
      serializedVersion: 2
      m_Curve:
      - time: 0
        value: 0
        inSlope: 0
        outSlope: 0
        tangentMode: 10
      - time: 0.25
        value: 0
        inSlope: 0
        outSlope: 0
        tangentMode: 10
      - time: 3.2666667
        value: 0
        inSlope: 0
        outSlope: 0
        tangentMode: 10
      - time: 3.9666667
        value: 0
        inSlope: 0
        outSlope: 0
        tangentMode: 10
      - time: 4.9666667
        value: 0
        inSlope: 0
        outSlope: 0
        tangentMode: 10
      - time: 5.8333335
        value: 0
        inSlope: 0
        outSlope: 0
        tangentMode: 10
      - time: 6.3333335
        value: 0
        inSlope: 0
        outSlope: 0
        tangentMode: 10
      m_PreInfinity: 2
      m_PostInfinity: 2
      m_RotationOrder: 4
    attribute: localEulerAnglesRaw.x
    path: Body/Torso/TorsoUpper
    classID: 4
    script: {fileID: 0}
  - curve:
      serializedVersion: 2
      m_Curve:
      - time: 0
        value: 0
        inSlope: 0
        outSlope: 0
        tangentMode: 10
      - time: 0.25
        value: 0
        inSlope: 0
        outSlope: 0
        tangentMode: 10
      - time: 3.2666667
        value: 0
        inSlope: 0
        outSlope: 0
        tangentMode: 10
      - time: 3.9666667
        value: 0
        inSlope: 0
        outSlope: 0
        tangentMode: 10
      - time: 4.9666667
        value: 0
        inSlope: 0
        outSlope: 0
        tangentMode: 10
      - time: 5.8333335
        value: 0
        inSlope: 0
        outSlope: 0
        tangentMode: 10
      - time: 6.3333335
        value: 0
        inSlope: 0
        outSlope: 0
        tangentMode: 10
      m_PreInfinity: 2
      m_PostInfinity: 2
      m_RotationOrder: 4
    attribute: localEulerAnglesRaw.y
    path: Body/Torso/TorsoUpper
    classID: 4
    script: {fileID: 0}
  - curve:
      serializedVersion: 2
      m_Curve:
      - time: 0
        value: -4.602
        inSlope: 0.5984117
        outSlope: 0.5984117
        tangentMode: 10
      - time: 3.2666667
        value: -2.6471887
        inSlope: -0.8971013
        outSlope: -0.8971013
        tangentMode: 0
      - time: 3.9666667
        value: -4.491
        inSlope: 0.021991849
        outSlope: 0.021991849
        tangentMode: 10
      - time: 4.9666667
        value: -1.8130001
        inSlope: -0.20599973
        outSlope: -0.20599973
        tangentMode: 10
      - time: 5.8333335
        value: -4.491
        inSlope: -1.6559998
        outSlope: -1.6559998
        tangentMode: 10
      - time: 6.3333335
        value: -4.602
        inSlope: -0.11100006
        outSlope: -0.11100006
        tangentMode: 10
      - time: 6.366667
        value: -4.602
        inSlope: 0
        outSlope: 0
        tangentMode: 10
      m_PreInfinity: 2
      m_PostInfinity: 2
      m_RotationOrder: 4
    attribute: localEulerAnglesRaw.z
    path: Body/Torso/TorsoUpper
    classID: 4
    script: {fileID: 0}
  - curve:
      serializedVersion: 2
      m_Curve:
      - time: 0
        value: 0
        inSlope: 0
        outSlope: 0
        tangentMode: 10
      - time: 0.25
        value: 0
        inSlope: 0
        outSlope: 0
        tangentMode: 0
      - time: 1.55
        value: 0
        inSlope: 0
        outSlope: 0
        tangentMode: 0
      - time: 3.6166666
        value: 0
        inSlope: 0
        outSlope: 0
        tangentMode: 0
      - time: 5.1
        value: 0
        inSlope: 0
        outSlope: 0
        tangentMode: 0
      - time: 6.3333335
        value: 0
        inSlope: 0
        outSlope: 0
        tangentMode: 10
      m_PreInfinity: 2
      m_PostInfinity: 2
      m_RotationOrder: 4
    attribute: localEulerAnglesRaw.x
    path: Body/Torso/TorsoUpper/Neck
    classID: 4
    script: {fileID: 0}
  - curve:
      serializedVersion: 2
      m_Curve:
      - time: 0
        value: 0
        inSlope: 0
        outSlope: 0
        tangentMode: 10
      - time: 0.25
        value: 0
        inSlope: 0
        outSlope: 0
        tangentMode: 0
      - time: 1.55
        value: 0
        inSlope: 0
        outSlope: 0
        tangentMode: 0
      - time: 3.6166666
        value: 0
        inSlope: 0
        outSlope: 0
        tangentMode: 0
      - time: 5.1
        value: 0
        inSlope: 0
        outSlope: 0
        tangentMode: 0
      - time: 6.3333335
        value: 0
        inSlope: 0
        outSlope: 0
        tangentMode: 10
      m_PreInfinity: 2
      m_PostInfinity: 2
      m_RotationOrder: 4
    attribute: localEulerAnglesRaw.y
    path: Body/Torso/TorsoUpper/Neck
    classID: 4
    script: {fileID: 0}
  - curve:
      serializedVersion: 2
      m_Curve:
      - time: 0
        value: 0
        inSlope: 0.123870976
        outSlope: 0.123870976
        tangentMode: 10
      - time: 1.55
        value: 0.192
        inSlope: 0
        outSlope: 0
        tangentMode: 0
      - time: 3.6166666
        value: 4.519
        inSlope: 0
        outSlope: 0
        tangentMode: 0
      - time: 5.1
        value: -2.196
        inSlope: 0
        outSlope: 0
        tangentMode: 0
      - time: 6.3333335
        value: 0
        inSlope: 1.7805402
        outSlope: 1.7805402
        tangentMode: 10
      m_PreInfinity: 2
      m_PostInfinity: 2
      m_RotationOrder: 4
    attribute: localEulerAnglesRaw.z
    path: Body/Torso/TorsoUpper/Neck
    classID: 4
    script: {fileID: 0}
  - curve:
      serializedVersion: 2
      m_Curve:
      - time: 0
        value: 0
        inSlope: 0
        outSlope: 0
        tangentMode: 10
      - time: 0.25
        value: 0
        inSlope: 0
        outSlope: 0
        tangentMode: 10
      - time: 1.2333333
        value: 0
        inSlope: 0
        outSlope: 0
        tangentMode: 10
      - time: 2.4666667
        value: 0
        inSlope: 0
        outSlope: 0
        tangentMode: 10
      - time: 4.9
        value: 0
        inSlope: 0
        outSlope: 0
        tangentMode: 10
      - time: 6.3333335
        value: 0
        inSlope: 0
        outSlope: 0
        tangentMode: 10
      m_PreInfinity: 2
      m_PostInfinity: 2
      m_RotationOrder: 4
    attribute: localEulerAnglesRaw.x
    path: Body/Torso/TorsoUpper/Neck/Head
    classID: 4
    script: {fileID: 0}
  - curve:
      serializedVersion: 2
      m_Curve:
      - time: 0
        value: 0
        inSlope: 0
        outSlope: 0
        tangentMode: 10
      - time: 0.25
        value: 0
        inSlope: 0
        outSlope: 0
        tangentMode: 10
      - time: 1.2333333
        value: 0
        inSlope: 0
        outSlope: 0
        tangentMode: 10
      - time: 2.4666667
        value: 0
        inSlope: 0
        outSlope: 0
        tangentMode: 10
      - time: 4.9
        value: 0
        inSlope: 0
        outSlope: 0
        tangentMode: 10
      - time: 6.3333335
        value: 0
        inSlope: 0
        outSlope: 0
        tangentMode: 10
      m_PreInfinity: 2
      m_PostInfinity: 2
      m_RotationOrder: 4
    attribute: localEulerAnglesRaw.y
    path: Body/Torso/TorsoUpper/Neck/Head
    classID: 4
    script: {fileID: 0}
  - curve:
      serializedVersion: 2
      m_Curve:
      - time: 0
        value: 0
        inSlope: -1.5624324
        outSlope: -1.5624324
        tangentMode: 10
      - time: 1.2333333
        value: -1.927
        inSlope: 0.13986492
        outSlope: 0.13986492
        tangentMode: 10
      - time: 2.4666667
        value: 0.34500003
        inSlope: 0.66361535
        outSlope: 0.66361535
        tangentMode: 10
      - time: 4.9
        value: -0.90800005
        inSlope: 0.05927843
        outSlope: 0.05927843
        tangentMode: 10
      - time: 6.3333335
        value: 0
        inSlope: 0.63348836
        outSlope: 0.63348836
        tangentMode: 10
      m_PreInfinity: 2
      m_PostInfinity: 2
      m_RotationOrder: 4
    attribute: localEulerAnglesRaw.z
    path: Body/Torso/TorsoUpper/Neck/Head
    classID: 4
    script: {fileID: 0}
  - curve:
      serializedVersion: 2
      m_Curve:
      - time: 0
        value: 0
        inSlope: 0
        outSlope: 0
        tangentMode: 10
      - time: 0.25
        value: 0
        inSlope: 0
        outSlope: 0
        tangentMode: 0
      - time: 0.8
        value: 0
        inSlope: 0
        outSlope: 0
        tangentMode: 0
      - time: 1.4
        value: 0
        inSlope: 0
        outSlope: 0
        tangentMode: 10
      - time: 1.85
        value: 0
        inSlope: 0
        outSlope: 0
        tangentMode: 10
      - time: 2.3
        value: 0
        inSlope: 0
        outSlope: 0
        tangentMode: 10
      - time: 3.9833333
        value: 0
        inSlope: 0
        outSlope: 0
        tangentMode: 10
      - time: 5.85
        value: 0
        inSlope: 0
        outSlope: 0
        tangentMode: 10
      - time: 6.3333335
        value: 0
        inSlope: 0
        outSlope: 0
        tangentMode: 10
      m_PreInfinity: 2
      m_PostInfinity: 2
      m_RotationOrder: 4
    attribute: localEulerAnglesRaw.x
    path: Body/Torso/TorsoUpper/LeftArm
    classID: 4
    script: {fileID: 0}
  - curve:
      serializedVersion: 2
      m_Curve:
      - time: 0
        value: 0
        inSlope: 0
        outSlope: 0
        tangentMode: 10
      - time: 0.25
        value: 0
        inSlope: 0
        outSlope: 0
        tangentMode: 0
      - time: 0.8
        value: 0
        inSlope: 0
        outSlope: 0
        tangentMode: 0
      - time: 1.4
        value: 0
        inSlope: 0
        outSlope: 0
        tangentMode: 10
      - time: 1.85
        value: 0
        inSlope: 0
        outSlope: 0
        tangentMode: 10
      - time: 2.3
        value: 0
        inSlope: 0
        outSlope: 0
        tangentMode: 10
      - time: 3.9833333
        value: 0
        inSlope: 0
        outSlope: 0
        tangentMode: 10
      - time: 5.85
        value: 0
        inSlope: 0
        outSlope: 0
        tangentMode: 10
      - time: 6.3333335
        value: 0
        inSlope: 0
        outSlope: 0
        tangentMode: 10
      m_PreInfinity: 2
      m_PostInfinity: 2
      m_RotationOrder: 4
    attribute: localEulerAnglesRaw.y
    path: Body/Torso/TorsoUpper/LeftArm
    classID: 4
    script: {fileID: 0}
  - curve:
      serializedVersion: 2
      m_Curve:
      - time: 0
        value: 0
        inSlope: 2.7275689
        outSlope: 2.7275689
        tangentMode: 10
      - time: 2.95
        value: 8.046329
        inSlope: 0.17467189
        outSlope: 0.17467189
        tangentMode: 10
      - time: 6.3333335
        value: 0
        inSlope: -2.378225
        outSlope: -2.378225
        tangentMode: 10
      m_PreInfinity: 2
      m_PostInfinity: 2
      m_RotationOrder: 4
    attribute: localEulerAnglesRaw.z
    path: Body/Torso/TorsoUpper/LeftArm
    classID: 4
    script: {fileID: 0}
  - curve:
      serializedVersion: 2
      m_Curve:
      - time: 0
        value: 0
        inSlope: 0
        outSlope: 0
        tangentMode: 10
      - time: 0.25
        value: 0
        inSlope: 0
        outSlope: 0
        tangentMode: 0
      - time: 0.8
        value: 0
        inSlope: 0
        outSlope: 0
        tangentMode: 0
      - time: 1.4
        value: 0
        inSlope: 0
        outSlope: 0
        tangentMode: 10
      - time: 1.85
        value: 0
        inSlope: 0
        outSlope: 0
        tangentMode: 10
      - time: 2.3
        value: 0
        inSlope: 0
        outSlope: 0
        tangentMode: 10
      - time: 2.6333334
        value: 0
        inSlope: 0
        outSlope: 0
        tangentMode: 10
      - time: 2.9333334
        value: 0
        inSlope: 0
        outSlope: 0
        tangentMode: 10
      - time: 3.25
        value: 0
        inSlope: 0
        outSlope: 0
        tangentMode: 10
      - time: 3.5833333
        value: 0
        inSlope: 0
        outSlope: 0
        tangentMode: 10
      - time: 3.9833333
        value: 0
        inSlope: 0
        outSlope: 0
        tangentMode: 10
      - time: 4.3333335
        value: 0
        inSlope: 0
        outSlope: 0
        tangentMode: 10
      - time: 4.633333
        value: 0
        inSlope: 0
        outSlope: 0
        tangentMode: 10
      - time: 4.95
        value: 0
        inSlope: 0
        outSlope: 0
        tangentMode: 10
      - time: 5.2833333
        value: 0
        inSlope: 0
        outSlope: 0
        tangentMode: 10
      - time: 5.85
        value: 0
        inSlope: 0
        outSlope: 0
        tangentMode: 10
      - time: 6.3333335
        value: 0
        inSlope: 0
        outSlope: 0
        tangentMode: 10
      m_PreInfinity: 2
      m_PostInfinity: 2
      m_RotationOrder: 4
    attribute: localEulerAnglesRaw.x
    path: Body/Torso/TorsoUpper/LeftArm/LeftForearm
    classID: 4
    script: {fileID: 0}
  - curve:
      serializedVersion: 2
      m_Curve:
      - time: 0
        value: 0
        inSlope: 0
        outSlope: 0
        tangentMode: 10
      - time: 0.25
        value: 0
        inSlope: 0
        outSlope: 0
        tangentMode: 0
      - time: 0.8
        value: 0
        inSlope: 0
        outSlope: 0
        tangentMode: 0
      - time: 1.4
        value: 0
        inSlope: 0
        outSlope: 0
        tangentMode: 10
      - time: 1.85
        value: 0
        inSlope: 0
        outSlope: 0
        tangentMode: 10
      - time: 2.3
        value: 0
        inSlope: 0
        outSlope: 0
        tangentMode: 10
      - time: 2.6333334
        value: 0
        inSlope: 0
        outSlope: 0
        tangentMode: 10
      - time: 2.9333334
        value: 0
        inSlope: 0
        outSlope: 0
        tangentMode: 10
      - time: 3.25
        value: 0
        inSlope: 0
        outSlope: 0
        tangentMode: 10
      - time: 3.5833333
        value: 0
        inSlope: 0
        outSlope: 0
        tangentMode: 10
      - time: 3.9833333
        value: 0
        inSlope: 0
        outSlope: 0
        tangentMode: 10
      - time: 4.3333335
        value: 0
        inSlope: 0
        outSlope: 0
        tangentMode: 10
      - time: 4.633333
        value: 0
        inSlope: 0
        outSlope: 0
        tangentMode: 10
      - time: 4.95
        value: 0
        inSlope: 0
        outSlope: 0
        tangentMode: 10
      - time: 5.2833333
        value: 0
        inSlope: 0
        outSlope: 0
        tangentMode: 10
      - time: 5.85
        value: 0
        inSlope: 0
        outSlope: 0
        tangentMode: 10
      - time: 6.3333335
        value: 0
        inSlope: 0
        outSlope: 0
        tangentMode: 10
      m_PreInfinity: 2
      m_PostInfinity: 2
      m_RotationOrder: 4
    attribute: localEulerAnglesRaw.y
    path: Body/Torso/TorsoUpper/LeftArm/LeftForearm
    classID: 4
    script: {fileID: 0}
  - curve:
      serializedVersion: 2
      m_Curve:
      - time: 0
        value: 0
        inSlope: -3.43678
        outSlope: -3.43678
        tangentMode: 10
      - time: 2.8166666
        value: -9.6802635
        inSlope: 0
        outSlope: 0
        tangentMode: 0
      - time: 6.3333335
        value: 0
        inSlope: 2.7526815
        outSlope: 2.7526815
        tangentMode: 10
      m_PreInfinity: 2
      m_PostInfinity: 2
      m_RotationOrder: 4
    attribute: localEulerAnglesRaw.z
    path: Body/Torso/TorsoUpper/LeftArm/LeftForearm
    classID: 4
    script: {fileID: 0}
  - curve:
      serializedVersion: 2
      m_Curve:
      - time: 0
        value: 0
        inSlope: 0
        outSlope: 0
        tangentMode: 10
      - time: 0.25
        value: 0
        inSlope: 0
        outSlope: 0
        tangentMode: 0
      - time: 0.8
        value: 0
        inSlope: 0
        outSlope: 0
        tangentMode: 0
      - time: 1.4
        value: 0
        inSlope: 0
        outSlope: 0
        tangentMode: 10
      - time: 2.3
        value: 0
        inSlope: 0
        outSlope: 0
        tangentMode: 10
      - time: 2.6333334
        value: 0
        inSlope: 0
        outSlope: 0
        tangentMode: 10
      - time: 2.9333334
        value: 0
        inSlope: 0
        outSlope: 0
        tangentMode: 10
      - time: 3.25
        value: 0
        inSlope: 0
        outSlope: 0
        tangentMode: 10
      - time: 3.5833333
        value: 0
        inSlope: 0
        outSlope: 0
        tangentMode: 10
      - time: 3.9833333
        value: 0
        inSlope: 0
        outSlope: 0
        tangentMode: 10
      - time: 4.3333335
        value: 0
        inSlope: 0
        outSlope: 0
        tangentMode: 10
      - time: 4.633333
        value: 0
        inSlope: 0
        outSlope: 0
        tangentMode: 10
      - time: 4.95
        value: 0
        inSlope: 0
        outSlope: 0
        tangentMode: 10
      - time: 5.2833333
        value: 0
        inSlope: 0
        outSlope: 0
        tangentMode: 10
      - time: 5.85
        value: 0
        inSlope: 0
        outSlope: 0
        tangentMode: 10
      - time: 6.3333335
        value: 0
        inSlope: 0
        outSlope: 0
        tangentMode: 10
      m_PreInfinity: 2
      m_PostInfinity: 2
      m_RotationOrder: 4
    attribute: localEulerAnglesRaw.x
    path: Body/Torso/TorsoUpper/LeftArm/LeftForearm/LeftHand
    classID: 4
    script: {fileID: 0}
  - curve:
      serializedVersion: 2
      m_Curve:
      - time: 0
        value: 0
        inSlope: 0
        outSlope: 0
        tangentMode: 10
      - time: 0.25
        value: 0
        inSlope: 0
        outSlope: 0
        tangentMode: 0
      - time: 0.8
        value: 0
        inSlope: 0
        outSlope: 0
        tangentMode: 0
      - time: 1.4
        value: 0
        inSlope: 0
        outSlope: 0
        tangentMode: 10
      - time: 2.3
        value: 0
        inSlope: 0
        outSlope: 0
        tangentMode: 10
      - time: 2.6333334
        value: 0
        inSlope: 0
        outSlope: 0
        tangentMode: 10
      - time: 2.9333334
        value: 0
        inSlope: 0
        outSlope: 0
        tangentMode: 10
      - time: 3.25
        value: 0
        inSlope: 0
        outSlope: 0
        tangentMode: 10
      - time: 3.5833333
        value: 0
        inSlope: 0
        outSlope: 0
        tangentMode: 10
      - time: 4.3333335
        value: 0
        inSlope: 0
        outSlope: 0
        tangentMode: 10
      - time: 4.633333
        value: 0
        inSlope: 0
        outSlope: 0
        tangentMode: 10
      - time: 4.95
        value: 0
        inSlope: 0
        outSlope: 0
        tangentMode: 10
      - time: 5.2833333
        value: 0
        inSlope: 0
        outSlope: 0
        tangentMode: 10
      - time: 5.85
        value: 0
        inSlope: 0
        outSlope: 0
        tangentMode: 10
      - time: 6.3333335
        value: 0
        inSlope: 0
        outSlope: 0
        tangentMode: 10
      m_PreInfinity: 2
      m_PostInfinity: 2
      m_RotationOrder: 4
    attribute: localEulerAnglesRaw.y
    path: Body/Torso/TorsoUpper/LeftArm/LeftForearm/LeftHand
    classID: 4
    script: {fileID: 0}
  - curve:
      serializedVersion: 2
      m_Curve:
      - time: 0
        value: 0
        inSlope: -2.492996
        outSlope: -2.492996
        tangentMode: 10
      - time: 3.2166667
        value: -8.019137
        inSlope: 0.039994597
        outSlope: 0.039994597
        tangentMode: 10
      - time: 6.3333335
        value: 0
        inSlope: 2.5729852
        outSlope: 2.5729852
        tangentMode: 10
      m_PreInfinity: 2
      m_PostInfinity: 2
      m_RotationOrder: 4
    attribute: localEulerAnglesRaw.z
    path: Body/Torso/TorsoUpper/LeftArm/LeftForearm/LeftHand
    classID: 4
    script: {fileID: 0}
  - curve:
      serializedVersion: 2
      m_Curve:
      - time: 0
        value: 0
        inSlope: -0
        outSlope: -0
        tangentMode: 10
      - time: 0.25
        value: -0
        inSlope: 0
        outSlope: 0
        tangentMode: 10
      - time: 0.76666665
        value: 0
        inSlope: 0
        outSlope: 0
        tangentMode: 0
      - time: 1.0333333
        value: 0
        inSlope: 0
        outSlope: 0
        tangentMode: 0
      - time: 1.4
        value: 0
        inSlope: 0
        outSlope: 0
        tangentMode: 10
      m_PreInfinity: 2
      m_PostInfinity: 2
      m_RotationOrder: 4
    attribute: localEulerAnglesRaw.x
    path: Body/Torso/TorsoUpper/RightArm
    classID: 4
    script: {fileID: 0}
  - curve:
      serializedVersion: 2
      m_Curve:
      - time: 0
        value: 0
        inSlope: -0
        outSlope: -0
        tangentMode: 10
      - time: 0.25
        value: -0
        inSlope: 0
        outSlope: 0
        tangentMode: 10
      - time: 0.76666665
        value: 0
        inSlope: 0
        outSlope: 0
        tangentMode: 0
      - time: 1.0333333
        value: 0
        inSlope: 0
        outSlope: 0
        tangentMode: 0
      - time: 1.4
        value: 0
        inSlope: 0
        outSlope: 0
        tangentMode: 10
      m_PreInfinity: 2
      m_PostInfinity: 2
      m_RotationOrder: 4
    attribute: localEulerAnglesRaw.y
    path: Body/Torso/TorsoUpper/RightArm
    classID: 4
    script: {fileID: 0}
  - curve:
      serializedVersion: 2
      m_Curve:
      - time: 0
        value: 0
        inSlope: -6.3052177
        outSlope: -6.3052177
        tangentMode: 10
      - time: 0.76666665
        value: -4.834
        inSlope: 0
        outSlope: 0
        tangentMode: 0
      - time: 1.4
        value: 0.263
        inSlope: 8.047895
        outSlope: 8.047895
        tangentMode: 10
      m_PreInfinity: 2
      m_PostInfinity: 2
      m_RotationOrder: 4
    attribute: localEulerAnglesRaw.z
    path: Body/Torso/TorsoUpper/RightArm
    classID: 4
    script: {fileID: 0}
  - curve:
      serializedVersion: 2
      m_Curve:
      - time: 0
        value: 0
        inSlope: 0
        outSlope: 0
        tangentMode: 10
      - time: 0.25
        value: 0
        inSlope: 0
        outSlope: 0
        tangentMode: 10
      - time: 0.76666665
        value: 0
        inSlope: 0
        outSlope: 0
        tangentMode: 0
      - time: 1.0333333
        value: 0
        inSlope: 0
        outSlope: 0
        tangentMode: 0
      - time: 1.4
        value: 0
        inSlope: 0
        outSlope: 0
        tangentMode: 0
      - time: 1.6666666
        value: 0
        inSlope: 0
        outSlope: 0
        tangentMode: 0
      - time: 2.3
        value: 0
        inSlope: 0
        outSlope: 0
        tangentMode: 0
      - time: 3.9833333
        value: 0
        inSlope: 0
        outSlope: 0
        tangentMode: 0
      - time: 5.85
        value: 0
        inSlope: 0
        outSlope: 0
        tangentMode: 0
      - time: 6.3333335
        value: 0
        inSlope: 0
        outSlope: 0
        tangentMode: 10
      m_PreInfinity: 2
      m_PostInfinity: 2
      m_RotationOrder: 4
    attribute: localEulerAnglesRaw.x
    path: Body/Torso/TorsoUpper/RightArm/RightForearm
    classID: 4
    script: {fileID: 0}
  - curve:
      serializedVersion: 2
      m_Curve:
      - time: 0
        value: 0
        inSlope: 0
        outSlope: 0
        tangentMode: 10
      - time: 0.25
        value: 0
        inSlope: 0
        outSlope: 0
        tangentMode: 10
      - time: 0.76666665
        value: 0
        inSlope: 0
        outSlope: 0
        tangentMode: 0
      - time: 1.0333333
        value: 0
        inSlope: 0
        outSlope: 0
        tangentMode: 0
      - time: 1.4
        value: 0
        inSlope: 0
        outSlope: 0
        tangentMode: 0
      - time: 1.6666666
        value: 0
        inSlope: 0
        outSlope: 0
        tangentMode: 0
      - time: 2.3
        value: 0
        inSlope: 0
        outSlope: 0
        tangentMode: 0
      - time: 3.9833333
        value: 0
        inSlope: 0
        outSlope: 0
        tangentMode: 0
      - time: 5.85
        value: 0
        inSlope: 0
        outSlope: 0
        tangentMode: 0
      - time: 6.3333335
        value: 0
        inSlope: 0
        outSlope: 0
        tangentMode: 10
      m_PreInfinity: 2
      m_PostInfinity: 2
      m_RotationOrder: 4
    attribute: localEulerAnglesRaw.y
    path: Body/Torso/TorsoUpper/RightArm/RightForearm
    classID: 4
    script: {fileID: 0}
  - curve:
      serializedVersion: 2
      m_Curve:
      - time: 0
        value: 0
        inSlope: -3.2613256
        outSlope: -3.2613256
        tangentMode: 10
      - time: 3.4666667
        value: -11.305929
        inSlope: -0.019072976
        outSlope: -0.019072976
        tangentMode: 0
      - time: 6.3333335
        value: 0
        inSlope: 3.9439287
        outSlope: 3.9439287
        tangentMode: 10
      m_PreInfinity: 2
      m_PostInfinity: 2
      m_RotationOrder: 4
    attribute: localEulerAnglesRaw.z
    path: Body/Torso/TorsoUpper/RightArm/RightForearm
    classID: 4
    script: {fileID: 0}
  - curve:
      serializedVersion: 2
      m_Curve:
      - time: 0
        value: 0
        inSlope: 0
        outSlope: 0
        tangentMode: 10
      - time: 0.76666665
        value: 0
        inSlope: 0
        outSlope: 0
        tangentMode: 0
      - time: 1.0333333
        value: 0
        inSlope: 0
        outSlope: 0
        tangentMode: 0
      - time: 1.85
        value: 0
        inSlope: 0
        outSlope: 0
        tangentMode: 10
      - time: 6.3333335
        value: 0
        inSlope: 0
        outSlope: 0
        tangentMode: 10
      m_PreInfinity: 2
      m_PostInfinity: 2
      m_RotationOrder: 4
    attribute: localEulerAnglesRaw.x
    path: Body/Torso/TorsoUpper/RightArm/RightForearm/RightHand
    classID: 4
    script: {fileID: 0}
  - curve:
      serializedVersion: 2
      m_Curve:
      - time: 0
        value: 0
        inSlope: 0
        outSlope: 0
        tangentMode: 10
      - time: 0.76666665
        value: 0
        inSlope: 0
        outSlope: 0
        tangentMode: 0
      - time: 1.0333333
        value: 0
        inSlope: 0
        outSlope: 0
        tangentMode: 0
      - time: 1.85
        value: 0
        inSlope: 0
        outSlope: 0
        tangentMode: 10
      - time: 6.3333335
        value: 0
        inSlope: 0
        outSlope: 0
        tangentMode: 10
      m_PreInfinity: 2
      m_PostInfinity: 2
      m_RotationOrder: 4
    attribute: localEulerAnglesRaw.y
    path: Body/Torso/TorsoUpper/RightArm/RightForearm/RightHand
    classID: 4
    script: {fileID: 0}
  - curve:
      serializedVersion: 2
      m_Curve:
      - time: 0
        value: 0
        inSlope: -2.2151523
        outSlope: -2.2151523
        tangentMode: 10
      - time: 2.9166667
        value: -6.460861
        inSlope: 0
        outSlope: 0
        tangentMode: 0
      - time: 6.3333335
        value: 0
        inSlope: 1.8909837
        outSlope: 1.8909837
        tangentMode: 10
      m_PreInfinity: 2
      m_PostInfinity: 2
      m_RotationOrder: 4
    attribute: localEulerAnglesRaw.z
    path: Body/Torso/TorsoUpper/RightArm/RightForearm/RightHand
    classID: 4
    script: {fileID: 0}
  - curve:
      serializedVersion: 2
      m_Curve:
      - time: 0
        value: 0
        inSlope: 0
        outSlope: 0
        tangentMode: 10
      - time: 0.76666665
        value: 0
        inSlope: 0
        outSlope: 0
        tangentMode: 0
      - time: 5.5666666
        value: 0
        inSlope: 0
        outSlope: 0
        tangentMode: 0
      - time: 6.3333335
        value: 0
        inSlope: 0
        outSlope: 0
        tangentMode: 10
      m_PreInfinity: 2
      m_PostInfinity: 2
      m_RotationOrder: 4
    attribute: localEulerAnglesRaw.x
    path: Body/RightLeg
    classID: 4
    script: {fileID: 0}
  - curve:
      serializedVersion: 2
      m_Curve:
      - time: 0
        value: 0
        inSlope: 0
        outSlope: 0
        tangentMode: 10
      - time: 0.76666665
        value: 0
        inSlope: 0
        outSlope: 0
        tangentMode: 0
      - time: 5.5666666
        value: 0
        inSlope: 0
        outSlope: 0
        tangentMode: 0
      - time: 6.3333335
        value: 0
        inSlope: 0
        outSlope: 0
        tangentMode: 10
      m_PreInfinity: 2
      m_PostInfinity: 2
      m_RotationOrder: 4
    attribute: localEulerAnglesRaw.y
    path: Body/RightLeg
    classID: 4
    script: {fileID: 0}
  - curve:
      serializedVersion: 2
      m_Curve:
      - time: 0
        value: 0
        inSlope: 9.481305
        outSlope: 9.481305
        tangentMode: 10
      - time: 0.76666665
        value: 7.2690005
        inSlope: 0
        outSlope: 0
        tangentMode: 0
      - time: 5.5666666
        value: 7.2690005
        inSlope: 0
        outSlope: 0
        tangentMode: 0
      - time: 6.3333335
        value: 0
        inSlope: -9.481302
        outSlope: -9.481302
        tangentMode: 10
      m_PreInfinity: 2
      m_PostInfinity: 2
      m_RotationOrder: 4
    attribute: localEulerAnglesRaw.z
    path: Body/RightLeg
    classID: 4
    script: {fileID: 0}
  - curve:
      serializedVersion: 2
      m_Curve:
      - time: 0
        value: 0
        inSlope: 0
        outSlope: 0
        tangentMode: 10
      - time: 0.25
        value: 0
        inSlope: 0
        outSlope: 0
        tangentMode: 10
      - time: 0.76666665
        value: 0
        inSlope: 0
        outSlope: 0
        tangentMode: 0
      - time: 5.5666666
        value: 0
        inSlope: 0
        outSlope: 0
        tangentMode: 0
      - time: 6.3333335
        value: 0
        inSlope: 0
        outSlope: 0
        tangentMode: 10
      m_PreInfinity: 2
      m_PostInfinity: 2
      m_RotationOrder: 4
    attribute: localEulerAnglesRaw.x
    path: Body/RightLeg/RightLegLower
    classID: 4
    script: {fileID: 0}
  - curve:
      serializedVersion: 2
      m_Curve:
      - time: 0
        value: 0
        inSlope: 0
        outSlope: 0
        tangentMode: 10
      - time: 0.25
        value: 0
        inSlope: 0
        outSlope: 0
        tangentMode: 10
      - time: 0.76666665
        value: 0
        inSlope: 0
        outSlope: 0
        tangentMode: 0
      - time: 5.5666666
        value: 0
        inSlope: 0
        outSlope: 0
        tangentMode: 0
      - time: 6.3333335
        value: 0
        inSlope: 0
        outSlope: 0
        tangentMode: 10
      m_PreInfinity: 2
      m_PostInfinity: 2
      m_RotationOrder: 4
    attribute: localEulerAnglesRaw.y
    path: Body/RightLeg/RightLegLower
    classID: 4
    script: {fileID: 0}
  - curve:
      serializedVersion: 2
      m_Curve:
      - time: 0
        value: 0
        inSlope: -33.310276
        outSlope: -33.310276
        tangentMode: 10
      - time: 0.46666667
        value: -15.544795
        inSlope: 0
        outSlope: 0
        tangentMode: 0
      - time: 5.5666666
        value: -15.544795
        inSlope: 0
        outSlope: 0
        tangentMode: 0
      - time: 6.3333335
        value: 0
        inSlope: 20.275814
        outSlope: 20.275814
        tangentMode: 10
      m_PreInfinity: 2
      m_PostInfinity: 2
      m_RotationOrder: 4
    attribute: localEulerAnglesRaw.z
    path: Body/RightLeg/RightLegLower
    classID: 4
    script: {fileID: 0}
  - curve:
      serializedVersion: 2
      m_Curve:
      - time: 0
        value: 0
        inSlope: 0
        outSlope: 0
        tangentMode: 10
      - time: 0.25
        value: 0
        inSlope: 0
        outSlope: 0
        tangentMode: 10
      - time: 0.76666665
        value: 0
        inSlope: 0
        outSlope: 0
        tangentMode: 0
      - time: 5.5666666
        value: 0
        inSlope: 0
        outSlope: 0
        tangentMode: 0
      - time: 6.3333335
        value: 0
        inSlope: 0
        outSlope: 0
        tangentMode: 10
      m_PreInfinity: 2
      m_PostInfinity: 2
      m_RotationOrder: 4
    attribute: localEulerAnglesRaw.x
    path: Body/RightLeg/RightLegLower/RightShoe
    classID: 4
    script: {fileID: 0}
  - curve:
      serializedVersion: 2
      m_Curve:
      - time: 0
        value: 0
        inSlope: 0
        outSlope: 0
        tangentMode: 10
      - time: 0.25
        value: 0
        inSlope: 0
        outSlope: 0
        tangentMode: 10
      - time: 0.76666665
        value: 0
        inSlope: 0
        outSlope: 0
        tangentMode: 0
      - time: 5.5666666
        value: 0
        inSlope: 0
        outSlope: 0
        tangentMode: 0
      - time: 6.3333335
        value: 0
        inSlope: 0
        outSlope: 0
        tangentMode: 10
      m_PreInfinity: 2
      m_PostInfinity: 2
      m_RotationOrder: 4
    attribute: localEulerAnglesRaw.y
    path: Body/RightLeg/RightLegLower/RightShoe
    classID: 4
    script: {fileID: 0}
  - curve:
      serializedVersion: 2
      m_Curve:
      - time: 0
        value: 0
        inSlope: -39.196003
        outSlope: -39.196003
        tangentMode: 10
      - time: 0.25
        value: -9.799001
        inSlope: -14.664453
        outSlope: -14.664453
        tangentMode: 10
      - time: 0.76666665
        value: -4.701
        inSlope: 0
        outSlope: 0
        tangentMode: 0
      - time: 5.5666666
        value: -4.701
        inSlope: 0
        outSlope: 0
        tangentMode: 0
      - time: 6.3333335
        value: 0
        inSlope: 6.1317377
        outSlope: 6.1317377
        tangentMode: 10
      m_PreInfinity: 2
      m_PostInfinity: 2
      m_RotationOrder: 4
    attribute: localEulerAnglesRaw.z
    path: Body/RightLeg/RightLegLower/RightShoe
    classID: 4
    script: {fileID: 0}
  - curve:
      serializedVersion: 2
      m_Curve:
      - time: 0
        value: 0
        inSlope: Infinity
        outSlope: Infinity
        tangentMode: 31
      - time: 2.3166666
        value: 1
        inSlope: Infinity
        outSlope: Infinity
        tangentMode: 31
      - time: 2.4166667
        value: 0
        inSlope: Infinity
        outSlope: Infinity
        tangentMode: 31
      - time: 4.5833335
        value: 1
        inSlope: Infinity
        outSlope: Infinity
        tangentMode: 31
      - time: 4.6833334
        value: 0
        inSlope: Infinity
        outSlope: Infinity
        tangentMode: 31
      m_PreInfinity: 2
      m_PostInfinity: 2
      m_RotationOrder: 4
    attribute: m_IsActive
    path: Body/Torso/TorsoUpper/Neck/Head/Face/Right/EyeRightClosed
    classID: 1
    script: {fileID: 0}
  - curve:
      serializedVersion: 2
      m_Curve:
      - time: 0
        value: 0
        inSlope: Infinity
        outSlope: Infinity
        tangentMode: 31
      - time: 2.3166666
        value: 1
        inSlope: Infinity
        outSlope: Infinity
        tangentMode: 31
      - time: 2.4166667
        value: 0
        inSlope: Infinity
        outSlope: Infinity
        tangentMode: 31
      - time: 4.5833335
        value: 1
        inSlope: Infinity
        outSlope: Infinity
        tangentMode: 31
      - time: 4.6833334
        value: 0
        inSlope: Infinity
        outSlope: Infinity
        tangentMode: 31
      m_PreInfinity: 2
      m_PostInfinity: 2
      m_RotationOrder: 4
    attribute: m_IsActive
    path: Body/Torso/TorsoUpper/Neck/Head/Face/Left/EyeLeftClosed
    classID: 1
    script: {fileID: 0}
  - curve:
      serializedVersion: 2
      m_Curve:
      - time: 0
        value: 1
        inSlope: Infinity
        outSlope: Infinity
        tangentMode: 31
      - time: 0.15
        value: 0
        inSlope: Infinity
        outSlope: Infinity
        tangentMode: 31
      - time: 0.55
        value: 1
        inSlope: Infinity
        outSlope: Infinity
        tangentMode: 31
      - time: 0.8833333
        value: 0
        inSlope: Infinity
        outSlope: Infinity
        tangentMode: 31
      - time: 1.2833333
        value: 1
        inSlope: Infinity
        outSlope: Infinity
        tangentMode: 31
      - time: 1.3833333
        value: 0
        inSlope: Infinity
        outSlope: Infinity
        tangentMode: 31
      - time: 1.7833333
        value: 1
        inSlope: Infinity
        outSlope: Infinity
        tangentMode: 31
      - time: 2.1666667
        value: 1
        inSlope: Infinity
        outSlope: Infinity
        tangentMode: 31
      - time: 2.2666667
        value: 0
        inSlope: Infinity
        outSlope: Infinity
        tangentMode: 31
      - time: 2.3666666
        value: 1
        inSlope: Infinity
        outSlope: Infinity
        tangentMode: 31
      - time: 2.4666667
        value: 0
        inSlope: Infinity
        outSlope: Infinity
        tangentMode: 31
      - time: 2.6666667
        value: 1
        inSlope: Infinity
        outSlope: Infinity
        tangentMode: 31
      - time: 2.7666667
        value: 0
        inSlope: Infinity
        outSlope: Infinity
        tangentMode: 31
      - time: 2.8666666
        value: 1
        inSlope: Infinity
        outSlope: Infinity
        tangentMode: 31
      - time: 2.9666667
        value: 0
        inSlope: Infinity
        outSlope: Infinity
        tangentMode: 31
      - time: 3.2166667
        value: 1
        inSlope: Infinity
        outSlope: Infinity
        tangentMode: 31
      - time: 3.3166666
        value: 0
        inSlope: Infinity
        outSlope: Infinity
        tangentMode: 31
      - time: 3.4166667
        value: 1
        inSlope: Infinity
        outSlope: Infinity
        tangentMode: 31
      - time: 3.5166667
        value: 0
        inSlope: Infinity
        outSlope: Infinity
        tangentMode: 31
      - time: 3.7166667
        value: 1
        inSlope: Infinity
        outSlope: Infinity
        tangentMode: 31
      - time: 3.8166666
        value: 0
        inSlope: Infinity
        outSlope: Infinity
        tangentMode: 31
      - time: 3.9166667
        value: 1
        inSlope: Infinity
        outSlope: Infinity
        tangentMode: 31
      - time: 4.016667
        value: 0
        inSlope: Infinity
        outSlope: Infinity
        tangentMode: 31
      - time: 4.266667
        value: 1
        inSlope: Infinity
        outSlope: Infinity
        tangentMode: 31
      - time: 4.366667
        value: 0
        inSlope: Infinity
        outSlope: Infinity
        tangentMode: 31
      - time: 4.4666667
        value: 1
        inSlope: Infinity
        outSlope: Infinity
        tangentMode: 31
      - time: 4.5666666
        value: 0
        inSlope: Infinity
        outSlope: Infinity
        tangentMode: 31
      - time: 4.766667
        value: 1
        inSlope: Infinity
        outSlope: Infinity
        tangentMode: 31
      - time: 4.866667
        value: 0
        inSlope: Infinity
        outSlope: Infinity
        tangentMode: 31
      - time: 4.9666667
        value: 1
        inSlope: Infinity
        outSlope: Infinity
        tangentMode: 31
      - time: 5.0666666
        value: 0
        inSlope: Infinity
        outSlope: Infinity
        tangentMode: 31
      - time: 5.1666665
        value: 1
        inSlope: Infinity
        outSlope: Infinity
        tangentMode: 31
      m_PreInfinity: 2
      m_PostInfinity: 2
      m_RotationOrder: 4
    attribute: m_IsActive
    path: Body/Torso/TorsoUpper/Neck/Head/Face/MouthClosed
    classID: 1
    script: {fileID: 0}
  - curve:
      serializedVersion: 2
      m_Curve:
      - time: 0
        value: 0
        inSlope: Infinity
        outSlope: Infinity
        tangentMode: 31
      - time: 0.15
        value: 1
        inSlope: Infinity
        outSlope: Infinity
        tangentMode: 31
      - time: 0.25
        value: 0
        inSlope: Infinity
        outSlope: Infinity
        tangentMode: 31
      - time: 0.35
        value: 1
        inSlope: Infinity
        outSlope: Infinity
        tangentMode: 31
      - time: 0.45
        value: 0
        inSlope: Infinity
        outSlope: Infinity
        tangentMode: 31
      - time: 0.8833333
        value: 1
        inSlope: Infinity
        outSlope: Infinity
        tangentMode: 31
      - time: 0.98333335
        value: 0
        inSlope: Infinity
        outSlope: Infinity
        tangentMode: 31
      - time: 1.0833334
        value: 1
        inSlope: Infinity
        outSlope: Infinity
        tangentMode: 31
      - time: 1.1833333
        value: 0
        inSlope: Infinity
        outSlope: Infinity
        tangentMode: 31
      - time: 1.3833333
        value: 1
        inSlope: Infinity
        outSlope: Infinity
        tangentMode: 31
      - time: 1.4833333
        value: 0
        inSlope: Infinity
        outSlope: Infinity
        tangentMode: 31
      - time: 1.5833334
        value: 1
        inSlope: Infinity
        outSlope: Infinity
        tangentMode: 31
      - time: 1.6833333
        value: 0
        inSlope: Infinity
        outSlope: Infinity
        tangentMode: 31
      - time: 2.0666666
        value: 0
        inSlope: Infinity
        outSlope: Infinity
        tangentMode: 31
      - time: 2.4666667
        value: 1
        inSlope: Infinity
        outSlope: Infinity
        tangentMode: 31
      - time: 2.5666666
        value: 0
        inSlope: Infinity
        outSlope: Infinity
        tangentMode: 31
      - time: 2.9666667
        value: 1
        inSlope: Infinity
        outSlope: Infinity
        tangentMode: 31
      - time: 3.1166666
        value: 0
        inSlope: Infinity
        outSlope: Infinity
        tangentMode: 31
      - time: 3.5166667
        value: 1
        inSlope: Infinity
        outSlope: Infinity
        tangentMode: 31
      - time: 3.6166666
        value: 0
        inSlope: Infinity
        outSlope: Infinity
        tangentMode: 31
      - time: 4.016667
        value: 1
        inSlope: Infinity
        outSlope: Infinity
        tangentMode: 31
      - time: 4.1666665
        value: 0
        inSlope: Infinity
        outSlope: Infinity
        tangentMode: 31
      - time: 4.5666666
        value: 1
        inSlope: Infinity
        outSlope: Infinity
        tangentMode: 31
      - time: 4.6666665
        value: 0
        inSlope: Infinity
        outSlope: Infinity
        tangentMode: 31
      - time: 5.0666666
        value: 1
        inSlope: Infinity
        outSlope: Infinity
        tangentMode: 31
      - time: 5.1666665
        value: 0
        inSlope: Infinity
        outSlope: Infinity
        tangentMode: 31
      m_PreInfinity: 2
      m_PostInfinity: 2
      m_RotationOrder: 4
    attribute: m_IsActive
    path: Body/Torso/TorsoUpper/Neck/Head/Face/MouthOpen1
    classID: 1
    script: {fileID: 0}
  - curve:
      serializedVersion: 2
      m_Curve:
      - time: 0
        value: 0
        inSlope: Infinity
        outSlope: Infinity
        tangentMode: 31
      - time: 0.25
        value: 1
        inSlope: Infinity
        outSlope: Infinity
        tangentMode: 31
      - time: 0.35
        value: 0
        inSlope: Infinity
        outSlope: Infinity
        tangentMode: 31
      - time: 0.45
        value: 1
        inSlope: Infinity
        outSlope: Infinity
        tangentMode: 31
      - time: 0.55
        value: 0
        inSlope: Infinity
        outSlope: Infinity
        tangentMode: 31
      - time: 0.98333335
        value: 1
        inSlope: Infinity
        outSlope: Infinity
        tangentMode: 31
      - time: 1.0833334
        value: 0
        inSlope: Infinity
        outSlope: Infinity
        tangentMode: 31
      - time: 1.1833333
        value: 1
        inSlope: Infinity
        outSlope: Infinity
        tangentMode: 31
      - time: 1.2833333
        value: 0
        inSlope: Infinity
        outSlope: Infinity
        tangentMode: 31
      - time: 1.4833333
        value: 1
        inSlope: Infinity
        outSlope: Infinity
        tangentMode: 31
      - time: 1.5833334
        value: 0
        inSlope: Infinity
        outSlope: Infinity
        tangentMode: 31
      - time: 1.6833333
        value: 1
        inSlope: Infinity
        outSlope: Infinity
        tangentMode: 31
      - time: 1.7833333
        value: 0
        inSlope: Infinity
        outSlope: Infinity
        tangentMode: 31
      - time: 1.8833333
        value: 0
        inSlope: Infinity
        outSlope: Infinity
        tangentMode: 31
      - time: 2.0666666
        value: 1
        inSlope: Infinity
        outSlope: Infinity
        tangentMode: 31
      - time: 2.1666667
        value: 0
        inSlope: Infinity
        outSlope: Infinity
        tangentMode: 31
      - time: 2.2666667
        value: 1
        inSlope: Infinity
        outSlope: Infinity
        tangentMode: 31
      - time: 2.3666666
        value: 0
        inSlope: Infinity
        outSlope: Infinity
        tangentMode: 31
      - time: 2.5666666
        value: 1
        inSlope: Infinity
        outSlope: Infinity
        tangentMode: 31
      - time: 2.6666667
        value: 0
        inSlope: Infinity
        outSlope: Infinity
        tangentMode: 31
      - time: 2.7666667
        value: 1
        inSlope: Infinity
        outSlope: Infinity
        tangentMode: 31
      - time: 2.8666666
        value: 0
        inSlope: Infinity
        outSlope: Infinity
        tangentMode: 31
      - time: 3.1166666
        value: 1
        inSlope: Infinity
        outSlope: Infinity
        tangentMode: 31
      - time: 3.2166667
        value: 0
        inSlope: Infinity
        outSlope: Infinity
        tangentMode: 31
      - time: 3.3166666
        value: 1
        inSlope: Infinity
        outSlope: Infinity
        tangentMode: 31
      - time: 3.4166667
        value: 0
        inSlope: Infinity
        outSlope: Infinity
        tangentMode: 31
      - time: 3.6166666
        value: 1
        inSlope: Infinity
        outSlope: Infinity
        tangentMode: 31
      - time: 3.7166667
        value: 0
        inSlope: Infinity
        outSlope: Infinity
        tangentMode: 31
      - time: 3.8166666
        value: 1
        inSlope: Infinity
        outSlope: Infinity
        tangentMode: 31
      - time: 3.9166667
        value: 0
        inSlope: Infinity
        outSlope: Infinity
        tangentMode: 31
      - time: 4.1666665
        value: 1
        inSlope: Infinity
        outSlope: Infinity
        tangentMode: 31
      - time: 4.266667
        value: 0
        inSlope: Infinity
        outSlope: Infinity
        tangentMode: 31
      - time: 4.366667
        value: 1
        inSlope: Infinity
        outSlope: Infinity
        tangentMode: 31
      - time: 4.4666667
        value: 0
        inSlope: Infinity
        outSlope: Infinity
        tangentMode: 31
      - time: 4.6666665
        value: 1
        inSlope: Infinity
        outSlope: Infinity
        tangentMode: 31
      - time: 4.766667
        value: 0
        inSlope: Infinity
        outSlope: Infinity
        tangentMode: 31
      - time: 4.866667
        value: 1
        inSlope: Infinity
        outSlope: Infinity
        tangentMode: 31
      - time: 4.9666667
        value: 0
        inSlope: Infinity
        outSlope: Infinity
        tangentMode: 31
      m_PreInfinity: 2
      m_PostInfinity: 2
      m_RotationOrder: 4
    attribute: m_IsActive
    path: Body/Torso/TorsoUpper/Neck/Head/Face/MouthOpen2
    classID: 1
    script: {fileID: 0}
  - curve:
      serializedVersion: 2
      m_Curve:
      - time: 0
        value: 0
        inSlope: Infinity
        outSlope: Infinity
        tangentMode: 31
      - time: 1.8333334
        value: 1
        inSlope: Infinity
        outSlope: Infinity
        tangentMode: 31
      - time: 6.3333335
        value: 0
        inSlope: Infinity
        outSlope: Infinity
        tangentMode: 31
      m_PreInfinity: 2
      m_PostInfinity: 2
      m_RotationOrder: 4
    attribute: m_IsActive
    path: Body/Torso/TorsoUpper/RightArm/RightForearm/RightHand/ArmletRightFront
    classID: 1
    script: {fileID: 0}
  - curve:
      serializedVersion: 2
      m_Curve:
      - time: 0
        value: 1
        inSlope: Infinity
        outSlope: Infinity
        tangentMode: 31
      - time: 1.85
        value: 0
        inSlope: Infinity
        outSlope: Infinity
        tangentMode: 31
      - time: 6.3333335
        value: 1
        inSlope: Infinity
        outSlope: Infinity
        tangentMode: 31
      m_PreInfinity: 2
      m_PostInfinity: 2
      m_RotationOrder: 4
    attribute: m_IsActive
    path: Body/Torso/TorsoUpper/RightArm/RightForearm/RightHand/ArmletRight
    classID: 1
    script: {fileID: 0}
  m_EulerEditorCurves:
  - curve:
      serializedVersion: 2
      m_Curve: []
      m_PreInfinity: 2
      m_PostInfinity: 2
      m_RotationOrder: 4
    attribute: m_LocalEulerAngles.z
    path: Body/Torso/TorsoUpper/Neck
    classID: 4
    script: {fileID: 0}
  - curve:
      serializedVersion: 2
      m_Curve: []
      m_PreInfinity: 2
      m_PostInfinity: 2
      m_RotationOrder: 4
    attribute: m_LocalEulerAngles.y
    path: Body/Torso/TorsoUpper/Neck
    classID: 4
    script: {fileID: 0}
  - curve:
      serializedVersion: 2
      m_Curve: []
      m_PreInfinity: 2
      m_PostInfinity: 2
      m_RotationOrder: 4
    attribute: m_LocalEulerAngles.x
    path: Body/Torso/TorsoUpper/Neck
    classID: 4
    script: {fileID: 0}
  - curve:
      serializedVersion: 2
      m_Curve: []
      m_PreInfinity: 2
      m_PostInfinity: 2
      m_RotationOrder: 4
    attribute: m_LocalEulerAngles.z
    path: Body/RightLeg
    classID: 4
    script: {fileID: 0}
  - curve:
      serializedVersion: 2
      m_Curve: []
      m_PreInfinity: 2
      m_PostInfinity: 2
      m_RotationOrder: 4
    attribute: m_LocalEulerAngles.y
    path: Body/RightLeg
    classID: 4
    script: {fileID: 0}
  - curve:
      serializedVersion: 2
      m_Curve: []
      m_PreInfinity: 2
      m_PostInfinity: 2
      m_RotationOrder: 4
    attribute: m_LocalEulerAngles.x
    path: Body/RightLeg
    classID: 4
    script: {fileID: 0}
  - curve:
      serializedVersion: 2
      m_Curve: []
      m_PreInfinity: 2
      m_PostInfinity: 2
      m_RotationOrder: 4
    attribute: m_LocalEulerAngles.x
    path: Body/Torso/TorsoUpper/RightArm/RightForearm
    classID: 4
    script: {fileID: 0}
  - curve:
      serializedVersion: 2
      m_Curve: []
      m_PreInfinity: 2
      m_PostInfinity: 2
      m_RotationOrder: 4
    attribute: m_LocalEulerAngles.y
    path: Body/Torso/TorsoUpper/RightArm/RightForearm
    classID: 4
    script: {fileID: 0}
  - curve:
      serializedVersion: 2
      m_Curve: []
      m_PreInfinity: 2
      m_PostInfinity: 2
      m_RotationOrder: 4
    attribute: m_LocalEulerAngles.z
    path: Body/Torso/TorsoUpper/RightArm/RightForearm
    classID: 4
    script: {fileID: 0}
  - curve:
      serializedVersion: 2
      m_Curve: []
      m_PreInfinity: 2
      m_PostInfinity: 2
      m_RotationOrder: 4
    attribute: m_LocalEulerAngles.z
    path: Body/Torso/TorsoUpper/LeftArm
    classID: 4
    script: {fileID: 0}
  - curve:
      serializedVersion: 2
      m_Curve: []
      m_PreInfinity: 2
      m_PostInfinity: 2
      m_RotationOrder: 4
    attribute: m_LocalEulerAngles.y
    path: Body/Torso/TorsoUpper/LeftArm
    classID: 4
    script: {fileID: 0}
  - curve:
      serializedVersion: 2
      m_Curve: []
      m_PreInfinity: 2
      m_PostInfinity: 2
      m_RotationOrder: 4
    attribute: m_LocalEulerAngles.x
    path: Body/Torso/TorsoUpper/LeftArm
    classID: 4
    script: {fileID: 0}
  - curve:
      serializedVersion: 2
      m_Curve: []
      m_PreInfinity: 2
      m_PostInfinity: 2
      m_RotationOrder: 4
    attribute: m_LocalEulerAngles.z
    path: Body/Torso/TorsoUpper/RightArm
    classID: 4
    script: {fileID: 0}
  - curve:
      serializedVersion: 2
      m_Curve: []
      m_PreInfinity: 2
      m_PostInfinity: 2
      m_RotationOrder: 4
    attribute: m_LocalEulerAngles.y
    path: Body/Torso/TorsoUpper/RightArm
    classID: 4
    script: {fileID: 0}
  - curve:
      serializedVersion: 2
      m_Curve: []
      m_PreInfinity: 2
      m_PostInfinity: 2
      m_RotationOrder: 4
    attribute: m_LocalEulerAngles.x
    path: Body/Torso/TorsoUpper/RightArm
    classID: 4
    script: {fileID: 0}
  - curve:
      serializedVersion: 2
      m_Curve: []
      m_PreInfinity: 2
      m_PostInfinity: 2
      m_RotationOrder: 4
    attribute: m_LocalEulerAngles.z
    path: Body/Torso/TorsoUpper/RightArm/RightForearm/RightHand
    classID: 4
    script: {fileID: 0}
  - curve:
      serializedVersion: 2
      m_Curve: []
      m_PreInfinity: 2
      m_PostInfinity: 2
      m_RotationOrder: 4
    attribute: m_LocalEulerAngles.y
    path: Body/Torso/TorsoUpper/RightArm/RightForearm/RightHand
    classID: 4
    script: {fileID: 0}
  - curve:
      serializedVersion: 2
      m_Curve: []
      m_PreInfinity: 2
      m_PostInfinity: 2
      m_RotationOrder: 4
    attribute: m_LocalEulerAngles.x
    path: Body/Torso/TorsoUpper/RightArm/RightForearm/RightHand
    classID: 4
    script: {fileID: 0}
  - curve:
      serializedVersion: 2
      m_Curve: []
      m_PreInfinity: 2
      m_PostInfinity: 2
      m_RotationOrder: 4
    attribute: m_LocalEulerAngles.z
    path: Body/RightLeg/RightLegLower
    classID: 4
    script: {fileID: 0}
  - curve:
      serializedVersion: 2
      m_Curve: []
      m_PreInfinity: 2
      m_PostInfinity: 2
      m_RotationOrder: 4
    attribute: m_LocalEulerAngles.y
    path: Body/RightLeg/RightLegLower
    classID: 4
    script: {fileID: 0}
  - curve:
      serializedVersion: 2
      m_Curve: []
      m_PreInfinity: 2
      m_PostInfinity: 2
      m_RotationOrder: 4
    attribute: m_LocalEulerAngles.x
    path: Body/RightLeg/RightLegLower
    classID: 4
    script: {fileID: 0}
  - curve:
      serializedVersion: 2
      m_Curve: []
      m_PreInfinity: 2
      m_PostInfinity: 2
      m_RotationOrder: 4
    attribute: m_LocalEulerAngles.z
    path: Body/Torso/TorsoUpper/Neck/Head
    classID: 4
    script: {fileID: 0}
  - curve:
      serializedVersion: 2
      m_Curve: []
      m_PreInfinity: 2
      m_PostInfinity: 2
      m_RotationOrder: 4
    attribute: m_LocalEulerAngles.y
    path: Body/Torso/TorsoUpper/Neck/Head
    classID: 4
    script: {fileID: 0}
  - curve:
      serializedVersion: 2
      m_Curve: []
      m_PreInfinity: 2
      m_PostInfinity: 2
      m_RotationOrder: 4
    attribute: m_LocalEulerAngles.x
    path: Body/Torso/TorsoUpper/Neck/Head
    classID: 4
    script: {fileID: 0}
  - curve:
      serializedVersion: 2
      m_Curve: []
      m_PreInfinity: 2
      m_PostInfinity: 2
      m_RotationOrder: 4
    attribute: m_LocalEulerAngles.z
    path: Body/Torso/TorsoUpper/LeftArm/LeftForearm/LeftHand
    classID: 4
    script: {fileID: 0}
  - curve:
      serializedVersion: 2
      m_Curve: []
      m_PreInfinity: 2
      m_PostInfinity: 2
      m_RotationOrder: 4
    attribute: m_LocalEulerAngles.y
    path: Body/Torso/TorsoUpper/LeftArm/LeftForearm/LeftHand
    classID: 4
    script: {fileID: 0}
  - curve:
      serializedVersion: 2
      m_Curve: []
      m_PreInfinity: 2
      m_PostInfinity: 2
      m_RotationOrder: 4
    attribute: m_LocalEulerAngles.x
    path: Body/Torso/TorsoUpper/LeftArm/LeftForearm/LeftHand
    classID: 4
    script: {fileID: 0}
  - curve:
      serializedVersion: 2
      m_Curve: []
      m_PreInfinity: 2
      m_PostInfinity: 2
      m_RotationOrder: 4
    attribute: m_LocalEulerAngles.z
    path: Body/Torso/TorsoUpper/LeftArm/LeftForearm
    classID: 4
    script: {fileID: 0}
  - curve:
      serializedVersion: 2
      m_Curve: []
      m_PreInfinity: 2
      m_PostInfinity: 2
      m_RotationOrder: 4
    attribute: m_LocalEulerAngles.y
    path: Body/Torso/TorsoUpper/LeftArm/LeftForearm
    classID: 4
    script: {fileID: 0}
  - curve:
      serializedVersion: 2
      m_Curve: []
      m_PreInfinity: 2
      m_PostInfinity: 2
      m_RotationOrder: 4
    attribute: m_LocalEulerAngles.x
    path: Body/Torso/TorsoUpper/LeftArm/LeftForearm
    classID: 4
    script: {fileID: 0}
  - curve:
      serializedVersion: 2
      m_Curve: []
      m_PreInfinity: 2
      m_PostInfinity: 2
      m_RotationOrder: 4
    attribute: m_LocalEulerAngles.z
    path: Body/RightLeg/RightLegLower/RightShoe
    classID: 4
    script: {fileID: 0}
  - curve:
      serializedVersion: 2
      m_Curve: []
      m_PreInfinity: 2
      m_PostInfinity: 2
      m_RotationOrder: 4
    attribute: m_LocalEulerAngles.y
    path: Body/RightLeg/RightLegLower/RightShoe
    classID: 4
    script: {fileID: 0}
  - curve:
      serializedVersion: 2
      m_Curve: []
      m_PreInfinity: 2
      m_PostInfinity: 2
      m_RotationOrder: 4
    attribute: m_LocalEulerAngles.x
    path: Body/RightLeg/RightLegLower/RightShoe
    classID: 4
    script: {fileID: 0}
  - curve:
      serializedVersion: 2
      m_Curve: []
      m_PreInfinity: 2
      m_PostInfinity: 2
      m_RotationOrder: 4
    attribute: m_LocalEulerAngles.x
    path: Body/Torso/TorsoUpper
    classID: 4
    script: {fileID: 0}
  - curve:
      serializedVersion: 2
      m_Curve: []
      m_PreInfinity: 2
      m_PostInfinity: 2
      m_RotationOrder: 4
    attribute: m_LocalEulerAngles.y
    path: Body/Torso/TorsoUpper
    classID: 4
    script: {fileID: 0}
  - curve:
      serializedVersion: 2
      m_Curve: []
      m_PreInfinity: 2
      m_PostInfinity: 2
      m_RotationOrder: 4
    attribute: m_LocalEulerAngles.z
    path: Body/Torso/TorsoUpper
    classID: 4
    script: {fileID: 0}
  m_HasGenericRootTransform: 0
  m_HasMotionFloatCurves: 0
  m_GenerateMotionCurves: 0
  m_Events: []
