%YAML 1.1
%TAG !u! tag:unity3d.com,2011:
--- !u!74 &7400000
AnimationClip:
  m_ObjectHideFlags: 0
  m_PrefabParentObject: {fileID: 0}
  m_PrefabInternal: {fileID: 0}
  m_Name: FemaleEyeWink
  serializedVersion: 6
  m_Legacy: 0
  m_Compressed: 0
  m_UseHighQualityCurve: 1
  m_RotationCurves: []
  m_CompressedRotationCurves: []
  m_EulerCurves:
  - curve:
      serializedVersion: 2
      m_Curve:
      - time: 0
        value: {x: 0, y: 0, z: 0}
        inSlope: {x: 0, y: 0, z: -72.43}
        outSlope: {x: 0, y: 0, z: -72.43}
        tangentMode: 0
      - time: 0.5
        value: {x: 0, y: 0, z: -36.215}
        inSlope: {x: 0, y: 0, z: 0}
        outSlope: {x: 0, y: 0, z: 0}
        tangentMode: 0
      - time: 1.55
        value: {x: 0, y: 0, z: -36.68048}
        inSlope: {x: 0, y: 0, z: 0}
        outSlope: {x: 0, y: 0, z: 0}
        tangentMode: 0
      - time: 2.3666666
        value: {x: 0, y: 0, z: 0}
        inSlope: {x: 0, y: 0, z: 44.91488}
        outSlope: {x: 0, y: 0, z: 44.91488}
        tangentMode: 0
      m_PreInfinity: 2
      m_PostInfinity: 2
      m_RotationOrder: 4
    path: Body/Torso/RightShoulder
  - curve:
      serializedVersion: 2
      m_Curve:
      - time: 0
        value: {x: 0, y: 0, z: 0}
        inSlope: {x: 0, y: 0, z: 85.641235}
        outSlope: {x: 0, y: 0, z: 85.641235}
        tangentMode: 0
      - time: 0.5
        value: {x: 0, y: 0, z: 42.820618}
        inSlope: {x: 0, y: 0, z: 8.8396015}
        outSlope: {x: 0, y: 0, z: 8.8396015}
        tangentMode: 0
      - time: 1.35
        value: {x: 0, y: 0, z: 43.61062}
        inSlope: {x: 0, y: 0, z: -0.39163536}
        outSlope: {x: 0, y: 0, z: -0.39163536}
        tangentMode: 0
      - time: 2.15
        value: {x: 0, y: 0, z: 0}
        inSlope: {x: 0, y: 0, z: -54.513268}
        outSlope: {x: 0, y: 0, z: -54.513268}
        tangentMode: 0
      m_PreInfinity: 2
      m_PostInfinity: 2
      m_RotationOrder: 4
    path: Body/Torso/LeftShoulder
  - curve:
      serializedVersion: 2
      m_Curve:
      - time: 0
        value: {x: 0, y: 0, z: 0}
        inSlope: {x: 0, y: 0, z: -212.03644}
        outSlope: {x: 0, y: 0, z: -212.03644}
        tangentMode: 0
      - time: 0.5
        value: {x: 0, y: 0, z: -106.01822}
        inSlope: {x: 0, y: 0, z: -13.876199}
        outSlope: {x: 0, y: 0, z: -13.876199}
        tangentMode: 0
      - time: 1.2833333
        value: {x: 0, y: 0, z: -106.01822}
        inSlope: {x: 0, y: 0, z: 0}
        outSlope: {x: 0, y: 0, z: 0}
        tangentMode: 0
      - time: 2.3666666
        value: {x: 0, y: 0, z: 0}
        inSlope: {x: 0, y: 0, z: 97.862976}
        outSlope: {x: 0, y: 0, z: 97.862976}
        tangentMode: 0
      m_PreInfinity: 2
      m_PostInfinity: 2
      m_RotationOrder: 4
    path: Body/Torso/LeftShoulder/LeftArm
  - curve:
      serializedVersion: 2
      m_Curve:
      - time: 0
        value: {x: 0, y: 0, z: 0}
        inSlope: {x: 0, y: 0, z: 196.488}
        outSlope: {x: 0, y: 0, z: 196.488}
        tangentMode: 0
      - time: 0.5
        value: {x: 0, y: 0, z: 98.244}
        inSlope: {x: 0, y: 0, z: 0}
        outSlope: {x: 0, y: 0, z: 0}
        tangentMode: 0
      - time: 1.8333334
        value: {x: 0, y: 0, z: 98.244}
        inSlope: {x: 0, y: 0, z: 0}
        outSlope: {x: 0, y: 0, z: 0}
        tangentMode: 0
      - time: 2.45
        value: {x: 0, y: 0, z: 0}
        inSlope: {x: 0, y: 0, z: -159.31459}
        outSlope: {x: 0, y: 0, z: -159.31459}
        tangentMode: 0
      m_PreInfinity: 2
      m_PostInfinity: 2
      m_RotationOrder: 4
    path: Body/Torso/RightShoulder/RightArm
  - curve:
      serializedVersion: 2
      m_Curve:
      - time: 0
        value: {x: 0, y: 0, z: 0}
        inSlope: {x: 0, y: 0, z: -44.39132}
        outSlope: {x: 0, y: 0, z: -44.39132}
        tangentMode: 0
      - time: 0.5
        value: {x: 0, y: 0, z: -22.19566}
        inSlope: {x: 0, y: 0, z: 0.0073424447}
        outSlope: {x: 0, y: 0, z: 0.0073424447}
        tangentMode: 0
      - time: 1.75
        value: {x: 0, y: 0, z: -22.19566}
        inSlope: {x: 0, y: 0, z: 0}
        outSlope: {x: 0, y: 0, z: 0}
        tangentMode: 0
      - time: 2.45
        value: {x: 0, y: 0, z: 0}
        inSlope: {x: 0, y: 0, z: 31.708082}
        outSlope: {x: 0, y: 0, z: 31.708082}
        tangentMode: 0
      m_PreInfinity: 2
      m_PostInfinity: 2
      m_RotationOrder: 4
    path: Body/Torso/LeftShoulder/LeftArm/LeftHand
  - curve:
      serializedVersion: 2
      m_Curve:
      - time: 0
        value: {x: 0, y: 0, z: 1.1146853}
        inSlope: {x: 0, y: 0, z: -3.4393706}
        outSlope: {x: 0, y: 0, z: -3.4393706}
        tangentMode: 0
      - time: 0.5
        value: {x: 0, y: 0, z: -0.605}
        inSlope: {x: 0, y: 0, z: -2.2926266}
        outSlope: {x: 0, y: 0, z: -2.2926266}
        tangentMode: 0
      - time: 1.35
        value: {x: 0, y: 0, z: -1.5790001}
        inSlope: {x: 0, y: 0, z: -0.037067555}
        outSlope: {x: 0, y: 0, z: -0.037067555}
        tangentMode: 0
      - time: 2.15
        value: {x: 0, y: 0, z: 1.1146853}
        inSlope: {x: 0, y: 0, z: 3.3671067}
        outSlope: {x: 0, y: 0, z: 3.3671067}
        tangentMode: 0
      m_PreInfinity: 2
      m_PostInfinity: 2
      m_RotationOrder: 4
    path: Body/Torso
  - curve:
      serializedVersion: 2
      m_Curve:
      - time: 0
        value: {x: 0, y: 0, z: -4.9114122}
        inSlope: {x: 0, y: 0, z: 9.584825}
        outSlope: {x: 0, y: 0, z: 9.584825}
        tangentMode: 0
      - time: 0.5
        value: {x: 0, y: 0, z: -0.119}
        inSlope: {x: 0, y: 0, z: 5.5724125}
        outSlope: {x: 0, y: 0, z: 5.5724125}
        tangentMode: 0
      - time: 1.35
        value: {x: 0, y: 0, z: 1.207}
        inSlope: {x: 0, y: 0, z: -2.2290554}
        outSlope: {x: 0, y: 0, z: -2.2290554}
        tangentMode: 0
      - time: 2.3666666
        value: {x: 0, y: 0, z: -4.9114122}
        inSlope: {x: 0, y: 0, z: -6.0181108}
        outSlope: {x: 0, y: 0, z: -6.0181108}
        tangentMode: 0
      m_PreInfinity: 2
      m_PostInfinity: 2
      m_RotationOrder: 4
    path: Body/Torso/Skirt
  - curve:
      serializedVersion: 2
      m_Curve:
      - time: 0
        value: {x: 0, y: 0, z: 0}
        inSlope: {x: 0, y: 0, z: 4.0499997}
        outSlope: {x: 0, y: 0, z: 4.0499997}
        tangentMode: 0
      - time: 0.33333334
        value: {x: 0, y: 0, z: 1.35}
        inSlope: {x: 0, y: 0, z: 2.5522132}
        outSlope: {x: 0, y: 0, z: 2.5522132}
        tangentMode: 0
      - time: 1.35
        value: {x: 0, y: 0, z: 2.4220002}
        inSlope: {x: 0, y: 0, z: -0.6639346}
        outSlope: {x: 0, y: 0, z: -0.6639346}
        tangentMode: 0
      - time: 2.3666666
        value: {x: 0, y: 0, z: 0}
        inSlope: {x: 0, y: 0, z: -2.3822956}
        outSlope: {x: 0, y: 0, z: -2.3822956}
        tangentMode: 0
      m_PreInfinity: 2
      m_PostInfinity: 2
      m_RotationOrder: 4
    path: Body/Torso/Neck
  - curve:
      serializedVersion: 2
      m_Curve:
      - time: 0
        value: {x: 0, y: 0, z: 0}
        inSlope: {x: 0, y: 0, z: 8.721819}
        outSlope: {x: 0, y: 0, z: 8.721819}
        tangentMode: 0
      - time: 0.55
        value: {x: 0, y: 0, z: 4.7970004}
        inSlope: {x: 0, y: 0, z: 5.049034}
        outSlope: {x: 0, y: 0, z: 5.049034}
        tangentMode: 0
      - time: 1.35
        value: {x: 0, y: 0, z: 5.8980002}
        inSlope: {x: 0, y: 0, z: -1.9927843}
        outSlope: {x: 0, y: 0, z: -1.9927843}
        tangentMode: 0
      - time: 2.45
        value: {x: 0, y: 0, z: 0}
        inSlope: {x: 0, y: 0, z: -5.3618183}
        outSlope: {x: 0, y: 0, z: -5.3618183}
        tangentMode: 0
      m_PreInfinity: 2
      m_PostInfinity: 2
      m_RotationOrder: 4
    path: Body/Torso/Neck/Head
  - curve:
      serializedVersion: 2
      m_Curve:
      - time: 0.5
        value: {x: 0, y: 0, z: 0}
        inSlope: {x: 0, y: 0, z: -43.400005}
        outSlope: {x: 0, y: 0, z: -43.400005}
        tangentMode: 0
      - time: 0.7
        value: {x: 0, y: 0, z: -8.68}
        inSlope: {x: 0, y: 0, z: -9.863641}
        outSlope: {x: 0, y: 0, z: -9.863641}
        tangentMode: 0
      - time: 1.0666667
        value: {x: 0, y: 0, z: 0}
        inSlope: {x: 0, y: 0, z: 23.672724}
        outSlope: {x: 0, y: 0, z: 23.672724}
        tangentMode: 0
      m_PreInfinity: 2
      m_PostInfinity: 2
      m_RotationOrder: 4
    path: Body/Torso/Neck/Head/Face/Left/LeftEyebrown
  - curve:
      serializedVersion: 2
      m_Curve:
      - time: 0
        value: {x: 0, y: 0, z: 0}
        inSlope: {x: 0, y: 0, z: 19.75}
        outSlope: {x: 0, y: 0, z: 19.75}
        tangentMode: 0
      - time: 0.5
        value: {x: 0, y: 0, z: 9.875}
        inSlope: {x: 0, y: 0, z: 0}
        outSlope: {x: 0, y: 0, z: 0}
        tangentMode: 0
      - time: 1.0666667
        value: {x: 0, y: 0, z: 9.875}
        inSlope: {x: 0, y: 0, z: 0}
        outSlope: {x: 0, y: 0, z: 0}
        tangentMode: 0
      - time: 1.7833333
        value: {x: 0, y: 0, z: 0}
        inSlope: {x: 0, y: 0, z: -13.779072}
        outSlope: {x: 0, y: 0, z: -13.779072}
        tangentMode: 0
      m_PreInfinity: 2
      m_PostInfinity: 2
      m_RotationOrder: 4
    path: Body/Torso/Neck/Head/Face/Right/RightEyebrown
  - curve:
      serializedVersion: 2
      m_Curve:
      - time: 0
        value: {x: 0, y: 0, z: 0}
        inSlope: {x: 0, y: 0, z: -4.581053}
        outSlope: {x: 0, y: 0, z: -4.581053}
        tangentMode: 0
      - time: 0.95
        value: {x: 0, y: 0, z: -4.352}
        inSlope: {x: 0, y: 0, z: -0.8398596}
        outSlope: {x: 0, y: 0, z: -0.8398596}
        tangentMode: 0
      - time: 2.45
        value: {x: 0, y: 0, z: 0}
        inSlope: {x: 0, y: 0, z: 2.9013336}
        outSlope: {x: 0, y: 0, z: 2.9013336}
        tangentMode: 0
      m_PreInfinity: 2
      m_PostInfinity: 2
      m_RotationOrder: 4
    path: Body/Torso/Neck/Head/Hair
  - curve:
      serializedVersion: 2
      m_Curve:
      - time: 0
        value: {x: 0, y: 0, z: 0}
        inSlope: {x: 0, y: 0, z: -5.2313337}
        outSlope: {x: 0, y: 0, z: -5.2313337}
        tangentMode: 0
      - time: 1.5
        value: {x: 0, y: 0, z: -7.8470006}
        inSlope: {x: 0, y: 0, z: 1.5143332}
        outSlope: {x: 0, y: 0, z: 1.5143332}
        tangentMode: 0
      - time: 2.45
        value: {x: 0, y: 0, z: 0}
        inSlope: {x: 0, y: 0, z: 8.26}
        outSlope: {x: 0, y: 0, z: 8.26}
        tangentMode: 0
      m_PreInfinity: 2
      m_PostInfinity: 2
      m_RotationOrder: 4
    path: Body/Torso/Neck/Head/Jewel
  - curve:
      serializedVersion: 2
      m_Curve:
      - time: 0
        value: {x: 0, y: 0, z: 0}
        inSlope: {x: 0, y: 0, z: -0.85542864}
        outSlope: {x: 0, y: 0, z: -0.85542864}
        tangentMode: 0
      - time: 1.1666666
        value: {x: 0, y: 0, z: -0.998}
        inSlope: {x: 0, y: 0, z: -0.03888318}
        outSlope: {x: 0, y: 0, z: -0.03888318}
        tangentMode: 0
      - time: 2.45
        value: {x: 0, y: 0, z: 0}
        inSlope: {x: 0, y: 0, z: 0.7776623}
        outSlope: {x: 0, y: 0, z: 0.7776623}
        tangentMode: 0
      m_PreInfinity: 2
      m_PostInfinity: 2
      m_RotationOrder: 4
    path: Body/Torso/Wallet
  - curve:
      serializedVersion: 2
      m_Curve:
      - time: 0
        value: {x: 0, y: 0, z: 0}
        inSlope: {x: 0, y: 0, z: -6.5318646}
        outSlope: {x: 0, y: 0, z: -6.5318646}
        tangentMode: 0
      - time: 0.98333335
        value: {x: 0, y: 0, z: -6.4230003}
        inSlope: {x: 0, y: 0, z: -1.0762732}
        outSlope: {x: 0, y: 0, z: -1.0762732}
        tangentMode: 0
      - time: 2.45
        value: {x: 0, y: 0, z: 0}
        inSlope: {x: 0, y: 0, z: 4.379318}
        outSlope: {x: 0, y: 0, z: 4.379318}
        tangentMode: 0
      m_PreInfinity: 2
      m_PostInfinity: 2
      m_RotationOrder: 4
    path: Body/Torso/Wallet/Wallet
  m_PositionCurves:
  - curve:
      serializedVersion: 2
      m_Curve:
      - time: 0
        value: {x: -0.10000038, y: 0.8100004, z: 0}
        inSlope: {x: 0.03636433, y: -0.3454553, z: 0}
        outSlope: {x: 0.03636433, y: -0.3454553, z: 0}
        tangentMode: 0
      - time: 0.55
        value: {x: -0.08, y: 0.62, z: 0}
        inSlope: {x: 0.018182166, y: -0.19147766, z: 0}
        outSlope: {x: 0.018182166, y: -0.19147766, z: 0}
        tangentMode: 0
      - time: 1.35
        value: {x: -0.08, y: 0.59, z: 0}
        inSlope: {x: -0.009091083, y: 0.08125018, z: 0}
        outSlope: {x: -0.009091083, y: 0.08125018, z: 0}
        tangentMode: 0
      - time: 2.45
        value: {x: -0.10000038, y: 0.8100004, z: 0}
        inSlope: {x: -0.018182166, y: 0.2000004, z: 0}
        outSlope: {x: -0.018182166, y: 0.2000004, z: 0}
        tangentMode: 0
      m_PreInfinity: 2
      m_PostInfinity: 2
      m_RotationOrder: 4
    path: Body/Torso/Neck/Head
  - curve:
      serializedVersion: 2
      m_Curve:
      - time: 0
        value: {x: 1.3409996, y: 2.8200002, z: 0}
        inSlope: {x: -0.0819993, y: 0.09999943, z: 0}
        outSlope: {x: -0.0819993, y: 0.09999943, z: 0}
        tangentMode: 0
      - time: 0.5
        value: {x: 1.3, y: 2.87, z: 0}
        inSlope: {x: -0.046881996, y: 0.0558822, z: 0}
        outSlope: {x: -0.046881996, y: 0.0558822, z: 0}
        tangentMode: 0
      - time: 1.35
        value: {x: 1.29, y: 2.88, z: 0}
        inSlope: {x: 0.025992425, y: -0.031617474, z: 0}
        outSlope: {x: 0.025992425, y: -0.031617474, z: 0}
        tangentMode: 0
      - time: 2.15
        value: {x: 1.3409996, y: 2.8200002, z: 0}
        inSlope: {x: 0.063749544, y: -0.07499992, z: 0}
        outSlope: {x: 0.063749544, y: -0.07499992, z: 0}
        tangentMode: 0
      m_PreInfinity: 2
      m_PostInfinity: 2
      m_RotationOrder: 4
    path: Body/Torso/LeftShoulder
  - curve:
      serializedVersion: 2
      m_Curve:
      - time: 0
        value: {x: -0.6300001, y: 2.85, z: 0}
        inSlope: {x: 0.1600002, y: 0.22000027, z: 0}
        outSlope: {x: 0.1600002, y: 0.22000027, z: 0}
        tangentMode: 0
      - time: 0.5
        value: {x: -0.55, y: 2.96, z: 0}
        inSlope: {x: 0.058571503, y: 0.080535814, z: 0}
        outSlope: {x: 0.058571503, y: 0.080535814, z: 0}
        tangentMode: 0
      - time: 2.3666666
        value: {x: -0.6300001, y: 2.85, z: 0}
        inSlope: {x: -0.0428572, y: -0.058928646, z: 0}
        outSlope: {x: -0.0428572, y: -0.058928646, z: 0}
        tangentMode: 0
      m_PreInfinity: 2
      m_PostInfinity: 2
      m_RotationOrder: 4
    path: Body/Torso/RightShoulder
  - curve:
      serializedVersion: 2
      m_Curve:
      - time: 0.5
        value: {x: -0.070999146, y: 0.22100067, z: 0}
        inSlope: {x: 0.06999573, y: -0.17500335, z: 0}
        outSlope: {x: 0.06999573, y: -0.17500335, z: 0}
        tangentMode: 0
      - time: 0.7
        value: {x: -0.057, y: 0.186, z: 0}
        inSlope: {x: 0.015908126, y: -0.0397735, z: 0}
        outSlope: {x: 0.015908126, y: -0.0397735, z: 0}
        tangentMode: 0
      - time: 1.0666667
        value: {x: -0.070999146, y: 0.22100067, z: 0}
        inSlope: {x: -0.03817948, y: 0.09545635, z: 0}
        outSlope: {x: -0.03817948, y: 0.09545635, z: 0}
        tangentMode: 0
      m_PreInfinity: 2
      m_PostInfinity: 2
      m_RotationOrder: 4
    path: Body/Torso/Neck/Head/Face/Left/LeftEyebrown
  - curve:
      serializedVersion: 2
      m_Curve:
      - time: 0
        value: {x: 0.023002625, y: 0.12699986, z: 0}
        inSlope: {x: -0.012005247, y: 0.0740003, z: 0}
        outSlope: {x: -0.012005247, y: 0.0740003, z: 0}
        tangentMode: 0
      - time: 0.5
        value: {x: 0.017, y: 0.164, z: 0}
        inSlope: {x: 0, y: 0, z: 0}
        outSlope: {x: 0, y: 0, z: 0}
        tangentMode: 0
      - time: 1.0666667
        value: {x: 0.017, y: 0.164, z: 0}
        inSlope: {x: 0, y: 0, z: 0}
        outSlope: {x: 0, y: 0, z: 0}
        tangentMode: 0
      - time: 1.7833333
        value: {x: 0.023002625, y: 0.12699986, z: 0}
        inSlope: {x: 0.008375755, y: -0.05162812, z: 0}
        outSlope: {x: 0.008375755, y: -0.05162812, z: 0}
        tangentMode: 0
      m_PreInfinity: 2
      m_PostInfinity: 2
      m_RotationOrder: 4
    path: Body/Torso/Neck/Head/Face/Right/RightEyebrown
  m_ScaleCurves: []
  m_FloatCurves:
  - curve:
      serializedVersion: 2
      m_Curve:
      - time: 0
        value: 0
        inSlope: Infinity
        outSlope: Infinity
        tangentMode: 31
      - time: 0.5
        value: 1
        inSlope: Infinity
        outSlope: Infinity
        tangentMode: 31
      - time: 1.8666667
        value: 0
        inSlope: Infinity
        outSlope: Infinity
        tangentMode: 31
      m_PreInfinity: 2
      m_PostInfinity: 2
      m_RotationOrder: 4
    attribute: m_IsActive
    path: Body/Torso/BackHand
    classID: 1
    script: {fileID: 0}
  - curve:
      serializedVersion: 2
      m_Curve:
      - time: 0
        value: 1
        inSlope: Infinity
        outSlope: Infinity
        tangentMode: 31
      - time: 0.5
        value: 0
        inSlope: Infinity
        outSlope: Infinity
        tangentMode: 31
      - time: 2.0666666
        value: 1
        inSlope: Infinity
        outSlope: Infinity
        tangentMode: 31
      m_PreInfinity: 2
      m_PostInfinity: 2
      m_RotationOrder: 4
    attribute: m_IsActive
    path: Body/Torso/LeftShoulder/LeftArm/LeftHand/HandLeft
    classID: 1
    script: {fileID: 0}
  - curve:
      serializedVersion: 2
      m_Curve:
      - time: 0
        value: 0
        inSlope: Infinity
        outSlope: Infinity
        tangentMode: 31
      - time: 0.7
        value: 1
        inSlope: Infinity
        outSlope: Infinity
        tangentMode: 31
      - time: 0.98333335
        value: 0
        inSlope: Infinity
        outSlope: Infinity
        tangentMode: 31
      m_PreInfinity: 2
      m_PostInfinity: 2
      m_RotationOrder: 4
    attribute: m_IsActive
    path: Body/Torso/Neck/Head/Face/Left/EyeLeft Closed
    classID: 1
    script: {fileID: 0}
  - curve:
      serializedVersion: 2
      m_Curve:
      - time: 0
        value: 1
        inSlope: Infinity
        outSlope: Infinity
        tangentMode: 31
      - time: 0.7
        value: 0
        inSlope: Infinity
        outSlope: Infinity
        tangentMode: 31
      - time: 0.98333335
        value: 1
        inSlope: Infinity
        outSlope: Infinity
        tangentMode: 31
      m_PreInfinity: 2
      m_PostInfinity: 2
      m_RotationOrder: 4
    attribute: m_IsActive
    path: Body/Torso/Neck/Head/Face/Left/EyeLeft
    classID: 1
    script: {fileID: 0}
  - curve:
      serializedVersion: 2
      m_Curve:
      - time: 0
        value: 1
        inSlope: Infinity
        outSlope: Infinity
        tangentMode: 31
      - time: 0.3
        value: 0
        inSlope: Infinity
        outSlope: Infinity
        tangentMode: 31
      - time: 1.5166667
        value: 1
        inSlope: Infinity
        outSlope: Infinity
        tangentMode: 31
      m_PreInfinity: 2
      m_PostInfinity: 2
      m_RotationOrder: 4
    attribute: m_IsActive
    path: Body/Torso/Neck/Head/Face/Mouth
    classID: 1
    script: {fileID: 0}
  - curve:
      serializedVersion: 2
      m_Curve:
      - time: 0
        value: 0
        inSlope: Infinity
        outSlope: Infinity
        tangentMode: 31
      - time: 0.3
        value: 1
        inSlope: Infinity
        outSlope: Infinity
        tangentMode: 31
      - time: 1.5166667
        value: 0
        inSlope: Infinity
        outSlope: Infinity
        tangentMode: 31
      m_PreInfinity: 2
      m_PostInfinity: 2
      m_RotationOrder: 4
    attribute: m_IsActive
    path: Body/Torso/Neck/Head/Face/MouthSmiling
    classID: 1
    script: {fileID: 0}
  - curve:
      serializedVersion: 2
      m_Curve:
      - time: 0
        value: 0
        inSlope: Infinity
        outSlope: Infinity
        tangentMode: 31
      - time: 0.5
        value: 1
        inSlope: Infinity
        outSlope: Infinity
        tangentMode: 31
      - time: 2.0666666
        value: 0
        inSlope: Infinity
        outSlope: Infinity
        tangentMode: 31
      m_PreInfinity: 2
      m_PostInfinity: 2
      m_RotationOrder: 4
    attribute: m_IsActive
    path: Body/Torso/LeftShoulder/LeftArm/LeftHand/HandLeftWaist
    classID: 1
    script: {fileID: 0}
  - curve:
      serializedVersion: 2
      m_Curve:
      - time: 0
        value: 1
        inSlope: Infinity
        outSlope: Infinity
        tangentMode: 31
      - time: 0.8833333
        value: 0
        inSlope: Infinity
        outSlope: Infinity
        tangentMode: 31
      - time: 2.0666666
        value: 1
        inSlope: Infinity
        outSlope: Infinity
        tangentMode: 31
      m_PreInfinity: 2
      m_PostInfinity: 2
      m_RotationOrder: 4
    attribute: m_IsActive
    path: Body/Torso/RightShoulder/RightArm/RightHand/HandRight
    classID: 1
    script: {fileID: 0}
  m_PPtrCurves: []
  m_SampleRate: 60
  m_WrapMode: 0
  m_Bounds:
    m_Center: {x: 0, y: 0, z: 0}
    m_Extent: {x: 0, y: 0, z: 0}
  m_ClipBindingConstant:
    genericBindings:
    - path: 2982998908
      attribute: 1
      script: {fileID: 0}
      classID: 4
      customType: 0
      isPPtrCurve: 0
    - path: 1523632015
      attribute: 1
      script: {fileID: 0}
      classID: 4
      customType: 0
      isPPtrCurve: 0
    - path: 1400595497
      attribute: 1
      script: {fileID: 0}
      classID: 4
      customType: 0
      isPPtrCurve: 0
    - path: 2700673122
      attribute: 1
      script: {fileID: 0}
      classID: 4
      customType: 0
      isPPtrCurve: 0
    - path: 423951870
      attribute: 1
      script: {fileID: 0}
      classID: 4
      customType: 0
      isPPtrCurve: 0
    - path: 1400595497
      attribute: 4
      script: {fileID: 0}
      classID: 4
      customType: 14
      isPPtrCurve: 0
    - path: 1523632015
      attribute: 4
      script: {fileID: 0}
      classID: 4
      customType: 14
      isPPtrCurve: 0
    - path: 3500640001
      attribute: 4
      script: {fileID: 0}
      classID: 4
      customType: 14
      isPPtrCurve: 0
    - path: 2874545571
      attribute: 4
      script: {fileID: 0}
      classID: 4
      customType: 14
      isPPtrCurve: 0
    - path: 3064011926
      attribute: 4
      script: {fileID: 0}
      classID: 4
      customType: 14
      isPPtrCurve: 0
    - path: 17307992
      attribute: 4
      script: {fileID: 0}
      classID: 4
      customType: 14
      isPPtrCurve: 0
    - path: 2425401366
      attribute: 4
      script: {fileID: 0}
      classID: 4
      customType: 14
      isPPtrCurve: 0
    - path: 380507487
      attribute: 4
      script: {fileID: 0}
      classID: 4
      customType: 14
      isPPtrCurve: 0
    - path: 2982998908
      attribute: 4
      script: {fileID: 0}
      classID: 4
      customType: 14
      isPPtrCurve: 0
    - path: 2700673122
      attribute: 4
      script: {fileID: 0}
      classID: 4
      customType: 14
      isPPtrCurve: 0
    - path: 423951870
      attribute: 4
      script: {fileID: 0}
      classID: 4
      customType: 14
      isPPtrCurve: 0
    - path: 1437080233
      attribute: 4
      script: {fileID: 0}
      classID: 4
      customType: 14
      isPPtrCurve: 0
    - path: 3753951091
      attribute: 4
      script: {fileID: 0}
      classID: 4
      customType: 14
      isPPtrCurve: 0
    - path: 3534780582
      attribute: 4
      script: {fileID: 0}
      classID: 4
      customType: 14
      isPPtrCurve: 0
    - path: 823111807
      attribute: 4
      script: {fileID: 0}
      classID: 4
      customType: 14
      isPPtrCurve: 0
    - path: 1768130228
      attribute: 2086281974
      script: {fileID: 0}
      classID: 1
      customType: 0
      isPPtrCurve: 0
    - path: 1987172442
      attribute: 2086281974
      script: {fileID: 0}
      classID: 1
      customType: 0
      isPPtrCurve: 0
    - path: 2012160854
      attribute: 2086281974
      script: {fileID: 0}
      classID: 1
      customType: 0
      isPPtrCurve: 0
    - path: 232031047
      attribute: 2086281974
      script: {fileID: 0}
      classID: 1
      customType: 0
      isPPtrCurve: 0
    - path: 92606017
      attribute: 2086281974
      script: {fileID: 0}
      classID: 1
      customType: 0
      isPPtrCurve: 0
    - path: 669646663
      attribute: 2086281974
      script: {fileID: 0}
      classID: 1
      customType: 0
      isPPtrCurve: 0
    - path: 1726120212
      attribute: 2086281974
      script: {fileID: 0}
      classID: 1
      customType: 0
      isPPtrCurve: 0
    - path: 1030591501
      attribute: 2086281974
      script: {fileID: 0}
      classID: 1
      customType: 0
      isPPtrCurve: 0
    pptrCurveMapping: []
  m_AnimationClipSettings:
    serializedVersion: 2
    m_AdditiveReferencePoseClip: {fileID: 0}
    m_AdditiveReferencePoseTime: 0
    m_StartTime: 0
    m_StopTime: 2.45
    m_OrientationOffsetY: 0
    m_Level: 0
    m_CycleOffset: 0
    m_HasAdditiveReferencePose: 0
    m_LoopTime: 0
    m_LoopBlend: 0
    m_LoopBlendOrientation: 0
    m_LoopBlendPositionY: 0
    m_LoopBlendPositionXZ: 0
    m_KeepOriginalOrientation: 0
    m_KeepOriginalPositionY: 1
    m_KeepOriginalPositionXZ: 0
    m_HeightFromFeet: 0
    m_Mirror: 0
  m_EditorCurves:
  - curve:
      serializedVersion: 2
      m_Curve:
      - time: 0
        value: 0
        inSlope: 0
        outSlope: 0
        tangentMode: 10
      - time: 0.5
        value: 0
        inSlope: 0
        outSlope: 0
        tangentMode: 10
      - time: 2.3666666
        value: 0
        inSlope: 0
        outSlope: 0
        tangentMode: 10
      m_PreInfinity: 2
      m_PostInfinity: 2
      m_RotationOrder: 4
    attribute: localEulerAnglesRaw.x
    path: Body/Torso/RightShoulder
    classID: 4
    script: {fileID: 0}
  - curve:
      serializedVersion: 2
      m_Curve:
      - time: 0
        value: 0
        inSlope: 0
        outSlope: 0
        tangentMode: 10
      - time: 0.5
        value: 0
        inSlope: 0
        outSlope: 0
        tangentMode: 10
      - time: 2.3666666
        value: 0
        inSlope: 0
        outSlope: 0
        tangentMode: 10
      m_PreInfinity: 2
      m_PostInfinity: 2
      m_RotationOrder: 4
    attribute: localEulerAnglesRaw.y
    path: Body/Torso/RightShoulder
    classID: 4
    script: {fileID: 0}
  - curve:
      serializedVersion: 2
      m_Curve:
      - time: 0
        value: 0
        inSlope: -72.43
        outSlope: -72.43
        tangentMode: 10
      - time: 0.5
        value: -36.215
        inSlope: 0
        outSlope: 0
        tangentMode: 0
      - time: 1.55
        value: -36.68048
        inSlope: 0
        outSlope: 0
        tangentMode: 0
      - time: 2.3666666
        value: 0
        inSlope: 44.91488
        outSlope: 44.91488
        tangentMode: 10
      m_PreInfinity: 2
      m_PostInfinity: 2
      m_RotationOrder: 4
    attribute: localEulerAnglesRaw.z
    path: Body/Torso/RightShoulder
    classID: 4
    script: {fileID: 0}
  - curve:
      serializedVersion: 2
      m_Curve:
      - time: 0
        value: 0
        inSlope: 0
        outSlope: 0
        tangentMode: 10
      - time: 0.5
        value: 0
        inSlope: 0
        outSlope: 0
        tangentMode: 10
      - time: 1.35
        value: 0
        inSlope: 0
        outSlope: 0
        tangentMode: 10
      - time: 2.15
        value: 0
        inSlope: 0
        outSlope: 0
        tangentMode: 10
      m_PreInfinity: 2
      m_PostInfinity: 2
      m_RotationOrder: 4
    attribute: localEulerAnglesRaw.x
    path: Body/Torso/LeftShoulder
    classID: 4
    script: {fileID: 0}
  - curve:
      serializedVersion: 2
      m_Curve:
      - time: 0
        value: 0
        inSlope: 0
        outSlope: 0
        tangentMode: 10
      - time: 0.5
        value: 0
        inSlope: 0
        outSlope: 0
        tangentMode: 10
      - time: 1.35
        value: 0
        inSlope: 0
        outSlope: 0
        tangentMode: 10
      - time: 2.15
        value: 0
        inSlope: 0
        outSlope: 0
        tangentMode: 10
      m_PreInfinity: 2
      m_PostInfinity: 2
      m_RotationOrder: 4
    attribute: localEulerAnglesRaw.y
    path: Body/Torso/LeftShoulder
    classID: 4
    script: {fileID: 0}
  - curve:
      serializedVersion: 2
      m_Curve:
      - time: 0
        value: 0
        inSlope: 85.641235
        outSlope: 85.641235
        tangentMode: 10
      - time: 0.5
        value: 42.820618
        inSlope: 8.8396015
        outSlope: 8.8396015
        tangentMode: 0
      - time: 1.35
        value: 43.61062
        inSlope: -0.39163536
        outSlope: -0.39163536
        tangentMode: 0
      - time: 2.15
        value: 0
        inSlope: -54.513268
        outSlope: -54.513268
        tangentMode: 10
      m_PreInfinity: 2
      m_PostInfinity: 2
      m_RotationOrder: 4
    attribute: localEulerAnglesRaw.z
    path: Body/Torso/LeftShoulder
    classID: 4
    script: {fileID: 0}
  - curve:
      serializedVersion: 2
      m_Curve:
      - time: 0
        value: 0
        inSlope: 0
        outSlope: 0
        tangentMode: 10
      - time: 0.5
        value: 0
        inSlope: 0
        outSlope: 0
        tangentMode: 10
      - time: 2.3666666
        value: 0
        inSlope: 0
        outSlope: 0
        tangentMode: 10
      m_PreInfinity: 2
      m_PostInfinity: 2
      m_RotationOrder: 4
    attribute: localEulerAnglesRaw.x
    path: Body/Torso/LeftShoulder/LeftArm
    classID: 4
    script: {fileID: 0}
  - curve:
      serializedVersion: 2
      m_Curve:
      - time: 0
        value: 0
        inSlope: 0
        outSlope: 0
        tangentMode: 10
      - time: 0.5
        value: 0
        inSlope: 0
        outSlope: 0
        tangentMode: 10
      - time: 2.3666666
        value: 0
        inSlope: 0
        outSlope: 0
        tangentMode: 10
      m_PreInfinity: 2
      m_PostInfinity: 2
      m_RotationOrder: 4
    attribute: localEulerAnglesRaw.y
    path: Body/Torso/LeftShoulder/LeftArm
    classID: 4
    script: {fileID: 0}
  - curve:
      serializedVersion: 2
      m_Curve:
      - time: 0
        value: 0
        inSlope: -212.03644
        outSlope: -212.03644
        tangentMode: 10
      - time: 0.5
        value: -106.01822
        inSlope: -13.876199
        outSlope: -13.876199
        tangentMode: 0
      - time: 1.2833333
        value: -106.01822
        inSlope: 0
        outSlope: 0
        tangentMode: 0
      - time: 2.3666666
        value: 0
        inSlope: 97.862976
        outSlope: 97.862976
        tangentMode: 10
      m_PreInfinity: 2
      m_PostInfinity: 2
      m_RotationOrder: 4
    attribute: localEulerAnglesRaw.z
    path: Body/Torso/LeftShoulder/LeftArm
    classID: 4
    script: {fileID: 0}
  - curve:
      serializedVersion: 2
      m_Curve:
      - time: 0
        value: 0
        inSlope: 0
        outSlope: 0
        tangentMode: 10
      - time: 0.5
        value: 0
        inSlope: 0
        outSlope: 0
        tangentMode: 10
      - time: 2.45
        value: 0
        inSlope: 0
        outSlope: 0
        tangentMode: 10
      m_PreInfinity: 2
      m_PostInfinity: 2
      m_RotationOrder: 4
    attribute: localEulerAnglesRaw.x
    path: Body/Torso/RightShoulder/RightArm
    classID: 4
    script: {fileID: 0}
  - curve:
      serializedVersion: 2
      m_Curve:
      - time: 0
        value: 0
        inSlope: 0
        outSlope: 0
        tangentMode: 10
      - time: 0.5
        value: 0
        inSlope: 0
        outSlope: 0
        tangentMode: 10
      - time: 2.45
        value: 0
        inSlope: 0
        outSlope: 0
        tangentMode: 10
      m_PreInfinity: 2
      m_PostInfinity: 2
      m_RotationOrder: 4
    attribute: localEulerAnglesRaw.y
    path: Body/Torso/RightShoulder/RightArm
    classID: 4
    script: {fileID: 0}
  - curve:
      serializedVersion: 2
      m_Curve:
      - time: 0
        value: 0
        inSlope: 196.488
        outSlope: 196.488
        tangentMode: 10
      - time: 0.5
        value: 98.244
        inSlope: 0
        outSlope: 0
        tangentMode: 0
      - time: 1.8333334
        value: 98.244
        inSlope: 0
        outSlope: 0
        tangentMode: 0
      - time: 2.45
        value: 0
        inSlope: -159.31459
        outSlope: -159.31459
        tangentMode: 10
      m_PreInfinity: 2
      m_PostInfinity: 2
      m_RotationOrder: 4
    attribute: localEulerAnglesRaw.z
    path: Body/Torso/RightShoulder/RightArm
    classID: 4
    script: {fileID: 0}
  - curve:
      serializedVersion: 2
      m_Curve:
      - time: 0
        value: 0
        inSlope: Infinity
        outSlope: Infinity
        tangentMode: 31
      - time: 0.5
        value: 1
        inSlope: Infinity
        outSlope: Infinity
        tangentMode: 31
      - time: 1.8666667
        value: 0
        inSlope: Infinity
        outSlope: Infinity
        tangentMode: 31
      m_PreInfinity: 2
      m_PostInfinity: 2
      m_RotationOrder: 4
    attribute: m_IsActive
    path: Body/Torso/BackHand
    classID: 1
    script: {fileID: 0}
  - curve:
      serializedVersion: 2
      m_Curve:
      - time: 0
        value: 0
        inSlope: 0
        outSlope: 0
        tangentMode: 10
      - time: 0.5
        value: 0
        inSlope: 0
        outSlope: 0
        tangentMode: 10
      - time: 2.45
        value: 0
        inSlope: 0
        outSlope: 0
        tangentMode: 10
      m_PreInfinity: 2
      m_PostInfinity: 2
      m_RotationOrder: 4
    attribute: localEulerAnglesRaw.x
    path: Body/Torso/LeftShoulder/LeftArm/LeftHand
    classID: 4
    script: {fileID: 0}
  - curve:
      serializedVersion: 2
      m_Curve:
      - time: 0
        value: 0
        inSlope: 0
        outSlope: 0
        tangentMode: 10
      - time: 0.5
        value: 0
        inSlope: 0
        outSlope: 0
        tangentMode: 10
      - time: 2.45
        value: 0
        inSlope: 0
        outSlope: 0
        tangentMode: 10
      m_PreInfinity: 2
      m_PostInfinity: 2
      m_RotationOrder: 4
    attribute: localEulerAnglesRaw.y
    path: Body/Torso/LeftShoulder/LeftArm/LeftHand
    classID: 4
    script: {fileID: 0}
  - curve:
      serializedVersion: 2
      m_Curve:
      - time: 0
        value: 0
        inSlope: -44.39132
        outSlope: -44.39132
        tangentMode: 10
      - time: 0.5
        value: -22.19566
        inSlope: 0.0073424447
        outSlope: 0.0073424447
        tangentMode: 0
      - time: 1.75
        value: -22.19566
        inSlope: 0
        outSlope: 0
        tangentMode: 0
      - time: 2.45
        value: 0
        inSlope: 31.708082
        outSlope: 31.708082
        tangentMode: 10
      m_PreInfinity: 2
      m_PostInfinity: 2
      m_RotationOrder: 4
    attribute: localEulerAnglesRaw.z
    path: Body/Torso/LeftShoulder/LeftArm/LeftHand
    classID: 4
    script: {fileID: 0}
  - curve:
      serializedVersion: 2
      m_Curve:
      - time: 0
        value: 1
        inSlope: Infinity
        outSlope: Infinity
        tangentMode: 31
      - time: 0.5
        value: 0
        inSlope: Infinity
        outSlope: Infinity
        tangentMode: 31
      - time: 2.0666666
        value: 1
        inSlope: Infinity
        outSlope: Infinity
        tangentMode: 31
      m_PreInfinity: 2
      m_PostInfinity: 2
      m_RotationOrder: 4
    attribute: m_IsActive
    path: Body/Torso/LeftShoulder/LeftArm/LeftHand/HandLeft
    classID: 1
    script: {fileID: 0}
  - curve:
      serializedVersion: 2
      m_Curve:
      - time: 0
        value: 0
        inSlope: 0
        outSlope: 0
        tangentMode: 10
      - time: 0.5
        value: 0
        inSlope: 0
        outSlope: 0
        tangentMode: 10
      - time: 1.35
        value: 0
        inSlope: 0
        outSlope: 0
        tangentMode: 10
      m_PreInfinity: 2
      m_PostInfinity: 2
      m_RotationOrder: 4
    attribute: localEulerAnglesRaw.x
    path: Body/Torso
    classID: 4
    script: {fileID: 0}
  - curve:
      serializedVersion: 2
      m_Curve:
      - time: 0
        value: 0
        inSlope: 0
        outSlope: 0
        tangentMode: 10
      - time: 0.5
        value: 0
        inSlope: 0
        outSlope: 0
        tangentMode: 10
      - time: 1.35
        value: 0
        inSlope: 0
        outSlope: 0
        tangentMode: 10
      m_PreInfinity: 2
      m_PostInfinity: 2
      m_RotationOrder: 4
    attribute: localEulerAnglesRaw.y
    path: Body/Torso
    classID: 4
    script: {fileID: 0}
  - curve:
      serializedVersion: 2
      m_Curve:
      - time: 0
        value: 1.1146853
        inSlope: -3.4393706
        outSlope: -3.4393706
        tangentMode: 10
      - time: 0.5
        value: -0.605
        inSlope: -2.2926266
        outSlope: -2.2926266
        tangentMode: 10
      - time: 1.35
        value: -1.5790001
        inSlope: -0.037067555
        outSlope: -0.037067555
        tangentMode: 0
      - time: 2.15
        value: 1.1146853
        inSlope: 3.3671067
        outSlope: 3.3671067
        tangentMode: 10
      m_PreInfinity: 2
      m_PostInfinity: 2
      m_RotationOrder: 4
    attribute: localEulerAnglesRaw.z
    path: Body/Torso
    classID: 4
    script: {fileID: 0}
  - curve:
      serializedVersion: 2
      m_Curve:
      - time: 0
        value: 0
        inSlope: 0
        outSlope: 0
        tangentMode: 10
      - time: 0.5
        value: 0
        inSlope: 0
        outSlope: 0
        tangentMode: 10
      - time: 1.35
        value: 0
        inSlope: 0
        outSlope: 0
        tangentMode: 10
      - time: 2.3666666
        value: 0
        inSlope: 0
        outSlope: 0
        tangentMode: 10
      m_PreInfinity: 2
      m_PostInfinity: 2
      m_RotationOrder: 4
    attribute: localEulerAnglesRaw.x
    path: Body/Torso/Skirt
    classID: 4
    script: {fileID: 0}
  - curve:
      serializedVersion: 2
      m_Curve:
      - time: 0
        value: 0
        inSlope: 0
        outSlope: 0
        tangentMode: 10
      - time: 0.5
        value: 0
        inSlope: 0
        outSlope: 0
        tangentMode: 10
      - time: 1.35
        value: 0
        inSlope: 0
        outSlope: 0
        tangentMode: 10
      - time: 2.3666666
        value: 0
        inSlope: 0
        outSlope: 0
        tangentMode: 10
      m_PreInfinity: 2
      m_PostInfinity: 2
      m_RotationOrder: 4
    attribute: localEulerAnglesRaw.y
    path: Body/Torso/Skirt
    classID: 4
    script: {fileID: 0}
  - curve:
      serializedVersion: 2
      m_Curve:
      - time: 0
        value: -4.9114122
        inSlope: 9.584825
        outSlope: 9.584825
        tangentMode: 10
      - time: 0.5
        value: -0.119
        inSlope: 5.5724125
        outSlope: 5.5724125
        tangentMode: 10
      - time: 1.35
        value: 1.207
        inSlope: -2.2290554
        outSlope: -2.2290554
        tangentMode: 10
      - time: 2.3666666
        value: -4.9114122
        inSlope: -6.0181108
        outSlope: -6.0181108
        tangentMode: 10
      m_PreInfinity: 2
      m_PostInfinity: 2
      m_RotationOrder: 4
    attribute: localEulerAnglesRaw.z
    path: Body/Torso/Skirt
    classID: 4
    script: {fileID: 0}
  - curve:
      serializedVersion: 2
      m_Curve:
      - time: 0
        value: 0
        inSlope: 0
        outSlope: 0
        tangentMode: 10
      - time: 0.33333334
        value: 0
        inSlope: 0
        outSlope: 0
        tangentMode: 10
      - time: 1.35
        value: 0
        inSlope: 0
        outSlope: 0
        tangentMode: 10
      - time: 2.3666666
        value: 0
        inSlope: 0
        outSlope: 0
        tangentMode: 10
      m_PreInfinity: 2
      m_PostInfinity: 2
      m_RotationOrder: 4
    attribute: localEulerAnglesRaw.x
    path: Body/Torso/Neck
    classID: 4
    script: {fileID: 0}
  - curve:
      serializedVersion: 2
      m_Curve:
      - time: 0
        value: 0
        inSlope: 0
        outSlope: 0
        tangentMode: 10
      - time: 0.33333334
        value: 0
        inSlope: 0
        outSlope: 0
        tangentMode: 10
      - time: 1.35
        value: 0
        inSlope: 0
        outSlope: 0
        tangentMode: 10
      - time: 2.3666666
        value: 0
        inSlope: 0
        outSlope: 0
        tangentMode: 10
      m_PreInfinity: 2
      m_PostInfinity: 2
      m_RotationOrder: 4
    attribute: localEulerAnglesRaw.y
    path: Body/Torso/Neck
    classID: 4
    script: {fileID: 0}
  - curve:
      serializedVersion: 2
      m_Curve:
      - time: 0
        value: 0
        inSlope: 4.0499997
        outSlope: 4.0499997
        tangentMode: 10
      - time: 0.33333334
        value: 1.35
        inSlope: 2.5522132
        outSlope: 2.5522132
        tangentMode: 10
      - time: 1.35
        value: 2.4220002
        inSlope: -0.6639346
        outSlope: -0.6639346
        tangentMode: 10
      - time: 2.3666666
        value: 0
        inSlope: -2.3822956
        outSlope: -2.3822956
        tangentMode: 10
      m_PreInfinity: 2
      m_PostInfinity: 2
      m_RotationOrder: 4
    attribute: localEulerAnglesRaw.z
    path: Body/Torso/Neck
    classID: 4
    script: {fileID: 0}
  - curve:
      serializedVersion: 2
      m_Curve:
      - time: 0
        value: 0
        inSlope: 0
        outSlope: 0
        tangentMode: 10
      - time: 0.55
        value: 0
        inSlope: 0
        outSlope: 0
        tangentMode: 10
      - time: 1.35
        value: 0
        inSlope: 0
        outSlope: 0
        tangentMode: 10
      - time: 2.45
        value: 0
        inSlope: 0
        outSlope: 0
        tangentMode: 10
      m_PreInfinity: 2
      m_PostInfinity: 2
      m_RotationOrder: 4
    attribute: localEulerAnglesRaw.x
    path: Body/Torso/Neck/Head
    classID: 4
    script: {fileID: 0}
  - curve:
      serializedVersion: 2
      m_Curve:
      - time: 0
        value: 0
        inSlope: 0
        outSlope: 0
        tangentMode: 10
      - time: 0.55
        value: 0
        inSlope: 0
        outSlope: 0
        tangentMode: 10
      - time: 1.35
        value: 0
        inSlope: 0
        outSlope: 0
        tangentMode: 10
      - time: 2.45
        value: 0
        inSlope: 0
        outSlope: 0
        tangentMode: 10
      m_PreInfinity: 2
      m_PostInfinity: 2
      m_RotationOrder: 4
    attribute: localEulerAnglesRaw.y
    path: Body/Torso/Neck/Head
    classID: 4
    script: {fileID: 0}
  - curve:
      serializedVersion: 2
      m_Curve:
      - time: 0
        value: 0
        inSlope: 8.721819
        outSlope: 8.721819
        tangentMode: 10
      - time: 0.55
        value: 4.7970004
        inSlope: 5.049034
        outSlope: 5.049034
        tangentMode: 10
      - time: 1.35
        value: 5.8980002
        inSlope: -1.9927843
        outSlope: -1.9927843
        tangentMode: 10
      - time: 2.45
        value: 0
        inSlope: -5.3618183
        outSlope: -5.3618183
        tangentMode: 10
      m_PreInfinity: 2
      m_PostInfinity: 2
      m_RotationOrder: 4
    attribute: localEulerAnglesRaw.z
    path: Body/Torso/Neck/Head
    classID: 4
    script: {fileID: 0}
  - curve:
      serializedVersion: 2
      m_Curve:
      - time: 0
        value: -0.10000038
        inSlope: 0.03636433
        outSlope: 0.03636433
        tangentMode: 10
      - time: 0.55
        value: -0.08
        inSlope: 0.018182166
        outSlope: 0.018182166
        tangentMode: 10
      - time: 1.35
        value: -0.08
        inSlope: -0.009091083
        outSlope: -0.009091083
        tangentMode: 10
      - time: 2.45
        value: -0.10000038
        inSlope: -0.018182166
        outSlope: -0.018182166
        tangentMode: 10
      m_PreInfinity: 2
      m_PostInfinity: 2
      m_RotationOrder: 4
    attribute: m_LocalPosition.x
    path: Body/Torso/Neck/Head
    classID: 4
    script: {fileID: 0}
  - curve:
      serializedVersion: 2
      m_Curve:
      - time: 0
        value: 0.8100004
        inSlope: -0.3454553
        outSlope: -0.3454553
        tangentMode: 10
      - time: 0.55
        value: 0.62
        inSlope: -0.19147766
        outSlope: -0.19147766
        tangentMode: 10
      - time: 1.35
        value: 0.59
        inSlope: 0.08125018
        outSlope: 0.08125018
        tangentMode: 10
      - time: 2.45
        value: 0.8100004
        inSlope: 0.2000004
        outSlope: 0.2000004
        tangentMode: 10
      m_PreInfinity: 2
      m_PostInfinity: 2
      m_RotationOrder: 4
    attribute: m_LocalPosition.y
    path: Body/Torso/Neck/Head
    classID: 4
    script: {fileID: 0}
  - curve:
      serializedVersion: 2
      m_Curve:
      - time: 0
        value: 0
        inSlope: 0
        outSlope: 0
        tangentMode: 10
      - time: 0.55
        value: 0
        inSlope: 0
        outSlope: 0
        tangentMode: 10
      - time: 1.35
        value: 0
        inSlope: 0
        outSlope: 0
        tangentMode: 10
      - time: 2.45
        value: 0
        inSlope: 0
        outSlope: 0
        tangentMode: 10
      m_PreInfinity: 2
      m_PostInfinity: 2
      m_RotationOrder: 4
    attribute: m_LocalPosition.z
    path: Body/Torso/Neck/Head
    classID: 4
    script: {fileID: 0}
  - curve:
      serializedVersion: 2
      m_Curve:
      - time: 0
        value: 1.3409996
        inSlope: -0.0819993
        outSlope: -0.0819993
        tangentMode: 10
      - time: 0.5
        value: 1.3
        inSlope: -0.046881996
        outSlope: -0.046881996
        tangentMode: 10
      - time: 1.35
        value: 1.29
        inSlope: 0.025992425
        outSlope: 0.025992425
        tangentMode: 10
      - time: 2.15
        value: 1.3409996
        inSlope: 0.063749544
        outSlope: 0.063749544
        tangentMode: 10
      m_PreInfinity: 2
      m_PostInfinity: 2
      m_RotationOrder: 4
    attribute: m_LocalPosition.x
    path: Body/Torso/LeftShoulder
    classID: 4
    script: {fileID: 0}
  - curve:
      serializedVersion: 2
      m_Curve:
      - time: 0
        value: 2.8200002
        inSlope: 0.09999943
        outSlope: 0.09999943
        tangentMode: 10
      - time: 0.5
        value: 2.87
        inSlope: 0.0558822
        outSlope: 0.0558822
        tangentMode: 10
      - time: 1.35
        value: 2.88
        inSlope: -0.031617474
        outSlope: -0.031617474
        tangentMode: 10
      - time: 2.15
        value: 2.8200002
        inSlope: -0.07499992
        outSlope: -0.07499992
        tangentMode: 10
      m_PreInfinity: 2
      m_PostInfinity: 2
      m_RotationOrder: 4
    attribute: m_LocalPosition.y
    path: Body/Torso/LeftShoulder
    classID: 4
    script: {fileID: 0}
  - curve:
      serializedVersion: 2
      m_Curve:
      - time: 0
        value: 0
        inSlope: 0
        outSlope: 0
        tangentMode: 10
      - time: 0.5
        value: 0
        inSlope: 0
        outSlope: 0
        tangentMode: 10
      - time: 1.35
        value: 0
        inSlope: 0
        outSlope: 0
        tangentMode: 10
      - time: 2.15
        value: 0
        inSlope: 0
        outSlope: 0
        tangentMode: 10
      m_PreInfinity: 2
      m_PostInfinity: 2
      m_RotationOrder: 4
    attribute: m_LocalPosition.z
    path: Body/Torso/LeftShoulder
    classID: 4
    script: {fileID: 0}
  - curve:
      serializedVersion: 2
      m_Curve:
      - time: 0
        value: -0.6300001
        inSlope: 0.1600002
        outSlope: 0.1600002
        tangentMode: 10
      - time: 0.5
        value: -0.55
        inSlope: 0.058571503
        outSlope: 0.058571503
        tangentMode: 10
      - time: 2.3666666
        value: -0.6300001
        inSlope: -0.0428572
        outSlope: -0.0428572
        tangentMode: 10
      m_PreInfinity: 2
      m_PostInfinity: 2
      m_RotationOrder: 4
    attribute: m_LocalPosition.x
    path: Body/Torso/RightShoulder
    classID: 4
    script: {fileID: 0}
  - curve:
      serializedVersion: 2
      m_Curve:
      - time: 0
        value: 2.85
        inSlope: 0.22000027
        outSlope: 0.22000027
        tangentMode: 10
      - time: 0.5
        value: 2.96
        inSlope: 0.080535814
        outSlope: 0.080535814
        tangentMode: 10
      - time: 2.3666666
        value: 2.85
        inSlope: -0.058928646
        outSlope: -0.058928646
        tangentMode: 10
      m_PreInfinity: 2
      m_PostInfinity: 2
      m_RotationOrder: 4
    attribute: m_LocalPosition.y
    path: Body/Torso/RightShoulder
    classID: 4
    script: {fileID: 0}
  - curve:
      serializedVersion: 2
      m_Curve:
      - time: 0
        value: 0
        inSlope: 0
        outSlope: 0
        tangentMode: 10
      - time: 0.5
        value: 0
        inSlope: 0
        outSlope: 0
        tangentMode: 10
      - time: 2.3666666
        value: 0
        inSlope: 0
        outSlope: 0
        tangentMode: 10
      m_PreInfinity: 2
      m_PostInfinity: 2
      m_RotationOrder: 4
    attribute: m_LocalPosition.z
    path: Body/Torso/RightShoulder
    classID: 4
    script: {fileID: 0}
  - curve:
      serializedVersion: 2
      m_Curve:
      - time: 0
        value: 0
        inSlope: Infinity
        outSlope: Infinity
        tangentMode: 31
      - time: 0.7
        value: 1
        inSlope: Infinity
        outSlope: Infinity
        tangentMode: 31
      - time: 0.98333335
        value: 0
        inSlope: Infinity
        outSlope: Infinity
        tangentMode: 31
      m_PreInfinity: 2
      m_PostInfinity: 2
      m_RotationOrder: 4
    attribute: m_IsActive
    path: Body/Torso/Neck/Head/Face/Left/EyeLeft Closed
    classID: 1
    script: {fileID: 0}
  - curve:
      serializedVersion: 2
      m_Curve:
      - time: 0
        value: 1
        inSlope: Infinity
        outSlope: Infinity
        tangentMode: 31
      - time: 0.7
        value: 0
        inSlope: Infinity
        outSlope: Infinity
        tangentMode: 31
      - time: 0.98333335
        value: 1
        inSlope: Infinity
        outSlope: Infinity
        tangentMode: 31
      m_PreInfinity: 2
      m_PostInfinity: 2
      m_RotationOrder: 4
    attribute: m_IsActive
    path: Body/Torso/Neck/Head/Face/Left/EyeLeft
    classID: 1
    script: {fileID: 0}
  - curve:
      serializedVersion: 2
      m_Curve:
      - time: 0.5
        value: 0
        inSlope: 0
        outSlope: 0
        tangentMode: 10
      - time: 0.7
        value: 0
        inSlope: 0
        outSlope: 0
        tangentMode: 10
      - time: 1.0666667
        value: 0
        inSlope: 0
        outSlope: 0
        tangentMode: 10
      m_PreInfinity: 2
      m_PostInfinity: 2
      m_RotationOrder: 4
    attribute: localEulerAnglesRaw.x
    path: Body/Torso/Neck/Head/Face/Left/LeftEyebrown
    classID: 4
    script: {fileID: 0}
  - curve:
      serializedVersion: 2
      m_Curve:
      - time: 0.5
        value: 0
        inSlope: 0
        outSlope: 0
        tangentMode: 10
      - time: 0.7
        value: 0
        inSlope: 0
        outSlope: 0
        tangentMode: 10
      - time: 1.0666667
        value: 0
        inSlope: 0
        outSlope: 0
        tangentMode: 10
      m_PreInfinity: 2
      m_PostInfinity: 2
      m_RotationOrder: 4
    attribute: localEulerAnglesRaw.y
    path: Body/Torso/Neck/Head/Face/Left/LeftEyebrown
    classID: 4
    script: {fileID: 0}
  - curve:
      serializedVersion: 2
      m_Curve:
      - time: 0.5
        value: 0
        inSlope: -43.400005
        outSlope: -43.400005
        tangentMode: 10
      - time: 0.7
        value: -8.68
        inSlope: -9.863641
        outSlope: -9.863641
        tangentMode: 10
      - time: 1.0666667
        value: 0
        inSlope: 23.672724
        outSlope: 23.672724
        tangentMode: 10
      m_PreInfinity: 2
      m_PostInfinity: 2
      m_RotationOrder: 4
    attribute: localEulerAnglesRaw.z
    path: Body/Torso/Neck/Head/Face/Left/LeftEyebrown
    classID: 4
    script: {fileID: 0}
  - curve:
      serializedVersion: 2
      m_Curve:
      - time: 0.5
        value: -0.070999146
        inSlope: 0.06999573
        outSlope: 0.06999573
        tangentMode: 10
      - time: 0.7
        value: -0.057
        inSlope: 0.015908126
        outSlope: 0.015908126
        tangentMode: 10
      - time: 1.0666667
        value: -0.070999146
        inSlope: -0.03817948
        outSlope: -0.03817948
        tangentMode: 10
      m_PreInfinity: 2
      m_PostInfinity: 2
      m_RotationOrder: 4
    attribute: m_LocalPosition.x
    path: Body/Torso/Neck/Head/Face/Left/LeftEyebrown
    classID: 4
    script: {fileID: 0}
  - curve:
      serializedVersion: 2
      m_Curve:
      - time: 0.5
        value: 0.22100067
        inSlope: -0.17500335
        outSlope: -0.17500335
        tangentMode: 10
      - time: 0.7
        value: 0.186
        inSlope: -0.0397735
        outSlope: -0.0397735
        tangentMode: 10
      - time: 1.0666667
        value: 0.22100067
        inSlope: 0.09545635
        outSlope: 0.09545635
        tangentMode: 10
      m_PreInfinity: 2
      m_PostInfinity: 2
      m_RotationOrder: 4
    attribute: m_LocalPosition.y
    path: Body/Torso/Neck/Head/Face/Left/LeftEyebrown
    classID: 4
    script: {fileID: 0}
  - curve:
      serializedVersion: 2
      m_Curve:
      - time: 0.5
        value: 0
        inSlope: 0
        outSlope: 0
        tangentMode: 10
      - time: 0.7
        value: 0
        inSlope: 0
        outSlope: 0
        tangentMode: 10
      - time: 1.0666667
        value: 0
        inSlope: 0
        outSlope: 0
        tangentMode: 10
      m_PreInfinity: 2
      m_PostInfinity: 2
      m_RotationOrder: 4
    attribute: m_LocalPosition.z
    path: Body/Torso/Neck/Head/Face/Left/LeftEyebrown
    classID: 4
    script: {fileID: 0}
  - curve:
      serializedVersion: 2
      m_Curve:
      - time: 0
        value: 0
        inSlope: 0
        outSlope: 0
        tangentMode: 10
      - time: 0.5
        value: 0
        inSlope: 0
        outSlope: 0
        tangentMode: 0
      - time: 1.0666667
        value: 0
        inSlope: 0
        outSlope: 0
        tangentMode: 0
      - time: 1.7833333
        value: 0
        inSlope: 0
        outSlope: 0
        tangentMode: 10
      m_PreInfinity: 2
      m_PostInfinity: 2
      m_RotationOrder: 4
    attribute: localEulerAnglesRaw.x
    path: Body/Torso/Neck/Head/Face/Right/RightEyebrown
    classID: 4
    script: {fileID: 0}
  - curve:
      serializedVersion: 2
      m_Curve:
      - time: 0
        value: 0
        inSlope: 0
        outSlope: 0
        tangentMode: 10
      - time: 0.5
        value: 0
        inSlope: 0
        outSlope: 0
        tangentMode: 0
      - time: 1.0666667
        value: 0
        inSlope: 0
        outSlope: 0
        tangentMode: 0
      - time: 1.7833333
        value: 0
        inSlope: 0
        outSlope: 0
        tangentMode: 10
      m_PreInfinity: 2
      m_PostInfinity: 2
      m_RotationOrder: 4
    attribute: localEulerAnglesRaw.y
    path: Body/Torso/Neck/Head/Face/Right/RightEyebrown
    classID: 4
    script: {fileID: 0}
  - curve:
      serializedVersion: 2
      m_Curve:
      - time: 0
        value: 0
        inSlope: 19.75
        outSlope: 19.75
        tangentMode: 10
      - time: 0.5
        value: 9.875
        inSlope: 0
        outSlope: 0
        tangentMode: 0
      - time: 1.0666667
        value: 9.875
        inSlope: 0
        outSlope: 0
        tangentMode: 0
      - time: 1.7833333
        value: 0
        inSlope: -13.779072
        outSlope: -13.779072
        tangentMode: 10
      m_PreInfinity: 2
      m_PostInfinity: 2
      m_RotationOrder: 4
    attribute: localEulerAnglesRaw.z
    path: Body/Torso/Neck/Head/Face/Right/RightEyebrown
    classID: 4
    script: {fileID: 0}
  - curve:
      serializedVersion: 2
      m_Curve:
      - time: 0
        value: 0.023002625
        inSlope: -0.012005247
        outSlope: -0.012005247
        tangentMode: 10
      - time: 0.5
        value: 0.017
        inSlope: 0
        outSlope: 0
        tangentMode: 0
      - time: 1.0666667
        value: 0.017
        inSlope: 0
        outSlope: 0
        tangentMode: 0
      - time: 1.7833333
        value: 0.023002625
        inSlope: 0.008375755
        outSlope: 0.008375755
        tangentMode: 10
      m_PreInfinity: 2
      m_PostInfinity: 2
      m_RotationOrder: 4
    attribute: m_LocalPosition.x
    path: Body/Torso/Neck/Head/Face/Right/RightEyebrown
    classID: 4
    script: {fileID: 0}
  - curve:
      serializedVersion: 2
      m_Curve:
      - time: 0
        value: 0.12699986
        inSlope: 0.0740003
        outSlope: 0.0740003
        tangentMode: 10
      - time: 0.5
        value: 0.164
        inSlope: 0
        outSlope: 0
        tangentMode: 0
      - time: 1.0666667
        value: 0.164
        inSlope: 0
        outSlope: 0
        tangentMode: 0
      - time: 1.7833333
        value: 0.12699986
        inSlope: -0.05162812
        outSlope: -0.05162812
        tangentMode: 10
      m_PreInfinity: 2
      m_PostInfinity: 2
      m_RotationOrder: 4
    attribute: m_LocalPosition.y
    path: Body/Torso/Neck/Head/Face/Right/RightEyebrown
    classID: 4
    script: {fileID: 0}
  - curve:
      serializedVersion: 2
      m_Curve:
      - time: 0
        value: 0
        inSlope: 0
        outSlope: 0
        tangentMode: 10
      - time: 0.5
        value: 0
        inSlope: 0
        outSlope: 0
        tangentMode: 0
      - time: 1.0666667
        value: 0
        inSlope: 0
        outSlope: 0
        tangentMode: 0
      - time: 1.7833333
        value: 0
        inSlope: 0
        outSlope: 0
        tangentMode: 10
      m_PreInfinity: 2
      m_PostInfinity: 2
      m_RotationOrder: 4
    attribute: m_LocalPosition.z
    path: Body/Torso/Neck/Head/Face/Right/RightEyebrown
    classID: 4
    script: {fileID: 0}
  - curve:
      serializedVersion: 2
      m_Curve:
      - time: 0
        value: 0
        inSlope: 0
        outSlope: 0
        tangentMode: 10
      - time: 0.95
        value: 0
        inSlope: 0
        outSlope: 0
        tangentMode: 10
      - time: 2.45
        value: 0
        inSlope: 0
        outSlope: 0
        tangentMode: 10
      m_PreInfinity: 2
      m_PostInfinity: 2
      m_RotationOrder: 4
    attribute: localEulerAnglesRaw.x
    path: Body/Torso/Neck/Head/Hair
    classID: 4
    script: {fileID: 0}
  - curve:
      serializedVersion: 2
      m_Curve:
      - time: 0
        value: 0
        inSlope: 0
        outSlope: 0
        tangentMode: 10
      - time: 0.95
        value: 0
        inSlope: 0
        outSlope: 0
        tangentMode: 10
      - time: 2.45
        value: 0
        inSlope: 0
        outSlope: 0
        tangentMode: 10
      m_PreInfinity: 2
      m_PostInfinity: 2
      m_RotationOrder: 4
    attribute: localEulerAnglesRaw.y
    path: Body/Torso/Neck/Head/Hair
    classID: 4
    script: {fileID: 0}
  - curve:
      serializedVersion: 2
      m_Curve:
      - time: 0
        value: 0
        inSlope: -4.581053
        outSlope: -4.581053
        tangentMode: 10
      - time: 0.95
        value: -4.352
        inSlope: -0.8398596
        outSlope: -0.8398596
        tangentMode: 10
      - time: 2.45
        value: 0
        inSlope: 2.9013336
        outSlope: 2.9013336
        tangentMode: 10
      m_PreInfinity: 2
      m_PostInfinity: 2
      m_RotationOrder: 4
    attribute: localEulerAnglesRaw.z
    path: Body/Torso/Neck/Head/Hair
    classID: 4
    script: {fileID: 0}
  - curve:
      serializedVersion: 2
      m_Curve:
      - time: 0
        value: 0
        inSlope: 0
        outSlope: 0
        tangentMode: 10
      - time: 1.5
        value: 0
        inSlope: 0
        outSlope: 0
        tangentMode: 10
      - time: 2.45
        value: 0
        inSlope: 0
        outSlope: 0
        tangentMode: 10
      m_PreInfinity: 2
      m_PostInfinity: 2
      m_RotationOrder: 4
    attribute: localEulerAnglesRaw.x
    path: Body/Torso/Neck/Head/Jewel
    classID: 4
    script: {fileID: 0}
  - curve:
      serializedVersion: 2
      m_Curve:
      - time: 0
        value: 0
        inSlope: 0
        outSlope: 0
        tangentMode: 10
      - time: 1.5
        value: 0
        inSlope: 0
        outSlope: 0
        tangentMode: 10
      - time: 2.45
        value: 0
        inSlope: 0
        outSlope: 0
        tangentMode: 10
      m_PreInfinity: 2
      m_PostInfinity: 2
      m_RotationOrder: 4
    attribute: localEulerAnglesRaw.y
    path: Body/Torso/Neck/Head/Jewel
    classID: 4
    script: {fileID: 0}
  - curve:
      serializedVersion: 2
      m_Curve:
      - time: 0
        value: 0
        inSlope: -5.2313337
        outSlope: -5.2313337
        tangentMode: 10
      - time: 1.5
        value: -7.8470006
        inSlope: 1.5143332
        outSlope: 1.5143332
        tangentMode: 10
      - time: 2.45
        value: 0
        inSlope: 8.26
        outSlope: 8.26
        tangentMode: 10
      m_PreInfinity: 2
      m_PostInfinity: 2
      m_RotationOrder: 4
    attribute: localEulerAnglesRaw.z
    path: Body/Torso/Neck/Head/Jewel
    classID: 4
    script: {fileID: 0}
  - curve:
      serializedVersion: 2
      m_Curve:
      - time: 0
        value: 0
        inSlope: 0
        outSlope: 0
        tangentMode: 10
      - time: 1.1666666
        value: 0
        inSlope: 0
        outSlope: 0
        tangentMode: 10
      - time: 2.45
        value: 0
        inSlope: 0
        outSlope: 0
        tangentMode: 10
      m_PreInfinity: 2
      m_PostInfinity: 2
      m_RotationOrder: 4
    attribute: localEulerAnglesRaw.x
    path: Body/Torso/Wallet
    classID: 4
    script: {fileID: 0}
  - curve:
      serializedVersion: 2
      m_Curve:
      - time: 0
        value: 0
        inSlope: 0
        outSlope: 0
        tangentMode: 10
      - time: 1.1666666
        value: 0
        inSlope: 0
        outSlope: 0
        tangentMode: 10
      - time: 2.45
        value: 0
        inSlope: 0
        outSlope: 0
        tangentMode: 10
      m_PreInfinity: 2
      m_PostInfinity: 2
      m_RotationOrder: 4
    attribute: localEulerAnglesRaw.y
    path: Body/Torso/Wallet
    classID: 4
    script: {fileID: 0}
  - curve:
      serializedVersion: 2
      m_Curve:
      - time: 0
        value: 0
        inSlope: -0.85542864
        outSlope: -0.85542864
        tangentMode: 10
      - time: 1.1666666
        value: -0.998
        inSlope: -0.03888318
        outSlope: -0.03888318
        tangentMode: 10
      - time: 2.45
        value: 0
        inSlope: 0.7776623
        outSlope: 0.7776623
        tangentMode: 10
      m_PreInfinity: 2
      m_PostInfinity: 2
      m_RotationOrder: 4
    attribute: localEulerAnglesRaw.z
    path: Body/Torso/Wallet
    classID: 4
    script: {fileID: 0}
  - curve:
      serializedVersion: 2
      m_Curve:
      - time: 0
        value: 0
        inSlope: 0
        outSlope: 0
        tangentMode: 10
      - time: 0.98333335
        value: 0
        inSlope: 0
        outSlope: 0
        tangentMode: 10
      - time: 2.45
        value: 0
        inSlope: 0
        outSlope: 0
        tangentMode: 10
      m_PreInfinity: 2
      m_PostInfinity: 2
      m_RotationOrder: 4
    attribute: localEulerAnglesRaw.x
    path: Body/Torso/Wallet/Wallet
    classID: 4
    script: {fileID: 0}
  - curve:
      serializedVersion: 2
      m_Curve:
      - time: 0
        value: 0
        inSlope: 0
        outSlope: 0
        tangentMode: 10
      - time: 0.98333335
        value: 0
        inSlope: 0
        outSlope: 0
        tangentMode: 10
      - time: 2.45
        value: 0
        inSlope: 0
        outSlope: 0
        tangentMode: 10
      m_PreInfinity: 2
      m_PostInfinity: 2
      m_RotationOrder: 4
    attribute: localEulerAnglesRaw.y
    path: Body/Torso/Wallet/Wallet
    classID: 4
    script: {fileID: 0}
  - curve:
      serializedVersion: 2
      m_Curve:
      - time: 0
        value: 0
        inSlope: -6.5318646
        outSlope: -6.5318646
        tangentMode: 10
      - time: 0.98333335
        value: -6.4230003
        inSlope: -1.0762732
        outSlope: -1.0762732
        tangentMode: 10
      - time: 2.45
        value: 0
        inSlope: 4.379318
        outSlope: 4.379318
        tangentMode: 10
      m_PreInfinity: 2
      m_PostInfinity: 2
      m_RotationOrder: 4
    attribute: localEulerAnglesRaw.z
    path: Body/Torso/Wallet/Wallet
    classID: 4
    script: {fileID: 0}
  - curve:
      serializedVersion: 2
      m_Curve:
      - time: 0
        value: 1
        inSlope: Infinity
        outSlope: Infinity
        tangentMode: 31
      - time: 0.3
        value: 0
        inSlope: Infinity
        outSlope: Infinity
        tangentMode: 31
      - time: 1.5166667
        value: 1
        inSlope: Infinity
        outSlope: Infinity
        tangentMode: 31
      m_PreInfinity: 2
      m_PostInfinity: 2
      m_RotationOrder: 4
    attribute: m_IsActive
    path: Body/Torso/Neck/Head/Face/Mouth
    classID: 1
    script: {fileID: 0}
  - curve:
      serializedVersion: 2
      m_Curve:
      - time: 0
        value: 0
        inSlope: Infinity
        outSlope: Infinity
        tangentMode: 31
      - time: 0.3
        value: 1
        inSlope: Infinity
        outSlope: Infinity
        tangentMode: 31
      - time: 1.5166667
        value: 0
        inSlope: Infinity
        outSlope: Infinity
        tangentMode: 31
      m_PreInfinity: 2
      m_PostInfinity: 2
      m_RotationOrder: 4
    attribute: m_IsActive
    path: Body/Torso/Neck/Head/Face/MouthSmiling
    classID: 1
    script: {fileID: 0}
  - curve:
      serializedVersion: 2
      m_Curve:
      - time: 0
        value: 0
        inSlope: Infinity
        outSlope: Infinity
        tangentMode: 31
      - time: 0.5
        value: 1
        inSlope: Infinity
        outSlope: Infinity
        tangentMode: 31
      - time: 2.0666666
        value: 0
        inSlope: Infinity
        outSlope: Infinity
        tangentMode: 31
      m_PreInfinity: 2
      m_PostInfinity: 2
      m_RotationOrder: 4
    attribute: m_IsActive
    path: Body/Torso/LeftShoulder/LeftArm/LeftHand/HandLeftWaist
    classID: 1
    script: {fileID: 0}
  - curve:
      serializedVersion: 2
      m_Curve:
      - time: 0
        value: 1
        inSlope: Infinity
        outSlope: Infinity
        tangentMode: 31
      - time: 0.8833333
        value: 0
        inSlope: Infinity
        outSlope: Infinity
        tangentMode: 31
      - time: 2.0666666
        value: 1
        inSlope: Infinity
        outSlope: Infinity
        tangentMode: 31
      m_PreInfinity: 2
      m_PostInfinity: 2
      m_RotationOrder: 4
    attribute: m_IsActive
    path: Body/Torso/RightShoulder/RightArm/RightHand/HandRight
    classID: 1
    script: {fileID: 0}
  m_EulerEditorCurves:
  - curve:
      serializedVersion: 2
      m_Curve: []
      m_PreInfinity: 2
      m_PostInfinity: 2
      m_RotationOrder: 4
    attribute: m_LocalEulerAngles.z
    path: Body/Torso/RightShoulder
    classID: 4
    script: {fileID: 0}
  - curve:
      serializedVersion: 2
      m_Curve: []
      m_PreInfinity: 2
      m_PostInfinity: 2
      m_RotationOrder: 4
    attribute: m_LocalEulerAngles.y
    path: Body/Torso/RightShoulder
    classID: 4
    script: {fileID: 0}
  - curve:
      serializedVersion: 2
      m_Curve: []
      m_PreInfinity: 2
      m_PostInfinity: 2
      m_RotationOrder: 4
    attribute: m_LocalEulerAngles.x
    path: Body/Torso/RightShoulder
    classID: 4
    script: {fileID: 0}
  - curve:
      serializedVersion: 2
      m_Curve: []
      m_PreInfinity: 2
      m_PostInfinity: 2
      m_RotationOrder: 4
    attribute: m_LocalEulerAngles.z
    path: Body/Torso/LeftShoulder
    classID: 4
    script: {fileID: 0}
  - curve:
      serializedVersion: 2
      m_Curve: []
      m_PreInfinity: 2
      m_PostInfinity: 2
      m_RotationOrder: 4
    attribute: m_LocalEulerAngles.y
    path: Body/Torso/LeftShoulder
    classID: 4
    script: {fileID: 0}
  - curve:
      serializedVersion: 2
      m_Curve: []
      m_PreInfinity: 2
      m_PostInfinity: 2
      m_RotationOrder: 4
    attribute: m_LocalEulerAngles.x
    path: Body/Torso/LeftShoulder
    classID: 4
    script: {fileID: 0}
  - curve:
      serializedVersion: 2
      m_Curve: []
      m_PreInfinity: 2
      m_PostInfinity: 2
      m_RotationOrder: 4
    attribute: m_LocalEulerAngles.z
    path: Body/Torso/Neck
    classID: 4
    script: {fileID: 0}
  - curve:
      serializedVersion: 2
      m_Curve: []
      m_PreInfinity: 2
      m_PostInfinity: 2
      m_RotationOrder: 4
    attribute: m_LocalEulerAngles.y
    path: Body/Torso/Neck
    classID: 4
    script: {fileID: 0}
  - curve:
      serializedVersion: 2
      m_Curve: []
      m_PreInfinity: 2
      m_PostInfinity: 2
      m_RotationOrder: 4
    attribute: m_LocalEulerAngles.x
    path: Body/Torso/Neck
    classID: 4
    script: {fileID: 0}
  - curve:
      serializedVersion: 2
      m_Curve: []
      m_PreInfinity: 2
      m_PostInfinity: 2
      m_RotationOrder: 4
    attribute: m_LocalEulerAngles.z
    path: Body/Torso/Skirt
    classID: 4
    script: {fileID: 0}
  - curve:
      serializedVersion: 2
      m_Curve: []
      m_PreInfinity: 2
      m_PostInfinity: 2
      m_RotationOrder: 4
    attribute: m_LocalEulerAngles.y
    path: Body/Torso/Skirt
    classID: 4
    script: {fileID: 0}
  - curve:
      serializedVersion: 2
      m_Curve: []
      m_PreInfinity: 2
      m_PostInfinity: 2
      m_RotationOrder: 4
    attribute: m_LocalEulerAngles.x
    path: Body/Torso/Skirt
    classID: 4
    script: {fileID: 0}
  - curve:
      serializedVersion: 2
      m_Curve: []
      m_PreInfinity: 2
      m_PostInfinity: 2
      m_RotationOrder: 4
    attribute: m_LocalEulerAngles.z
    path: Body/Torso/Neck/Head
    classID: 4
    script: {fileID: 0}
  - curve:
      serializedVersion: 2
      m_Curve: []
      m_PreInfinity: 2
      m_PostInfinity: 2
      m_RotationOrder: 4
    attribute: m_LocalEulerAngles.y
    path: Body/Torso/Neck/Head
    classID: 4
    script: {fileID: 0}
  - curve:
      serializedVersion: 2
      m_Curve: []
      m_PreInfinity: 2
      m_PostInfinity: 2
      m_RotationOrder: 4
    attribute: m_LocalEulerAngles.x
    path: Body/Torso/Neck/Head
    classID: 4
    script: {fileID: 0}
  - curve:
      serializedVersion: 2
      m_Curve: []
      m_PreInfinity: 2
      m_PostInfinity: 2
      m_RotationOrder: 4
    attribute: m_LocalEulerAngles.z
    path: Body/Torso/Neck/Head/Face/Right/RightEyebrown
    classID: 4
    script: {fileID: 0}
  - curve:
      serializedVersion: 2
      m_Curve: []
      m_PreInfinity: 2
      m_PostInfinity: 2
      m_RotationOrder: 4
    attribute: m_LocalEulerAngles.y
    path: Body/Torso/Neck/Head/Face/Right/RightEyebrown
    classID: 4
    script: {fileID: 0}
  - curve:
      serializedVersion: 2
      m_Curve: []
      m_PreInfinity: 2
      m_PostInfinity: 2
      m_RotationOrder: 4
    attribute: m_LocalEulerAngles.x
    path: Body/Torso/Neck/Head/Face/Right/RightEyebrown
    classID: 4
    script: {fileID: 0}
  - curve:
      serializedVersion: 2
      m_Curve: []
      m_PreInfinity: 2
      m_PostInfinity: 2
      m_RotationOrder: 4
    attribute: m_LocalEulerAngles.z
    path: Body/Torso/Wallet/Wallet
    classID: 4
    script: {fileID: 0}
  - curve:
      serializedVersion: 2
      m_Curve: []
      m_PreInfinity: 2
      m_PostInfinity: 2
      m_RotationOrder: 4
    attribute: m_LocalEulerAngles.y
    path: Body/Torso/Wallet/Wallet
    classID: 4
    script: {fileID: 0}
  - curve:
      serializedVersion: 2
      m_Curve: []
      m_PreInfinity: 2
      m_PostInfinity: 2
      m_RotationOrder: 4
    attribute: m_LocalEulerAngles.x
    path: Body/Torso/Wallet/Wallet
    classID: 4
    script: {fileID: 0}
  - curve:
      serializedVersion: 2
      m_Curve: []
      m_PreInfinity: 2
      m_PostInfinity: 2
      m_RotationOrder: 4
    attribute: m_LocalEulerAngles.z
    path: Body/Torso
    classID: 4
    script: {fileID: 0}
  - curve:
      serializedVersion: 2
      m_Curve: []
      m_PreInfinity: 2
      m_PostInfinity: 2
      m_RotationOrder: 4
    attribute: m_LocalEulerAngles.y
    path: Body/Torso
    classID: 4
    script: {fileID: 0}
  - curve:
      serializedVersion: 2
      m_Curve: []
      m_PreInfinity: 2
      m_PostInfinity: 2
      m_RotationOrder: 4
    attribute: m_LocalEulerAngles.x
    path: Body/Torso
    classID: 4
    script: {fileID: 0}
  - curve:
      serializedVersion: 2
      m_Curve: []
      m_PreInfinity: 2
      m_PostInfinity: 2
      m_RotationOrder: 4
    attribute: m_LocalEulerAngles.z
    path: Body/Torso/LeftShoulder/LeftArm/LeftHand
    classID: 4
    script: {fileID: 0}
  - curve:
      serializedVersion: 2
      m_Curve: []
      m_PreInfinity: 2
      m_PostInfinity: 2
      m_RotationOrder: 4
    attribute: m_LocalEulerAngles.y
    path: Body/Torso/LeftShoulder/LeftArm/LeftHand
    classID: 4
    script: {fileID: 0}
  - curve:
      serializedVersion: 2
      m_Curve: []
      m_PreInfinity: 2
      m_PostInfinity: 2
      m_RotationOrder: 4
    attribute: m_LocalEulerAngles.x
    path: Body/Torso/LeftShoulder/LeftArm/LeftHand
    classID: 4
    script: {fileID: 0}
  - curve:
      serializedVersion: 2
      m_Curve: []
      m_PreInfinity: 2
      m_PostInfinity: 2
      m_RotationOrder: 4
    attribute: m_LocalEulerAngles.x
    path: Body/Torso/Neck/Head/Face/Left/LeftEyebrown
    classID: 4
    script: {fileID: 0}
  - curve:
      serializedVersion: 2
      m_Curve: []
      m_PreInfinity: 2
      m_PostInfinity: 2
      m_RotationOrder: 4
    attribute: m_LocalEulerAngles.y
    path: Body/Torso/Neck/Head/Face/Left/LeftEyebrown
    classID: 4
    script: {fileID: 0}
  - curve:
      serializedVersion: 2
      m_Curve: []
      m_PreInfinity: 2
      m_PostInfinity: 2
      m_RotationOrder: 4
    attribute: m_LocalEulerAngles.z
    path: Body/Torso/Neck/Head/Face/Left/LeftEyebrown
    classID: 4
    script: {fileID: 0}
  - curve:
      serializedVersion: 2
      m_Curve: []
      m_PreInfinity: 2
      m_PostInfinity: 2
      m_RotationOrder: 4
    attribute: m_LocalEulerAngles.x
    path: Body/Torso/RightShoulder/RightArm
    classID: 4
    script: {fileID: 0}
  - curve:
      serializedVersion: 2
      m_Curve: []
      m_PreInfinity: 2
      m_PostInfinity: 2
      m_RotationOrder: 4
    attribute: m_LocalEulerAngles.y
    path: Body/Torso/RightShoulder/RightArm
    classID: 4
    script: {fileID: 0}
  - curve:
      serializedVersion: 2
      m_Curve: []
      m_PreInfinity: 2
      m_PostInfinity: 2
      m_RotationOrder: 4
    attribute: m_LocalEulerAngles.z
    path: Body/Torso/RightShoulder/RightArm
    classID: 4
    script: {fileID: 0}
  - curve:
      serializedVersion: 2
      m_Curve: []
      m_PreInfinity: 2
      m_PostInfinity: 2
      m_RotationOrder: 4
    attribute: m_LocalEulerAngles.x
    path: Body/Torso/Neck/Head/Hair
    classID: 4
    script: {fileID: 0}
  - curve:
      serializedVersion: 2
      m_Curve: []
      m_PreInfinity: 2
      m_PostInfinity: 2
      m_RotationOrder: 4
    attribute: m_LocalEulerAngles.y
    path: Body/Torso/Neck/Head/Hair
    classID: 4
    script: {fileID: 0}
  - curve:
      serializedVersion: 2
      m_Curve: []
      m_PreInfinity: 2
      m_PostInfinity: 2
      m_RotationOrder: 4
    attribute: m_LocalEulerAngles.z
    path: Body/Torso/Neck/Head/Hair
    classID: 4
    script: {fileID: 0}
  - curve:
      serializedVersion: 2
      m_Curve: []
      m_PreInfinity: 2
      m_PostInfinity: 2
      m_RotationOrder: 4
    attribute: m_LocalEulerAngles.x
    path: Body/Torso/Neck/Head/Jewel
    classID: 4
    script: {fileID: 0}
  - curve:
      serializedVersion: 2
      m_Curve: []
      m_PreInfinity: 2
      m_PostInfinity: 2
      m_RotationOrder: 4
    attribute: m_LocalEulerAngles.y
    path: Body/Torso/Neck/Head/Jewel
    classID: 4
    script: {fileID: 0}
  - curve:
      serializedVersion: 2
      m_Curve: []
      m_PreInfinity: 2
      m_PostInfinity: 2
      m_RotationOrder: 4
    attribute: m_LocalEulerAngles.z
    path: Body/Torso/Neck/Head/Jewel
    classID: 4
    script: {fileID: 0}
  - curve:
      serializedVersion: 2
      m_Curve: []
      m_PreInfinity: 2
      m_PostInfinity: 2
      m_RotationOrder: 4
    attribute: m_LocalEulerAngles.x
    path: Body/Torso/Wallet
    classID: 4
    script: {fileID: 0}
  - curve:
      serializedVersion: 2
      m_Curve: []
      m_PreInfinity: 2
      m_PostInfinity: 2
      m_RotationOrder: 4
    attribute: m_LocalEulerAngles.y
    path: Body/Torso/Wallet
    classID: 4
    script: {fileID: 0}
  - curve:
      serializedVersion: 2
      m_Curve: []
      m_PreInfinity: 2
      m_PostInfinity: 2
      m_RotationOrder: 4
    attribute: m_LocalEulerAngles.z
    path: Body/Torso/Wallet
    classID: 4
    script: {fileID: 0}
  - curve:
      serializedVersion: 2
      m_Curve: []
      m_PreInfinity: 2
      m_PostInfinity: 2
      m_RotationOrder: 4
    attribute: m_LocalEulerAngles.x
    path: Body/Torso/LeftShoulder/LeftArm
    classID: 4
    script: {fileID: 0}
  - curve:
      serializedVersion: 2
      m_Curve: []
      m_PreInfinity: 2
      m_PostInfinity: 2
      m_RotationOrder: 4
    attribute: m_LocalEulerAngles.y
    path: Body/Torso/LeftShoulder/LeftArm
    classID: 4
    script: {fileID: 0}
  - curve:
      serializedVersion: 2
      m_Curve: []
      m_PreInfinity: 2
      m_PostInfinity: 2
      m_RotationOrder: 4
    attribute: m_LocalEulerAngles.z
    path: Body/Torso/LeftShoulder/LeftArm
    classID: 4
    script: {fileID: 0}
  m_HasGenericRootTransform: 0
  m_HasMotionFloatCurves: 0
  m_GenerateMotionCurves: 0
  m_Events: []
